(module FUSE_G5A (layer F.Cu) (tedit 5EB94505)
  (fp_text reference REF** (at 0 2.54) (layer F.SilkS)
    (effects (font (size 1 1) (thickness 0.15)))
  )
  (fp_text value FUSE_G5A (at 0 -2.54) (layer F.Fab)
    (effects (font (size 1 1) (thickness 0.15)))
  )
  (fp_line (start 2.159 -1.143) (end 2.159 -5.715) (layer F.SilkS) (width 0.12))
  (fp_line (start 2.286 -5.715) (end 2.667 -5.715) (layer F.SilkS) (width 0.12))
  (fp_line (start 2.794 -5.715) (end 2.794 -1.143) (layer F.SilkS) (width 0.12))
  (fp_line (start 2.794 -1.143) (end 2.159 -1.143) (layer F.SilkS) (width 0.12))
  (fp_line (start 2.286 -5.715) (end 0.254 -5.715) (layer F.SilkS) (width 0.12))
  (fp_line (start 2.667 -5.715) (end 4.699 -5.715) (layer F.SilkS) (width 0.12))
  (fp_line (start 4.699 -5.715) (end 4.699 -16.256) (layer F.SilkS) (width 0.12))
  (fp_line (start 0.254 -5.715) (end 0.254 -16.256) (layer F.SilkS) (width 0.12))
  (fp_line (start 0.254 -16.256) (end 4.699 -16.256) (layer F.SilkS) (width 0.12))
  (fp_line (start 0.254 -16.256) (end 1.524 -18.288) (layer F.SilkS) (width 0.12))
  (fp_line (start 1.524 -18.288) (end 3.429 -18.288) (layer F.SilkS) (width 0.12))
  (fp_line (start 3.429 -18.288) (end 4.699 -16.256) (layer F.SilkS) (width 0.12))
  (fp_line (start 2.159 -18.288) (end 2.159 -21.336) (layer F.SilkS) (width 0.12))
  (fp_line (start 2.794 -18.288) (end 2.794 -21.336) (layer F.SilkS) (width 0.12))
  (fp_line (start 1.397 -22.733) (end -1.524 -22.733) (layer F.SilkS) (width 0.12))
  (fp_line (start -2.921 -1.143) (end -2.159 -1.143) (layer F.SilkS) (width 0.12))
  (fp_line (start -2.159 -1.143) (end -2.159 -21.336) (layer F.SilkS) (width 0.12))
  (fp_line (start -2.921 -1.143) (end -2.921 -21.336) (layer F.SilkS) (width 0.12))
  (fp_arc (start -1.524 -21.336) (end -1.524 -22.733) (angle -90) (layer F.SilkS) (width 0.12))
  (fp_arc (start 1.397 -21.336) (end 2.794 -21.336) (angle -90) (layer F.SilkS) (width 0.12))
  (fp_arc (start 1.397 -21.336) (end 2.159 -21.336) (angle -90) (layer F.SilkS) (width 0.12))
  (fp_arc (start -1.397 -21.336) (end -1.397 -22.098) (angle -90) (layer F.SilkS) (width 0.12))
  (fp_line (start -1.397 -22.098) (end 1.397 -22.098) (layer F.SilkS) (width 0.12))
  (pad 1 thru_hole circle (at -2.54 0) (size 2 2) (drill 1.2) (layers *.Cu *.Mask))
  (pad 2 thru_hole circle (at 2.54 0) (size 2 2) (drill 1.2) (layers *.Cu *.Mask))
)
