(module RESC6331X70N (layer F.Cu) (tedit 0)
  (descr "Chip Resistor, EIA 2512, Metric 6331, 2-Leads, Body 6.3x3.1mm, IPC Medium Density")
  (attr smd)
  (fp_text reference R15 (at 0.03 2.6) (layer F.SilkS)
    (effects (font (size 1 1) (thickness 0.15)))
  )
  (fp_text value R2512_0R027_1%_2W_50PPM (at 0 2.926) (layer F.Fab) hide
    (effects (font (size 1 1) (thickness 0.15)))
  )
  (fp_line (start -3.9 1.9) (end 3.9 1.9) (layer F.CrtYd) (width 0.05))
  (fp_line (start -3.9 -1.9) (end 3.9 -1.9) (layer F.CrtYd) (width 0.05))
  (fp_line (start 3.9 1.9) (end 3.9 -1.9) (layer F.CrtYd) (width 0.05))
  (fp_line (start -3.9 1.9) (end -3.9 -1.9) (layer F.CrtYd) (width 0.05))
  (fp_line (start -3.25 1.65) (end 3.25 1.65) (layer F.Fab) (width 0.1))
  (fp_line (start -3.25 -1.65) (end 3.25 -1.65) (layer F.Fab) (width 0.1))
  (fp_line (start 3.25 1.65) (end 3.25 -1.65) (layer F.Fab) (width 0.1))
  (fp_line (start -3.25 1.65) (end -3.25 -1.65) (layer F.Fab) (width 0.1))
  (fp_line (start -2.2 1.65) (end 2.2 1.65) (layer F.SilkS) (width 0.2))
  (fp_line (start -2.2 -1.65) (end 2.2 -1.65) (layer F.SilkS) (width 0.2))
  (pad 2 smd rect (at 3.1 0 90) (size 3.3 1.05) (layers F.Cu F.Paste F.Mask))
  (pad 1 smd rect (at -3.1 0 90) (size 3.3 1.05) (layers F.Cu F.Paste F.Mask))
  (model RESC6331X70N.stp
    (at (xyz 0 0 0))
    (scale (xyz 1 1 1))
    (rotate (xyz 0 0 0))
  )
)
