(module SOP65P640X120-16N (layer F.Cu) (tedit 0)
  (descr "SOP, 0.65mm pitch; 16 pin, 4.40mm W X 5.00mm L X 1.20mm H body IPC Medium Density")
  (attr smd)
  (fp_text reference U2 (at 0.04 3.09) (layer F.SilkS)
    (effects (font (size 1 1) (thickness 0.15)))
  )
  (fp_text value S-8254AAEFT-TB-G (at 0 3.826) (layer F.Fab) hide
    (effects (font (size 1 1) (thickness 0.15)))
  )
  (fp_line (start -3.95 2.8) (end 3.95 2.8) (layer F.CrtYd) (width 0.05))
  (fp_line (start -3.95 -2.8) (end 3.95 -2.8) (layer F.CrtYd) (width 0.05))
  (fp_line (start 3.95 2.8) (end 3.95 -2.8) (layer F.CrtYd) (width 0.05))
  (fp_line (start -3.95 2.8) (end -3.95 -2.8) (layer F.CrtYd) (width 0.05))
  (fp_line (start -2.25 2.55) (end 2.25 2.55) (layer F.Fab) (width 0.1))
  (fp_line (start -2.25 -2.55) (end 2.25 -2.55) (layer F.Fab) (width 0.1))
  (fp_line (start 2.25 2.55) (end 2.25 -2.55) (layer F.Fab) (width 0.1))
  (fp_line (start -2.25 2.55) (end -2.25 -2.55) (layer F.Fab) (width 0.1))
  (fp_line (start -1.85 2.55) (end 1.85 2.55) (layer F.SilkS) (width 0.2))
  (fp_line (start -1.85 -2.55) (end 1.85 -2.55) (layer F.SilkS) (width 0.2))
  (fp_line (start 1.85 2.55) (end 1.85 -2.55) (layer F.SilkS) (width 0.2))
  (fp_line (start -1.85 2.55) (end -1.85 -2.55) (layer F.SilkS) (width 0.2))
  (fp_circle (center -1.2 -1.9) (end -0.7 -1.9) (layer F.Fab) (width 0.1))
  (fp_circle (center -2.95 -3.05) (end -2.825 -3.05) (layer F.SilkS) (width 0.25))
  (fp_circle (center -1.2 -1.9) (end -1.05 -1.9) (layer F.SilkS) (width 0.3))
  (pad 9 smd rect (at 2.95 2.275 90) (size 0.45 1.45) (layers F.Cu F.Paste F.Mask))
  (pad 10 smd rect (at 2.95 1.625 90) (size 0.45 1.45) (layers F.Cu F.Paste F.Mask))
  (pad 11 smd rect (at 2.95 0.975 90) (size 0.45 1.45) (layers F.Cu F.Paste F.Mask))
  (pad 12 smd rect (at 2.95 0.325 90) (size 0.45 1.45) (layers F.Cu F.Paste F.Mask))
  (pad 13 smd rect (at 2.95 -0.325 90) (size 0.45 1.45) (layers F.Cu F.Paste F.Mask))
  (pad 14 smd rect (at 2.95 -0.975 90) (size 0.45 1.45) (layers F.Cu F.Paste F.Mask))
  (pad 15 smd rect (at 2.95 -1.625 90) (size 0.45 1.45) (layers F.Cu F.Paste F.Mask))
  (pad 16 smd rect (at 2.95 -2.275 90) (size 0.45 1.45) (layers F.Cu F.Paste F.Mask))
  (pad 8 smd rect (at -2.95 2.275 90) (size 0.45 1.45) (layers F.Cu F.Paste F.Mask))
  (pad 7 smd rect (at -2.95 1.625 90) (size 0.45 1.45) (layers F.Cu F.Paste F.Mask))
  (pad 6 smd rect (at -2.95 0.975 90) (size 0.45 1.45) (layers F.Cu F.Paste F.Mask))
  (pad 5 smd rect (at -2.95 0.325 90) (size 0.45 1.45) (layers F.Cu F.Paste F.Mask))
  (pad 4 smd rect (at -2.95 -0.325 90) (size 0.45 1.45) (layers F.Cu F.Paste F.Mask))
  (pad 3 smd rect (at -2.95 -0.975 90) (size 0.45 1.45) (layers F.Cu F.Paste F.Mask))
  (pad 2 smd rect (at -2.95 -1.625 90) (size 0.45 1.45) (layers F.Cu F.Paste F.Mask))
  (pad 1 smd rect (at -2.95 -2.275 90) (size 0.45 1.45) (layers F.Cu F.Paste F.Mask))
  (model SOP65P640X120-16N.stp
    (at (xyz 0 0 0))
    (scale (xyz 1 1 1))
    (rotate (xyz 0 0 0))
  )
)
