%TF.GenerationSoftware,KiCad,Pcbnew,5.1.5-52549c5~86~ubuntu18.04.1*%
%TF.CreationDate,2020-06-02T09:12:00-05:00*%
%TF.ProjectId,ctrb0505-A,63747262-3035-4303-952d-412e6b696361,rev?*%
%TF.SameCoordinates,Original*%
%TF.FileFunction,Other,Fab,Bot*%
%FSLAX46Y46*%
G04 Gerber Fmt 4.6, Leading zero omitted, Abs format (unit mm)*
G04 Created by KiCad (PCBNEW 5.1.5-52549c5~86~ubuntu18.04.1) date 2020-06-02 09:12:00*
%MOMM*%
%LPD*%
G04 APERTURE LIST*
%ADD10C,0.100000*%
%ADD11C,0.050000*%
%ADD12C,0.150000*%
%ADD13C,0.200000*%
%ADD14C,0.254000*%
%ADD15C,0.203200*%
%ADD16C,0.101600*%
%ADD17C,0.020000*%
G04 APERTURE END LIST*
D10*
X114000000Y31000000D02*
X114500000Y32500000D01*
X114000000Y31000000D02*
X113500000Y32500000D01*
X114000000Y52000000D02*
X114500000Y50500000D01*
X114000000Y52000000D02*
X113500000Y50500000D01*
X114000000Y52000000D02*
X114000000Y31000000D01*
X109500000Y31000000D02*
X115500000Y31000000D01*
X111000000Y52000000D02*
X115500000Y52000000D01*
X108585000Y31000000D02*
X106680000Y31000000D01*
X108585000Y36195000D02*
X108585000Y31000000D01*
X105410000Y0D02*
X106680000Y0D01*
X105410000Y72000000D02*
X105410000Y0D01*
X106680000Y72000000D02*
X105410000Y72000000D01*
X106680000Y0D02*
X106680000Y72000000D01*
X109855000Y45720000D02*
X111125000Y45720000D01*
X109855000Y52000000D02*
X109855000Y45720000D01*
X111125000Y52000000D02*
X109855000Y52000000D01*
X111125000Y45720000D02*
X111125000Y52000000D01*
X111125000Y45720000D02*
X106680000Y45720000D01*
X111125000Y36195000D02*
X111125000Y45720000D01*
X106680000Y36195000D02*
X111125000Y36195000D01*
X106680000Y45720000D02*
X106680000Y36195000D01*
X116363571Y39754285D02*
X116435000Y39830000D01*
X116506428Y39981428D01*
X116506428Y40360000D01*
X116435000Y40511428D01*
X116363571Y40587142D01*
X116220714Y40662857D01*
X116077857Y40662857D01*
X115863571Y40587142D01*
X115006428Y39678571D01*
X115006428Y40662857D01*
X115006428Y42177142D02*
X115006428Y41268571D01*
X115006428Y41722857D02*
X116506428Y41722857D01*
X116292142Y41571428D01*
X116149285Y41420000D01*
X116077857Y41268571D01*
D11*
X54451785Y49045714D02*
X53865119Y49045714D01*
X54451785Y48295714D01*
X53865119Y48295714D01*
X53655595Y49045714D02*
X53152738Y49045714D01*
X53404166Y48295714D02*
X53404166Y49045714D01*
X52943214Y49045714D02*
X52356547Y49045714D01*
X52733690Y48295714D01*
X54451785Y4595714D02*
X53865119Y4595714D01*
X54451785Y3845714D01*
X53865119Y3845714D01*
X53655595Y4595714D02*
X53152738Y4595714D01*
X53404166Y3845714D02*
X53404166Y4595714D01*
X52482261Y4595714D02*
X52649880Y4595714D01*
X52733690Y4560000D01*
X52775595Y4524285D01*
X52859404Y4417142D01*
X52901309Y4274285D01*
X52901309Y3988571D01*
X52859404Y3917142D01*
X52817500Y3881428D01*
X52733690Y3845714D01*
X52566071Y3845714D01*
X52482261Y3881428D01*
X52440357Y3917142D01*
X52398452Y3988571D01*
X52398452Y4167142D01*
X52440357Y4238571D01*
X52482261Y4274285D01*
X52566071Y4310000D01*
X52733690Y4310000D01*
X52817500Y4274285D01*
X52859404Y4238571D01*
X52901309Y4167142D01*
X42386785Y49045714D02*
X41800119Y49045714D01*
X42386785Y48295714D01*
X41800119Y48295714D01*
X41590595Y49045714D02*
X41087738Y49045714D01*
X41339166Y48295714D02*
X41339166Y49045714D01*
X40375357Y49045714D02*
X40794404Y49045714D01*
X40836309Y48688571D01*
X40794404Y48724285D01*
X40710595Y48760000D01*
X40501071Y48760000D01*
X40417261Y48724285D01*
X40375357Y48688571D01*
X40333452Y48617142D01*
X40333452Y48438571D01*
X40375357Y48367142D01*
X40417261Y48331428D01*
X40501071Y48295714D01*
X40710595Y48295714D01*
X40794404Y48331428D01*
X40836309Y48367142D01*
X42069285Y4595714D02*
X41482619Y4595714D01*
X42069285Y3845714D01*
X41482619Y3845714D01*
X41273095Y4595714D02*
X40770238Y4595714D01*
X41021666Y3845714D02*
X41021666Y4595714D01*
X40099761Y4345714D02*
X40099761Y3845714D01*
X40309285Y4631428D02*
X40518809Y4095714D01*
X39974047Y4095714D01*
X30321785Y49045714D02*
X29735119Y49045714D01*
X30321785Y48295714D01*
X29735119Y48295714D01*
X29525595Y49045714D02*
X29022738Y49045714D01*
X29274166Y48295714D02*
X29274166Y49045714D01*
X28813214Y49045714D02*
X28268452Y49045714D01*
X28561785Y48760000D01*
X28436071Y48760000D01*
X28352261Y48724285D01*
X28310357Y48688571D01*
X28268452Y48617142D01*
X28268452Y48438571D01*
X28310357Y48367142D01*
X28352261Y48331428D01*
X28436071Y48295714D01*
X28687500Y48295714D01*
X28771309Y48331428D01*
X28813214Y48367142D01*
X30321785Y4595714D02*
X29735119Y4595714D01*
X30321785Y3845714D01*
X29735119Y3845714D01*
X29525595Y4595714D02*
X29022738Y4595714D01*
X29274166Y3845714D02*
X29274166Y4595714D01*
X28771309Y4524285D02*
X28729404Y4560000D01*
X28645595Y4595714D01*
X28436071Y4595714D01*
X28352261Y4560000D01*
X28310357Y4524285D01*
X28268452Y4452857D01*
X28268452Y4381428D01*
X28310357Y4274285D01*
X28813214Y3845714D01*
X28268452Y3845714D01*
X20203690Y61745714D02*
X19700833Y61745714D01*
X19952261Y60995714D02*
X19952261Y61745714D01*
X19365595Y60995714D02*
X19197976Y60995714D01*
X19114166Y61031428D01*
X19072261Y61067142D01*
X18988452Y61174285D01*
X18946547Y61317142D01*
X18946547Y61602857D01*
X18988452Y61674285D01*
X19030357Y61710000D01*
X19114166Y61745714D01*
X19281785Y61745714D01*
X19365595Y61710000D01*
X19407500Y61674285D01*
X19449404Y61602857D01*
X19449404Y61424285D01*
X19407500Y61352857D01*
X19365595Y61317142D01*
X19281785Y61281428D01*
X19114166Y61281428D01*
X19030357Y61317142D01*
X18988452Y61352857D01*
X18946547Y61424285D01*
X53858690Y41425714D02*
X53355833Y41425714D01*
X53607261Y40675714D02*
X53607261Y41425714D01*
X53146309Y41425714D02*
X52559642Y41425714D01*
X52936785Y40675714D01*
X53858690Y12850714D02*
X53355833Y12850714D01*
X53607261Y12100714D02*
X53607261Y12850714D01*
X52685357Y12850714D02*
X52852976Y12850714D01*
X52936785Y12815000D01*
X52978690Y12779285D01*
X53062500Y12672142D01*
X53104404Y12529285D01*
X53104404Y12243571D01*
X53062500Y12172142D01*
X53020595Y12136428D01*
X52936785Y12100714D01*
X52769166Y12100714D01*
X52685357Y12136428D01*
X52643452Y12172142D01*
X52601547Y12243571D01*
X52601547Y12422142D01*
X52643452Y12493571D01*
X52685357Y12529285D01*
X52769166Y12565000D01*
X52936785Y12565000D01*
X53020595Y12529285D01*
X53062500Y12493571D01*
X53104404Y12422142D01*
X41793690Y41425714D02*
X41290833Y41425714D01*
X41542261Y40675714D02*
X41542261Y41425714D01*
X40578452Y41425714D02*
X40997500Y41425714D01*
X41039404Y41068571D01*
X40997500Y41104285D01*
X40913690Y41140000D01*
X40704166Y41140000D01*
X40620357Y41104285D01*
X40578452Y41068571D01*
X40536547Y40997142D01*
X40536547Y40818571D01*
X40578452Y40747142D01*
X40620357Y40711428D01*
X40704166Y40675714D01*
X40913690Y40675714D01*
X40997500Y40711428D01*
X41039404Y40747142D01*
X42111190Y12850714D02*
X41608333Y12850714D01*
X41859761Y12100714D02*
X41859761Y12850714D01*
X40937857Y12600714D02*
X40937857Y12100714D01*
X41147380Y12886428D02*
X41356904Y12350714D01*
X40812142Y12350714D01*
X29728690Y41425714D02*
X29225833Y41425714D01*
X29477261Y40675714D02*
X29477261Y41425714D01*
X29016309Y41425714D02*
X28471547Y41425714D01*
X28764880Y41140000D01*
X28639166Y41140000D01*
X28555357Y41104285D01*
X28513452Y41068571D01*
X28471547Y40997142D01*
X28471547Y40818571D01*
X28513452Y40747142D01*
X28555357Y40711428D01*
X28639166Y40675714D01*
X28890595Y40675714D01*
X28974404Y40711428D01*
X29016309Y40747142D01*
X29728690Y12850714D02*
X29225833Y12850714D01*
X29477261Y12100714D02*
X29477261Y12850714D01*
X28974404Y12779285D02*
X28932500Y12815000D01*
X28848690Y12850714D01*
X28639166Y12850714D01*
X28555357Y12815000D01*
X28513452Y12779285D01*
X28471547Y12707857D01*
X28471547Y12636428D01*
X28513452Y12529285D01*
X29016309Y12100714D01*
X28471547Y12100714D01*
X52462976Y60995714D02*
X52462976Y61745714D01*
X51541071Y61067142D02*
X51582976Y61031428D01*
X51708690Y60995714D01*
X51792500Y60995714D01*
X51918214Y61031428D01*
X52002023Y61102857D01*
X52043928Y61174285D01*
X52085833Y61317142D01*
X52085833Y61424285D01*
X52043928Y61567142D01*
X52002023Y61638571D01*
X51918214Y61710000D01*
X51792500Y61745714D01*
X51708690Y61745714D01*
X51582976Y61710000D01*
X51541071Y61674285D01*
X50786785Y61745714D02*
X50954404Y61745714D01*
X51038214Y61710000D01*
X51080119Y61674285D01*
X51163928Y61567142D01*
X51205833Y61424285D01*
X51205833Y61138571D01*
X51163928Y61067142D01*
X51122023Y61031428D01*
X51038214Y60995714D01*
X50870595Y60995714D01*
X50786785Y61031428D01*
X50744880Y61067142D01*
X50702976Y61138571D01*
X50702976Y61317142D01*
X50744880Y61388571D01*
X50786785Y61424285D01*
X50870595Y61460000D01*
X51038214Y61460000D01*
X51122023Y61424285D01*
X51163928Y61388571D01*
X51205833Y61317142D01*
X33730476Y60995714D02*
X33730476Y61745714D01*
X33520952Y61745714D01*
X33395238Y61710000D01*
X33311428Y61638571D01*
X33269523Y61567142D01*
X33227619Y61424285D01*
X33227619Y61317142D01*
X33269523Y61174285D01*
X33311428Y61102857D01*
X33395238Y61031428D01*
X33520952Y60995714D01*
X33730476Y60995714D01*
X32389523Y60995714D02*
X32892380Y60995714D01*
X32640952Y60995714D02*
X32640952Y61745714D01*
X32724761Y61638571D01*
X32808571Y61567142D01*
X32892380Y61531428D01*
X32096190Y61745714D02*
X31509523Y61745714D01*
X31886666Y60995714D01*
D12*
%TO.C,cam5*%
G36*
X153680000Y-47800000D02*
G01*
X153680000Y-46200000D01*
X155280000Y-46200000D01*
X155273585Y-46303658D01*
X155260665Y-46406707D01*
X155241291Y-46508740D01*
X155215539Y-46609352D01*
X155183512Y-46708147D01*
X155145336Y-46804731D01*
X155101162Y-46898725D01*
X155051166Y-46989755D01*
X154995544Y-47077460D01*
X154934518Y-47161495D01*
X154868328Y-47241526D01*
X154797237Y-47317237D01*
X154721526Y-47388328D01*
X154641495Y-47454518D01*
X154557460Y-47515544D01*
X154469755Y-47571166D01*
X154378725Y-47621162D01*
X154284731Y-47665336D01*
X154188147Y-47703512D01*
X154089352Y-47735539D01*
X153988740Y-47761291D01*
X153886707Y-47780665D01*
X153783658Y-47793585D01*
X153680000Y-47800000D01*
G37*
G36*
X153680000Y-44600000D02*
G01*
X153680000Y-46200000D01*
X152080000Y-46200000D01*
X152086415Y-46096342D01*
X152099335Y-45993293D01*
X152118709Y-45891260D01*
X152144461Y-45790648D01*
X152176488Y-45691853D01*
X152214664Y-45595269D01*
X152258838Y-45501275D01*
X152308834Y-45410245D01*
X152364456Y-45322540D01*
X152425482Y-45238505D01*
X152491672Y-45158474D01*
X152562763Y-45082763D01*
X152638474Y-45011672D01*
X152718505Y-44945482D01*
X152802540Y-44884456D01*
X152890245Y-44828834D01*
X152981275Y-44778838D01*
X153075269Y-44734664D01*
X153171853Y-44696488D01*
X153270648Y-44664461D01*
X153371260Y-44638709D01*
X153473293Y-44619335D01*
X153576342Y-44606415D01*
X153680000Y-44600000D01*
G37*
G36*
X153680000Y104600000D02*
G01*
X153680000Y106200000D01*
X155280000Y106200000D01*
X155273585Y106096342D01*
X155260665Y105993293D01*
X155241291Y105891260D01*
X155215539Y105790648D01*
X155183512Y105691853D01*
X155145336Y105595269D01*
X155101162Y105501275D01*
X155051166Y105410245D01*
X154995544Y105322540D01*
X154934518Y105238505D01*
X154868328Y105158474D01*
X154797237Y105082763D01*
X154721526Y105011672D01*
X154641495Y104945482D01*
X154557460Y104884456D01*
X154469755Y104828834D01*
X154378725Y104778838D01*
X154284731Y104734664D01*
X154188147Y104696488D01*
X154089352Y104664461D01*
X153988740Y104638709D01*
X153886707Y104619335D01*
X153783658Y104606415D01*
X153680000Y104600000D01*
G37*
G36*
X153680000Y107800000D02*
G01*
X153680000Y106200000D01*
X152080000Y106200000D01*
X152086415Y106303658D01*
X152099335Y106406707D01*
X152118709Y106508740D01*
X152144461Y106609352D01*
X152176488Y106708147D01*
X152214664Y106804731D01*
X152258838Y106898725D01*
X152308834Y106989755D01*
X152364456Y107077460D01*
X152425482Y107161495D01*
X152491672Y107241526D01*
X152562763Y107317237D01*
X152638474Y107388328D01*
X152718505Y107454518D01*
X152802540Y107515544D01*
X152890245Y107571166D01*
X152981275Y107621162D01*
X153075269Y107665336D01*
X153171853Y107703512D01*
X153270648Y107735539D01*
X153371260Y107761291D01*
X153473293Y107780665D01*
X153576342Y107793585D01*
X153680000Y107800000D01*
G37*
G36*
X-59680000Y104600000D02*
G01*
X-59680000Y106200000D01*
X-58080000Y106200000D01*
X-58086414Y106096342D01*
X-58099334Y105993293D01*
X-58118708Y105891260D01*
X-58144459Y105790647D01*
X-58176486Y105691852D01*
X-58214662Y105595267D01*
X-58258835Y105501273D01*
X-58308832Y105410244D01*
X-58364453Y105322537D01*
X-58425479Y105238502D01*
X-58491669Y105158471D01*
X-58562760Y105082760D01*
X-58638471Y105011669D01*
X-58718502Y104945479D01*
X-58802537Y104884453D01*
X-58890244Y104828832D01*
X-58981273Y104778835D01*
X-59075267Y104734662D01*
X-59171852Y104696486D01*
X-59270647Y104664459D01*
X-59371260Y104638708D01*
X-59473293Y104619334D01*
X-59576342Y104606414D01*
X-59680000Y104600000D01*
G37*
G36*
X-59680000Y107800000D02*
G01*
X-59680000Y106200000D01*
X-61280000Y106200000D01*
X-61273585Y106303657D01*
X-61260664Y106406706D01*
X-61241289Y106508739D01*
X-61215537Y106609351D01*
X-61183509Y106708145D01*
X-61145333Y106804730D01*
X-61101159Y106898723D01*
X-61051163Y106989753D01*
X-60995541Y107077458D01*
X-60934515Y107161493D01*
X-60868326Y107241524D01*
X-60797235Y107317235D01*
X-60721524Y107388326D01*
X-60641493Y107454515D01*
X-60557458Y107515541D01*
X-60469753Y107571163D01*
X-60378723Y107621159D01*
X-60284730Y107665333D01*
X-60188145Y107703509D01*
X-60089351Y107735537D01*
X-59988739Y107761289D01*
X-59886706Y107780664D01*
X-59783657Y107793585D01*
X-59680000Y107800000D01*
G37*
G36*
X-54416250Y-45909530D02*
G01*
X-54517388Y-45887385D01*
X-54614362Y-45851114D01*
X-54705207Y-45801451D01*
X-54788087Y-45739401D01*
X-54861325Y-45666219D01*
X-54923438Y-45583385D01*
X-54973170Y-45492577D01*
X-55009513Y-45395631D01*
X-55031734Y-45294509D01*
X-55039383Y-45191258D01*
X-55032304Y-45087966D01*
X-55010640Y-44986723D01*
X-54974831Y-44889578D01*
X-54925601Y-44798497D01*
X-54863946Y-44715323D01*
X-54791113Y-44641738D01*
X-54708576Y-44579232D01*
X-54618005Y-44529069D01*
X-54521233Y-44492264D01*
X-54420219Y-44469562D01*
X-54317005Y-44461422D01*
X-54213680Y-44468010D01*
X-53655200Y-44546500D01*
X-53636499Y-44652969D01*
X-53604228Y-44756138D01*
X-53558927Y-44854286D01*
X-53501351Y-44945776D01*
X-53432462Y-45029080D01*
X-53353408Y-45102808D01*
X-53265510Y-45165730D01*
X-53366582Y-45175202D01*
X-53465530Y-45197886D01*
X-53560635Y-45233387D01*
X-53650244Y-45281089D01*
X-53732800Y-45340163D01*
X-53806869Y-45409583D01*
X-53871164Y-45488141D01*
X-53924568Y-45574474D01*
X-53966151Y-45667081D01*
X-53995193Y-45764353D01*
X-54011189Y-45864600D01*
X-54013860Y-45966080D01*
X-54416250Y-45909530D01*
G37*
G36*
X-44222960Y-43982000D02*
G01*
X-42884440Y-44170110D01*
X-43217230Y-46538320D01*
X-43239456Y-46637128D01*
X-43264305Y-46735308D01*
X-43291759Y-46832793D01*
X-43321798Y-46929512D01*
X-43354402Y-47025397D01*
X-43389546Y-47120380D01*
X-43427207Y-47214394D01*
X-43467357Y-47307372D01*
X-43509969Y-47399248D01*
X-43555011Y-47489957D01*
X-43602452Y-47579434D01*
X-43652259Y-47667617D01*
X-43704395Y-47754443D01*
X-43758825Y-47839850D01*
X-43815509Y-47923778D01*
X-43874407Y-48006167D01*
X-43935477Y-48086959D01*
X-43998677Y-48166096D01*
X-44063961Y-48243523D01*
X-44131284Y-48319184D01*
X-44200597Y-48393026D01*
X-44271851Y-48464997D01*
X-44344996Y-48535045D01*
X-44419979Y-48603121D01*
X-44496749Y-48669177D01*
X-44575250Y-48733166D01*
X-44655426Y-48795042D01*
X-44737222Y-48854762D01*
X-44820578Y-48912282D01*
X-44905436Y-48967564D01*
X-44991736Y-49020567D01*
X-45079416Y-49071253D01*
X-45168415Y-49119587D01*
X-45258668Y-49165535D01*
X-45350113Y-49209064D01*
X-45442685Y-49250142D01*
X-45536317Y-49288742D01*
X-45630944Y-49324836D01*
X-45726498Y-49358397D01*
X-45822911Y-49389403D01*
X-45920116Y-49417831D01*
X-46018043Y-49443661D01*
X-46116623Y-49466875D01*
X-46215787Y-49487456D01*
X-46315463Y-49505390D01*
X-46415581Y-49520664D01*
X-46516070Y-49533267D01*
X-46616859Y-49543190D01*
X-46717877Y-49550427D01*
X-46819051Y-49554972D01*
X-46920311Y-49556822D01*
X-47021584Y-49555975D01*
X-47122798Y-49552433D01*
X-47223883Y-49546197D01*
X-47324765Y-49537272D01*
X-47425375Y-49525665D01*
X-47525639Y-49511384D01*
X-47625488Y-49494438D01*
X-47724850Y-49474840D01*
X-47639069Y-49415288D01*
X-47559972Y-49347109D01*
X-47488423Y-49271047D01*
X-47425203Y-49187932D01*
X-47371003Y-49098673D01*
X-47326415Y-49004245D01*
X-47291926Y-48905679D01*
X-47267913Y-48804052D01*
X-47254638Y-48700473D01*
X-47252245Y-48596075D01*
X-47260762Y-48491997D01*
X-47280095Y-48389376D01*
X-47310033Y-48289333D01*
X-47350249Y-48192962D01*
X-47400303Y-48101314D01*
X-47459649Y-48015391D01*
X-47527639Y-47936131D01*
X-47603530Y-47864400D01*
X-47515987Y-47810097D01*
X-47433530Y-47748343D01*
X-47356792Y-47679612D01*
X-47286361Y-47604431D01*
X-47222777Y-47523377D01*
X-47166528Y-47437071D01*
X-47118046Y-47346176D01*
X-47077701Y-47251387D01*
X-47045803Y-47153432D01*
X-47022597Y-47053062D01*
X-47008261Y-46951046D01*
X-47002905Y-46848168D01*
X-47006570Y-46745215D01*
X-47019227Y-46642978D01*
X-47040781Y-46542240D01*
X-47071064Y-46443774D01*
X-47109846Y-46348335D01*
X-47156828Y-46256655D01*
X-47211651Y-46169436D01*
X-47273894Y-46087348D01*
X-47343080Y-46011020D01*
X-47262520Y-45948588D01*
X-47187568Y-45879523D01*
X-47118768Y-45804328D01*
X-47056619Y-45723549D01*
X-47001574Y-45637772D01*
X-46954031Y-45547619D01*
X-46914336Y-45453747D01*
X-46882778Y-45356836D01*
X-46859585Y-45257590D01*
X-46844925Y-45156729D01*
X-46838906Y-45054987D01*
X-46841571Y-44953101D01*
X-46852900Y-44851813D01*
X-46872811Y-44751857D01*
X-46901160Y-44653958D01*
X-46937742Y-44558829D01*
X-46982289Y-44467160D01*
X-47034479Y-44379616D01*
X-47093933Y-44296833D01*
X-47160219Y-44219413D01*
X-47232855Y-44147917D01*
X-47311315Y-44082865D01*
X-47395028Y-44024729D01*
X-47483387Y-43973931D01*
X-47575750Y-43930840D01*
X-55092250Y-42874560D01*
X-55191039Y-42855631D01*
X-55286275Y-42823265D01*
X-55376141Y-42778081D01*
X-55458921Y-42720941D01*
X-55533035Y-42652935D01*
X-55597067Y-42575363D01*
X-55649795Y-42489706D01*
X-55690213Y-42397597D01*
X-55717548Y-42300797D01*
X-55731280Y-42201153D01*
X-55731146Y-42100567D01*
X-55717148Y-42000960D01*
X-55689553Y-41904233D01*
X-55648889Y-41812233D01*
X-55595932Y-41726717D01*
X-55531693Y-41649316D01*
X-55457398Y-41581510D01*
X-55374466Y-41524591D01*
X-55284479Y-41479647D01*
X-55189157Y-41447536D01*
X-55090318Y-41428871D01*
X-54989850Y-41424008D01*
X-54889670Y-41433040D01*
X-47823770Y-42425990D01*
X-47828889Y-42312141D01*
X-47856556Y-42201587D01*
X-47905664Y-42098747D01*
X-47974251Y-42007732D01*
X-48059574Y-41932183D01*
X-48158221Y-41875118D01*
X-48266250Y-41838820D01*
X-50698700Y-41496990D01*
X-50799956Y-41478060D01*
X-50899314Y-41450876D01*
X-50996104Y-41415621D01*
X-51089670Y-41372534D01*
X-51179380Y-41321906D01*
X-51264628Y-41264080D01*
X-51344837Y-41199445D01*
X-51419465Y-41128440D01*
X-51488008Y-41051545D01*
X-51550002Y-40969278D01*
X-51605028Y-40882196D01*
X-51652714Y-40790888D01*
X-51692738Y-40695972D01*
X-51724830Y-40598088D01*
X-51748771Y-40497899D01*
X-51764401Y-40396081D01*
X-51771614Y-40293324D01*
X-51770361Y-40190321D01*
X-51760650Y-40087770D01*
X-51717972Y-39984216D01*
X-51657631Y-39889857D01*
X-51581533Y-39807676D01*
X-51492083Y-39740270D01*
X-51392111Y-39689770D01*
X-51284775Y-39657773D01*
X-51173470Y-39645290D01*
X-47054830Y-40224080D01*
X-46955523Y-40239563D01*
X-46856730Y-40258039D01*
X-46758539Y-40279490D01*
X-46661041Y-40303898D01*
X-46564325Y-40331239D01*
X-46468479Y-40361489D01*
X-46373590Y-40394620D01*
X-46279745Y-40430602D01*
X-46187030Y-40469402D01*
X-46095529Y-40510986D01*
X-46005326Y-40555314D01*
X-45916503Y-40602346D01*
X-45829141Y-40652040D01*
X-45743321Y-40704349D01*
X-45659119Y-40759228D01*
X-45576613Y-40816624D01*
X-45495878Y-40876486D01*
X-45416989Y-40938760D01*
X-45340016Y-41003388D01*
X-45265031Y-41070312D01*
X-45192102Y-41139470D01*
X-45121294Y-41210799D01*
X-45052673Y-41284234D01*
X-44986302Y-41359709D01*
X-44922241Y-41437154D01*
X-44860548Y-41516498D01*
X-44801280Y-41597670D01*
X-44744491Y-41680595D01*
X-44690232Y-41765197D01*
X-44638554Y-41851400D01*
X-44589503Y-41939124D01*
X-44543124Y-42028290D01*
X-44499459Y-42118816D01*
X-44458549Y-42210620D01*
X-44420430Y-42303617D01*
X-44385138Y-42397723D01*
X-44352704Y-42492853D01*
X-44323159Y-42588918D01*
X-44296528Y-42685833D01*
X-44272837Y-42783507D01*
X-44252107Y-42881853D01*
X-44234357Y-42980779D01*
X-44219604Y-43080197D01*
X-44207860Y-43180015D01*
X-44199136Y-43280142D01*
X-44193441Y-43380487D01*
X-44190779Y-43480958D01*
X-44191153Y-43581464D01*
X-44194562Y-43681913D01*
X-44201004Y-43782213D01*
X-44210473Y-43882272D01*
X-44222960Y-43982000D01*
G37*
G36*
X-50090410Y-49404900D02*
G01*
X-50099511Y-49510053D01*
X-50120307Y-49613530D01*
X-50152539Y-49714035D01*
X-50195802Y-49810307D01*
X-50249555Y-49901140D01*
X-50313123Y-49985397D01*
X-50385710Y-50062020D01*
X-50466406Y-50130050D01*
X-50554200Y-50188635D01*
X-50647993Y-50237040D01*
X-50746607Y-50274658D01*
X-50848809Y-50301019D01*
X-50953316Y-50315791D01*
X-51058820Y-50318790D01*
X-54662610Y-49812350D01*
X-54759512Y-49777624D01*
X-54851614Y-49731657D01*
X-54937619Y-49675097D01*
X-55016313Y-49608742D01*
X-55086588Y-49533527D01*
X-55147452Y-49450513D01*
X-55198048Y-49360870D01*
X-55237661Y-49265861D01*
X-55265734Y-49166827D01*
X-55281870Y-49065164D01*
X-55285843Y-48962305D01*
X-55277595Y-48859699D01*
X-55257244Y-48758795D01*
X-55225077Y-48661014D01*
X-55181546Y-48567736D01*
X-55127266Y-48480275D01*
X-55063002Y-48399864D01*
X-54989659Y-48327637D01*
X-54908273Y-48264612D01*
X-54819990Y-48211678D01*
X-54726056Y-48169582D01*
X-54627794Y-48138917D01*
X-54526589Y-48120114D01*
X-54423870Y-48113440D01*
X-53703120Y-48214720D01*
X-53690259Y-48319466D01*
X-53664405Y-48421782D01*
X-53625963Y-48520063D01*
X-53575537Y-48612768D01*
X-53513916Y-48698441D01*
X-53442069Y-48775740D01*
X-53361122Y-48843450D01*
X-53272346Y-48900509D01*
X-53177133Y-48946023D01*
X-53076977Y-48979277D01*
X-52973450Y-48999750D01*
X-50090410Y-49404900D01*
G37*
G36*
X-53659710Y-47905830D02*
G01*
X-54740840Y-47753910D01*
X-54841410Y-47733834D01*
X-54938475Y-47700735D01*
X-55030359Y-47655186D01*
X-55115471Y-47597973D01*
X-55192339Y-47530087D01*
X-55259635Y-47452702D01*
X-55316195Y-47367155D01*
X-55361041Y-47274926D01*
X-55393396Y-47177610D01*
X-55412702Y-47076889D01*
X-55418625Y-46974507D01*
X-55411062Y-46872232D01*
X-55390144Y-46771834D01*
X-55356233Y-46675049D01*
X-55309916Y-46583551D01*
X-55251992Y-46498921D01*
X-55183465Y-46422624D01*
X-55105518Y-46355978D01*
X-55019500Y-46300137D01*
X-54926899Y-46256066D01*
X-54829315Y-46224527D01*
X-54728436Y-46206065D01*
X-54626008Y-46201001D01*
X-54523800Y-46209420D01*
X-54057270Y-46274980D01*
X-54040045Y-46373927D01*
X-54014048Y-46470940D01*
X-53979488Y-46565242D01*
X-53936639Y-46656078D01*
X-53885846Y-46742723D01*
X-53827514Y-46824483D01*
X-53762111Y-46900704D01*
X-53690159Y-46970776D01*
X-53612233Y-47034139D01*
X-53528958Y-47090286D01*
X-53440999Y-47138768D01*
X-53349060Y-47179198D01*
X-53253877Y-47211250D01*
X-53156210Y-47234670D01*
X-53255760Y-47282149D01*
X-53347847Y-47342849D01*
X-53430726Y-47415619D01*
X-53502828Y-47499081D01*
X-53562786Y-47591653D01*
X-53609463Y-47691581D01*
X-53641977Y-47796972D01*
X-53659710Y-47905830D01*
G37*
D13*
X-2000000Y-45000000D02*
X-2000000Y-50000000D01*
X15000000Y-45000000D02*
X15000000Y-55000000D01*
X41500000Y-50000000D02*
X41500000Y-55000000D01*
X67000000Y-55000000D02*
X66500000Y-55000000D01*
X67000000Y-45000000D02*
X67000000Y-55000000D01*
X111000000Y-50000000D02*
X-17000000Y-50000000D01*
X-17000000Y-45000000D02*
X111000000Y-45000000D01*
X-17000000Y-55000000D02*
X-17000000Y-45000000D01*
X111000000Y-55000000D02*
X-17000000Y-55000000D01*
X111000000Y-45000000D02*
X111000000Y-55000000D01*
D14*
X-68000000Y115000000D02*
X-68000000Y-55000000D01*
X162000000Y115000000D02*
X-68000000Y115000000D01*
X162000000Y-55000000D02*
X162000000Y115000000D01*
X-68000000Y-55000000D02*
X162000000Y-55000000D01*
D15*
X-49947010Y-45487600D02*
X-52830040Y-45082450D01*
X-52873450Y-45391350D02*
X-49990410Y-45796490D01*
X-50207460Y-47340980D02*
X-53090490Y-46935830D01*
X-52567590Y-47324310D02*
X-50250860Y-47649870D01*
X-48651530Y-49344620D02*
X-52770160Y-48765830D01*
X-52627460Y-43640930D02*
X-47942520Y-44299290D01*
D14*
X-47361000Y-52296000D02*
X-53076000Y-52296000D01*
D16*
X155280000Y-46200000D02*
G75*
G03X155280000Y-46200000I-1600000J0D01*
G01*
X155280000Y106200000D02*
G75*
G03X155280000Y106200000I-1600000J0D01*
G01*
X-58080000Y106200000D02*
G75*
G03X-58080000Y106200000I-1599990J0D01*
G01*
D15*
X-49947009Y-45487600D02*
G75*
G02X-49990410Y-45796490I-20137J-154665D01*
G01*
X-52873450Y-45391350D02*
G75*
G03X-53090490Y-46935830I-119741J-770663D01*
G01*
X-50207459Y-47340980D02*
G75*
G02X-50250860Y-47649870I-20137J-154665D01*
G01*
X-52567589Y-47324310D02*
G75*
G03X-52770160Y-48765830I-115334J-718786D01*
G01*
X-48651531Y-49344620D02*
G75*
G03X-48448960Y-47903090I147788J714230D01*
G01*
X-48448960Y-47903090D02*
G75*
G02X-48405550Y-47594200I21705J154445D01*
G01*
X-48405551Y-47594200D02*
G75*
G03X-48188500Y-46049720I137577J768157D01*
G01*
X-48188501Y-46049719D02*
G75*
G02X-48145100Y-45740820I22665J154314D01*
G01*
X-48145100Y-45740820D02*
G75*
G03X-47942520Y-44299290I151481J713712D01*
G01*
X-52627460Y-43640930D02*
G75*
G03X-52830040Y-45082450I-56126J-727107D01*
G01*
D17*
%TO.C,cam4*%
G36*
X92500000Y75810000D02*
G01*
X93770000Y75810000D01*
X93770000Y73270000D01*
X96310000Y73270000D01*
X96310000Y72000000D01*
X92500000Y72000000D01*
X92500000Y75810000D01*
G37*
X92500000Y75810000D02*
X93770000Y75810000D01*
X93770000Y73270000D01*
X96310000Y73270000D01*
X96310000Y72000000D01*
X92500000Y72000000D01*
X92500000Y75810000D01*
%TO.C,cam3*%
G36*
X96310000Y0D02*
G01*
X96310000Y-1270000D01*
X93770000Y-1270000D01*
X93770000Y-3810000D01*
X92500000Y-3810000D01*
X92500000Y0D01*
X96310000Y0D01*
G37*
X96310000Y0D02*
X96310000Y-1270000D01*
X93770000Y-1270000D01*
X93770000Y-3810000D01*
X92500000Y-3810000D01*
X92500000Y0D01*
X96310000Y0D01*
%TO.C,cam2*%
G36*
X0Y-3810000D02*
G01*
X-1270000Y-3810000D01*
X-1270000Y-1270000D01*
X-3810000Y-1270000D01*
X-3810000Y0D01*
X0Y0D01*
X0Y-3810000D01*
G37*
X0Y-3810000D02*
X-1270000Y-3810000D01*
X-1270000Y-1270000D01*
X-3810000Y-1270000D01*
X-3810000Y0D01*
X0Y0D01*
X0Y-3810000D01*
%TO.C,cam1*%
G36*
X-3810000Y72000000D02*
G01*
X-3810000Y73270000D01*
X-1270000Y73270000D01*
X-1270000Y75810000D01*
X0Y75810000D01*
X0Y72000000D01*
X-3810000Y72000000D01*
G37*
X-3810000Y72000000D02*
X-3810000Y73270000D01*
X-1270000Y73270000D01*
X-1270000Y75810000D01*
X0Y75810000D01*
X0Y72000000D01*
X-3810000Y72000000D01*
D10*
%TO.C,ZT7*%
X55880000Y36195000D02*
X55880000Y31750000D01*
X58737500Y51752500D02*
X58737500Y36195000D01*
X47942500Y51752500D02*
X58737500Y51752500D01*
X47942500Y36195000D02*
X47942500Y51752500D01*
X58737500Y36195000D02*
X47942500Y36195000D01*
X50800000Y36195000D02*
X50800000Y31750000D01*
X53340000Y36195000D02*
X53340000Y31750000D01*
X55880000Y36195000D02*
X55880000Y33655000D01*
X57840000Y45895000D02*
X57840000Y36895000D01*
X48840000Y45895000D02*
X57840000Y45895000D01*
X48840000Y36895000D02*
X48840000Y45895000D01*
X57840000Y36895000D02*
X48840000Y36895000D01*
X55372000Y48895000D02*
G75*
G03X55372000Y48895000I-2032000J0D01*
G01*
%TO.C,ZT6*%
X50800000Y17145000D02*
X50800000Y21590000D01*
X47942500Y1587500D02*
X47942500Y17145000D01*
X58737500Y1587500D02*
X47942500Y1587500D01*
X58737500Y17145000D02*
X58737500Y1587500D01*
X47942500Y17145000D02*
X58737500Y17145000D01*
X55880000Y17145000D02*
X55880000Y21590000D01*
X53340000Y17145000D02*
X53340000Y21590000D01*
X50800000Y17145000D02*
X50800000Y19685000D01*
X48840000Y7445000D02*
X48840000Y16445000D01*
X57840000Y7445000D02*
X48840000Y7445000D01*
X57840000Y16445000D02*
X57840000Y7445000D01*
X48840000Y16445000D02*
X57840000Y16445000D01*
X55372000Y4445000D02*
G75*
G03X55372000Y4445000I-2032000J0D01*
G01*
%TO.C,ZT5*%
X43815000Y36195000D02*
X43815000Y31750000D01*
X46672500Y51752500D02*
X46672500Y36195000D01*
X35877500Y51752500D02*
X46672500Y51752500D01*
X35877500Y36195000D02*
X35877500Y51752500D01*
X46672500Y36195000D02*
X35877500Y36195000D01*
X38735000Y36195000D02*
X38735000Y31750000D01*
X41275000Y36195000D02*
X41275000Y31750000D01*
X43815000Y36195000D02*
X43815000Y33655000D01*
X45775000Y45895000D02*
X45775000Y36895000D01*
X36775000Y45895000D02*
X45775000Y45895000D01*
X36775000Y36895000D02*
X36775000Y45895000D01*
X45775000Y36895000D02*
X36775000Y36895000D01*
X43307000Y48895000D02*
G75*
G03X43307000Y48895000I-2032000J0D01*
G01*
%TO.C,ZT4*%
X38735000Y17145000D02*
X38735000Y21590000D01*
X35877500Y1587500D02*
X35877500Y17145000D01*
X46672500Y1587500D02*
X35877500Y1587500D01*
X46672500Y17145000D02*
X46672500Y1587500D01*
X35877500Y17145000D02*
X46672500Y17145000D01*
X43815000Y17145000D02*
X43815000Y21590000D01*
X41275000Y17145000D02*
X41275000Y21590000D01*
X38735000Y17145000D02*
X38735000Y19685000D01*
X36775000Y7445000D02*
X36775000Y16445000D01*
X45775000Y7445000D02*
X36775000Y7445000D01*
X45775000Y16445000D02*
X45775000Y7445000D01*
X36775000Y16445000D02*
X45775000Y16445000D01*
X43307000Y4445000D02*
G75*
G03X43307000Y4445000I-2032000J0D01*
G01*
%TO.C,ZT3*%
X31750000Y36195000D02*
X31750000Y31750000D01*
X34607500Y51752500D02*
X34607500Y36195000D01*
X23812500Y51752500D02*
X34607500Y51752500D01*
X23812500Y36195000D02*
X23812500Y51752500D01*
X34607500Y36195000D02*
X23812500Y36195000D01*
X26670000Y36195000D02*
X26670000Y31750000D01*
X29210000Y36195000D02*
X29210000Y31750000D01*
X31750000Y36195000D02*
X31750000Y33655000D01*
X33710000Y45895000D02*
X33710000Y36895000D01*
X24710000Y45895000D02*
X33710000Y45895000D01*
X24710000Y36895000D02*
X24710000Y45895000D01*
X33710000Y36895000D02*
X24710000Y36895000D01*
X31242000Y48895000D02*
G75*
G03X31242000Y48895000I-2032000J0D01*
G01*
%TO.C,ZT2*%
X26670000Y17145000D02*
X26670000Y21590000D01*
X23812500Y1587500D02*
X23812500Y17145000D01*
X34607500Y1587500D02*
X23812500Y1587500D01*
X34607500Y17145000D02*
X34607500Y1587500D01*
X23812500Y17145000D02*
X34607500Y17145000D01*
X31750000Y17145000D02*
X31750000Y21590000D01*
X29210000Y17145000D02*
X29210000Y21590000D01*
X26670000Y17145000D02*
X26670000Y19685000D01*
X24710000Y7445000D02*
X24710000Y16445000D01*
X33710000Y7445000D02*
X24710000Y7445000D01*
X33710000Y16445000D02*
X33710000Y7445000D01*
X24710000Y16445000D02*
X33710000Y16445000D01*
X31242000Y4445000D02*
G75*
G03X31242000Y4445000I-2032000J0D01*
G01*
%TO.C,T9*%
X16335000Y59880500D02*
X16335000Y65913000D01*
X23035000Y59880500D02*
X16335000Y59880500D01*
X23035000Y65913000D02*
X23035000Y59880500D01*
X16335000Y65913000D02*
X23035000Y65913000D01*
X21485000Y56896000D02*
X21485000Y59880500D01*
X22485000Y56896000D02*
X21485000Y56896000D01*
X22485000Y59880500D02*
X22485000Y56896000D01*
X21485000Y59880500D02*
X22485000Y59880500D01*
X16885000Y57023000D02*
X16885000Y59880500D01*
X17885000Y57023000D02*
X16885000Y57023000D01*
X17885000Y59880500D02*
X17885000Y57023000D01*
X16885000Y59880500D02*
X17885000Y59880500D01*
X16827500Y66548000D02*
X16827500Y65913000D01*
X17462500Y67183000D02*
X16827500Y66548000D01*
X17462500Y67500500D02*
X17462500Y67183000D01*
X21907500Y67500500D02*
X17462500Y67500500D01*
X21907500Y67183000D02*
X21907500Y67500500D01*
X22542500Y66548000D02*
X21907500Y67183000D01*
X22542500Y65913000D02*
X22542500Y66548000D01*
X19185000Y58610500D02*
X19185000Y59880500D01*
X20185000Y58610500D02*
X19185000Y58610500D01*
X20185000Y59880500D02*
X20185000Y58610500D01*
X19185000Y59880500D02*
X20185000Y59880500D01*
%TO.C,T7*%
X49990000Y37973000D02*
X49990000Y44005500D01*
X56690000Y37973000D02*
X49990000Y37973000D01*
X56690000Y44005500D02*
X56690000Y37973000D01*
X49990000Y44005500D02*
X56690000Y44005500D01*
X55140000Y34988500D02*
X55140000Y37973000D01*
X56140000Y34988500D02*
X55140000Y34988500D01*
X56140000Y37973000D02*
X56140000Y34988500D01*
X55140000Y37973000D02*
X56140000Y37973000D01*
X50540000Y35115500D02*
X50540000Y37973000D01*
X51540000Y35115500D02*
X50540000Y35115500D01*
X51540000Y37973000D02*
X51540000Y35115500D01*
X50540000Y37973000D02*
X51540000Y37973000D01*
X50482500Y44640500D02*
X50482500Y44005500D01*
X51117500Y45275500D02*
X50482500Y44640500D01*
X51117500Y45593000D02*
X51117500Y45275500D01*
X55562500Y45593000D02*
X51117500Y45593000D01*
X55562500Y45275500D02*
X55562500Y45593000D01*
X56197500Y44640500D02*
X55562500Y45275500D01*
X56197500Y44005500D02*
X56197500Y44640500D01*
X52840000Y36703000D02*
X52840000Y37973000D01*
X53840000Y36703000D02*
X52840000Y36703000D01*
X53840000Y37973000D02*
X53840000Y36703000D01*
X52840000Y37973000D02*
X53840000Y37973000D01*
%TO.C,T6*%
X56690000Y15684500D02*
X56690000Y9652000D01*
X49990000Y15684500D02*
X56690000Y15684500D01*
X49990000Y9652000D02*
X49990000Y15684500D01*
X56690000Y9652000D02*
X49990000Y9652000D01*
X51540000Y18669000D02*
X51540000Y15684500D01*
X50540000Y18669000D02*
X51540000Y18669000D01*
X50540000Y15684500D02*
X50540000Y18669000D01*
X51540000Y15684500D02*
X50540000Y15684500D01*
X56140000Y18542000D02*
X56140000Y15684500D01*
X55140000Y18542000D02*
X56140000Y18542000D01*
X55140000Y15684500D02*
X55140000Y18542000D01*
X56140000Y15684500D02*
X55140000Y15684500D01*
X56197500Y9017000D02*
X56197500Y9652000D01*
X55562500Y8382000D02*
X56197500Y9017000D01*
X55562500Y8064500D02*
X55562500Y8382000D01*
X51117500Y8064500D02*
X55562500Y8064500D01*
X51117500Y8382000D02*
X51117500Y8064500D01*
X50482500Y9017000D02*
X51117500Y8382000D01*
X50482500Y9652000D02*
X50482500Y9017000D01*
X53840000Y16954500D02*
X53840000Y15684500D01*
X52840000Y16954500D02*
X53840000Y16954500D01*
X52840000Y15684500D02*
X52840000Y16954500D01*
X53840000Y15684500D02*
X52840000Y15684500D01*
%TO.C,T5*%
X37925000Y37973000D02*
X37925000Y44005500D01*
X44625000Y37973000D02*
X37925000Y37973000D01*
X44625000Y44005500D02*
X44625000Y37973000D01*
X37925000Y44005500D02*
X44625000Y44005500D01*
X43075000Y34988500D02*
X43075000Y37973000D01*
X44075000Y34988500D02*
X43075000Y34988500D01*
X44075000Y37973000D02*
X44075000Y34988500D01*
X43075000Y37973000D02*
X44075000Y37973000D01*
X38475000Y35115500D02*
X38475000Y37973000D01*
X39475000Y35115500D02*
X38475000Y35115500D01*
X39475000Y37973000D02*
X39475000Y35115500D01*
X38475000Y37973000D02*
X39475000Y37973000D01*
X38417500Y44640500D02*
X38417500Y44005500D01*
X39052500Y45275500D02*
X38417500Y44640500D01*
X39052500Y45593000D02*
X39052500Y45275500D01*
X43497500Y45593000D02*
X39052500Y45593000D01*
X43497500Y45275500D02*
X43497500Y45593000D01*
X44132500Y44640500D02*
X43497500Y45275500D01*
X44132500Y44005500D02*
X44132500Y44640500D01*
X40775000Y36703000D02*
X40775000Y37973000D01*
X41775000Y36703000D02*
X40775000Y36703000D01*
X41775000Y37973000D02*
X41775000Y36703000D01*
X40775000Y37973000D02*
X41775000Y37973000D01*
%TO.C,T4*%
X44625000Y15684500D02*
X44625000Y9652000D01*
X37925000Y15684500D02*
X44625000Y15684500D01*
X37925000Y9652000D02*
X37925000Y15684500D01*
X44625000Y9652000D02*
X37925000Y9652000D01*
X39475000Y18669000D02*
X39475000Y15684500D01*
X38475000Y18669000D02*
X39475000Y18669000D01*
X38475000Y15684500D02*
X38475000Y18669000D01*
X39475000Y15684500D02*
X38475000Y15684500D01*
X44075000Y18542000D02*
X44075000Y15684500D01*
X43075000Y18542000D02*
X44075000Y18542000D01*
X43075000Y15684500D02*
X43075000Y18542000D01*
X44075000Y15684500D02*
X43075000Y15684500D01*
X44132500Y9017000D02*
X44132500Y9652000D01*
X43497500Y8382000D02*
X44132500Y9017000D01*
X43497500Y8064500D02*
X43497500Y8382000D01*
X39052500Y8064500D02*
X43497500Y8064500D01*
X39052500Y8382000D02*
X39052500Y8064500D01*
X38417500Y9017000D02*
X39052500Y8382000D01*
X38417500Y9652000D02*
X38417500Y9017000D01*
X41775000Y16954500D02*
X41775000Y15684500D01*
X40775000Y16954500D02*
X41775000Y16954500D01*
X40775000Y15684500D02*
X40775000Y16954500D01*
X41775000Y15684500D02*
X40775000Y15684500D01*
%TO.C,T3*%
X25860000Y37973000D02*
X25860000Y44005500D01*
X32560000Y37973000D02*
X25860000Y37973000D01*
X32560000Y44005500D02*
X32560000Y37973000D01*
X25860000Y44005500D02*
X32560000Y44005500D01*
X31010000Y34988500D02*
X31010000Y37973000D01*
X32010000Y34988500D02*
X31010000Y34988500D01*
X32010000Y37973000D02*
X32010000Y34988500D01*
X31010000Y37973000D02*
X32010000Y37973000D01*
X26410000Y35115500D02*
X26410000Y37973000D01*
X27410000Y35115500D02*
X26410000Y35115500D01*
X27410000Y37973000D02*
X27410000Y35115500D01*
X26410000Y37973000D02*
X27410000Y37973000D01*
X26352500Y44640500D02*
X26352500Y44005500D01*
X26987500Y45275500D02*
X26352500Y44640500D01*
X26987500Y45593000D02*
X26987500Y45275500D01*
X31432500Y45593000D02*
X26987500Y45593000D01*
X31432500Y45275500D02*
X31432500Y45593000D01*
X32067500Y44640500D02*
X31432500Y45275500D01*
X32067500Y44005500D02*
X32067500Y44640500D01*
X28710000Y36703000D02*
X28710000Y37973000D01*
X29710000Y36703000D02*
X28710000Y36703000D01*
X29710000Y37973000D02*
X29710000Y36703000D01*
X28710000Y37973000D02*
X29710000Y37973000D01*
%TO.C,T2*%
X32560000Y15684500D02*
X32560000Y9652000D01*
X25860000Y15684500D02*
X32560000Y15684500D01*
X25860000Y9652000D02*
X25860000Y15684500D01*
X32560000Y9652000D02*
X25860000Y9652000D01*
X27410000Y18669000D02*
X27410000Y15684500D01*
X26410000Y18669000D02*
X27410000Y18669000D01*
X26410000Y15684500D02*
X26410000Y18669000D01*
X27410000Y15684500D02*
X26410000Y15684500D01*
X32010000Y18542000D02*
X32010000Y15684500D01*
X31010000Y18542000D02*
X32010000Y18542000D01*
X31010000Y15684500D02*
X31010000Y18542000D01*
X32010000Y15684500D02*
X31010000Y15684500D01*
X32067500Y9017000D02*
X32067500Y9652000D01*
X31432500Y8382000D02*
X32067500Y9017000D01*
X31432500Y8064500D02*
X31432500Y8382000D01*
X26987500Y8064500D02*
X31432500Y8064500D01*
X26987500Y8382000D02*
X26987500Y8064500D01*
X26352500Y9017000D02*
X26987500Y8382000D01*
X26352500Y9652000D02*
X26352500Y9017000D01*
X29710000Y16954500D02*
X29710000Y15684500D01*
X28710000Y16954500D02*
X29710000Y16954500D01*
X28710000Y15684500D02*
X28710000Y16954500D01*
X29710000Y15684500D02*
X28710000Y15684500D01*
%TO.C,IC6*%
X48085000Y59563000D02*
X48085000Y65595500D01*
X54785000Y59563000D02*
X48085000Y59563000D01*
X54785000Y65595500D02*
X54785000Y59563000D01*
X48085000Y65595500D02*
X54785000Y65595500D01*
X53235000Y56578500D02*
X53235000Y59563000D01*
X54235000Y56578500D02*
X53235000Y56578500D01*
X54235000Y59563000D02*
X54235000Y56578500D01*
X53235000Y59563000D02*
X54235000Y59563000D01*
X48635000Y56705500D02*
X48635000Y59563000D01*
X49635000Y56705500D02*
X48635000Y56705500D01*
X49635000Y59563000D02*
X49635000Y56705500D01*
X48635000Y59563000D02*
X49635000Y59563000D01*
X48577500Y66230500D02*
X48577500Y65595500D01*
X49212500Y66865500D02*
X48577500Y66230500D01*
X49212500Y67183000D02*
X49212500Y66865500D01*
X53657500Y67183000D02*
X49212500Y67183000D01*
X53657500Y66865500D02*
X53657500Y67183000D01*
X54292500Y66230500D02*
X53657500Y66865500D01*
X54292500Y65595500D02*
X54292500Y66230500D01*
X50935000Y58293000D02*
X50935000Y59563000D01*
X51935000Y58293000D02*
X50935000Y58293000D01*
X51935000Y59563000D02*
X51935000Y58293000D01*
X50935000Y59563000D02*
X51935000Y59563000D01*
%TO.C,D17*%
X36370000Y62992000D02*
X36370000Y56959500D01*
X29670000Y62992000D02*
X36370000Y62992000D01*
X29670000Y56959500D02*
X29670000Y62992000D01*
X36370000Y56959500D02*
X29670000Y56959500D01*
X31220000Y65976500D02*
X31220000Y62992000D01*
X30220000Y65976500D02*
X31220000Y65976500D01*
X30220000Y62992000D02*
X30220000Y65976500D01*
X31220000Y62992000D02*
X30220000Y62992000D01*
X35820000Y65849500D02*
X35820000Y62992000D01*
X34820000Y65849500D02*
X35820000Y65849500D01*
X34820000Y62992000D02*
X34820000Y65849500D01*
X35820000Y62992000D02*
X34820000Y62992000D01*
X35877500Y56324500D02*
X35877500Y56959500D01*
X35242500Y55689500D02*
X35877500Y56324500D01*
X35242500Y55372000D02*
X35242500Y55689500D01*
X30797500Y55372000D02*
X35242500Y55372000D01*
X30797500Y55689500D02*
X30797500Y55372000D01*
X30162500Y56324500D02*
X30797500Y55689500D01*
X30162500Y56959500D02*
X30162500Y56324500D01*
X33520000Y64262000D02*
X33520000Y62992000D01*
X32520000Y64262000D02*
X33520000Y64262000D01*
X32520000Y62992000D02*
X32520000Y64262000D01*
X33520000Y62992000D02*
X32520000Y62992000D01*
%TD*%
%TO.C,cam5*%
D11*
X-4270595Y-49448320D02*
X-4270595Y-48448320D01*
X-4746785Y-48781654D02*
X-4746785Y-49448320D01*
X-4746785Y-48876892D02*
X-4794404Y-48829273D01*
X-4889642Y-48781654D01*
X-5032500Y-48781654D01*
X-5127738Y-48829273D01*
X-5175357Y-48924511D01*
X-5175357Y-49448320D01*
X-6080119Y-49448320D02*
X-6080119Y-48448320D01*
X-6080119Y-49400701D02*
X-5984880Y-49448320D01*
X-5794404Y-49448320D01*
X-5699166Y-49400701D01*
X-5651547Y-49353082D01*
X-5603928Y-49257844D01*
X-5603928Y-48972130D01*
X-5651547Y-48876892D01*
X-5699166Y-48829273D01*
X-5794404Y-48781654D01*
X-5984880Y-48781654D01*
X-6080119Y-48829273D01*
X-7318214Y-49353082D02*
X-7365833Y-49400701D01*
X-7318214Y-49448320D01*
X-7270595Y-49400701D01*
X-7318214Y-49353082D01*
X-7318214Y-49448320D01*
X-7318214Y-48829273D02*
X-7365833Y-48876892D01*
X-7318214Y-48924511D01*
X-7270595Y-48876892D01*
X-7318214Y-48829273D01*
X-7318214Y-48924511D01*
X12729404Y-48924511D02*
X12396071Y-48924511D01*
X12253214Y-49448320D02*
X12729404Y-49448320D01*
X12729404Y-48448320D01*
X12253214Y-48448320D01*
X11396071Y-49400701D02*
X11491309Y-49448320D01*
X11681785Y-49448320D01*
X11777023Y-49400701D01*
X11824642Y-49353082D01*
X11872261Y-49257844D01*
X11872261Y-48972130D01*
X11824642Y-48876892D01*
X11777023Y-48829273D01*
X11681785Y-48781654D01*
X11491309Y-48781654D01*
X11396071Y-48829273D01*
X10967500Y-49448320D02*
X10967500Y-48448320D01*
X10538928Y-49448320D02*
X10538928Y-48924511D01*
X10586547Y-48829273D01*
X10681785Y-48781654D01*
X10824642Y-48781654D01*
X10919880Y-48829273D01*
X10967500Y-48876892D01*
X9300833Y-49353082D02*
X9253214Y-49400701D01*
X9300833Y-49448320D01*
X9348452Y-49400701D01*
X9300833Y-49353082D01*
X9300833Y-49448320D01*
X9300833Y-48829273D02*
X9253214Y-48876892D01*
X9300833Y-48924511D01*
X9348452Y-48876892D01*
X9300833Y-48829273D01*
X9300833Y-48924511D01*
X7538928Y-49448320D02*
X8110357Y-49448320D01*
X7824642Y-49448320D02*
X7824642Y-48448320D01*
X7919880Y-48591178D01*
X8015119Y-48686416D01*
X8110357Y-48734035D01*
X6396071Y-48400701D02*
X7253214Y-49686416D01*
X5538928Y-49448320D02*
X6110357Y-49448320D01*
X5824642Y-49448320D02*
X5824642Y-48448320D01*
X5919880Y-48591178D01*
X6015119Y-48686416D01*
X6110357Y-48734035D01*
X12729404Y-54448320D02*
X12729404Y-53448320D01*
X12491309Y-53448320D01*
X12348452Y-53495940D01*
X12253214Y-53591178D01*
X12205595Y-53686416D01*
X12157976Y-53876892D01*
X12157976Y-54019749D01*
X12205595Y-54210225D01*
X12253214Y-54305463D01*
X12348452Y-54400701D01*
X12491309Y-54448320D01*
X12729404Y-54448320D01*
X11586547Y-54448320D02*
X11681785Y-54400701D01*
X11729404Y-54353082D01*
X11777023Y-54257844D01*
X11777023Y-53972130D01*
X11729404Y-53876892D01*
X11681785Y-53829273D01*
X11586547Y-53781654D01*
X11443690Y-53781654D01*
X11348452Y-53829273D01*
X11300833Y-53876892D01*
X11253214Y-53972130D01*
X11253214Y-54257844D01*
X11300833Y-54353082D01*
X11348452Y-54400701D01*
X11443690Y-54448320D01*
X11586547Y-54448320D01*
X10872261Y-54400701D02*
X10777023Y-54448320D01*
X10586547Y-54448320D01*
X10491309Y-54400701D01*
X10443690Y-54305463D01*
X10443690Y-54257844D01*
X10491309Y-54162606D01*
X10586547Y-54114987D01*
X10729404Y-54114987D01*
X10824642Y-54067368D01*
X10872261Y-53972130D01*
X10872261Y-53924511D01*
X10824642Y-53829273D01*
X10729404Y-53781654D01*
X10586547Y-53781654D01*
X10491309Y-53829273D01*
X10062738Y-54400701D02*
X9967500Y-54448320D01*
X9777023Y-54448320D01*
X9681785Y-54400701D01*
X9634166Y-54305463D01*
X9634166Y-54257844D01*
X9681785Y-54162606D01*
X9777023Y-54114987D01*
X9919880Y-54114987D01*
X10015119Y-54067368D01*
X10062738Y-53972130D01*
X10062738Y-53924511D01*
X10015119Y-53829273D01*
X9919880Y-53781654D01*
X9777023Y-53781654D01*
X9681785Y-53829273D01*
X9205595Y-54448320D02*
X9205595Y-53781654D01*
X9205595Y-53448320D02*
X9253214Y-53495940D01*
X9205595Y-53543559D01*
X9157976Y-53495940D01*
X9205595Y-53448320D01*
X9205595Y-53543559D01*
X8348452Y-54400701D02*
X8443690Y-54448320D01*
X8634166Y-54448320D01*
X8729404Y-54400701D01*
X8777023Y-54305463D01*
X8777023Y-53924511D01*
X8729404Y-53829273D01*
X8634166Y-53781654D01*
X8443690Y-53781654D01*
X8348452Y-53829273D01*
X8300833Y-53924511D01*
X8300833Y-54019749D01*
X8777023Y-54114987D01*
X7872261Y-54448320D02*
X7872261Y-53781654D01*
X7872261Y-53972130D02*
X7824642Y-53876892D01*
X7777023Y-53829273D01*
X7681785Y-53781654D01*
X7586547Y-53781654D01*
X6491309Y-54448320D02*
X6491309Y-53448320D01*
X5919880Y-54448320D01*
X5919880Y-53448320D01*
X5586547Y-53400701D02*
X5443690Y-53543559D01*
X5062738Y-54353082D02*
X5015119Y-54400701D01*
X5062738Y-54448320D01*
X5110357Y-54400701D01*
X5062738Y-54353082D01*
X5062738Y-54448320D01*
X5062738Y-53829273D02*
X5015119Y-53876892D01*
X5062738Y-53924511D01*
X5110357Y-53876892D01*
X5062738Y-53829273D01*
X5062738Y-53924511D01*
X38729404Y-54448320D02*
X38729404Y-53448320D01*
X38491309Y-53448320D01*
X38348452Y-53495940D01*
X38253214Y-53591178D01*
X38205595Y-53686416D01*
X38157976Y-53876892D01*
X38157976Y-54019749D01*
X38205595Y-54210225D01*
X38253214Y-54305463D01*
X38348452Y-54400701D01*
X38491309Y-54448320D01*
X38729404Y-54448320D01*
X37300833Y-54448320D02*
X37300833Y-53924511D01*
X37348452Y-53829273D01*
X37443690Y-53781654D01*
X37634166Y-53781654D01*
X37729404Y-53829273D01*
X37300833Y-54400701D02*
X37396071Y-54448320D01*
X37634166Y-54448320D01*
X37729404Y-54400701D01*
X37777023Y-54305463D01*
X37777023Y-54210225D01*
X37729404Y-54114987D01*
X37634166Y-54067368D01*
X37396071Y-54067368D01*
X37300833Y-54019749D01*
X36967500Y-53781654D02*
X36586547Y-53781654D01*
X36824642Y-53448320D02*
X36824642Y-54305463D01*
X36777023Y-54400701D01*
X36681785Y-54448320D01*
X36586547Y-54448320D01*
X35872261Y-54400701D02*
X35967500Y-54448320D01*
X36157976Y-54448320D01*
X36253214Y-54400701D01*
X36300833Y-54305463D01*
X36300833Y-53924511D01*
X36253214Y-53829273D01*
X36157976Y-53781654D01*
X35967500Y-53781654D01*
X35872261Y-53829273D01*
X35824642Y-53924511D01*
X35824642Y-54019749D01*
X36300833Y-54114987D01*
X34634166Y-54353082D02*
X34586547Y-54400701D01*
X34634166Y-54448320D01*
X34681785Y-54400701D01*
X34634166Y-54353082D01*
X34634166Y-54448320D01*
X34634166Y-53829273D02*
X34586547Y-53876892D01*
X34634166Y-53924511D01*
X34681785Y-53876892D01*
X34634166Y-53829273D01*
X34634166Y-53924511D01*
X108657976Y-49353082D02*
X108705595Y-49400701D01*
X108848452Y-49448320D01*
X108943690Y-49448320D01*
X109086547Y-49400701D01*
X109181785Y-49305463D01*
X109229404Y-49210225D01*
X109277023Y-49019749D01*
X109277023Y-48876892D01*
X109229404Y-48686416D01*
X109181785Y-48591178D01*
X109086547Y-48495940D01*
X108943690Y-48448320D01*
X108848452Y-48448320D01*
X108705595Y-48495940D01*
X108657976Y-48543559D01*
X107800833Y-49448320D02*
X107800833Y-48924511D01*
X107848452Y-48829273D01*
X107943690Y-48781654D01*
X108134166Y-48781654D01*
X108229404Y-48829273D01*
X107800833Y-49400701D02*
X107896071Y-49448320D01*
X108134166Y-49448320D01*
X108229404Y-49400701D01*
X108277023Y-49305463D01*
X108277023Y-49210225D01*
X108229404Y-49114987D01*
X108134166Y-49067368D01*
X107896071Y-49067368D01*
X107800833Y-49019749D01*
X107324642Y-49448320D02*
X107324642Y-48781654D01*
X107324642Y-48972130D02*
X107277023Y-48876892D01*
X107229404Y-48829273D01*
X107134166Y-48781654D01*
X107038928Y-48781654D01*
X106848452Y-48781654D02*
X106467500Y-48781654D01*
X106705595Y-48448320D02*
X106705595Y-49305463D01*
X106657976Y-49400701D01*
X106562738Y-49448320D01*
X106467500Y-49448320D01*
X105753214Y-49400701D02*
X105848452Y-49448320D01*
X106038928Y-49448320D01*
X106134166Y-49400701D01*
X106181785Y-49305463D01*
X106181785Y-48924511D01*
X106134166Y-48829273D01*
X106038928Y-48781654D01*
X105848452Y-48781654D01*
X105753214Y-48829273D01*
X105705595Y-48924511D01*
X105705595Y-49019749D01*
X106181785Y-49114987D01*
X104515119Y-49353082D02*
X104467500Y-49400701D01*
X104515119Y-49448320D01*
X104562738Y-49400701D01*
X104515119Y-49353082D01*
X104515119Y-49448320D01*
X104515119Y-48829273D02*
X104467500Y-48876892D01*
X104515119Y-48924511D01*
X104562738Y-48876892D01*
X104515119Y-48829273D01*
X104515119Y-48924511D01*
X64396071Y-53924511D02*
X64729404Y-53924511D01*
X64729404Y-54448320D02*
X64729404Y-53448320D01*
X64253214Y-53448320D01*
X63443690Y-54448320D02*
X63443690Y-53924511D01*
X63491309Y-53829273D01*
X63586547Y-53781654D01*
X63777023Y-53781654D01*
X63872261Y-53829273D01*
X63443690Y-54400701D02*
X63538928Y-54448320D01*
X63777023Y-54448320D01*
X63872261Y-54400701D01*
X63919880Y-54305463D01*
X63919880Y-54210225D01*
X63872261Y-54114987D01*
X63777023Y-54067368D01*
X63538928Y-54067368D01*
X63443690Y-54019749D01*
X62967500Y-54448320D02*
X62967500Y-53781654D01*
X62967500Y-53448320D02*
X63015119Y-53495940D01*
X62967500Y-53543559D01*
X62919880Y-53495940D01*
X62967500Y-53448320D01*
X62967500Y-53543559D01*
X62634166Y-53781654D02*
X62253214Y-53781654D01*
X62491309Y-53448320D02*
X62491309Y-54305463D01*
X62443690Y-54400701D01*
X62348452Y-54448320D01*
X62253214Y-54448320D01*
X61157976Y-53781654D02*
X61157976Y-54781654D01*
X61157976Y-53829273D02*
X61062738Y-53781654D01*
X60872261Y-53781654D01*
X60777023Y-53829273D01*
X60729404Y-53876892D01*
X60681785Y-53972130D01*
X60681785Y-54257844D01*
X60729404Y-54353082D01*
X60777023Y-54400701D01*
X60872261Y-54448320D01*
X61062738Y-54448320D01*
X61157976Y-54400701D01*
X59824642Y-54448320D02*
X59824642Y-53924511D01*
X59872261Y-53829273D01*
X59967500Y-53781654D01*
X60157976Y-53781654D01*
X60253214Y-53829273D01*
X59824642Y-54400701D02*
X59919880Y-54448320D01*
X60157976Y-54448320D01*
X60253214Y-54400701D01*
X60300833Y-54305463D01*
X60300833Y-54210225D01*
X60253214Y-54114987D01*
X60157976Y-54067368D01*
X59919880Y-54067368D01*
X59824642Y-54019749D01*
X59348452Y-54448320D02*
X59348452Y-53781654D01*
X59348452Y-53972130D02*
X59300833Y-53876892D01*
X59253214Y-53829273D01*
X59157976Y-53781654D01*
X59062738Y-53781654D01*
X57967500Y-54353082D02*
X57919880Y-54400701D01*
X57967500Y-54448320D01*
X58015119Y-54400701D01*
X57967500Y-54353082D01*
X57967500Y-54448320D01*
X57967500Y-53829273D02*
X57919880Y-53876892D01*
X57967500Y-53924511D01*
X58015119Y-53876892D01*
X57967500Y-53829273D01*
X57967500Y-53924511D01*
X56396071Y-53924511D02*
X56729404Y-53924511D01*
X56729404Y-54448320D02*
X56729404Y-53448320D01*
X56253214Y-53448320D01*
X55872261Y-53924511D02*
X55538928Y-53924511D01*
X55396071Y-54448320D02*
X55872261Y-54448320D01*
X55872261Y-53448320D01*
X55396071Y-53448320D01*
X54967500Y-53924511D02*
X54634166Y-53924511D01*
X54491309Y-54448320D02*
X54967500Y-54448320D01*
X54967500Y-53448320D01*
X54491309Y-53448320D01*
X108657976Y-54353082D02*
X108705595Y-54400701D01*
X108848452Y-54448320D01*
X108943690Y-54448320D01*
X109086547Y-54400701D01*
X109181785Y-54305463D01*
X109229404Y-54210225D01*
X109277023Y-54019749D01*
X109277023Y-53876892D01*
X109229404Y-53686416D01*
X109181785Y-53591178D01*
X109086547Y-53495940D01*
X108943690Y-53448320D01*
X108848452Y-53448320D01*
X108705595Y-53495940D01*
X108657976Y-53543559D01*
X108086547Y-54448320D02*
X108181785Y-54400701D01*
X108229404Y-54305463D01*
X108229404Y-53448320D01*
X107705595Y-54448320D02*
X107705595Y-53781654D01*
X107705595Y-53448320D02*
X107753214Y-53495940D01*
X107705595Y-53543559D01*
X107657976Y-53495940D01*
X107705595Y-53448320D01*
X107705595Y-53543559D01*
X106848452Y-54400701D02*
X106943690Y-54448320D01*
X107134166Y-54448320D01*
X107229404Y-54400701D01*
X107277023Y-54305463D01*
X107277023Y-53924511D01*
X107229404Y-53829273D01*
X107134166Y-53781654D01*
X106943690Y-53781654D01*
X106848452Y-53829273D01*
X106800833Y-53924511D01*
X106800833Y-54019749D01*
X107277023Y-54114987D01*
X106372261Y-53781654D02*
X106372261Y-54448320D01*
X106372261Y-53876892D02*
X106324642Y-53829273D01*
X106229404Y-53781654D01*
X106086547Y-53781654D01*
X105991309Y-53829273D01*
X105943690Y-53924511D01*
X105943690Y-54448320D01*
X105610357Y-53781654D02*
X105229404Y-53781654D01*
X105467500Y-53448320D02*
X105467500Y-54305463D01*
X105419880Y-54400701D01*
X105324642Y-54448320D01*
X105229404Y-54448320D01*
X104134166Y-54353082D02*
X104086547Y-54400701D01*
X104134166Y-54448320D01*
X104181785Y-54400701D01*
X104134166Y-54353082D01*
X104134166Y-54448320D01*
X104134166Y-53829273D02*
X104086547Y-53876892D01*
X104134166Y-53924511D01*
X104181785Y-53876892D01*
X104134166Y-53829273D01*
X104134166Y-53924511D01*
X-43369761Y-52158491D02*
X-43036428Y-52158491D01*
X-43036428Y-52682300D02*
X-43036428Y-51682300D01*
X-43512619Y-51682300D01*
X-43893571Y-52682300D02*
X-43893571Y-52015634D01*
X-43893571Y-52206110D02*
X-43941190Y-52110872D01*
X-43988809Y-52063253D01*
X-44084047Y-52015634D01*
X-44179285Y-52015634D01*
X-44941190Y-52682300D02*
X-44941190Y-52158491D01*
X-44893571Y-52063253D01*
X-44798333Y-52015634D01*
X-44607857Y-52015634D01*
X-44512619Y-52063253D01*
X-44941190Y-52634681D02*
X-44845952Y-52682300D01*
X-44607857Y-52682300D01*
X-44512619Y-52634681D01*
X-44465000Y-52539443D01*
X-44465000Y-52444205D01*
X-44512619Y-52348967D01*
X-44607857Y-52301348D01*
X-44845952Y-52301348D01*
X-44941190Y-52253729D01*
X-45417380Y-52015634D02*
X-45417380Y-52682300D01*
X-45417380Y-52110872D02*
X-45465000Y-52063253D01*
X-45560238Y-52015634D01*
X-45703095Y-52015634D01*
X-45798333Y-52063253D01*
X-45845952Y-52158491D01*
X-45845952Y-52682300D01*
X-46750714Y-52634681D02*
X-46655476Y-52682300D01*
X-46465000Y-52682300D01*
X-46369761Y-52634681D01*
X-46322142Y-52587062D01*
X-46274523Y-52491824D01*
X-46274523Y-52206110D01*
X-46322142Y-52110872D01*
X-46369761Y-52063253D01*
X-46465000Y-52015634D01*
X-46655476Y-52015634D01*
X-46750714Y-52063253D01*
X-47560238Y-52634681D02*
X-47465000Y-52682300D01*
X-47274523Y-52682300D01*
X-47179285Y-52634681D01*
X-47131666Y-52539443D01*
X-47131666Y-52158491D01*
X-47179285Y-52063253D01*
X-47274523Y-52015634D01*
X-47465000Y-52015634D01*
X-47560238Y-52063253D01*
X-47607857Y-52158491D01*
X-47607857Y-52253729D01*
X-47131666Y-52348967D01*
X-48798333Y-52158491D02*
X-49131666Y-52158491D01*
X-49274523Y-52682300D02*
X-48798333Y-52682300D01*
X-48798333Y-51682300D01*
X-49274523Y-51682300D01*
X-49560238Y-52015634D02*
X-49941190Y-52015634D01*
X-49703095Y-51682300D02*
X-49703095Y-52539443D01*
X-49750714Y-52634681D01*
X-49845952Y-52682300D01*
X-49941190Y-52682300D01*
X-50703095Y-52015634D02*
X-50703095Y-52682300D01*
X-50274523Y-52015634D02*
X-50274523Y-52539443D01*
X-50322142Y-52634681D01*
X-50417380Y-52682300D01*
X-50560238Y-52682300D01*
X-50655476Y-52634681D01*
X-50703095Y-52587062D01*
X-51607857Y-52682300D02*
X-51607857Y-51682300D01*
X-51607857Y-52634681D02*
X-51512619Y-52682300D01*
X-51322142Y-52682300D01*
X-51226904Y-52634681D01*
X-51179285Y-52587062D01*
X-51131666Y-52491824D01*
X-51131666Y-52206110D01*
X-51179285Y-52110872D01*
X-51226904Y-52063253D01*
X-51322142Y-52015634D01*
X-51512619Y-52015634D01*
X-51607857Y-52063253D01*
X-52465000Y-52634681D02*
X-52369761Y-52682300D01*
X-52179285Y-52682300D01*
X-52084047Y-52634681D01*
X-52036428Y-52539443D01*
X-52036428Y-52158491D01*
X-52084047Y-52063253D01*
X-52179285Y-52015634D01*
X-52369761Y-52015634D01*
X-52465000Y-52063253D01*
X-52512619Y-52158491D01*
X-52512619Y-52253729D01*
X-52036428Y-52348967D01*
X-52893571Y-52634681D02*
X-52988809Y-52682300D01*
X-53179285Y-52682300D01*
X-53274523Y-52634681D01*
X-53322142Y-52539443D01*
X-53322142Y-52491824D01*
X-53274523Y-52396586D01*
X-53179285Y-52348967D01*
X-53036428Y-52348967D01*
X-52941190Y-52301348D01*
X-52893571Y-52206110D01*
X-52893571Y-52158491D01*
X-52941190Y-52063253D01*
X-53036428Y-52015634D01*
X-53179285Y-52015634D01*
X-53274523Y-52063253D01*
X-54512619Y-52158491D02*
X-54845952Y-52158491D01*
X-54988809Y-52682300D02*
X-54512619Y-52682300D01*
X-54512619Y-51682300D01*
X-54988809Y-51682300D01*
X-55560238Y-52682300D02*
X-55465000Y-52634681D01*
X-55417380Y-52539443D01*
X-55417380Y-51682300D01*
X-56322142Y-52634681D02*
X-56226904Y-52682300D01*
X-56036428Y-52682300D01*
X-55941190Y-52634681D01*
X-55893571Y-52539443D01*
X-55893571Y-52158491D01*
X-55941190Y-52063253D01*
X-56036428Y-52015634D01*
X-56226904Y-52015634D01*
X-56322142Y-52063253D01*
X-56369761Y-52158491D01*
X-56369761Y-52253729D01*
X-55893571Y-52348967D01*
X-57226904Y-52634681D02*
X-57131666Y-52682300D01*
X-56941190Y-52682300D01*
X-56845952Y-52634681D01*
X-56798333Y-52587062D01*
X-56750714Y-52491824D01*
X-56750714Y-52206110D01*
X-56798333Y-52110872D01*
X-56845952Y-52063253D01*
X-56941190Y-52015634D01*
X-57131666Y-52015634D01*
X-57226904Y-52063253D01*
X-57512619Y-52015634D02*
X-57893571Y-52015634D01*
X-57655476Y-51682300D02*
X-57655476Y-52539443D01*
X-57703095Y-52634681D01*
X-57798333Y-52682300D01*
X-57893571Y-52682300D01*
X-58226904Y-52682300D02*
X-58226904Y-52015634D01*
X-58226904Y-52206110D02*
X-58274523Y-52110872D01*
X-58322142Y-52063253D01*
X-58417380Y-52015634D01*
X-58512619Y-52015634D01*
X-58988809Y-52682300D02*
X-58893571Y-52634681D01*
X-58845952Y-52587062D01*
X-58798333Y-52491824D01*
X-58798333Y-52206110D01*
X-58845952Y-52110872D01*
X-58893571Y-52063253D01*
X-58988809Y-52015634D01*
X-59131666Y-52015634D01*
X-59226904Y-52063253D01*
X-59274523Y-52110872D01*
X-59322142Y-52206110D01*
X-59322142Y-52491824D01*
X-59274523Y-52587062D01*
X-59226904Y-52634681D01*
X-59131666Y-52682300D01*
X-58988809Y-52682300D01*
X-59750714Y-52015634D02*
X-59750714Y-52682300D01*
X-59750714Y-52110872D02*
X-59798333Y-52063253D01*
X-59893571Y-52015634D01*
X-60036428Y-52015634D01*
X-60131666Y-52063253D01*
X-60179285Y-52158491D01*
X-60179285Y-52682300D01*
X-60655476Y-52682300D02*
X-60655476Y-52015634D01*
X-60655476Y-51682300D02*
X-60607857Y-51729920D01*
X-60655476Y-51777539D01*
X-60703095Y-51729920D01*
X-60655476Y-51682300D01*
X-60655476Y-51777539D01*
X-61560238Y-52015634D02*
X-61560238Y-53015634D01*
X-61560238Y-52634681D02*
X-61465000Y-52682300D01*
X-61274523Y-52682300D01*
X-61179285Y-52634681D01*
X-61131666Y-52587062D01*
X-61084047Y-52491824D01*
X-61084047Y-52206110D01*
X-61131666Y-52110872D01*
X-61179285Y-52063253D01*
X-61274523Y-52015634D01*
X-61465000Y-52015634D01*
X-61560238Y-52063253D01*
X-62465000Y-52015634D02*
X-62465000Y-52682300D01*
X-62036428Y-52015634D02*
X-62036428Y-52539443D01*
X-62084047Y-52634681D01*
X-62179285Y-52682300D01*
X-62322142Y-52682300D01*
X-62417380Y-52634681D01*
X-62465000Y-52587062D01*
X-63322142Y-52634681D02*
X-63226904Y-52682300D01*
X-63036428Y-52682300D01*
X-62941190Y-52634681D01*
X-62893571Y-52539443D01*
X-62893571Y-52158491D01*
X-62941190Y-52063253D01*
X-63036428Y-52015634D01*
X-63226904Y-52015634D01*
X-63322142Y-52063253D01*
X-63369761Y-52158491D01*
X-63369761Y-52253729D01*
X-62893571Y-52348967D01*
X-63750714Y-52634681D02*
X-63845952Y-52682300D01*
X-64036428Y-52682300D01*
X-64131666Y-52634681D01*
X-64179285Y-52539443D01*
X-64179285Y-52491824D01*
X-64131666Y-52396586D01*
X-64036428Y-52348967D01*
X-63893571Y-52348967D01*
X-63798333Y-52301348D01*
X-63750714Y-52206110D01*
X-63750714Y-52158491D01*
X-63798333Y-52063253D01*
X-63893571Y-52015634D01*
X-64036428Y-52015634D01*
X-64131666Y-52063253D01*
%TD*%
M02*
