%TF.GenerationSoftware,KiCad,Pcbnew,5.1.5-52549c5~86~ubuntu18.04.1*%
%TF.CreationDate,2020-06-02T09:11:53-05:00*%
%TF.ProjectId,ctrb0505-A,63747262-3035-4303-952d-412e6b696361,rev?*%
%TF.SameCoordinates,Original*%
%TF.FileFunction,NonPlated,1,4,NPTH*%
%TF.FilePolarity,Positive*%
%FSLAX46Y46*%
G04 Gerber Fmt 4.6, Leading zero omitted, Abs format (unit mm)*
G04 Created by KiCad (PCBNEW 5.1.5-52549c5~86~ubuntu18.04.1) date 2020-06-02 09:11:53*
%MOMM*%
%LPD*%
G04 APERTURE LIST*
G04 APERTURE END LIST*
M02*
