%TF.GenerationSoftware,KiCad,Pcbnew,5.1.5-52549c5~86~ubuntu18.04.1*%
%TF.CreationDate,2020-06-01T06:14:05-05:00*%
%TF.ProjectId,GR106768 Buzzer,47523130-3637-4363-9820-42757a7a6572,rev?*%
%TF.SameCoordinates,Original*%
%TF.FileFunction,Other,Fab,Bot*%
%FSLAX46Y46*%
G04 Gerber Fmt 4.6, Leading zero omitted, Abs format (unit mm)*
G04 Created by KiCad (PCBNEW 5.1.5-52549c5~86~ubuntu18.04.1) date 2020-06-01 06:14:05*
%MOMM*%
%LPD*%
G04 APERTURE LIST*
%ADD10C,0.100000*%
%ADD11C,0.150000*%
%ADD12C,0.020000*%
%ADD13C,0.254000*%
%ADD14C,0.203200*%
%ADD15C,0.200000*%
%ADD16C,0.101600*%
%ADD17C,0.250000*%
%ADD18C,0.050000*%
G04 APERTURE END LIST*
D10*
X76000000Y0D02*
X0Y0D01*
X76000000Y58000000D02*
X76000000Y0D01*
X0Y58000000D02*
X76000000Y58000000D01*
X0Y0D02*
X0Y58000000D01*
X50442060Y56048590D02*
X25342060Y56048590D01*
X50442060Y43948590D02*
X50442060Y56048590D01*
X25342060Y43948590D02*
X50442060Y43948590D01*
X25342060Y56048590D02*
X25342060Y43948590D01*
X21291476Y10025142D02*
X21134333Y9971571D01*
X20872428Y9971571D01*
X20767666Y10025142D01*
X20715285Y10078714D01*
X20662904Y10185857D01*
X20662904Y10293000D01*
X20715285Y10400142D01*
X20767666Y10453714D01*
X20872428Y10507285D01*
X21081952Y10560857D01*
X21186714Y10614428D01*
X21239095Y10668000D01*
X21291476Y10775142D01*
X21291476Y10882285D01*
X21239095Y10989428D01*
X21186714Y11043000D01*
X21081952Y11096571D01*
X20820047Y11096571D01*
X20662904Y11043000D01*
X20296238Y11096571D02*
X20034333Y9971571D01*
X19824809Y10775142D01*
X19615285Y9971571D01*
X19353380Y11096571D01*
X18358142Y9971571D02*
X18986714Y9971571D01*
X18672428Y9971571D02*
X18672428Y11096571D01*
X18777190Y10935857D01*
X18881952Y10828714D01*
X18986714Y10775142D01*
X21164916Y1605562D02*
X21007773Y1551991D01*
X20745868Y1551991D01*
X20641106Y1605562D01*
X20588725Y1659134D01*
X20536344Y1766277D01*
X20536344Y1873420D01*
X20588725Y1980562D01*
X20641106Y2034134D01*
X20745868Y2087705D01*
X20955392Y2141277D01*
X21060154Y2194848D01*
X21112535Y2248420D01*
X21164916Y2355562D01*
X21164916Y2462705D01*
X21112535Y2569848D01*
X21060154Y2623420D01*
X20955392Y2676991D01*
X20693487Y2676991D01*
X20536344Y2623420D01*
X19750630Y2676991D02*
X19750630Y1873420D01*
X19803011Y1712705D01*
X19907773Y1605562D01*
X20064916Y1551991D01*
X20169678Y1551991D01*
X18650630Y1551991D02*
X19279201Y1551991D01*
X18964916Y1551991D02*
X18964916Y2676991D01*
X19069678Y2516277D01*
X19174440Y2409134D01*
X19279201Y2355562D01*
D11*
X59790023Y26476914D02*
X59842404Y26423342D01*
X59999547Y26369771D01*
X60104309Y26369771D01*
X60261452Y26423342D01*
X60366214Y26530485D01*
X60418595Y26637628D01*
X60470976Y26851914D01*
X60470976Y27012628D01*
X60418595Y27226914D01*
X60366214Y27334057D01*
X60261452Y27441200D01*
X60104309Y27494771D01*
X59999547Y27494771D01*
X59842404Y27441200D01*
X59790023Y27387628D01*
X58742404Y26369771D02*
X59370976Y26369771D01*
X59056690Y26369771D02*
X59056690Y27494771D01*
X59161452Y27334057D01*
X59266214Y27226914D01*
X59370976Y27173342D01*
X58323357Y27387628D02*
X58270976Y27441200D01*
X58166214Y27494771D01*
X57904309Y27494771D01*
X57799547Y27441200D01*
X57747166Y27387628D01*
X57694785Y27280485D01*
X57694785Y27173342D01*
X57747166Y27012628D01*
X58375738Y26369771D01*
X57694785Y26369771D01*
X19314928Y26989857D02*
X19157785Y26936285D01*
X19105404Y26882714D01*
X19053023Y26775571D01*
X19053023Y26614857D01*
X19105404Y26507714D01*
X19157785Y26454142D01*
X19262547Y26400571D01*
X19681595Y26400571D01*
X19681595Y27525571D01*
X19314928Y27525571D01*
X19210166Y27472000D01*
X19157785Y27418428D01*
X19105404Y27311285D01*
X19105404Y27204142D01*
X19157785Y27097000D01*
X19210166Y27043428D01*
X19314928Y26989857D01*
X19681595Y26989857D01*
X18633976Y26722000D02*
X18110166Y26722000D01*
X18738738Y26400571D02*
X18372071Y27525571D01*
X18005404Y26400571D01*
X17795880Y27525571D02*
X17167309Y27525571D01*
X17481595Y26400571D02*
X17481595Y27525571D01*
X16224452Y26400571D02*
X16853023Y26400571D01*
X16538738Y26400571D02*
X16538738Y27525571D01*
X16643500Y27364857D01*
X16748261Y27257714D01*
X16853023Y27204142D01*
D12*
%TO.C,cam9*%
G36*
X76000000Y61810000D02*
G01*
X77270000Y61810000D01*
X77270000Y59270000D01*
X79810000Y59270000D01*
X79810000Y58000000D01*
X76000000Y58000000D01*
X76000000Y61810000D01*
G37*
X76000000Y61810000D02*
X77270000Y61810000D01*
X77270000Y59270000D01*
X79810000Y59270000D01*
X79810000Y58000000D01*
X76000000Y58000000D01*
X76000000Y61810000D01*
%TO.C,cam8*%
G36*
X79810000Y0D02*
G01*
X79810000Y-1270000D01*
X77270000Y-1270000D01*
X77270000Y-3810000D01*
X76000000Y-3810000D01*
X76000000Y0D01*
X79810000Y0D01*
G37*
X79810000Y0D02*
X79810000Y-1270000D01*
X77270000Y-1270000D01*
X77270000Y-3810000D01*
X76000000Y-3810000D01*
X76000000Y0D01*
X79810000Y0D01*
%TO.C,cam7*%
G36*
X0Y-3810000D02*
G01*
X-1270000Y-3810000D01*
X-1270000Y-1270000D01*
X-3810000Y-1270000D01*
X-3810000Y0D01*
X0Y0D01*
X0Y-3810000D01*
G37*
X0Y-3810000D02*
X-1270000Y-3810000D01*
X-1270000Y-1270000D01*
X-3810000Y-1270000D01*
X-3810000Y0D01*
X0Y0D01*
X0Y-3810000D01*
%TO.C,cam6*%
G36*
X-3810000Y58000000D02*
G01*
X-3810000Y59270000D01*
X-1270000Y59270000D01*
X-1270000Y61810000D01*
X0Y61810000D01*
X0Y58000000D01*
X-3810000Y58000000D01*
G37*
X-3810000Y58000000D02*
X-3810000Y59270000D01*
X-1270000Y59270000D01*
X-1270000Y61810000D01*
X0Y61810000D01*
X0Y58000000D01*
X-3810000Y58000000D01*
D11*
%TO.C,cam5*%
G36*
X-38931530Y-28444710D02*
G01*
X-39796430Y-28323170D01*
X-39897695Y-28301182D01*
X-39993923Y-28262735D01*
X-40082460Y-28208891D01*
X-40160863Y-28141135D01*
X-40226970Y-28061336D01*
X-40278956Y-27971696D01*
X-40315388Y-27874687D01*
X-40335259Y-27772986D01*
X-40338023Y-27669398D01*
X-40323603Y-27566782D01*
X-40292397Y-27467969D01*
X-40245265Y-27375684D01*
X-40183507Y-27292473D01*
X-40108829Y-27220632D01*
X-40023289Y-27162143D01*
X-39929248Y-27118620D01*
X-39829300Y-27091263D01*
X-39726203Y-27080827D01*
X-39622800Y-27087600D01*
X-39249580Y-27140050D01*
X-39230818Y-27240553D01*
X-39200758Y-27338273D01*
X-39159790Y-27431944D01*
X-39108443Y-27520354D01*
X-39047384Y-27602358D01*
X-38977402Y-27676892D01*
X-38899405Y-27742993D01*
X-38814403Y-27799803D01*
X-38723496Y-27846587D01*
X-38627862Y-27882739D01*
X-38528740Y-27907790D01*
X-38619301Y-27952083D01*
X-38701798Y-28010026D01*
X-38774191Y-28080187D01*
X-38834688Y-28160829D01*
X-38881794Y-28249960D01*
X-38914343Y-28345373D01*
X-38931530Y-28444710D01*
G37*
G36*
X-36076140Y-29643950D02*
G01*
X-36087038Y-29750824D01*
X-36113008Y-29855065D01*
X-36153524Y-29954560D01*
X-36207763Y-30047290D01*
X-36274626Y-30131374D01*
X-36352756Y-30205106D01*
X-36440569Y-30266990D01*
X-36536282Y-30315772D01*
X-36637955Y-30350462D01*
X-36743525Y-30370356D01*
X-36850850Y-30375050D01*
X-39733840Y-29969900D01*
X-39831165Y-29933295D01*
X-39921923Y-29882549D01*
X-40004073Y-29818805D01*
X-40075771Y-29743495D01*
X-40135402Y-29658312D01*
X-40181628Y-29565171D01*
X-40213408Y-29466166D01*
X-40230029Y-29363522D01*
X-40231117Y-29259547D01*
X-40216647Y-29156577D01*
X-40186945Y-29056929D01*
X-40142678Y-28962841D01*
X-40084842Y-28876429D01*
X-40014736Y-28799636D01*
X-39933937Y-28734187D01*
X-39844260Y-28681554D01*
X-39747723Y-28642920D01*
X-39646494Y-28619154D01*
X-39542850Y-28610790D01*
X-38966260Y-28691820D01*
X-38952265Y-28794018D01*
X-38922839Y-28892884D01*
X-38878670Y-28986102D01*
X-38820795Y-29071487D01*
X-38750568Y-29147042D01*
X-38669634Y-29210995D01*
X-38579888Y-29261849D01*
X-38483434Y-29298413D01*
X-38382530Y-29319830D01*
X-36076140Y-29643950D01*
G37*
G36*
X-31382250Y-25305690D02*
G01*
X-30311450Y-25456180D01*
X-30577680Y-27350720D01*
X-30600337Y-27449868D01*
X-30626295Y-27548204D01*
X-30655524Y-27645618D01*
X-30687993Y-27742000D01*
X-30723664Y-27837243D01*
X-30762498Y-27931241D01*
X-30804451Y-28023890D01*
X-30849477Y-28115084D01*
X-30897525Y-28204723D01*
X-30948542Y-28292706D01*
X-31002471Y-28378935D01*
X-31059251Y-28463313D01*
X-31118818Y-28545748D01*
X-31181108Y-28626145D01*
X-31246049Y-28704416D01*
X-31313570Y-28780474D01*
X-31383594Y-28854232D01*
X-31456044Y-28925609D01*
X-31530839Y-28994526D01*
X-31607895Y-29060904D01*
X-31687126Y-29124670D01*
X-31768444Y-29185754D01*
X-31851758Y-29244085D01*
X-31936974Y-29299600D01*
X-32023998Y-29352236D01*
X-32112733Y-29401935D01*
X-32203078Y-29448640D01*
X-32294934Y-29492301D01*
X-32388198Y-29532867D01*
X-32482765Y-29570295D01*
X-32578530Y-29604541D01*
X-32675386Y-29635568D01*
X-32773224Y-29663341D01*
X-32871936Y-29687829D01*
X-32971412Y-29709004D01*
X-33071539Y-29726844D01*
X-33172207Y-29741327D01*
X-33273302Y-29752439D01*
X-33374712Y-29760166D01*
X-33476324Y-29764500D01*
X-33578024Y-29765436D01*
X-33679698Y-29762973D01*
X-33781233Y-29757113D01*
X-33882516Y-29747864D01*
X-33983433Y-29735235D01*
X-34083872Y-29719241D01*
X-34183720Y-29699900D01*
X-34101988Y-29641886D01*
X-34028159Y-29574099D01*
X-33963394Y-29497607D01*
X-33908710Y-29413610D01*
X-33864968Y-29323430D01*
X-33832856Y-29228485D01*
X-33812878Y-29130268D01*
X-33805348Y-29030323D01*
X-33810386Y-28930221D01*
X-33827911Y-28831537D01*
X-33857648Y-28735822D01*
X-33899129Y-28644580D01*
X-33951703Y-28559247D01*
X-34014543Y-28481165D01*
X-34086660Y-28411560D01*
X-34000721Y-28357017D01*
X-33921174Y-28293511D01*
X-33848952Y-28221786D01*
X-33784897Y-28142681D01*
X-33729761Y-28057121D01*
X-33684187Y-27966106D01*
X-33648709Y-27870702D01*
X-33623742Y-27772025D01*
X-33609578Y-27671228D01*
X-33606383Y-27569492D01*
X-33614193Y-27468005D01*
X-33632918Y-27367955D01*
X-33662338Y-27270513D01*
X-33702110Y-27176817D01*
X-33751768Y-27087966D01*
X-33810731Y-27004996D01*
X-33878310Y-26928880D01*
X-33798435Y-26865604D01*
X-33725742Y-26794193D01*
X-33661056Y-26715456D01*
X-33605110Y-26630286D01*
X-33558539Y-26539649D01*
X-33521872Y-26444574D01*
X-33495523Y-26346138D01*
X-33479793Y-26245458D01*
X-33474859Y-26143676D01*
X-33480777Y-26041947D01*
X-33497480Y-25941424D01*
X-33524779Y-25843248D01*
X-33562365Y-25748531D01*
X-33609810Y-25658349D01*
X-33666577Y-25573724D01*
X-33732021Y-25495616D01*
X-33805402Y-25424911D01*
X-33885885Y-25362411D01*
X-33972559Y-25308825D01*
X-34064440Y-25264760D01*
X-40077550Y-24419750D01*
X-40178084Y-24398469D01*
X-40273313Y-24359850D01*
X-40360271Y-24305093D01*
X-40436252Y-24235904D01*
X-40498888Y-24154438D01*
X-40546230Y-24063231D01*
X-40576803Y-23965122D01*
X-40589657Y-23863167D01*
X-40584390Y-23760541D01*
X-40561167Y-23660437D01*
X-40520710Y-23565974D01*
X-40464280Y-23480092D01*
X-40393633Y-23405466D01*
X-40310969Y-23344419D01*
X-40218863Y-23298852D01*
X-40120180Y-23270184D01*
X-40017996Y-23259307D01*
X-39915490Y-23266560D01*
X-34262850Y-24060900D01*
X-34269396Y-23954801D01*
X-34300331Y-23853101D01*
X-34353974Y-23761328D01*
X-34427409Y-23684470D01*
X-34516644Y-23626704D01*
X-34616830Y-23591170D01*
X-36562760Y-23317710D01*
X-36665130Y-23297407D01*
X-36764833Y-23266570D01*
X-36860790Y-23225531D01*
X-36951958Y-23174737D01*
X-37037351Y-23114739D01*
X-37116042Y-23046185D01*
X-37187177Y-22969821D01*
X-37249986Y-22886474D01*
X-37303788Y-22797047D01*
X-37347999Y-22702510D01*
X-37382139Y-22603889D01*
X-37405839Y-22502252D01*
X-37418842Y-22398702D01*
X-37421007Y-22294361D01*
X-37412310Y-22190360D01*
X-37371068Y-22094359D01*
X-37310915Y-22008925D01*
X-37234438Y-21937732D01*
X-37144924Y-21883840D01*
X-37046220Y-21849565D01*
X-36942570Y-21836380D01*
X-33647710Y-22299400D01*
X-33547018Y-22315517D01*
X-33447018Y-22335480D01*
X-33347856Y-22359258D01*
X-33249677Y-22386818D01*
X-33152626Y-22418118D01*
X-33056846Y-22453112D01*
X-32962476Y-22491750D01*
X-32869655Y-22533975D01*
X-32778520Y-22579723D01*
X-32689204Y-22628930D01*
X-32601839Y-22681521D01*
X-32516552Y-22737420D01*
X-32433469Y-22796545D01*
X-32352712Y-22858810D01*
X-32274399Y-22924122D01*
X-32198645Y-22992386D01*
X-32125562Y-23063501D01*
X-32055257Y-23137364D01*
X-31987832Y-23213866D01*
X-31923388Y-23292894D01*
X-31862017Y-23374333D01*
X-31803812Y-23458062D01*
X-31748856Y-23543960D01*
X-31697231Y-23631900D01*
X-31649013Y-23721753D01*
X-31604272Y-23813387D01*
X-31563074Y-23906668D01*
X-31525479Y-24001458D01*
X-31491542Y-24097619D01*
X-31461314Y-24195009D01*
X-31434839Y-24293486D01*
X-31412155Y-24392904D01*
X-31393297Y-24493118D01*
X-31378290Y-24593981D01*
X-31367159Y-24695345D01*
X-31359918Y-24797061D01*
X-31356579Y-24898980D01*
X-31357146Y-25000952D01*
X-31361619Y-25102827D01*
X-31369991Y-25204456D01*
X-31382250Y-25305690D01*
G37*
G36*
X-39536760Y-26847690D02*
G01*
X-39635333Y-26824559D01*
X-39728409Y-26784703D01*
X-39813173Y-26729325D01*
X-39887062Y-26660100D01*
X-39947843Y-26579123D01*
X-39993677Y-26488840D01*
X-40023178Y-26391983D01*
X-40035454Y-26291479D01*
X-40030135Y-26190368D01*
X-40007380Y-26091708D01*
X-39967879Y-25998481D01*
X-39912825Y-25913506D01*
X-39843883Y-25839353D01*
X-39763137Y-25778264D01*
X-39673030Y-25732086D01*
X-39576286Y-25702216D01*
X-39475830Y-25689556D01*
X-39374700Y-25694490D01*
X-38927930Y-25757290D01*
X-38909409Y-25856439D01*
X-38876202Y-25951681D01*
X-38829063Y-26040851D01*
X-38769061Y-26121928D01*
X-38697559Y-26193069D01*
X-38616180Y-26252660D01*
X-38723680Y-26265123D01*
X-38827341Y-26296204D01*
X-38923964Y-26344944D01*
X-39010567Y-26409840D01*
X-39084479Y-26488888D01*
X-39143419Y-26579649D01*
X-39185568Y-26679324D01*
X-39209626Y-26784836D01*
X-39214850Y-26892930D01*
X-39536760Y-26847690D01*
G37*
G36*
X-44130000Y83409000D02*
G01*
X-44130000Y82129010D01*
X-45409980Y82129010D01*
X-45402631Y82233690D01*
X-45386994Y82337455D01*
X-45363167Y82439652D01*
X-45331303Y82539634D01*
X-45291601Y82636771D01*
X-45244312Y82730449D01*
X-45189734Y82820077D01*
X-45128213Y82905089D01*
X-45060137Y82984948D01*
X-44985936Y83059151D01*
X-44906077Y83127227D01*
X-44821066Y83188749D01*
X-44731438Y83243327D01*
X-44637760Y83290617D01*
X-44540624Y83330320D01*
X-44440642Y83362185D01*
X-44338445Y83386012D01*
X-44234680Y83401650D01*
X-44130000Y83409000D01*
G37*
G36*
X-44130000Y80849030D02*
G01*
X-44130000Y82129010D01*
X-42850020Y82129010D01*
X-42857368Y82024330D01*
X-42873004Y81920564D01*
X-42896829Y81818367D01*
X-42928693Y81718385D01*
X-42968395Y81621247D01*
X-43015684Y81527569D01*
X-43070261Y81437941D01*
X-43131782Y81352929D01*
X-43199858Y81273070D01*
X-43274060Y81198868D01*
X-43353919Y81130792D01*
X-43438931Y81069271D01*
X-43528559Y81014694D01*
X-43622237Y80967405D01*
X-43719375Y80927703D01*
X-43819357Y80895839D01*
X-43921554Y80872014D01*
X-44025320Y80856378D01*
X-44130000Y80849030D01*
G37*
G36*
X113350000Y83409000D02*
G01*
X113350000Y82129010D01*
X112070020Y82129010D01*
X112077369Y82233690D01*
X112093005Y82337456D01*
X112116831Y82439653D01*
X112148695Y82539636D01*
X112188397Y82636773D01*
X112235686Y82730451D01*
X112290263Y82820080D01*
X112351784Y82905092D01*
X112419860Y82984951D01*
X112494062Y83059153D01*
X112573921Y83127230D01*
X112658932Y83188752D01*
X112748560Y83243330D01*
X112842238Y83290619D01*
X112939375Y83330322D01*
X113039357Y83362187D01*
X113141554Y83386013D01*
X113245320Y83401651D01*
X113350000Y83409000D01*
G37*
G36*
X113350000Y80849030D02*
G01*
X113350000Y82129010D01*
X114629980Y82129010D01*
X114622631Y82024330D01*
X114606995Y81920565D01*
X114583169Y81818368D01*
X114551305Y81718386D01*
X114511603Y81621249D01*
X114464314Y81527571D01*
X114409737Y81437943D01*
X114348216Y81352931D01*
X114280139Y81273072D01*
X114205938Y81198871D01*
X114126079Y81130794D01*
X114041067Y81069273D01*
X113951439Y81014696D01*
X113857761Y80967407D01*
X113760624Y80927705D01*
X113660642Y80895841D01*
X113558445Y80872015D01*
X113454680Y80856379D01*
X113350000Y80849030D01*
G37*
G36*
X113350000Y-25811000D02*
G01*
X113350000Y-27090980D01*
X112070020Y-27090980D01*
X112077369Y-26986300D01*
X112093005Y-26882535D01*
X112116831Y-26780338D01*
X112148695Y-26680356D01*
X112188397Y-26583219D01*
X112235686Y-26489541D01*
X112290263Y-26399913D01*
X112351784Y-26314901D01*
X112419861Y-26235042D01*
X112494062Y-26160841D01*
X112573921Y-26092764D01*
X112658933Y-26031243D01*
X112748561Y-25976666D01*
X112842239Y-25929377D01*
X112939376Y-25889675D01*
X113039358Y-25857811D01*
X113141555Y-25833985D01*
X113245320Y-25818349D01*
X113350000Y-25811000D01*
G37*
G36*
X113350000Y-28370970D02*
G01*
X113350000Y-27090980D01*
X114629980Y-27090980D01*
X114622631Y-27195660D01*
X114606995Y-27299426D01*
X114583169Y-27401623D01*
X114551305Y-27501606D01*
X114511603Y-27598743D01*
X114464314Y-27692421D01*
X114409737Y-27782050D01*
X114348216Y-27867062D01*
X114280140Y-27946921D01*
X114205938Y-28021123D01*
X114126079Y-28089200D01*
X114041068Y-28150722D01*
X113951440Y-28205300D01*
X113857762Y-28252589D01*
X113760625Y-28292292D01*
X113660643Y-28324157D01*
X113558446Y-28347983D01*
X113454680Y-28363621D01*
X113350000Y-28370970D01*
G37*
D13*
X-33892640Y-31956790D02*
X-38464570Y-31956790D01*
D14*
X-35961420Y-26510150D02*
X-38267810Y-26186040D01*
X-38302540Y-26433150D02*
X-35996140Y-26757260D01*
X-36169780Y-27992830D02*
X-38476170Y-27668720D01*
X-38057850Y-27979500D02*
X-36204500Y-28239940D01*
X-34925050Y-29595720D02*
X-38219910Y-29132700D01*
X-38105750Y-25032840D02*
X-34357850Y-25559520D01*
D13*
X-50403590Y86259000D02*
X-50403590Y-33741000D01*
X119610000Y86259000D02*
X-50403590Y86259000D01*
X119610000Y-33741000D02*
X119610000Y86259000D01*
X-50403590Y-33741000D02*
X119610000Y-33741000D01*
D15*
X-21390000Y-23741000D02*
X106610000Y-23741000D01*
X-21390000Y-33741000D02*
X-21390000Y-23741000D01*
X106610000Y-33741000D02*
X-21390000Y-33741000D01*
X106610000Y-23741000D02*
X106610000Y-33741000D01*
X106610000Y-28741000D02*
X-21390000Y-28741000D01*
X62610000Y-33741000D02*
X62110000Y-33741000D01*
X62610000Y-23741000D02*
X62610000Y-33741000D01*
X37110000Y-28741000D02*
X37110000Y-33741000D01*
X10610000Y-23741000D02*
X10610000Y-33741000D01*
X-6390000Y-23741000D02*
X-6390000Y-28741000D01*
D14*
X-35961420Y-26510150D02*
G75*
G02X-35996140Y-26757260I-15691J-123790D01*
G01*
X-38302540Y-26433150D02*
G75*
G03X-38476170Y-27668720I-96390J-616439D01*
G01*
X-36169780Y-27992830D02*
G75*
G02X-36204500Y-28239940I-15691J-123790D01*
G01*
X-38057850Y-27979500D02*
G75*
G03X-38219910Y-29132700I-91941J-575067D01*
G01*
X-34925050Y-29595720D02*
G75*
G03X-34763000Y-28442520I118139J571385D01*
G01*
X-34763000Y-28442520D02*
G75*
G02X-34728270Y-28195410I17775J123497D01*
G01*
X-34728270Y-28195410D02*
G75*
G03X-34554630Y-26959840I110138J614508D01*
G01*
X-34554630Y-26959840D02*
G75*
G02X-34519910Y-26712730I17942J123473D01*
G01*
X-34519909Y-26712730D02*
G75*
G03X-34357850Y-25559520I121028J570984D01*
G01*
X-38105750Y-25032840D02*
G75*
G03X-38267810Y-26186040I-44864J-581682D01*
G01*
D16*
X-42850020Y82129010D02*
G75*
G03X-42850020Y82129010I-1279970J0D01*
G01*
X114629980Y82129010D02*
G75*
G03X114629980Y82129010I-1279980J0D01*
G01*
X114629980Y-27090980D02*
G75*
G03X114629980Y-27090980I-1279980J0D01*
G01*
D10*
%TO.C,SW1*%
X15000000Y7500000D02*
X15000000Y10040000D01*
X25160000Y7500000D02*
X15000000Y7500000D01*
X25160000Y10040000D02*
X25160000Y7500000D01*
X15000000Y10040000D02*
X25160000Y10040000D01*
X15635000Y8135000D02*
X15635000Y9405000D01*
X24525000Y8135000D02*
X15635000Y8135000D01*
X24525000Y9405000D02*
X24525000Y8135000D01*
X15635000Y9405000D02*
X24525000Y9405000D01*
X20715000Y8135000D02*
X20715000Y9405000D01*
X21985000Y8135000D02*
X20715000Y8135000D01*
X21985000Y9405000D02*
X21985000Y8135000D01*
X20715000Y9405000D02*
X21985000Y9405000D01*
%TO.C,SJ1*%
X18567590Y5149000D02*
X20066000Y5722440D01*
X20066000Y5722440D02*
X21564410Y5149000D01*
X21466920Y4543870D02*
X20066000Y5080010D01*
X18665080Y4543870D02*
X20066000Y5080010D01*
X18567590Y5149000D02*
G75*
G02X21564410Y5149000I1498410J-69047D01*
G01*
X18665080Y4543871D02*
G75*
G03X21466920Y4543870I1400920J536146D01*
G01*
%TO.C,C12*%
X64000000Y15310000D02*
X54000000Y15310000D01*
X64000000Y14040000D02*
X54000000Y14040000D01*
X59000000Y41980000D02*
X59000000Y47060000D01*
X59000000Y6420000D02*
X59000000Y11500000D01*
X64000000Y11500000D02*
X54000000Y11500000D01*
X64000000Y41980000D02*
X64000000Y11500000D01*
X54000000Y41980000D02*
X64000000Y41980000D01*
X54000000Y11500000D02*
X54000000Y41980000D01*
%TO.C,BAT1*%
X5000000Y39250000D02*
X5000000Y38050000D01*
X29000000Y39250000D02*
X5000000Y39250000D01*
X29000000Y38050000D02*
X29000000Y39250000D01*
X5000000Y38050000D02*
X29000000Y38050000D01*
X30500000Y14850000D02*
X30500000Y38075000D01*
X3500000Y14850000D02*
X30500000Y14850000D01*
X3500000Y38075000D02*
X3500000Y14850000D01*
X30500000Y38075000D02*
X3500000Y38075000D01*
D17*
X21000000Y14650000D02*
X13000000Y14650000D01*
X22500000Y39450000D02*
X11500000Y39450000D01*
%TD*%
%TO.C,cam5*%
D18*
X-28580521Y-31832501D02*
X-28247188Y-31832501D01*
X-28247188Y-32356310D02*
X-28247188Y-31356310D01*
X-28723379Y-31356310D01*
X-29104331Y-32356310D02*
X-29104331Y-31689644D01*
X-29104331Y-31880120D02*
X-29151950Y-31784882D01*
X-29199569Y-31737263D01*
X-29294807Y-31689644D01*
X-29390045Y-31689644D01*
X-30151950Y-32356310D02*
X-30151950Y-31832501D01*
X-30104331Y-31737263D01*
X-30009093Y-31689644D01*
X-29818617Y-31689644D01*
X-29723379Y-31737263D01*
X-30151950Y-32308691D02*
X-30056712Y-32356310D01*
X-29818617Y-32356310D01*
X-29723379Y-32308691D01*
X-29675760Y-32213453D01*
X-29675760Y-32118215D01*
X-29723379Y-32022977D01*
X-29818617Y-31975358D01*
X-30056712Y-31975358D01*
X-30151950Y-31927739D01*
X-30628140Y-31689644D02*
X-30628140Y-32356310D01*
X-30628140Y-31784882D02*
X-30675760Y-31737263D01*
X-30770998Y-31689644D01*
X-30913855Y-31689644D01*
X-31009093Y-31737263D01*
X-31056712Y-31832501D01*
X-31056712Y-32356310D01*
X-31961474Y-32308691D02*
X-31866236Y-32356310D01*
X-31675760Y-32356310D01*
X-31580521Y-32308691D01*
X-31532902Y-32261072D01*
X-31485283Y-32165834D01*
X-31485283Y-31880120D01*
X-31532902Y-31784882D01*
X-31580521Y-31737263D01*
X-31675760Y-31689644D01*
X-31866236Y-31689644D01*
X-31961474Y-31737263D01*
X-32770998Y-32308691D02*
X-32675760Y-32356310D01*
X-32485283Y-32356310D01*
X-32390045Y-32308691D01*
X-32342426Y-32213453D01*
X-32342426Y-31832501D01*
X-32390045Y-31737263D01*
X-32485283Y-31689644D01*
X-32675760Y-31689644D01*
X-32770998Y-31737263D01*
X-32818617Y-31832501D01*
X-32818617Y-31927739D01*
X-32342426Y-32022977D01*
X-34009093Y-31832501D02*
X-34342426Y-31832501D01*
X-34485283Y-32356310D02*
X-34009093Y-32356310D01*
X-34009093Y-31356310D01*
X-34485283Y-31356310D01*
X-34770998Y-31689644D02*
X-35151950Y-31689644D01*
X-34913855Y-31356310D02*
X-34913855Y-32213453D01*
X-34961474Y-32308691D01*
X-35056712Y-32356310D01*
X-35151950Y-32356310D01*
X-35913855Y-31689644D02*
X-35913855Y-32356310D01*
X-35485283Y-31689644D02*
X-35485283Y-32213453D01*
X-35532902Y-32308691D01*
X-35628140Y-32356310D01*
X-35770998Y-32356310D01*
X-35866236Y-32308691D01*
X-35913855Y-32261072D01*
X-36818617Y-32356310D02*
X-36818617Y-31356310D01*
X-36818617Y-32308691D02*
X-36723379Y-32356310D01*
X-36532902Y-32356310D01*
X-36437664Y-32308691D01*
X-36390045Y-32261072D01*
X-36342426Y-32165834D01*
X-36342426Y-31880120D01*
X-36390045Y-31784882D01*
X-36437664Y-31737263D01*
X-36532902Y-31689644D01*
X-36723379Y-31689644D01*
X-36818617Y-31737263D01*
X-37675760Y-32308691D02*
X-37580521Y-32356310D01*
X-37390045Y-32356310D01*
X-37294807Y-32308691D01*
X-37247188Y-32213453D01*
X-37247188Y-31832501D01*
X-37294807Y-31737263D01*
X-37390045Y-31689644D01*
X-37580521Y-31689644D01*
X-37675760Y-31737263D01*
X-37723379Y-31832501D01*
X-37723379Y-31927739D01*
X-37247188Y-32022977D01*
X-38104331Y-32308691D02*
X-38199569Y-32356310D01*
X-38390045Y-32356310D01*
X-38485283Y-32308691D01*
X-38532902Y-32213453D01*
X-38532902Y-32165834D01*
X-38485283Y-32070596D01*
X-38390045Y-32022977D01*
X-38247188Y-32022977D01*
X-38151950Y-31975358D01*
X-38104331Y-31880120D01*
X-38104331Y-31832501D01*
X-38151950Y-31737263D01*
X-38247188Y-31689644D01*
X-38390045Y-31689644D01*
X-38485283Y-31737263D01*
X-39723379Y-31832501D02*
X-40056712Y-31832501D01*
X-40199569Y-32356310D02*
X-39723379Y-32356310D01*
X-39723379Y-31356310D01*
X-40199569Y-31356310D01*
X-40770998Y-32356310D02*
X-40675760Y-32308691D01*
X-40628140Y-32213453D01*
X-40628140Y-31356310D01*
X-41532902Y-32308691D02*
X-41437664Y-32356310D01*
X-41247188Y-32356310D01*
X-41151950Y-32308691D01*
X-41104331Y-32213453D01*
X-41104331Y-31832501D01*
X-41151950Y-31737263D01*
X-41247188Y-31689644D01*
X-41437664Y-31689644D01*
X-41532902Y-31737263D01*
X-41580521Y-31832501D01*
X-41580521Y-31927739D01*
X-41104331Y-32022977D01*
X-42437664Y-32308691D02*
X-42342426Y-32356310D01*
X-42151950Y-32356310D01*
X-42056712Y-32308691D01*
X-42009093Y-32261072D01*
X-41961474Y-32165834D01*
X-41961474Y-31880120D01*
X-42009093Y-31784882D01*
X-42056712Y-31737263D01*
X-42151950Y-31689644D01*
X-42342426Y-31689644D01*
X-42437664Y-31737263D01*
X-42723379Y-31689644D02*
X-43104331Y-31689644D01*
X-42866236Y-31356310D02*
X-42866236Y-32213453D01*
X-42913855Y-32308691D01*
X-43009093Y-32356310D01*
X-43104331Y-32356310D01*
X-43437664Y-32356310D02*
X-43437664Y-31689644D01*
X-43437664Y-31880120D02*
X-43485283Y-31784882D01*
X-43532902Y-31737263D01*
X-43628140Y-31689644D01*
X-43723379Y-31689644D01*
X-44199569Y-32356310D02*
X-44104331Y-32308691D01*
X-44056712Y-32261072D01*
X-44009093Y-32165834D01*
X-44009093Y-31880120D01*
X-44056712Y-31784882D01*
X-44104331Y-31737263D01*
X-44199569Y-31689644D01*
X-44342426Y-31689644D01*
X-44437664Y-31737263D01*
X-44485283Y-31784882D01*
X-44532902Y-31880120D01*
X-44532902Y-32165834D01*
X-44485283Y-32261072D01*
X-44437664Y-32308691D01*
X-44342426Y-32356310D01*
X-44199569Y-32356310D01*
X-44961474Y-31689644D02*
X-44961474Y-32356310D01*
X-44961474Y-31784882D02*
X-45009093Y-31737263D01*
X-45104331Y-31689644D01*
X-45247188Y-31689644D01*
X-45342426Y-31737263D01*
X-45390045Y-31832501D01*
X-45390045Y-32356310D01*
X-45866236Y-32356310D02*
X-45866236Y-31689644D01*
X-45866236Y-31356310D02*
X-45818617Y-31403930D01*
X-45866236Y-31451549D01*
X-45913855Y-31403930D01*
X-45866236Y-31356310D01*
X-45866236Y-31451549D01*
X-46770998Y-31689644D02*
X-46770998Y-32689644D01*
X-46770998Y-32308691D02*
X-46675760Y-32356310D01*
X-46485283Y-32356310D01*
X-46390045Y-32308691D01*
X-46342426Y-32261072D01*
X-46294807Y-32165834D01*
X-46294807Y-31880120D01*
X-46342426Y-31784882D01*
X-46390045Y-31737263D01*
X-46485283Y-31689644D01*
X-46675760Y-31689644D01*
X-46770998Y-31737263D01*
X-47675760Y-31689644D02*
X-47675760Y-32356310D01*
X-47247188Y-31689644D02*
X-47247188Y-32213453D01*
X-47294807Y-32308691D01*
X-47390045Y-32356310D01*
X-47532902Y-32356310D01*
X-47628140Y-32308691D01*
X-47675760Y-32261072D01*
X-48532902Y-32308691D02*
X-48437664Y-32356310D01*
X-48247188Y-32356310D01*
X-48151950Y-32308691D01*
X-48104331Y-32213453D01*
X-48104331Y-31832501D01*
X-48151950Y-31737263D01*
X-48247188Y-31689644D01*
X-48437664Y-31689644D01*
X-48532902Y-31737263D01*
X-48580521Y-31832501D01*
X-48580521Y-31927739D01*
X-48104331Y-32022977D01*
X-48961474Y-32308691D02*
X-49056712Y-32356310D01*
X-49247188Y-32356310D01*
X-49342426Y-32308691D01*
X-49390045Y-32213453D01*
X-49390045Y-32165834D01*
X-49342426Y-32070596D01*
X-49247188Y-32022977D01*
X-49104331Y-32022977D01*
X-49009093Y-31975358D01*
X-48961474Y-31880120D01*
X-48961474Y-31832501D01*
X-49009093Y-31737263D01*
X-49104331Y-31689644D01*
X-49247188Y-31689644D01*
X-49342426Y-31737263D01*
X104267976Y-33094082D02*
X104315595Y-33141701D01*
X104458452Y-33189320D01*
X104553690Y-33189320D01*
X104696547Y-33141701D01*
X104791785Y-33046463D01*
X104839404Y-32951225D01*
X104887023Y-32760749D01*
X104887023Y-32617892D01*
X104839404Y-32427416D01*
X104791785Y-32332178D01*
X104696547Y-32236940D01*
X104553690Y-32189320D01*
X104458452Y-32189320D01*
X104315595Y-32236940D01*
X104267976Y-32284559D01*
X103696547Y-33189320D02*
X103791785Y-33141701D01*
X103839404Y-33046463D01*
X103839404Y-32189320D01*
X103315595Y-33189320D02*
X103315595Y-32522654D01*
X103315595Y-32189320D02*
X103363214Y-32236940D01*
X103315595Y-32284559D01*
X103267976Y-32236940D01*
X103315595Y-32189320D01*
X103315595Y-32284559D01*
X102458452Y-33141701D02*
X102553690Y-33189320D01*
X102744166Y-33189320D01*
X102839404Y-33141701D01*
X102887023Y-33046463D01*
X102887023Y-32665511D01*
X102839404Y-32570273D01*
X102744166Y-32522654D01*
X102553690Y-32522654D01*
X102458452Y-32570273D01*
X102410833Y-32665511D01*
X102410833Y-32760749D01*
X102887023Y-32855987D01*
X101982261Y-32522654D02*
X101982261Y-33189320D01*
X101982261Y-32617892D02*
X101934642Y-32570273D01*
X101839404Y-32522654D01*
X101696547Y-32522654D01*
X101601309Y-32570273D01*
X101553690Y-32665511D01*
X101553690Y-33189320D01*
X101220357Y-32522654D02*
X100839404Y-32522654D01*
X101077500Y-32189320D02*
X101077500Y-33046463D01*
X101029880Y-33141701D01*
X100934642Y-33189320D01*
X100839404Y-33189320D01*
X99744166Y-33094082D02*
X99696547Y-33141701D01*
X99744166Y-33189320D01*
X99791785Y-33141701D01*
X99744166Y-33094082D01*
X99744166Y-33189320D01*
X99744166Y-32570273D02*
X99696547Y-32617892D01*
X99744166Y-32665511D01*
X99791785Y-32617892D01*
X99744166Y-32570273D01*
X99744166Y-32665511D01*
X60006071Y-32665511D02*
X60339404Y-32665511D01*
X60339404Y-33189320D02*
X60339404Y-32189320D01*
X59863214Y-32189320D01*
X59053690Y-33189320D02*
X59053690Y-32665511D01*
X59101309Y-32570273D01*
X59196547Y-32522654D01*
X59387023Y-32522654D01*
X59482261Y-32570273D01*
X59053690Y-33141701D02*
X59148928Y-33189320D01*
X59387023Y-33189320D01*
X59482261Y-33141701D01*
X59529880Y-33046463D01*
X59529880Y-32951225D01*
X59482261Y-32855987D01*
X59387023Y-32808368D01*
X59148928Y-32808368D01*
X59053690Y-32760749D01*
X58577500Y-33189320D02*
X58577500Y-32522654D01*
X58577500Y-32189320D02*
X58625119Y-32236940D01*
X58577500Y-32284559D01*
X58529880Y-32236940D01*
X58577500Y-32189320D01*
X58577500Y-32284559D01*
X58244166Y-32522654D02*
X57863214Y-32522654D01*
X58101309Y-32189320D02*
X58101309Y-33046463D01*
X58053690Y-33141701D01*
X57958452Y-33189320D01*
X57863214Y-33189320D01*
X56767976Y-32522654D02*
X56767976Y-33522654D01*
X56767976Y-32570273D02*
X56672738Y-32522654D01*
X56482261Y-32522654D01*
X56387023Y-32570273D01*
X56339404Y-32617892D01*
X56291785Y-32713130D01*
X56291785Y-32998844D01*
X56339404Y-33094082D01*
X56387023Y-33141701D01*
X56482261Y-33189320D01*
X56672738Y-33189320D01*
X56767976Y-33141701D01*
X55434642Y-33189320D02*
X55434642Y-32665511D01*
X55482261Y-32570273D01*
X55577500Y-32522654D01*
X55767976Y-32522654D01*
X55863214Y-32570273D01*
X55434642Y-33141701D02*
X55529880Y-33189320D01*
X55767976Y-33189320D01*
X55863214Y-33141701D01*
X55910833Y-33046463D01*
X55910833Y-32951225D01*
X55863214Y-32855987D01*
X55767976Y-32808368D01*
X55529880Y-32808368D01*
X55434642Y-32760749D01*
X54958452Y-33189320D02*
X54958452Y-32522654D01*
X54958452Y-32713130D02*
X54910833Y-32617892D01*
X54863214Y-32570273D01*
X54767976Y-32522654D01*
X54672738Y-32522654D01*
X53577500Y-33094082D02*
X53529880Y-33141701D01*
X53577500Y-33189320D01*
X53625119Y-33141701D01*
X53577500Y-33094082D01*
X53577500Y-33189320D01*
X53577500Y-32570273D02*
X53529880Y-32617892D01*
X53577500Y-32665511D01*
X53625119Y-32617892D01*
X53577500Y-32570273D01*
X53577500Y-32665511D01*
X51244166Y-32665511D02*
X51577500Y-32665511D01*
X51577500Y-33189320D02*
X51577500Y-32189320D01*
X51101309Y-32189320D01*
X50720357Y-32665511D02*
X50387023Y-32665511D01*
X50244166Y-33189320D02*
X50720357Y-33189320D01*
X50720357Y-32189320D01*
X50244166Y-32189320D01*
X49815595Y-32665511D02*
X49482261Y-32665511D01*
X49339404Y-33189320D02*
X49815595Y-33189320D01*
X49815595Y-32189320D01*
X49339404Y-32189320D01*
X104267976Y-28094082D02*
X104315595Y-28141701D01*
X104458452Y-28189320D01*
X104553690Y-28189320D01*
X104696547Y-28141701D01*
X104791785Y-28046463D01*
X104839404Y-27951225D01*
X104887023Y-27760749D01*
X104887023Y-27617892D01*
X104839404Y-27427416D01*
X104791785Y-27332178D01*
X104696547Y-27236940D01*
X104553690Y-27189320D01*
X104458452Y-27189320D01*
X104315595Y-27236940D01*
X104267976Y-27284559D01*
X103410833Y-28189320D02*
X103410833Y-27665511D01*
X103458452Y-27570273D01*
X103553690Y-27522654D01*
X103744166Y-27522654D01*
X103839404Y-27570273D01*
X103410833Y-28141701D02*
X103506071Y-28189320D01*
X103744166Y-28189320D01*
X103839404Y-28141701D01*
X103887023Y-28046463D01*
X103887023Y-27951225D01*
X103839404Y-27855987D01*
X103744166Y-27808368D01*
X103506071Y-27808368D01*
X103410833Y-27760749D01*
X102934642Y-28189320D02*
X102934642Y-27522654D01*
X102934642Y-27713130D02*
X102887023Y-27617892D01*
X102839404Y-27570273D01*
X102744166Y-27522654D01*
X102648928Y-27522654D01*
X102458452Y-27522654D02*
X102077500Y-27522654D01*
X102315595Y-27189320D02*
X102315595Y-28046463D01*
X102267976Y-28141701D01*
X102172738Y-28189320D01*
X102077500Y-28189320D01*
X101363214Y-28141701D02*
X101458452Y-28189320D01*
X101648928Y-28189320D01*
X101744166Y-28141701D01*
X101791785Y-28046463D01*
X101791785Y-27665511D01*
X101744166Y-27570273D01*
X101648928Y-27522654D01*
X101458452Y-27522654D01*
X101363214Y-27570273D01*
X101315595Y-27665511D01*
X101315595Y-27760749D01*
X101791785Y-27855987D01*
X100125119Y-28094082D02*
X100077500Y-28141701D01*
X100125119Y-28189320D01*
X100172738Y-28141701D01*
X100125119Y-28094082D01*
X100125119Y-28189320D01*
X100125119Y-27570273D02*
X100077500Y-27617892D01*
X100125119Y-27665511D01*
X100172738Y-27617892D01*
X100125119Y-27570273D01*
X100125119Y-27665511D01*
X34339404Y-33189320D02*
X34339404Y-32189320D01*
X34101309Y-32189320D01*
X33958452Y-32236940D01*
X33863214Y-32332178D01*
X33815595Y-32427416D01*
X33767976Y-32617892D01*
X33767976Y-32760749D01*
X33815595Y-32951225D01*
X33863214Y-33046463D01*
X33958452Y-33141701D01*
X34101309Y-33189320D01*
X34339404Y-33189320D01*
X32910833Y-33189320D02*
X32910833Y-32665511D01*
X32958452Y-32570273D01*
X33053690Y-32522654D01*
X33244166Y-32522654D01*
X33339404Y-32570273D01*
X32910833Y-33141701D02*
X33006071Y-33189320D01*
X33244166Y-33189320D01*
X33339404Y-33141701D01*
X33387023Y-33046463D01*
X33387023Y-32951225D01*
X33339404Y-32855987D01*
X33244166Y-32808368D01*
X33006071Y-32808368D01*
X32910833Y-32760749D01*
X32577500Y-32522654D02*
X32196547Y-32522654D01*
X32434642Y-32189320D02*
X32434642Y-33046463D01*
X32387023Y-33141701D01*
X32291785Y-33189320D01*
X32196547Y-33189320D01*
X31482261Y-33141701D02*
X31577500Y-33189320D01*
X31767976Y-33189320D01*
X31863214Y-33141701D01*
X31910833Y-33046463D01*
X31910833Y-32665511D01*
X31863214Y-32570273D01*
X31767976Y-32522654D01*
X31577500Y-32522654D01*
X31482261Y-32570273D01*
X31434642Y-32665511D01*
X31434642Y-32760749D01*
X31910833Y-32855987D01*
X30244166Y-33094082D02*
X30196547Y-33141701D01*
X30244166Y-33189320D01*
X30291785Y-33141701D01*
X30244166Y-33094082D01*
X30244166Y-33189320D01*
X30244166Y-32570273D02*
X30196547Y-32617892D01*
X30244166Y-32665511D01*
X30291785Y-32617892D01*
X30244166Y-32570273D01*
X30244166Y-32665511D01*
X8339404Y-33189320D02*
X8339404Y-32189320D01*
X8101309Y-32189320D01*
X7958452Y-32236940D01*
X7863214Y-32332178D01*
X7815595Y-32427416D01*
X7767976Y-32617892D01*
X7767976Y-32760749D01*
X7815595Y-32951225D01*
X7863214Y-33046463D01*
X7958452Y-33141701D01*
X8101309Y-33189320D01*
X8339404Y-33189320D01*
X7196547Y-33189320D02*
X7291785Y-33141701D01*
X7339404Y-33094082D01*
X7387023Y-32998844D01*
X7387023Y-32713130D01*
X7339404Y-32617892D01*
X7291785Y-32570273D01*
X7196547Y-32522654D01*
X7053690Y-32522654D01*
X6958452Y-32570273D01*
X6910833Y-32617892D01*
X6863214Y-32713130D01*
X6863214Y-32998844D01*
X6910833Y-33094082D01*
X6958452Y-33141701D01*
X7053690Y-33189320D01*
X7196547Y-33189320D01*
X6482261Y-33141701D02*
X6387023Y-33189320D01*
X6196547Y-33189320D01*
X6101309Y-33141701D01*
X6053690Y-33046463D01*
X6053690Y-32998844D01*
X6101309Y-32903606D01*
X6196547Y-32855987D01*
X6339404Y-32855987D01*
X6434642Y-32808368D01*
X6482261Y-32713130D01*
X6482261Y-32665511D01*
X6434642Y-32570273D01*
X6339404Y-32522654D01*
X6196547Y-32522654D01*
X6101309Y-32570273D01*
X5672738Y-33141701D02*
X5577500Y-33189320D01*
X5387023Y-33189320D01*
X5291785Y-33141701D01*
X5244166Y-33046463D01*
X5244166Y-32998844D01*
X5291785Y-32903606D01*
X5387023Y-32855987D01*
X5529880Y-32855987D01*
X5625119Y-32808368D01*
X5672738Y-32713130D01*
X5672738Y-32665511D01*
X5625119Y-32570273D01*
X5529880Y-32522654D01*
X5387023Y-32522654D01*
X5291785Y-32570273D01*
X4815595Y-33189320D02*
X4815595Y-32522654D01*
X4815595Y-32189320D02*
X4863214Y-32236940D01*
X4815595Y-32284559D01*
X4767976Y-32236940D01*
X4815595Y-32189320D01*
X4815595Y-32284559D01*
X3958452Y-33141701D02*
X4053690Y-33189320D01*
X4244166Y-33189320D01*
X4339404Y-33141701D01*
X4387023Y-33046463D01*
X4387023Y-32665511D01*
X4339404Y-32570273D01*
X4244166Y-32522654D01*
X4053690Y-32522654D01*
X3958452Y-32570273D01*
X3910833Y-32665511D01*
X3910833Y-32760749D01*
X4387023Y-32855987D01*
X3482261Y-33189320D02*
X3482261Y-32522654D01*
X3482261Y-32713130D02*
X3434642Y-32617892D01*
X3387023Y-32570273D01*
X3291785Y-32522654D01*
X3196547Y-32522654D01*
X2101309Y-33189320D02*
X2101309Y-32189320D01*
X1529880Y-33189320D01*
X1529880Y-32189320D01*
X1196547Y-32141701D02*
X1053690Y-32284559D01*
X672738Y-33094082D02*
X625119Y-33141701D01*
X672738Y-33189320D01*
X720357Y-33141701D01*
X672738Y-33094082D01*
X672738Y-33189320D01*
X672738Y-32570273D02*
X625119Y-32617892D01*
X672738Y-32665511D01*
X720357Y-32617892D01*
X672738Y-32570273D01*
X672738Y-32665511D01*
X8339404Y-27665511D02*
X8006071Y-27665511D01*
X7863214Y-28189320D02*
X8339404Y-28189320D01*
X8339404Y-27189320D01*
X7863214Y-27189320D01*
X7006071Y-28141701D02*
X7101309Y-28189320D01*
X7291785Y-28189320D01*
X7387023Y-28141701D01*
X7434642Y-28094082D01*
X7482261Y-27998844D01*
X7482261Y-27713130D01*
X7434642Y-27617892D01*
X7387023Y-27570273D01*
X7291785Y-27522654D01*
X7101309Y-27522654D01*
X7006071Y-27570273D01*
X6577500Y-28189320D02*
X6577500Y-27189320D01*
X6148928Y-28189320D02*
X6148928Y-27665511D01*
X6196547Y-27570273D01*
X6291785Y-27522654D01*
X6434642Y-27522654D01*
X6529880Y-27570273D01*
X6577500Y-27617892D01*
X4910833Y-28094082D02*
X4863214Y-28141701D01*
X4910833Y-28189320D01*
X4958452Y-28141701D01*
X4910833Y-28094082D01*
X4910833Y-28189320D01*
X4910833Y-27570273D02*
X4863214Y-27617892D01*
X4910833Y-27665511D01*
X4958452Y-27617892D01*
X4910833Y-27570273D01*
X4910833Y-27665511D01*
X3148928Y-28189320D02*
X3720357Y-28189320D01*
X3434642Y-28189320D02*
X3434642Y-27189320D01*
X3529880Y-27332178D01*
X3625119Y-27427416D01*
X3720357Y-27475035D01*
X2006071Y-27141701D02*
X2863214Y-28427416D01*
X1148928Y-28189320D02*
X1720357Y-28189320D01*
X1434642Y-28189320D02*
X1434642Y-27189320D01*
X1529880Y-27332178D01*
X1625119Y-27427416D01*
X1720357Y-27475035D01*
X-8660595Y-28189320D02*
X-8660595Y-27189320D01*
X-9136785Y-27522654D02*
X-9136785Y-28189320D01*
X-9136785Y-27617892D02*
X-9184404Y-27570273D01*
X-9279642Y-27522654D01*
X-9422500Y-27522654D01*
X-9517738Y-27570273D01*
X-9565357Y-27665511D01*
X-9565357Y-28189320D01*
X-10470119Y-28189320D02*
X-10470119Y-27189320D01*
X-10470119Y-28141701D02*
X-10374880Y-28189320D01*
X-10184404Y-28189320D01*
X-10089166Y-28141701D01*
X-10041547Y-28094082D01*
X-9993928Y-27998844D01*
X-9993928Y-27713130D01*
X-10041547Y-27617892D01*
X-10089166Y-27570273D01*
X-10184404Y-27522654D01*
X-10374880Y-27522654D01*
X-10470119Y-27570273D01*
X-11708214Y-28094082D02*
X-11755833Y-28141701D01*
X-11708214Y-28189320D01*
X-11660595Y-28141701D01*
X-11708214Y-28094082D01*
X-11708214Y-28189320D01*
X-11708214Y-27570273D02*
X-11755833Y-27617892D01*
X-11708214Y-27665511D01*
X-11660595Y-27617892D01*
X-11708214Y-27570273D01*
X-11708214Y-27665511D01*
%TO.C,C12*%
D14*
X57806578Y17394580D02*
X57806578Y16632675D01*
X58187530Y17013627D02*
X57425626Y17013627D01*
%TO.C,BAT1*%
D10*
X18196904Y34978571D02*
X17435000Y34978571D01*
X17815952Y34597619D02*
X17815952Y35359523D01*
%TD*%
M02*
