%TF.GenerationSoftware,KiCad,Pcbnew,5.1.5-52549c5~86~ubuntu18.04.1*%
%TF.CreationDate,2020-05-31T21:50:30-05:00*%
%TF.ProjectId,GR106768 Buzzer,47523130-3637-4363-9820-42757a7a6572,rev?*%
%TF.SameCoordinates,Original*%
%TF.FileFunction,NonPlated,1,4,NPTH*%
%TF.FilePolarity,Positive*%
%FSLAX46Y46*%
G04 Gerber Fmt 4.6, Leading zero omitted, Abs format (unit mm)*
G04 Created by KiCad (PCBNEW 5.1.5-52549c5~86~ubuntu18.04.1) date 2020-05-31 21:50:30*
%MOMM*%
%LPD*%
G04 APERTURE LIST*
G04 APERTURE END LIST*
M02*
