%TF.GenerationSoftware,KiCad,Pcbnew,5.1.5-52549c5~86~ubuntu18.04.1*%
%TF.CreationDate,2020-06-01T06:14:05-05:00*%
%TF.ProjectId,GR106768 Buzzer,47523130-3637-4363-9820-42757a7a6572,rev?*%
%TF.SameCoordinates,Original*%
%TF.FileFunction,Paste,Top*%
%TF.FilePolarity,Positive*%
%FSLAX46Y46*%
G04 Gerber Fmt 4.6, Leading zero omitted, Abs format (unit mm)*
G04 Created by KiCad (PCBNEW 5.1.5-52549c5~86~ubuntu18.04.1) date 2020-06-01 06:14:05*
%MOMM*%
%LPD*%
G04 APERTURE LIST*
%ADD10C,0.050000*%
%ADD11C,0.020000*%
%ADD12C,0.150000*%
%ADD13C,0.254000*%
%ADD14C,0.203200*%
%ADD15C,0.200000*%
%ADD16C,0.101600*%
%ADD17R,1.117600X0.914400*%
%ADD18R,0.914400X1.117600*%
%ADD19R,1.000000X1.250000*%
%ADD20R,0.500000X0.600000*%
%ADD21R,0.600000X0.500000*%
%ADD22R,1.250000X1.000000*%
%ADD23R,0.800000X0.800000*%
%ADD24R,1.600000X3.700000*%
%ADD25R,1.600200X4.318000*%
%ADD26R,1.574800X1.905000*%
%ADD27C,1.000000*%
%ADD28R,0.700000X1.000000*%
%ADD29R,2.380000X1.650000*%
%ADD30R,0.250000X0.675000*%
%ADD31R,0.863600X1.524000*%
%ADD32R,0.609600X1.524000*%
%ADD33R,1.270000X0.609600*%
%ADD34R,1.524000X0.863600*%
%ADD35R,1.524000X0.609600*%
%ADD36R,2.286000X3.200400*%
%ADD37R,0.558800X0.914400*%
%ADD38R,3.000000X2.540000*%
%ADD39R,1.500000X1.270000*%
%ADD40R,2.540000X3.000000*%
%ADD41R,1.270000X1.500000*%
%ADD42R,1.574800X3.175000*%
%ADD43R,1.905000X1.574800*%
G04 APERTURE END LIST*
%TO.C,cam5*%
D10*
X-48755018Y-31832501D02*
X-49088351Y-31832501D01*
X-49088351Y-32356310D02*
X-49088351Y-31356310D01*
X-48612160Y-31356310D01*
X-48231208Y-32356310D02*
X-48231208Y-31689644D01*
X-48231208Y-31880120D02*
X-48183589Y-31784882D01*
X-48135970Y-31737263D01*
X-48040732Y-31689644D01*
X-47945494Y-31689644D01*
X-47183589Y-32356310D02*
X-47183589Y-31832501D01*
X-47231208Y-31737263D01*
X-47326446Y-31689644D01*
X-47516922Y-31689644D01*
X-47612160Y-31737263D01*
X-47183589Y-32308691D02*
X-47278827Y-32356310D01*
X-47516922Y-32356310D01*
X-47612160Y-32308691D01*
X-47659780Y-32213453D01*
X-47659780Y-32118215D01*
X-47612160Y-32022977D01*
X-47516922Y-31975358D01*
X-47278827Y-31975358D01*
X-47183589Y-31927739D01*
X-46707399Y-31689644D02*
X-46707399Y-32356310D01*
X-46707399Y-31784882D02*
X-46659780Y-31737263D01*
X-46564541Y-31689644D01*
X-46421684Y-31689644D01*
X-46326446Y-31737263D01*
X-46278827Y-31832501D01*
X-46278827Y-32356310D01*
X-45374065Y-32308691D02*
X-45469303Y-32356310D01*
X-45659780Y-32356310D01*
X-45755018Y-32308691D01*
X-45802637Y-32261072D01*
X-45850256Y-32165834D01*
X-45850256Y-31880120D01*
X-45802637Y-31784882D01*
X-45755018Y-31737263D01*
X-45659780Y-31689644D01*
X-45469303Y-31689644D01*
X-45374065Y-31737263D01*
X-44564541Y-32308691D02*
X-44659780Y-32356310D01*
X-44850256Y-32356310D01*
X-44945494Y-32308691D01*
X-44993113Y-32213453D01*
X-44993113Y-31832501D01*
X-44945494Y-31737263D01*
X-44850256Y-31689644D01*
X-44659780Y-31689644D01*
X-44564541Y-31737263D01*
X-44516922Y-31832501D01*
X-44516922Y-31927739D01*
X-44993113Y-32022977D01*
X-43326446Y-31832501D02*
X-42993113Y-31832501D01*
X-42850256Y-32356310D02*
X-43326446Y-32356310D01*
X-43326446Y-31356310D01*
X-42850256Y-31356310D01*
X-42564541Y-31689644D02*
X-42183589Y-31689644D01*
X-42421684Y-31356310D02*
X-42421684Y-32213453D01*
X-42374065Y-32308691D01*
X-42278827Y-32356310D01*
X-42183589Y-32356310D01*
X-41421684Y-31689644D02*
X-41421684Y-32356310D01*
X-41850256Y-31689644D02*
X-41850256Y-32213453D01*
X-41802637Y-32308691D01*
X-41707399Y-32356310D01*
X-41564541Y-32356310D01*
X-41469303Y-32308691D01*
X-41421684Y-32261072D01*
X-40516922Y-32356310D02*
X-40516922Y-31356310D01*
X-40516922Y-32308691D02*
X-40612160Y-32356310D01*
X-40802637Y-32356310D01*
X-40897875Y-32308691D01*
X-40945494Y-32261072D01*
X-40993113Y-32165834D01*
X-40993113Y-31880120D01*
X-40945494Y-31784882D01*
X-40897875Y-31737263D01*
X-40802637Y-31689644D01*
X-40612160Y-31689644D01*
X-40516922Y-31737263D01*
X-39659780Y-32308691D02*
X-39755018Y-32356310D01*
X-39945494Y-32356310D01*
X-40040732Y-32308691D01*
X-40088351Y-32213453D01*
X-40088351Y-31832501D01*
X-40040732Y-31737263D01*
X-39945494Y-31689644D01*
X-39755018Y-31689644D01*
X-39659780Y-31737263D01*
X-39612160Y-31832501D01*
X-39612160Y-31927739D01*
X-40088351Y-32022977D01*
X-39231208Y-32308691D02*
X-39135970Y-32356310D01*
X-38945494Y-32356310D01*
X-38850256Y-32308691D01*
X-38802637Y-32213453D01*
X-38802637Y-32165834D01*
X-38850256Y-32070596D01*
X-38945494Y-32022977D01*
X-39088351Y-32022977D01*
X-39183589Y-31975358D01*
X-39231208Y-31880120D01*
X-39231208Y-31832501D01*
X-39183589Y-31737263D01*
X-39088351Y-31689644D01*
X-38945494Y-31689644D01*
X-38850256Y-31737263D01*
X-37612160Y-31832501D02*
X-37278827Y-31832501D01*
X-37135970Y-32356310D02*
X-37612160Y-32356310D01*
X-37612160Y-31356310D01*
X-37135970Y-31356310D01*
X-36564541Y-32356310D02*
X-36659780Y-32308691D01*
X-36707399Y-32213453D01*
X-36707399Y-31356310D01*
X-35802637Y-32308691D02*
X-35897875Y-32356310D01*
X-36088351Y-32356310D01*
X-36183589Y-32308691D01*
X-36231208Y-32213453D01*
X-36231208Y-31832501D01*
X-36183589Y-31737263D01*
X-36088351Y-31689644D01*
X-35897875Y-31689644D01*
X-35802637Y-31737263D01*
X-35755018Y-31832501D01*
X-35755018Y-31927739D01*
X-36231208Y-32022977D01*
X-34897875Y-32308691D02*
X-34993113Y-32356310D01*
X-35183589Y-32356310D01*
X-35278827Y-32308691D01*
X-35326446Y-32261072D01*
X-35374065Y-32165834D01*
X-35374065Y-31880120D01*
X-35326446Y-31784882D01*
X-35278827Y-31737263D01*
X-35183589Y-31689644D01*
X-34993113Y-31689644D01*
X-34897875Y-31737263D01*
X-34612160Y-31689644D02*
X-34231208Y-31689644D01*
X-34469303Y-31356310D02*
X-34469303Y-32213453D01*
X-34421684Y-32308691D01*
X-34326446Y-32356310D01*
X-34231208Y-32356310D01*
X-33897875Y-32356310D02*
X-33897875Y-31689644D01*
X-33897875Y-31880120D02*
X-33850256Y-31784882D01*
X-33802637Y-31737263D01*
X-33707399Y-31689644D01*
X-33612160Y-31689644D01*
X-33135970Y-32356310D02*
X-33231208Y-32308691D01*
X-33278827Y-32261072D01*
X-33326446Y-32165834D01*
X-33326446Y-31880120D01*
X-33278827Y-31784882D01*
X-33231208Y-31737263D01*
X-33135970Y-31689644D01*
X-32993113Y-31689644D01*
X-32897875Y-31737263D01*
X-32850256Y-31784882D01*
X-32802637Y-31880120D01*
X-32802637Y-32165834D01*
X-32850256Y-32261072D01*
X-32897875Y-32308691D01*
X-32993113Y-32356310D01*
X-33135970Y-32356310D01*
X-32374065Y-31689644D02*
X-32374065Y-32356310D01*
X-32374065Y-31784882D02*
X-32326446Y-31737263D01*
X-32231208Y-31689644D01*
X-32088351Y-31689644D01*
X-31993113Y-31737263D01*
X-31945494Y-31832501D01*
X-31945494Y-32356310D01*
X-31469303Y-32356310D02*
X-31469303Y-31689644D01*
X-31469303Y-31356310D02*
X-31516922Y-31403930D01*
X-31469303Y-31451549D01*
X-31421684Y-31403930D01*
X-31469303Y-31356310D01*
X-31469303Y-31451549D01*
X-30564541Y-31689644D02*
X-30564541Y-32689644D01*
X-30564541Y-32308691D02*
X-30659780Y-32356310D01*
X-30850256Y-32356310D01*
X-30945494Y-32308691D01*
X-30993113Y-32261072D01*
X-31040732Y-32165834D01*
X-31040732Y-31880120D01*
X-30993113Y-31784882D01*
X-30945494Y-31737263D01*
X-30850256Y-31689644D01*
X-30659780Y-31689644D01*
X-30564541Y-31737263D01*
X-29659780Y-31689644D02*
X-29659780Y-32356310D01*
X-30088351Y-31689644D02*
X-30088351Y-32213453D01*
X-30040732Y-32308691D01*
X-29945494Y-32356310D01*
X-29802637Y-32356310D01*
X-29707399Y-32308691D01*
X-29659780Y-32261072D01*
X-28802637Y-32308691D02*
X-28897875Y-32356310D01*
X-29088351Y-32356310D01*
X-29183589Y-32308691D01*
X-29231208Y-32213453D01*
X-29231208Y-31832501D01*
X-29183589Y-31737263D01*
X-29088351Y-31689644D01*
X-28897875Y-31689644D01*
X-28802637Y-31737263D01*
X-28755018Y-31832501D01*
X-28755018Y-31927739D01*
X-29231208Y-32022977D01*
X-28374065Y-32308691D02*
X-28278827Y-32356310D01*
X-28088351Y-32356310D01*
X-27993113Y-32308691D01*
X-27945494Y-32213453D01*
X-27945494Y-32165834D01*
X-27993113Y-32070596D01*
X-28088351Y-32022977D01*
X-28231208Y-32022977D01*
X-28326446Y-31975358D01*
X-28374065Y-31880120D01*
X-28374065Y-31832501D01*
X-28326446Y-31737263D01*
X-28231208Y-31689644D01*
X-28088351Y-31689644D01*
X-27993113Y-31737263D01*
X-19047976Y-33094082D02*
X-19095595Y-33141701D01*
X-19238452Y-33189320D01*
X-19333690Y-33189320D01*
X-19476547Y-33141701D01*
X-19571785Y-33046463D01*
X-19619404Y-32951225D01*
X-19667023Y-32760749D01*
X-19667023Y-32617892D01*
X-19619404Y-32427416D01*
X-19571785Y-32332178D01*
X-19476547Y-32236940D01*
X-19333690Y-32189320D01*
X-19238452Y-32189320D01*
X-19095595Y-32236940D01*
X-19047976Y-32284559D01*
X-18476547Y-33189320D02*
X-18571785Y-33141701D01*
X-18619404Y-33046463D01*
X-18619404Y-32189320D01*
X-18095595Y-33189320D02*
X-18095595Y-32522654D01*
X-18095595Y-32189320D02*
X-18143214Y-32236940D01*
X-18095595Y-32284559D01*
X-18047976Y-32236940D01*
X-18095595Y-32189320D01*
X-18095595Y-32284559D01*
X-17238452Y-33141701D02*
X-17333690Y-33189320D01*
X-17524166Y-33189320D01*
X-17619404Y-33141701D01*
X-17667023Y-33046463D01*
X-17667023Y-32665511D01*
X-17619404Y-32570273D01*
X-17524166Y-32522654D01*
X-17333690Y-32522654D01*
X-17238452Y-32570273D01*
X-17190833Y-32665511D01*
X-17190833Y-32760749D01*
X-17667023Y-32855987D01*
X-16762261Y-32522654D02*
X-16762261Y-33189320D01*
X-16762261Y-32617892D02*
X-16714642Y-32570273D01*
X-16619404Y-32522654D01*
X-16476547Y-32522654D01*
X-16381309Y-32570273D01*
X-16333690Y-32665511D01*
X-16333690Y-33189320D01*
X-16000357Y-32522654D02*
X-15619404Y-32522654D01*
X-15857500Y-32189320D02*
X-15857500Y-33046463D01*
X-15809880Y-33141701D01*
X-15714642Y-33189320D01*
X-15619404Y-33189320D01*
X-14524166Y-33094082D02*
X-14476547Y-33141701D01*
X-14524166Y-33189320D01*
X-14571785Y-33141701D01*
X-14524166Y-33094082D01*
X-14524166Y-33189320D01*
X-14524166Y-32570273D02*
X-14476547Y-32617892D01*
X-14524166Y-32665511D01*
X-14571785Y-32617892D01*
X-14524166Y-32570273D01*
X-14524166Y-32665511D01*
X25213928Y-32665511D02*
X24880595Y-32665511D01*
X24880595Y-33189320D02*
X24880595Y-32189320D01*
X25356785Y-32189320D01*
X26166309Y-33189320D02*
X26166309Y-32665511D01*
X26118690Y-32570273D01*
X26023452Y-32522654D01*
X25832976Y-32522654D01*
X25737738Y-32570273D01*
X26166309Y-33141701D02*
X26071071Y-33189320D01*
X25832976Y-33189320D01*
X25737738Y-33141701D01*
X25690119Y-33046463D01*
X25690119Y-32951225D01*
X25737738Y-32855987D01*
X25832976Y-32808368D01*
X26071071Y-32808368D01*
X26166309Y-32760749D01*
X26642500Y-33189320D02*
X26642500Y-32522654D01*
X26642500Y-32189320D02*
X26594880Y-32236940D01*
X26642500Y-32284559D01*
X26690119Y-32236940D01*
X26642500Y-32189320D01*
X26642500Y-32284559D01*
X26975833Y-32522654D02*
X27356785Y-32522654D01*
X27118690Y-32189320D02*
X27118690Y-33046463D01*
X27166309Y-33141701D01*
X27261547Y-33189320D01*
X27356785Y-33189320D01*
X28452023Y-32522654D02*
X28452023Y-33522654D01*
X28452023Y-32570273D02*
X28547261Y-32522654D01*
X28737738Y-32522654D01*
X28832976Y-32570273D01*
X28880595Y-32617892D01*
X28928214Y-32713130D01*
X28928214Y-32998844D01*
X28880595Y-33094082D01*
X28832976Y-33141701D01*
X28737738Y-33189320D01*
X28547261Y-33189320D01*
X28452023Y-33141701D01*
X29785357Y-33189320D02*
X29785357Y-32665511D01*
X29737738Y-32570273D01*
X29642500Y-32522654D01*
X29452023Y-32522654D01*
X29356785Y-32570273D01*
X29785357Y-33141701D02*
X29690119Y-33189320D01*
X29452023Y-33189320D01*
X29356785Y-33141701D01*
X29309166Y-33046463D01*
X29309166Y-32951225D01*
X29356785Y-32855987D01*
X29452023Y-32808368D01*
X29690119Y-32808368D01*
X29785357Y-32760749D01*
X30261547Y-33189320D02*
X30261547Y-32522654D01*
X30261547Y-32713130D02*
X30309166Y-32617892D01*
X30356785Y-32570273D01*
X30452023Y-32522654D01*
X30547261Y-32522654D01*
X31642500Y-33094082D02*
X31690119Y-33141701D01*
X31642500Y-33189320D01*
X31594880Y-33141701D01*
X31642500Y-33094082D01*
X31642500Y-33189320D01*
X31642500Y-32570273D02*
X31690119Y-32617892D01*
X31642500Y-32665511D01*
X31594880Y-32617892D01*
X31642500Y-32570273D01*
X31642500Y-32665511D01*
X33975833Y-32665511D02*
X33642500Y-32665511D01*
X33642500Y-33189320D02*
X33642500Y-32189320D01*
X34118690Y-32189320D01*
X34499642Y-32665511D02*
X34832976Y-32665511D01*
X34975833Y-33189320D02*
X34499642Y-33189320D01*
X34499642Y-32189320D01*
X34975833Y-32189320D01*
X35404404Y-32665511D02*
X35737738Y-32665511D01*
X35880595Y-33189320D02*
X35404404Y-33189320D01*
X35404404Y-32189320D01*
X35880595Y-32189320D01*
X-19047976Y-28094082D02*
X-19095595Y-28141701D01*
X-19238452Y-28189320D01*
X-19333690Y-28189320D01*
X-19476547Y-28141701D01*
X-19571785Y-28046463D01*
X-19619404Y-27951225D01*
X-19667023Y-27760749D01*
X-19667023Y-27617892D01*
X-19619404Y-27427416D01*
X-19571785Y-27332178D01*
X-19476547Y-27236940D01*
X-19333690Y-27189320D01*
X-19238452Y-27189320D01*
X-19095595Y-27236940D01*
X-19047976Y-27284559D01*
X-18190833Y-28189320D02*
X-18190833Y-27665511D01*
X-18238452Y-27570273D01*
X-18333690Y-27522654D01*
X-18524166Y-27522654D01*
X-18619404Y-27570273D01*
X-18190833Y-28141701D02*
X-18286071Y-28189320D01*
X-18524166Y-28189320D01*
X-18619404Y-28141701D01*
X-18667023Y-28046463D01*
X-18667023Y-27951225D01*
X-18619404Y-27855987D01*
X-18524166Y-27808368D01*
X-18286071Y-27808368D01*
X-18190833Y-27760749D01*
X-17714642Y-28189320D02*
X-17714642Y-27522654D01*
X-17714642Y-27713130D02*
X-17667023Y-27617892D01*
X-17619404Y-27570273D01*
X-17524166Y-27522654D01*
X-17428928Y-27522654D01*
X-17238452Y-27522654D02*
X-16857500Y-27522654D01*
X-17095595Y-27189320D02*
X-17095595Y-28046463D01*
X-17047976Y-28141701D01*
X-16952738Y-28189320D01*
X-16857500Y-28189320D01*
X-16143214Y-28141701D02*
X-16238452Y-28189320D01*
X-16428928Y-28189320D01*
X-16524166Y-28141701D01*
X-16571785Y-28046463D01*
X-16571785Y-27665511D01*
X-16524166Y-27570273D01*
X-16428928Y-27522654D01*
X-16238452Y-27522654D01*
X-16143214Y-27570273D01*
X-16095595Y-27665511D01*
X-16095595Y-27760749D01*
X-16571785Y-27855987D01*
X-14905119Y-28094082D02*
X-14857500Y-28141701D01*
X-14905119Y-28189320D01*
X-14952738Y-28141701D01*
X-14905119Y-28094082D01*
X-14905119Y-28189320D01*
X-14905119Y-27570273D02*
X-14857500Y-27617892D01*
X-14905119Y-27665511D01*
X-14952738Y-27617892D01*
X-14905119Y-27570273D01*
X-14905119Y-27665511D01*
X50880595Y-33189320D02*
X50880595Y-32189320D01*
X51118690Y-32189320D01*
X51261547Y-32236940D01*
X51356785Y-32332178D01*
X51404404Y-32427416D01*
X51452023Y-32617892D01*
X51452023Y-32760749D01*
X51404404Y-32951225D01*
X51356785Y-33046463D01*
X51261547Y-33141701D01*
X51118690Y-33189320D01*
X50880595Y-33189320D01*
X52309166Y-33189320D02*
X52309166Y-32665511D01*
X52261547Y-32570273D01*
X52166309Y-32522654D01*
X51975833Y-32522654D01*
X51880595Y-32570273D01*
X52309166Y-33141701D02*
X52213928Y-33189320D01*
X51975833Y-33189320D01*
X51880595Y-33141701D01*
X51832976Y-33046463D01*
X51832976Y-32951225D01*
X51880595Y-32855987D01*
X51975833Y-32808368D01*
X52213928Y-32808368D01*
X52309166Y-32760749D01*
X52642500Y-32522654D02*
X53023452Y-32522654D01*
X52785357Y-32189320D02*
X52785357Y-33046463D01*
X52832976Y-33141701D01*
X52928214Y-33189320D01*
X53023452Y-33189320D01*
X53737738Y-33141701D02*
X53642500Y-33189320D01*
X53452023Y-33189320D01*
X53356785Y-33141701D01*
X53309166Y-33046463D01*
X53309166Y-32665511D01*
X53356785Y-32570273D01*
X53452023Y-32522654D01*
X53642500Y-32522654D01*
X53737738Y-32570273D01*
X53785357Y-32665511D01*
X53785357Y-32760749D01*
X53309166Y-32855987D01*
X54975833Y-33094082D02*
X55023452Y-33141701D01*
X54975833Y-33189320D01*
X54928214Y-33141701D01*
X54975833Y-33094082D01*
X54975833Y-33189320D01*
X54975833Y-32570273D02*
X55023452Y-32617892D01*
X54975833Y-32665511D01*
X54928214Y-32617892D01*
X54975833Y-32570273D01*
X54975833Y-32665511D01*
X76880595Y-33189320D02*
X76880595Y-32189320D01*
X77118690Y-32189320D01*
X77261547Y-32236940D01*
X77356785Y-32332178D01*
X77404404Y-32427416D01*
X77452023Y-32617892D01*
X77452023Y-32760749D01*
X77404404Y-32951225D01*
X77356785Y-33046463D01*
X77261547Y-33141701D01*
X77118690Y-33189320D01*
X76880595Y-33189320D01*
X78023452Y-33189320D02*
X77928214Y-33141701D01*
X77880595Y-33094082D01*
X77832976Y-32998844D01*
X77832976Y-32713130D01*
X77880595Y-32617892D01*
X77928214Y-32570273D01*
X78023452Y-32522654D01*
X78166309Y-32522654D01*
X78261547Y-32570273D01*
X78309166Y-32617892D01*
X78356785Y-32713130D01*
X78356785Y-32998844D01*
X78309166Y-33094082D01*
X78261547Y-33141701D01*
X78166309Y-33189320D01*
X78023452Y-33189320D01*
X78737738Y-33141701D02*
X78832976Y-33189320D01*
X79023452Y-33189320D01*
X79118690Y-33141701D01*
X79166309Y-33046463D01*
X79166309Y-32998844D01*
X79118690Y-32903606D01*
X79023452Y-32855987D01*
X78880595Y-32855987D01*
X78785357Y-32808368D01*
X78737738Y-32713130D01*
X78737738Y-32665511D01*
X78785357Y-32570273D01*
X78880595Y-32522654D01*
X79023452Y-32522654D01*
X79118690Y-32570273D01*
X79547261Y-33141701D02*
X79642500Y-33189320D01*
X79832976Y-33189320D01*
X79928214Y-33141701D01*
X79975833Y-33046463D01*
X79975833Y-32998844D01*
X79928214Y-32903606D01*
X79832976Y-32855987D01*
X79690119Y-32855987D01*
X79594880Y-32808368D01*
X79547261Y-32713130D01*
X79547261Y-32665511D01*
X79594880Y-32570273D01*
X79690119Y-32522654D01*
X79832976Y-32522654D01*
X79928214Y-32570273D01*
X80404404Y-33189320D02*
X80404404Y-32522654D01*
X80404404Y-32189320D02*
X80356785Y-32236940D01*
X80404404Y-32284559D01*
X80452023Y-32236940D01*
X80404404Y-32189320D01*
X80404404Y-32284559D01*
X81261547Y-33141701D02*
X81166309Y-33189320D01*
X80975833Y-33189320D01*
X80880595Y-33141701D01*
X80832976Y-33046463D01*
X80832976Y-32665511D01*
X80880595Y-32570273D01*
X80975833Y-32522654D01*
X81166309Y-32522654D01*
X81261547Y-32570273D01*
X81309166Y-32665511D01*
X81309166Y-32760749D01*
X80832976Y-32855987D01*
X81737738Y-33189320D02*
X81737738Y-32522654D01*
X81737738Y-32713130D02*
X81785357Y-32617892D01*
X81832976Y-32570273D01*
X81928214Y-32522654D01*
X82023452Y-32522654D01*
X83118690Y-33189320D02*
X83118690Y-32189320D01*
X83690119Y-33189320D01*
X83690119Y-32189320D01*
X84023452Y-32141701D02*
X84166309Y-32284559D01*
X84547261Y-33094082D02*
X84594880Y-33141701D01*
X84547261Y-33189320D01*
X84499642Y-33141701D01*
X84547261Y-33094082D01*
X84547261Y-33189320D01*
X84547261Y-32570273D02*
X84594880Y-32617892D01*
X84547261Y-32665511D01*
X84499642Y-32617892D01*
X84547261Y-32570273D01*
X84547261Y-32665511D01*
X76880595Y-27665511D02*
X77213928Y-27665511D01*
X77356785Y-28189320D02*
X76880595Y-28189320D01*
X76880595Y-27189320D01*
X77356785Y-27189320D01*
X78213928Y-28141701D02*
X78118690Y-28189320D01*
X77928214Y-28189320D01*
X77832976Y-28141701D01*
X77785357Y-28094082D01*
X77737738Y-27998844D01*
X77737738Y-27713130D01*
X77785357Y-27617892D01*
X77832976Y-27570273D01*
X77928214Y-27522654D01*
X78118690Y-27522654D01*
X78213928Y-27570273D01*
X78642500Y-28189320D02*
X78642500Y-27189320D01*
X79071071Y-28189320D02*
X79071071Y-27665511D01*
X79023452Y-27570273D01*
X78928214Y-27522654D01*
X78785357Y-27522654D01*
X78690119Y-27570273D01*
X78642500Y-27617892D01*
X80309166Y-28094082D02*
X80356785Y-28141701D01*
X80309166Y-28189320D01*
X80261547Y-28141701D01*
X80309166Y-28094082D01*
X80309166Y-28189320D01*
X80309166Y-27570273D02*
X80356785Y-27617892D01*
X80309166Y-27665511D01*
X80261547Y-27617892D01*
X80309166Y-27570273D01*
X80309166Y-27665511D01*
X82071071Y-28189320D02*
X81499642Y-28189320D01*
X81785357Y-28189320D02*
X81785357Y-27189320D01*
X81690119Y-27332178D01*
X81594880Y-27427416D01*
X81499642Y-27475035D01*
X83213928Y-27141701D02*
X82356785Y-28427416D01*
X84071071Y-28189320D02*
X83499642Y-28189320D01*
X83785357Y-28189320D02*
X83785357Y-27189320D01*
X83690119Y-27332178D01*
X83594880Y-27427416D01*
X83499642Y-27475035D01*
X93880595Y-28189320D02*
X93880595Y-27189320D01*
X94356785Y-27522654D02*
X94356785Y-28189320D01*
X94356785Y-27617892D02*
X94404404Y-27570273D01*
X94499642Y-27522654D01*
X94642500Y-27522654D01*
X94737738Y-27570273D01*
X94785357Y-27665511D01*
X94785357Y-28189320D01*
X95690119Y-28189320D02*
X95690119Y-27189320D01*
X95690119Y-28141701D02*
X95594880Y-28189320D01*
X95404404Y-28189320D01*
X95309166Y-28141701D01*
X95261547Y-28094082D01*
X95213928Y-27998844D01*
X95213928Y-27713130D01*
X95261547Y-27617892D01*
X95309166Y-27570273D01*
X95404404Y-27522654D01*
X95594880Y-27522654D01*
X95690119Y-27570273D01*
X96928214Y-28094082D02*
X96975833Y-28141701D01*
X96928214Y-28189320D01*
X96880595Y-28141701D01*
X96928214Y-28094082D01*
X96928214Y-28189320D01*
X96928214Y-27570273D02*
X96975833Y-27617892D01*
X96928214Y-27665511D01*
X96880595Y-27617892D01*
X96928214Y-27570273D01*
X96928214Y-27665511D01*
X24880595Y-28189320D02*
X24880595Y-27189320D01*
X25261547Y-27189320D01*
X25356785Y-27236940D01*
X25404404Y-27284559D01*
X25452023Y-27379797D01*
X25452023Y-27522654D01*
X25404404Y-27617892D01*
X25356785Y-27665511D01*
X25261547Y-27713130D01*
X24880595Y-27713130D01*
X26309166Y-28189320D02*
X26309166Y-27665511D01*
X26261547Y-27570273D01*
X26166309Y-27522654D01*
X25975833Y-27522654D01*
X25880595Y-27570273D01*
X26309166Y-28141701D02*
X26213928Y-28189320D01*
X25975833Y-28189320D01*
X25880595Y-28141701D01*
X25832976Y-28046463D01*
X25832976Y-27951225D01*
X25880595Y-27855987D01*
X25975833Y-27808368D01*
X26213928Y-27808368D01*
X26309166Y-27760749D01*
X26642500Y-27522654D02*
X27023452Y-27522654D01*
X26785357Y-27189320D02*
X26785357Y-28046463D01*
X26832976Y-28141701D01*
X26928214Y-28189320D01*
X27023452Y-28189320D01*
X27737738Y-28141701D02*
X27642500Y-28189320D01*
X27452023Y-28189320D01*
X27356785Y-28141701D01*
X27309166Y-28046463D01*
X27309166Y-27665511D01*
X27356785Y-27570273D01*
X27452023Y-27522654D01*
X27642500Y-27522654D01*
X27737738Y-27570273D01*
X27785357Y-27665511D01*
X27785357Y-27760749D01*
X27309166Y-27855987D01*
X29404404Y-28189320D02*
X29404404Y-27665511D01*
X29356785Y-27570273D01*
X29261547Y-27522654D01*
X29071071Y-27522654D01*
X28975833Y-27570273D01*
X29404404Y-28141701D02*
X29309166Y-28189320D01*
X29071071Y-28189320D01*
X28975833Y-28141701D01*
X28928214Y-28046463D01*
X28928214Y-27951225D01*
X28975833Y-27855987D01*
X29071071Y-27808368D01*
X29309166Y-27808368D01*
X29404404Y-27760749D01*
X30642500Y-28189320D02*
X30642500Y-27189320D01*
X30642500Y-27570273D02*
X30737738Y-27522654D01*
X30928214Y-27522654D01*
X31023452Y-27570273D01*
X31071071Y-27617892D01*
X31118690Y-27713130D01*
X31118690Y-27998844D01*
X31071071Y-28094082D01*
X31023452Y-28141701D01*
X30928214Y-28189320D01*
X30737738Y-28189320D01*
X30642500Y-28141701D01*
X31547261Y-28189320D02*
X31547261Y-27522654D01*
X31547261Y-27713130D02*
X31594880Y-27617892D01*
X31642500Y-27570273D01*
X31737738Y-27522654D01*
X31832976Y-27522654D01*
X32594880Y-28189320D02*
X32594880Y-27665511D01*
X32547261Y-27570273D01*
X32452023Y-27522654D01*
X32261547Y-27522654D01*
X32166309Y-27570273D01*
X32594880Y-28141701D02*
X32499642Y-28189320D01*
X32261547Y-28189320D01*
X32166309Y-28141701D01*
X32118690Y-28046463D01*
X32118690Y-27951225D01*
X32166309Y-27855987D01*
X32261547Y-27808368D01*
X32499642Y-27808368D01*
X32594880Y-27760749D01*
X33023452Y-28141701D02*
X33118690Y-28189320D01*
X33309166Y-28189320D01*
X33404404Y-28141701D01*
X33452023Y-28046463D01*
X33452023Y-27998844D01*
X33404404Y-27903606D01*
X33309166Y-27855987D01*
X33166309Y-27855987D01*
X33071071Y-27808368D01*
X33023452Y-27713130D01*
X33023452Y-27665511D01*
X33071071Y-27570273D01*
X33166309Y-27522654D01*
X33309166Y-27522654D01*
X33404404Y-27570273D01*
X34261547Y-28141701D02*
X34166309Y-28189320D01*
X33975833Y-28189320D01*
X33880595Y-28141701D01*
X33832976Y-28046463D01*
X33832976Y-27665511D01*
X33880595Y-27570273D01*
X33975833Y-27522654D01*
X34166309Y-27522654D01*
X34261547Y-27570273D01*
X34309166Y-27665511D01*
X34309166Y-27760749D01*
X33832976Y-27855987D01*
X34737738Y-28189320D02*
X34737738Y-27522654D01*
X34737738Y-27713130D02*
X34785357Y-27617892D01*
X34832976Y-27570273D01*
X34928214Y-27522654D01*
X35023452Y-27522654D01*
X35975833Y-27522654D02*
X36356785Y-27522654D01*
X36118690Y-28189320D02*
X36118690Y-27332178D01*
X36166309Y-27236940D01*
X36261547Y-27189320D01*
X36356785Y-27189320D01*
X37118690Y-28189320D02*
X37118690Y-27665511D01*
X37071071Y-27570273D01*
X36975833Y-27522654D01*
X36785357Y-27522654D01*
X36690119Y-27570273D01*
X37118690Y-28141701D02*
X37023452Y-28189320D01*
X36785357Y-28189320D01*
X36690119Y-28141701D01*
X36642500Y-28046463D01*
X36642500Y-27951225D01*
X36690119Y-27855987D01*
X36785357Y-27808368D01*
X37023452Y-27808368D01*
X37118690Y-27760749D01*
X38023452Y-28141701D02*
X37928214Y-28189320D01*
X37737738Y-28189320D01*
X37642500Y-28141701D01*
X37594880Y-28094082D01*
X37547261Y-27998844D01*
X37547261Y-27713130D01*
X37594880Y-27617892D01*
X37642500Y-27570273D01*
X37737738Y-27522654D01*
X37928214Y-27522654D01*
X38023452Y-27570273D01*
X38832976Y-28141701D02*
X38737738Y-28189320D01*
X38547261Y-28189320D01*
X38452023Y-28141701D01*
X38404404Y-28046463D01*
X38404404Y-27665511D01*
X38452023Y-27570273D01*
X38547261Y-27522654D01*
X38737738Y-27522654D01*
X38832976Y-27570273D01*
X38880595Y-27665511D01*
X38880595Y-27760749D01*
X38404404Y-27855987D01*
X40499642Y-28141701D02*
X40404404Y-28189320D01*
X40213928Y-28189320D01*
X40118690Y-28141701D01*
X40071071Y-28094082D01*
X40023452Y-27998844D01*
X40023452Y-27713130D01*
X40071071Y-27617892D01*
X40118690Y-27570273D01*
X40213928Y-27522654D01*
X40404404Y-27522654D01*
X40499642Y-27570273D01*
X41071071Y-28189320D02*
X40975833Y-28141701D01*
X40928214Y-28094082D01*
X40880595Y-27998844D01*
X40880595Y-27713130D01*
X40928214Y-27617892D01*
X40975833Y-27570273D01*
X41071071Y-27522654D01*
X41213928Y-27522654D01*
X41309166Y-27570273D01*
X41356785Y-27617892D01*
X41404404Y-27713130D01*
X41404404Y-27998844D01*
X41356785Y-28094082D01*
X41309166Y-28141701D01*
X41213928Y-28189320D01*
X41071071Y-28189320D01*
X41832976Y-28189320D02*
X41832976Y-27522654D01*
X41832976Y-27617892D02*
X41880595Y-27570273D01*
X41975833Y-27522654D01*
X42118690Y-27522654D01*
X42213928Y-27570273D01*
X42261547Y-27665511D01*
X42261547Y-28189320D01*
X42261547Y-27665511D02*
X42309166Y-27570273D01*
X42404404Y-27522654D01*
X42547261Y-27522654D01*
X42642500Y-27570273D01*
X42690119Y-27665511D01*
X42690119Y-28189320D01*
X43166309Y-27522654D02*
X43166309Y-28522654D01*
X43166309Y-27570273D02*
X43261547Y-27522654D01*
X43452023Y-27522654D01*
X43547261Y-27570273D01*
X43594880Y-27617892D01*
X43642499Y-27713130D01*
X43642499Y-27998844D01*
X43594880Y-28094082D01*
X43547261Y-28141701D01*
X43452023Y-28189320D01*
X43261547Y-28189320D01*
X43166309Y-28141701D01*
X44213928Y-28189320D02*
X44118690Y-28141701D01*
X44071071Y-28094082D01*
X44023452Y-27998844D01*
X44023452Y-27713130D01*
X44071071Y-27617892D01*
X44118690Y-27570273D01*
X44213928Y-27522654D01*
X44356785Y-27522654D01*
X44452023Y-27570273D01*
X44499642Y-27617892D01*
X44547261Y-27713130D01*
X44547261Y-27998844D01*
X44499642Y-28094082D01*
X44452023Y-28141701D01*
X44356785Y-28189320D01*
X44213928Y-28189320D01*
X44928214Y-28141701D02*
X45023452Y-28189320D01*
X45213928Y-28189320D01*
X45309166Y-28141701D01*
X45356785Y-28046463D01*
X45356785Y-27998844D01*
X45309166Y-27903606D01*
X45213928Y-27855987D01*
X45071071Y-27855987D01*
X44975833Y-27808368D01*
X44928214Y-27713130D01*
X44928214Y-27665511D01*
X44975833Y-27570273D01*
X45071071Y-27522654D01*
X45213928Y-27522654D01*
X45309166Y-27570273D01*
X46213928Y-28189320D02*
X46213928Y-27665511D01*
X46166309Y-27570273D01*
X46071071Y-27522654D01*
X45880595Y-27522654D01*
X45785357Y-27570273D01*
X46213928Y-28141701D02*
X46118690Y-28189320D01*
X45880595Y-28189320D01*
X45785357Y-28141701D01*
X45737738Y-28046463D01*
X45737738Y-27951225D01*
X45785357Y-27855987D01*
X45880595Y-27808368D01*
X46118690Y-27808368D01*
X46213928Y-27760749D01*
X46690119Y-27522654D02*
X46690119Y-28189320D01*
X46690119Y-27617892D02*
X46737738Y-27570273D01*
X46832976Y-27522654D01*
X46975833Y-27522654D01*
X47071071Y-27570273D01*
X47118690Y-27665511D01*
X47118690Y-28189320D01*
X47452023Y-27522654D02*
X47832976Y-27522654D01*
X47594880Y-27189320D02*
X47594880Y-28046463D01*
X47642499Y-28141701D01*
X47737738Y-28189320D01*
X47832976Y-28189320D01*
X48118690Y-28141701D02*
X48213928Y-28189320D01*
X48404404Y-28189320D01*
X48499642Y-28141701D01*
X48547261Y-28046463D01*
X48547261Y-27998844D01*
X48499642Y-27903606D01*
X48404404Y-27855987D01*
X48261547Y-27855987D01*
X48166309Y-27808368D01*
X48118690Y-27713130D01*
X48118690Y-27665511D01*
X48166309Y-27570273D01*
X48261547Y-27522654D01*
X48404404Y-27522654D01*
X48499642Y-27570273D01*
D11*
%TO.C,cam9*%
G36*
X76000000Y61810000D02*
G01*
X77270000Y61810000D01*
X77270000Y59270000D01*
X79810000Y59270000D01*
X79810000Y58000000D01*
X76000000Y58000000D01*
X76000000Y61810000D01*
G37*
X76000000Y61810000D02*
X77270000Y61810000D01*
X77270000Y59270000D01*
X79810000Y59270000D01*
X79810000Y58000000D01*
X76000000Y58000000D01*
X76000000Y61810000D01*
%TO.C,cam8*%
G36*
X79810000Y0D02*
G01*
X79810000Y-1270000D01*
X77270000Y-1270000D01*
X77270000Y-3810000D01*
X76000000Y-3810000D01*
X76000000Y0D01*
X79810000Y0D01*
G37*
X79810000Y0D02*
X79810000Y-1270000D01*
X77270000Y-1270000D01*
X77270000Y-3810000D01*
X76000000Y-3810000D01*
X76000000Y0D01*
X79810000Y0D01*
%TO.C,cam7*%
G36*
X0Y-3810000D02*
G01*
X-1270000Y-3810000D01*
X-1270000Y-1270000D01*
X-3810000Y-1270000D01*
X-3810000Y0D01*
X0Y0D01*
X0Y-3810000D01*
G37*
X0Y-3810000D02*
X-1270000Y-3810000D01*
X-1270000Y-1270000D01*
X-3810000Y-1270000D01*
X-3810000Y0D01*
X0Y0D01*
X0Y-3810000D01*
%TO.C,cam6*%
G36*
X-3810000Y58000000D02*
G01*
X-3810000Y59270000D01*
X-1270000Y59270000D01*
X-1270000Y61810000D01*
X0Y61810000D01*
X0Y58000000D01*
X-3810000Y58000000D01*
G37*
X-3810000Y58000000D02*
X-3810000Y59270000D01*
X-1270000Y59270000D01*
X-1270000Y61810000D01*
X0Y61810000D01*
X0Y58000000D01*
X-3810000Y58000000D01*
D12*
%TO.C,cam5*%
G36*
X-37798780Y-26847690D02*
G01*
X-38120690Y-26892930D01*
X-38125912Y-26784836D01*
X-38149969Y-26679323D01*
X-38192118Y-26579647D01*
X-38251057Y-26488885D01*
X-38324970Y-26409837D01*
X-38411574Y-26344941D01*
X-38508198Y-26296202D01*
X-38611859Y-26265121D01*
X-38719360Y-26252660D01*
X-38637981Y-26193069D01*
X-38566478Y-26121928D01*
X-38506476Y-26040852D01*
X-38459337Y-25951681D01*
X-38426130Y-25856440D01*
X-38407610Y-25757290D01*
X-37960840Y-25694490D01*
X-37859068Y-25688483D01*
X-37757809Y-25700319D01*
X-37660166Y-25729634D01*
X-37569132Y-25775530D01*
X-37487499Y-25836600D01*
X-37417768Y-25910972D01*
X-37362078Y-25996366D01*
X-37322135Y-26090164D01*
X-37299164Y-26189491D01*
X-37293869Y-26291303D01*
X-37306412Y-26392477D01*
X-37336410Y-26489912D01*
X-37382941Y-26580623D01*
X-37444580Y-26661827D01*
X-37519438Y-26731036D01*
X-37605219Y-26786128D01*
X-37699295Y-26825414D01*
X-37798780Y-26847690D01*
G37*
G36*
X-45953290Y-25305690D02*
G01*
X-45965549Y-25204456D01*
X-45973921Y-25102827D01*
X-45978394Y-25000952D01*
X-45978961Y-24898980D01*
X-45975622Y-24797061D01*
X-45968381Y-24695345D01*
X-45957250Y-24593981D01*
X-45942243Y-24493118D01*
X-45923385Y-24392904D01*
X-45900701Y-24293486D01*
X-45874226Y-24195009D01*
X-45843998Y-24097619D01*
X-45810061Y-24001458D01*
X-45772466Y-23906668D01*
X-45731268Y-23813387D01*
X-45686527Y-23721753D01*
X-45638309Y-23631900D01*
X-45586684Y-23543960D01*
X-45531728Y-23458062D01*
X-45473523Y-23374333D01*
X-45412152Y-23292894D01*
X-45347708Y-23213866D01*
X-45280283Y-23137364D01*
X-45209978Y-23063501D01*
X-45136895Y-22992386D01*
X-45061141Y-22924122D01*
X-44982828Y-22858810D01*
X-44902071Y-22796545D01*
X-44818988Y-22737420D01*
X-44733701Y-22681521D01*
X-44646336Y-22628930D01*
X-44557020Y-22579723D01*
X-44465885Y-22533975D01*
X-44373064Y-22491750D01*
X-44278694Y-22453112D01*
X-44182914Y-22418118D01*
X-44085863Y-22386818D01*
X-43987684Y-22359258D01*
X-43888522Y-22335480D01*
X-43788522Y-22315517D01*
X-43687830Y-22299400D01*
X-40392970Y-21836380D01*
X-40289319Y-21849562D01*
X-40190614Y-21883836D01*
X-40101099Y-21937729D01*
X-40024622Y-22008922D01*
X-39964470Y-22094357D01*
X-39923230Y-22190360D01*
X-39914533Y-22294361D01*
X-39916698Y-22398702D01*
X-39929701Y-22502252D01*
X-39953401Y-22603889D01*
X-39987541Y-22702510D01*
X-40031752Y-22797047D01*
X-40085554Y-22886474D01*
X-40148363Y-22969821D01*
X-40219498Y-23046185D01*
X-40298189Y-23114739D01*
X-40383582Y-23174737D01*
X-40474750Y-23225531D01*
X-40570707Y-23266570D01*
X-40670410Y-23297407D01*
X-40772780Y-23317710D01*
X-42718710Y-23591170D01*
X-42818894Y-23626707D01*
X-42908127Y-23684474D01*
X-42981561Y-23761332D01*
X-43035204Y-23853104D01*
X-43066141Y-23954802D01*
X-43072690Y-24060900D01*
X-37420050Y-23266560D01*
X-37317544Y-23259307D01*
X-37215360Y-23270184D01*
X-37116677Y-23298852D01*
X-37024571Y-23344419D01*
X-36941907Y-23405466D01*
X-36871260Y-23480092D01*
X-36814830Y-23565974D01*
X-36774373Y-23660437D01*
X-36751150Y-23760541D01*
X-36745883Y-23863167D01*
X-36758737Y-23965122D01*
X-36789310Y-24063231D01*
X-36836652Y-24154438D01*
X-36899288Y-24235904D01*
X-36975269Y-24305093D01*
X-37062227Y-24359850D01*
X-37157456Y-24398469D01*
X-37257990Y-24419750D01*
X-43271100Y-25264760D01*
X-43362980Y-25308826D01*
X-43449652Y-25362414D01*
X-43530134Y-25424914D01*
X-43603513Y-25495620D01*
X-43668956Y-25573728D01*
X-43725722Y-25658353D01*
X-43773166Y-25748534D01*
X-43810751Y-25843250D01*
X-43838049Y-25941426D01*
X-43854753Y-26041948D01*
X-43860671Y-26143677D01*
X-43855737Y-26245458D01*
X-43840007Y-26346137D01*
X-43813660Y-26444572D01*
X-43776993Y-26539647D01*
X-43730424Y-26630284D01*
X-43674479Y-26715454D01*
X-43609795Y-26794191D01*
X-43537104Y-26865603D01*
X-43457230Y-26928880D01*
X-43524808Y-27004997D01*
X-43583770Y-27087966D01*
X-43633426Y-27176818D01*
X-43673197Y-27270513D01*
X-43702617Y-27367956D01*
X-43721341Y-27468005D01*
X-43729151Y-27569491D01*
X-43725955Y-27671228D01*
X-43711791Y-27772024D01*
X-43686824Y-27870701D01*
X-43651347Y-27966104D01*
X-43605774Y-28057118D01*
X-43550638Y-28142679D01*
X-43486585Y-28221784D01*
X-43414364Y-28293509D01*
X-43334818Y-28357016D01*
X-43248880Y-28411560D01*
X-43320996Y-28481165D01*
X-43383834Y-28559249D01*
X-43436407Y-28644582D01*
X-43477887Y-28735823D01*
X-43507623Y-28831538D01*
X-43525148Y-28930222D01*
X-43530185Y-29030323D01*
X-43522655Y-29130267D01*
X-43502677Y-29228484D01*
X-43470566Y-29323428D01*
X-43426825Y-29413608D01*
X-43372142Y-29497605D01*
X-43307378Y-29574098D01*
X-43233550Y-29641885D01*
X-43151820Y-29699900D01*
X-43251668Y-29719241D01*
X-43352107Y-29735235D01*
X-43453025Y-29747863D01*
X-43554308Y-29757112D01*
X-43655843Y-29762971D01*
X-43757518Y-29765434D01*
X-43859218Y-29764498D01*
X-43960830Y-29760164D01*
X-44062240Y-29752437D01*
X-44163336Y-29741325D01*
X-44264004Y-29726842D01*
X-44364131Y-29709002D01*
X-44463607Y-29687826D01*
X-44562319Y-29663338D01*
X-44660158Y-29635565D01*
X-44757014Y-29604538D01*
X-44852779Y-29570292D01*
X-44947347Y-29532865D01*
X-45040610Y-29492298D01*
X-45132467Y-29448638D01*
X-45222812Y-29401932D01*
X-45311547Y-29352234D01*
X-45398571Y-29299598D01*
X-45483788Y-29244083D01*
X-45567102Y-29185752D01*
X-45648420Y-29124669D01*
X-45727652Y-29060902D01*
X-45804709Y-28994524D01*
X-45879504Y-28925608D01*
X-45951954Y-28854231D01*
X-46021979Y-28780472D01*
X-46089500Y-28704415D01*
X-46154442Y-28626144D01*
X-46216732Y-28545747D01*
X-46276301Y-28463313D01*
X-46333081Y-28378934D01*
X-46387010Y-28292705D01*
X-46438028Y-28204722D01*
X-46486077Y-28115084D01*
X-46531103Y-28023889D01*
X-46573057Y-27931241D01*
X-46611892Y-27837243D01*
X-46647564Y-27742000D01*
X-46680033Y-27645618D01*
X-46709263Y-27548204D01*
X-46735222Y-27449868D01*
X-46757880Y-27350720D01*
X-47024110Y-25456180D01*
X-45953290Y-25305690D01*
G37*
G36*
X-41259400Y-29643950D02*
G01*
X-38953010Y-29319830D01*
X-38852105Y-29298414D01*
X-38755650Y-29261851D01*
X-38665905Y-29210997D01*
X-38584970Y-29147044D01*
X-38514743Y-29071489D01*
X-38456867Y-28986103D01*
X-38412700Y-28892885D01*
X-38383274Y-28794019D01*
X-38369280Y-28691820D01*
X-37792690Y-28610790D01*
X-37689038Y-28619142D01*
X-37587800Y-28642899D01*
X-37491253Y-28681525D01*
X-37401566Y-28734154D01*
X-37320757Y-28799601D01*
X-37250642Y-28876395D01*
X-37192797Y-28962810D01*
X-37148524Y-29056902D01*
X-37118817Y-29156556D01*
X-37104345Y-29259532D01*
X-37105433Y-29363514D01*
X-37122056Y-29466164D01*
X-37153840Y-29565176D01*
X-37200072Y-29658321D01*
X-37259711Y-29743507D01*
X-37331417Y-29818818D01*
X-37413578Y-29882560D01*
X-37504346Y-29933301D01*
X-37601680Y-29969900D01*
X-40484670Y-30375050D01*
X-40591996Y-30370356D01*
X-40697567Y-30350462D01*
X-40799241Y-30315773D01*
X-40894956Y-30266991D01*
X-40982770Y-30205107D01*
X-41060902Y-30131375D01*
X-41127767Y-30047291D01*
X-41182009Y-29954562D01*
X-41222527Y-29855066D01*
X-41248500Y-29750824D01*
X-41259400Y-29643950D01*
G37*
G36*
X-38404010Y-28444710D02*
G01*
X-38421196Y-28345373D01*
X-38453744Y-28249959D01*
X-38500849Y-28160827D01*
X-38561347Y-28080184D01*
X-38633740Y-28010024D01*
X-38716238Y-27952081D01*
X-38806800Y-27907790D01*
X-38707678Y-27882739D01*
X-38612044Y-27846587D01*
X-38521137Y-27799803D01*
X-38436135Y-27742993D01*
X-38358138Y-27676892D01*
X-38288156Y-27602358D01*
X-38227097Y-27520354D01*
X-38175750Y-27431944D01*
X-38134782Y-27338273D01*
X-38104722Y-27240553D01*
X-38085960Y-27140050D01*
X-37712740Y-27087600D01*
X-37609330Y-27080815D01*
X-37506223Y-27091242D01*
X-37406265Y-27118593D01*
X-37312214Y-27162113D01*
X-37226664Y-27220601D01*
X-37151977Y-27292444D01*
X-37090212Y-27375660D01*
X-37043075Y-27467951D01*
X-37011865Y-27566772D01*
X-36997445Y-27669397D01*
X-37000211Y-27772992D01*
X-37020088Y-27874700D01*
X-37056527Y-27971715D01*
X-37108522Y-28061360D01*
X-37174640Y-28141160D01*
X-37253055Y-28208915D01*
X-37341605Y-28262754D01*
X-37437845Y-28301193D01*
X-37539120Y-28323170D01*
X-38404010Y-28444710D01*
G37*
G36*
X-44130000Y83409000D02*
G01*
X-44130000Y82129010D01*
X-45409980Y82129010D01*
X-45402631Y82233690D01*
X-45386994Y82337455D01*
X-45363167Y82439652D01*
X-45331303Y82539634D01*
X-45291601Y82636771D01*
X-45244312Y82730449D01*
X-45189734Y82820077D01*
X-45128213Y82905089D01*
X-45060137Y82984948D01*
X-44985936Y83059151D01*
X-44906077Y83127227D01*
X-44821066Y83188749D01*
X-44731438Y83243327D01*
X-44637760Y83290617D01*
X-44540624Y83330320D01*
X-44440642Y83362185D01*
X-44338445Y83386012D01*
X-44234680Y83401650D01*
X-44130000Y83409000D01*
G37*
G36*
X-44130000Y80849030D02*
G01*
X-44130000Y82129010D01*
X-42850020Y82129010D01*
X-42857368Y82024330D01*
X-42873004Y81920564D01*
X-42896829Y81818367D01*
X-42928693Y81718385D01*
X-42968395Y81621247D01*
X-43015684Y81527569D01*
X-43070261Y81437941D01*
X-43131782Y81352929D01*
X-43199858Y81273070D01*
X-43274060Y81198868D01*
X-43353919Y81130792D01*
X-43438931Y81069271D01*
X-43528559Y81014694D01*
X-43622237Y80967405D01*
X-43719375Y80927703D01*
X-43819357Y80895839D01*
X-43921554Y80872014D01*
X-44025320Y80856378D01*
X-44130000Y80849030D01*
G37*
G36*
X113350000Y83409000D02*
G01*
X113350000Y82129010D01*
X112070020Y82129010D01*
X112077369Y82233690D01*
X112093005Y82337456D01*
X112116831Y82439653D01*
X112148695Y82539636D01*
X112188397Y82636773D01*
X112235686Y82730451D01*
X112290263Y82820080D01*
X112351784Y82905092D01*
X112419860Y82984951D01*
X112494062Y83059153D01*
X112573921Y83127230D01*
X112658932Y83188752D01*
X112748560Y83243330D01*
X112842238Y83290619D01*
X112939375Y83330322D01*
X113039357Y83362187D01*
X113141554Y83386013D01*
X113245320Y83401651D01*
X113350000Y83409000D01*
G37*
G36*
X113350000Y80849030D02*
G01*
X113350000Y82129010D01*
X114629980Y82129010D01*
X114622631Y82024330D01*
X114606995Y81920565D01*
X114583169Y81818368D01*
X114551305Y81718386D01*
X114511603Y81621249D01*
X114464314Y81527571D01*
X114409737Y81437943D01*
X114348216Y81352931D01*
X114280139Y81273072D01*
X114205938Y81198871D01*
X114126079Y81130794D01*
X114041067Y81069273D01*
X113951439Y81014696D01*
X113857761Y80967407D01*
X113760624Y80927705D01*
X113660642Y80895841D01*
X113558445Y80872015D01*
X113454680Y80856379D01*
X113350000Y80849030D01*
G37*
G36*
X113350000Y-25811000D02*
G01*
X113350000Y-27090980D01*
X112070020Y-27090980D01*
X112077369Y-26986300D01*
X112093005Y-26882535D01*
X112116831Y-26780338D01*
X112148695Y-26680356D01*
X112188397Y-26583219D01*
X112235686Y-26489541D01*
X112290263Y-26399913D01*
X112351784Y-26314901D01*
X112419861Y-26235042D01*
X112494062Y-26160841D01*
X112573921Y-26092764D01*
X112658933Y-26031243D01*
X112748561Y-25976666D01*
X112842239Y-25929377D01*
X112939376Y-25889675D01*
X113039358Y-25857811D01*
X113141555Y-25833985D01*
X113245320Y-25818349D01*
X113350000Y-25811000D01*
G37*
G36*
X113350000Y-28370970D02*
G01*
X113350000Y-27090980D01*
X114629980Y-27090980D01*
X114622631Y-27195660D01*
X114606995Y-27299426D01*
X114583169Y-27401623D01*
X114551305Y-27501606D01*
X114511603Y-27598743D01*
X114464314Y-27692421D01*
X114409737Y-27782050D01*
X114348216Y-27867062D01*
X114280140Y-27946921D01*
X114205938Y-28021123D01*
X114126079Y-28089200D01*
X114041068Y-28150722D01*
X113951440Y-28205300D01*
X113857762Y-28252589D01*
X113760625Y-28292292D01*
X113660643Y-28324157D01*
X113558446Y-28347983D01*
X113454680Y-28363621D01*
X113350000Y-28370970D01*
G37*
D13*
X-43442900Y-31956790D02*
X-38972570Y-31956790D01*
D14*
X-41374120Y-26510150D02*
X-39067730Y-26186040D01*
X-39033000Y-26433150D02*
X-41339400Y-26757260D01*
X-41165760Y-27992830D02*
X-38859380Y-27668720D01*
X-39277690Y-27979500D02*
X-41131040Y-28239940D01*
X-42410490Y-29595720D02*
X-39115640Y-29132700D01*
X-39229790Y-25032840D02*
X-42977690Y-25559520D01*
D13*
X119610000Y-33741000D02*
X119610000Y86259000D01*
X-50390000Y-33741000D02*
X119610000Y-33741000D01*
X-50390000Y86259000D02*
X-50390000Y-33741000D01*
X119610000Y86259000D02*
X-50390000Y86259000D01*
D15*
X106610000Y-23741000D02*
X-21390000Y-23741000D01*
X106610000Y-33741000D02*
X106610000Y-23741000D01*
X-21390000Y-33741000D02*
X106610000Y-33741000D01*
X-21390000Y-23741000D02*
X-21390000Y-33741000D01*
X-21390000Y-28741000D02*
X106610000Y-28741000D01*
X22610000Y-33741000D02*
X23110000Y-33741000D01*
X22610000Y-23741000D02*
X22610000Y-33741000D01*
X48110000Y-28741000D02*
X48110000Y-33741000D01*
X74610000Y-23741000D02*
X74610000Y-33741000D01*
X91610000Y-23741000D02*
X91610000Y-28741000D01*
D14*
X-41374120Y-26510150D02*
G75*
G03X-41339400Y-26757260I19029J-123320D01*
G01*
X-39033000Y-26433150D02*
G75*
G02X-38859380Y-27668720I95771J-616526D01*
G01*
X-41165760Y-27992830D02*
G75*
G03X-41131040Y-28239940I19029J-123320D01*
G01*
X-39277690Y-27979500D02*
G75*
G02X-39115640Y-29132700I91972J-575062D01*
G01*
X-42410490Y-29595720D02*
G75*
G02X-42572540Y-28442520I-118139J571385D01*
G01*
X-42572540Y-28442520D02*
G75*
G03X-42607270Y-28195410I-16955J123613D01*
G01*
X-42607270Y-28195410D02*
G75*
G02X-42780910Y-26959840I-110138J614508D01*
G01*
X-42780910Y-26959840D02*
G75*
G03X-42815630Y-26712730I-16778J123637D01*
G01*
X-42815631Y-26712730D02*
G75*
G02X-42977690Y-25559520I-121028J570984D01*
G01*
X-39229789Y-25032840D02*
G75*
G02X-39067730Y-26186040I45022J-581660D01*
G01*
D16*
X-42850020Y82129010D02*
G75*
G03X-42850020Y82129010I-1279970J0D01*
G01*
X114629980Y82129010D02*
G75*
G03X114629980Y82129010I-1279980J0D01*
G01*
X114629980Y-27090980D02*
G75*
G03X114629980Y-27090980I-1279980J0D01*
G01*
%TD*%
D17*
%TO.C,T13*%
X31203900Y17157699D03*
X31203900Y15227299D03*
X29121100Y16192499D03*
%TD*%
D18*
%TO.C,T12*%
X25387300Y14376400D03*
X27317700Y14376400D03*
X26352500Y12293600D03*
%TD*%
%TO.C,T11*%
X21577300Y14376400D03*
X23507700Y14376400D03*
X22542500Y12293600D03*
%TD*%
D17*
%TO.C,T10*%
X44221400Y28587700D03*
X44221400Y26657300D03*
X42138600Y27622500D03*
%TD*%
%TO.C,T9*%
X49618900Y28587700D03*
X49618900Y26657300D03*
X47536100Y27622500D03*
%TD*%
D18*
%TO.C,T8*%
X59105800Y40284400D03*
X61036200Y40284400D03*
X60071000Y38201600D03*
%TD*%
%TO.C,T7*%
X62788800Y40284400D03*
X64719200Y40284400D03*
X63754000Y38201600D03*
%TD*%
%TO.C,T6*%
X32207200Y26517600D03*
X30276800Y26517600D03*
X31242000Y28600400D03*
%TD*%
%TO.C,T5*%
X22555200Y20231100D03*
X20624800Y20231100D03*
X21590000Y22313900D03*
%TD*%
%TO.C,T4*%
X64719200Y46202600D03*
X63754000Y48285400D03*
X62788800Y46202600D03*
%TD*%
%TO.C,T3*%
X64719200Y50901600D03*
X63754000Y52984400D03*
X62788800Y50901600D03*
%TD*%
%TO.C,T2*%
X43764200Y46710600D03*
X42799000Y48793400D03*
X41833800Y46710600D03*
%TD*%
%TO.C,T1*%
X43764200Y51536600D03*
X42799000Y53619400D03*
X41833800Y51536600D03*
%TD*%
D19*
%TO.C,R71*%
X21542500Y18097500D03*
X23542500Y18097500D03*
%TD*%
D20*
%TO.C,R70*%
X31115000Y13885000D03*
X31115000Y12785000D03*
%TD*%
D21*
%TO.C,R69*%
X54652000Y18923000D03*
X53552000Y18923000D03*
%TD*%
D20*
%TO.C,R68*%
X29210000Y12785000D03*
X29210000Y13885000D03*
%TD*%
D21*
%TO.C,R67*%
X21992500Y16192499D03*
X23092500Y16192499D03*
%TD*%
D20*
%TO.C,R66*%
X25400000Y32343000D03*
X25400000Y33443000D03*
%TD*%
D21*
%TO.C,R65*%
X15472500Y48260000D03*
X14372500Y48260000D03*
%TD*%
D20*
%TO.C,R64*%
X45720000Y28172500D03*
X45720000Y27072500D03*
%TD*%
%TO.C,R63*%
X40322500Y28172500D03*
X40322500Y27072500D03*
%TD*%
%TO.C,R62*%
X41910000Y23262500D03*
X41910000Y24362500D03*
%TD*%
%TO.C,R61*%
X40322500Y23262500D03*
X40322500Y24362500D03*
%TD*%
D21*
%TO.C,R60*%
X63204000Y33147000D03*
X64304000Y33147000D03*
%TD*%
%TO.C,R59*%
X54652000Y17526000D03*
X53552000Y17526000D03*
%TD*%
D20*
%TO.C,R58*%
X30226000Y38947000D03*
X30226000Y40047000D03*
%TD*%
D21*
%TO.C,R57*%
X28109000Y37846000D03*
X27009000Y37846000D03*
%TD*%
D20*
%TO.C,R56*%
X31242000Y36153000D03*
X31242000Y37253000D03*
%TD*%
%TO.C,R55*%
X32258000Y38947000D03*
X32258000Y40047000D03*
%TD*%
D21*
%TO.C,R54*%
X27855000Y51435000D03*
X26755000Y51435000D03*
%TD*%
%TO.C,R53*%
X35010000Y51435000D03*
X36110000Y51435000D03*
%TD*%
%TO.C,R52*%
X59394000Y36830000D03*
X60494000Y36830000D03*
%TD*%
%TO.C,R51*%
X59521000Y41783000D03*
X60621000Y41783000D03*
%TD*%
%TO.C,R50*%
X30692000Y30353000D03*
X31792000Y30353000D03*
%TD*%
%TO.C,R49*%
X64304000Y41910000D03*
X63204000Y41910000D03*
%TD*%
%TO.C,R48*%
X63204000Y35687000D03*
X64304000Y35687000D03*
%TD*%
%TO.C,R47*%
X31792000Y24765000D03*
X30692000Y24765000D03*
%TD*%
%TO.C,R46*%
X35010000Y24765000D03*
X36110000Y24765000D03*
%TD*%
D20*
%TO.C,R45*%
X37592000Y26458000D03*
X37592000Y25358000D03*
%TD*%
D21*
%TO.C,R44*%
X36110000Y31369000D03*
X35010000Y31369000D03*
%TD*%
%TO.C,R43*%
X35010000Y30353000D03*
X36110000Y30353000D03*
%TD*%
D20*
%TO.C,R42*%
X13081000Y33443000D03*
X13081000Y32343000D03*
%TD*%
%TO.C,R41*%
X14097000Y32343000D03*
X14097000Y33443000D03*
%TD*%
D21*
%TO.C,R40*%
X39539000Y14986000D03*
X38439000Y14986000D03*
%TD*%
D20*
%TO.C,R39*%
X16129000Y32343000D03*
X16129000Y33443000D03*
%TD*%
%TO.C,R38*%
X17272000Y27009000D03*
X17272000Y28109000D03*
%TD*%
%TO.C,R37*%
X21336000Y32343000D03*
X21336000Y33443000D03*
%TD*%
D22*
%TO.C,R36*%
X23177500Y32655000D03*
X23177500Y34655000D03*
%TD*%
D20*
%TO.C,R35*%
X11049000Y21886000D03*
X11049000Y20786000D03*
%TD*%
%TO.C,R34*%
X12192000Y20786000D03*
X12192000Y21886000D03*
%TD*%
%TO.C,R33*%
X27559000Y28109000D03*
X27559000Y27009000D03*
%TD*%
%TO.C,R32*%
X18923000Y21886000D03*
X18923000Y20786000D03*
%TD*%
%TO.C,R31*%
X17907000Y21886000D03*
X17907000Y20786000D03*
%TD*%
%TO.C,R30*%
X13335000Y21886000D03*
X13335000Y20786000D03*
%TD*%
D21*
%TO.C,R29*%
X57997000Y16001999D03*
X59097000Y16001999D03*
%TD*%
%TO.C,R28*%
X54652000Y54356000D03*
X53552000Y54356000D03*
%TD*%
%TO.C,R27*%
X53552000Y16001999D03*
X54652000Y16001999D03*
%TD*%
%TO.C,R26*%
X52366000Y54356000D03*
X51266000Y54356000D03*
%TD*%
%TO.C,R25*%
X53552000Y21717000D03*
X54652000Y21717000D03*
%TD*%
%TO.C,R24*%
X53552000Y20320000D03*
X54652000Y20320000D03*
%TD*%
%TO.C,R23*%
X67098000Y28829000D03*
X65998000Y28829000D03*
%TD*%
D20*
%TO.C,R22*%
X59690000Y51393000D03*
X59690000Y52493000D03*
%TD*%
%TO.C,R21*%
X64388999Y27347000D03*
X64388999Y26247000D03*
%TD*%
%TO.C,R20*%
X58420000Y52493000D03*
X58420000Y51393000D03*
%TD*%
%TO.C,R19*%
X60960000Y51393000D03*
X60960000Y52493000D03*
%TD*%
D21*
%TO.C,R18*%
X65998000Y23495000D03*
X67098000Y23495000D03*
%TD*%
%TO.C,R17*%
X65998000Y24638000D03*
X67098000Y24638000D03*
%TD*%
%TO.C,R16*%
X65998000Y26162000D03*
X67098000Y26162000D03*
%TD*%
%TO.C,R15*%
X67987000Y44704000D03*
X66887000Y44704000D03*
%TD*%
D20*
%TO.C,R14*%
X45085000Y47075000D03*
X45085000Y48175000D03*
%TD*%
%TO.C,R13*%
X46101000Y48175000D03*
X46101000Y47075000D03*
%TD*%
%TO.C,R12*%
X47117000Y47075000D03*
X47117000Y48175000D03*
%TD*%
D21*
%TO.C,R11*%
X50377000Y45212000D03*
X51477000Y45212000D03*
%TD*%
%TO.C,R10*%
X53552000Y45212000D03*
X54652000Y45212000D03*
%TD*%
%TO.C,R9*%
X51477000Y44196000D03*
X50377000Y44196000D03*
%TD*%
D20*
%TO.C,R8*%
X54737000Y44111000D03*
X54737000Y43011000D03*
%TD*%
D21*
%TO.C,R7*%
X53552000Y32258000D03*
X54652000Y32258000D03*
%TD*%
%TO.C,R6*%
X51223000Y32003999D03*
X50123000Y32003999D03*
%TD*%
%TO.C,R5*%
X53552000Y28067000D03*
X54652000Y28067000D03*
%TD*%
%TO.C,R4*%
X54652000Y24892000D03*
X53552000Y24892000D03*
%TD*%
D20*
%TO.C,R3*%
X50165000Y33105000D03*
X50165000Y34205000D03*
%TD*%
%TO.C,R2*%
X51181000Y34205000D03*
X51181000Y33105000D03*
%TD*%
D21*
%TO.C,R1*%
X54652000Y26035000D03*
X53552000Y26035000D03*
%TD*%
D23*
%TO.C,LD1*%
X38164000Y13589000D03*
X39814000Y13589000D03*
%TD*%
D24*
%TO.C,ZL4*%
X36219000Y40513000D03*
X39219000Y40513000D03*
%TD*%
%TO.C,ZL3*%
X37695000Y48260000D03*
X34695000Y48260000D03*
%TD*%
%TO.C,ZL2*%
X24852500Y48260000D03*
X27852500Y48260000D03*
%TD*%
D25*
%TO.C,L4*%
X36369000Y40513000D03*
X39069000Y40513000D03*
%TD*%
%TO.C,L3*%
X37545000Y48260000D03*
X34845000Y48260000D03*
%TD*%
%TO.C,L2*%
X25002500Y48260000D03*
X27702500Y48260000D03*
%TD*%
D26*
%TO.C,L1*%
X15011400Y54356000D03*
X12166600Y54356000D03*
%TD*%
D27*
%TO.C,J3*%
X12573000Y3810000D03*
%TD*%
%TO.C,J2*%
X71882000Y49657000D03*
%TD*%
D28*
%TO.C,IC9*%
X46670000Y22512500D03*
X45720000Y22512500D03*
X44770000Y22512500D03*
X44770000Y25112500D03*
X45720000Y25112500D03*
X46670000Y25112500D03*
%TD*%
D29*
%TO.C,IC8*%
X31242000Y43180000D03*
D30*
X30242000Y44592500D03*
X30742000Y44592500D03*
X31242000Y44592500D03*
X31742000Y44592500D03*
X32242000Y44592500D03*
X32242000Y41767500D03*
X31742000Y41767500D03*
X31242000Y41767500D03*
X30742000Y41767500D03*
X30242000Y41767500D03*
%TD*%
D28*
%TO.C,IC7*%
X34610000Y28859000D03*
X35560000Y28859000D03*
X36510000Y28859000D03*
X36510000Y26259000D03*
X35560000Y26259000D03*
X34610000Y26259000D03*
%TD*%
D31*
%TO.C,IC6*%
X16129000Y24859000D03*
D32*
X14732000Y24859000D03*
X13462000Y24859000D03*
D31*
X12065000Y24859000D03*
X12065000Y30259000D03*
D32*
X13462000Y30259000D03*
X14732000Y30259000D03*
D31*
X16129000Y30259000D03*
%TD*%
%TO.C,IC5*%
X25400000Y24859000D03*
D32*
X24003000Y24859000D03*
X22733000Y24859000D03*
D31*
X21336000Y24859000D03*
X21336000Y30259000D03*
D32*
X22733000Y30259000D03*
X24003000Y30259000D03*
D31*
X25400000Y30259000D03*
%TD*%
D33*
%TO.C,IC4*%
X59817000Y19240500D03*
X59817000Y17335500D03*
X57277000Y17335500D03*
X57277000Y18288000D03*
X57277000Y19240500D03*
%TD*%
D31*
%TO.C,IC3*%
X49911000Y52611000D03*
D32*
X51308000Y52611000D03*
X52578000Y52611000D03*
D31*
X53975000Y52611000D03*
X53975000Y47211000D03*
D32*
X52578000Y47211000D03*
X51308000Y47211000D03*
D31*
X49911000Y47211000D03*
%TD*%
D34*
%TO.C,IC2*%
X62771000Y28829000D03*
D35*
X62771000Y27432000D03*
X62771000Y26162000D03*
D34*
X62771000Y24765000D03*
X57371000Y24765000D03*
D35*
X57371000Y26162000D03*
X57371000Y27432000D03*
D34*
X57371000Y28829000D03*
%TD*%
D33*
%TO.C,IC1*%
X55372000Y35242500D03*
X55372000Y33337500D03*
X52832000Y33337500D03*
X52832000Y34290000D03*
X52832000Y35242500D03*
%TD*%
D36*
%TO.C,FU1*%
X8890000Y53848000D03*
X3810000Y53848000D03*
%TD*%
D37*
%TO.C,FI1*%
X8439000Y40805000D03*
X8439000Y39205000D03*
X7639000Y40805000D03*
X7639000Y39205000D03*
X6839000Y40805000D03*
X6839000Y39205000D03*
X6039000Y40805000D03*
X6039000Y39205000D03*
%TD*%
D18*
%TO.C,D17*%
X26352500Y16103600D03*
X25387300Y18186400D03*
X27317700Y18186400D03*
%TD*%
D17*
%TO.C,D16*%
X31203900Y20002500D03*
X29121100Y19037300D03*
X29121100Y20967700D03*
%TD*%
D18*
%TO.C,D15*%
X14287500Y43408600D03*
X13322300Y45491400D03*
X15252700Y45491400D03*
%TD*%
D38*
%TO.C,D14*%
X20365500Y51308000D03*
D39*
X17480500Y51308000D03*
%TD*%
D40*
%TO.C,D13*%
X27559000Y41102500D03*
D41*
X27559000Y43987500D03*
%TD*%
D40*
%TO.C,D12*%
X39370000Y33863500D03*
D41*
X39370000Y36748500D03*
%TD*%
D38*
%TO.C,D11*%
X20365500Y48260000D03*
D39*
X17480500Y48260000D03*
%TD*%
D38*
%TO.C,D10*%
X20365500Y54356000D03*
D39*
X17480500Y54356000D03*
%TD*%
D18*
%TO.C,D9*%
X60071000Y33248600D03*
X59105800Y35331400D03*
X61036200Y35331400D03*
%TD*%
D40*
%TO.C,D8*%
X18542000Y35351500D03*
D41*
X18542000Y32466500D03*
%TD*%
D18*
%TO.C,D7*%
X26352500Y22313900D03*
X27317700Y20231100D03*
X25387300Y20231100D03*
%TD*%
%TO.C,D6*%
X15621000Y22377400D03*
X16586200Y20294600D03*
X14655800Y20294600D03*
%TD*%
%TO.C,D5*%
X66548000Y17881600D03*
X65582800Y19964400D03*
X67513200Y19964400D03*
%TD*%
%TO.C,D4*%
X67437000Y52984400D03*
X68402200Y50901600D03*
X66471800Y50901600D03*
%TD*%
%TO.C,D3*%
X67437000Y48285400D03*
X68402200Y46202600D03*
X66471800Y46202600D03*
%TD*%
%TO.C,D2*%
X54102000Y41554400D03*
X55067200Y39471600D03*
X53136800Y39471600D03*
%TD*%
D40*
%TO.C,D1*%
X46863000Y33355500D03*
D41*
X46863000Y36240500D03*
%TD*%
D21*
%TO.C,C35*%
X64304000Y42926000D03*
X63204000Y42926000D03*
%TD*%
D20*
%TO.C,C34*%
X43497500Y23262500D03*
X43497500Y24362500D03*
%TD*%
%TO.C,C33*%
X48260000Y24362500D03*
X48260000Y23262500D03*
%TD*%
D21*
%TO.C,C32*%
X35264000Y35052000D03*
X36364000Y35052000D03*
%TD*%
%TO.C,C31*%
X27009000Y34163000D03*
X28109000Y34163000D03*
%TD*%
%TO.C,C30*%
X57997000Y20574000D03*
X59097000Y20574000D03*
%TD*%
D26*
%TO.C,C29*%
X26644600Y36068000D03*
X29489400Y36068000D03*
%TD*%
D21*
%TO.C,C28*%
X27009000Y38862000D03*
X28109000Y38862000D03*
%TD*%
D20*
%TO.C,C27*%
X32258000Y37253000D03*
X32258000Y36153000D03*
%TD*%
D26*
%TO.C,C26*%
X37236400Y36957000D03*
X34391600Y36957000D03*
%TD*%
D20*
%TO.C,C25*%
X31242000Y40047000D03*
X31242000Y38947000D03*
%TD*%
D19*
%TO.C,C24*%
X37481000Y43942000D03*
X39481000Y43942000D03*
%TD*%
D42*
%TO.C,C23*%
X34772600Y53975000D03*
X37617400Y53975000D03*
%TD*%
D43*
%TO.C,C22*%
X31242000Y55524400D03*
X31242000Y52679600D03*
%TD*%
D42*
%TO.C,C21*%
X28092400Y53975000D03*
X25247600Y53975000D03*
%TD*%
D23*
%TO.C,C20*%
X64504000Y34417000D03*
X63004000Y34417000D03*
%TD*%
D20*
%TO.C,C19*%
X33528000Y27009000D03*
X33528000Y28109000D03*
%TD*%
%TO.C,C18*%
X37592000Y29760000D03*
X37592000Y28660000D03*
%TD*%
%TO.C,C17*%
X12065000Y32343000D03*
X12065000Y33443000D03*
%TD*%
%TO.C,C16*%
X11049000Y28109000D03*
X11049000Y27009000D03*
%TD*%
%TO.C,C15*%
X26543000Y28109000D03*
X26543000Y27009000D03*
%TD*%
D23*
%TO.C,C14*%
X65798000Y27559000D03*
X67298000Y27559000D03*
%TD*%
%TO.C,C13*%
X67298000Y21971000D03*
X65798000Y21971000D03*
%TD*%
D20*
%TO.C,C11*%
X55118000Y49361000D03*
X55118000Y50461000D03*
%TD*%
%TO.C,C10*%
X48768000Y50461000D03*
X48768000Y49361000D03*
%TD*%
%TO.C,C9*%
X53467000Y43011000D03*
X53467000Y44111000D03*
%TD*%
D21*
%TO.C,C8*%
X60621000Y23622000D03*
X59521000Y23622000D03*
%TD*%
%TO.C,C7*%
X59521000Y29972000D03*
X60621000Y29972000D03*
%TD*%
%TO.C,C6*%
X53552000Y29210000D03*
X54652000Y29210000D03*
%TD*%
%TO.C,C5*%
X50123000Y35306000D03*
X51223000Y35306000D03*
%TD*%
%TO.C,C4*%
X53552000Y27051000D03*
X54652000Y27051000D03*
%TD*%
D19*
%TO.C,C3*%
X55102000Y30734000D03*
X53102000Y30734000D03*
%TD*%
D21*
%TO.C,C2*%
X15409000Y52451000D03*
X14309000Y52451000D03*
%TD*%
D37*
%TO.C,C1*%
X8439000Y42380000D03*
X7639000Y42380000D03*
X6839000Y42380000D03*
X6039000Y42380000D03*
X6039000Y43980000D03*
X6839000Y43980000D03*
X7639000Y43980000D03*
X8439000Y43980000D03*
%TD*%
M02*
