(module 03512 (layer F.Cu) (tedit 0)
  (fp_text reference REF** (at 0 0) (layer F.SilkS)
    (effects (font (size 1 1) (thickness 0.15)))
  )
  (fp_text value 03512 (at 0 2) (layer F.Fab) hide
    (effects (font (size 1 1) (thickness 0.15)))
  )
  (fp_arc (start 0 0) (end 3.302 0) (angle 360) (layer F.SilkS) (width 0.18))
  (fp_arc (start 1.27 0) (end 2.1082 0) (angle 360) (layer B.CrtYd) (width 0.02))
  (fp_arc (start 0 0) (end 3.302 0) (angle 360) (layer F.Fab) (width 0.1))
  (fp_line (start -3.392 3.392) (end -3.392 -3.392) (layer Dwgs.User) (width 0.05))
  (fp_line (start -3.392 -3.392) (end 3.392 -3.392) (layer Dwgs.User) (width 0.05))
  (fp_line (start 3.392 -3.392) (end 3.392 3.392) (layer Dwgs.User) (width 0.05))
  (fp_line (start 3.392 3.392) (end -3.392 3.392) (layer Dwgs.User) (width 0.05))
  (fp_line (start -1.905 -1.905) (end -0.635 -1.905) (layer F.SilkS) (width 0.18))
  (fp_line (start -1.27 -1.27) (end -1.27 -2.54) (layer F.SilkS) (width 0.18))
  (fp_line (start 2.1082 -0.8382) (end 2.1082 0.8382) (layer F.CrtYd) (width 0.02))
  (fp_line (start 2.1082 0.8382) (end -2.1082 0.8382) (layer F.CrtYd) (width 0.02))
  (fp_line (start -2.1082 0.8382) (end -2.1082 -0.8382) (layer F.CrtYd) (width 0.02))
  (fp_line (start -2.1082 -0.8382) (end 2.1082 -0.8382) (layer F.CrtYd) (width 0.02))
  (fp_line (start -0.4318 -0.8382) (end -0.4318 0.8382) (layer B.CrtYd) (width 0.02))
  (fp_line (start -0.4318 0.8382) (end -2.1082 0.8382) (layer B.CrtYd) (width 0.02))
  (fp_line (start -2.1082 0.8382) (end -2.1082 -0.8382) (layer B.CrtYd) (width 0.02))
  (fp_line (start -2.1082 -0.8382) (end -0.4318 -0.8382) (layer B.CrtYd) (width 0.02))
  (pad + thru_hole rect (at -1.27 0) (size 1.6764 1.6764) (drill 0.9652 (offset 0 0 )) (layers *.Cu *.Mask)
    (clearance 0.1524) (solder_mask_margin 0.1016)
    (zone_connect 2) (thermal_width 0.2032) (thermal_gap 0.2032))
  (pad - thru_hole circle (at 1.27 0) (size 1.6764 1.6764) (drill 0.9652 (offset 0 0 )) (layers *.Cu *.Mask)
    (clearance 0.1524) (solder_mask_margin 0.1016)
    (zone_connect 2) (thermal_width 0.2032) (thermal_gap 0.2032))
  (fp_text user + (at -2.8575 1.58235) (layer F.Fab)
    (effects (font (size 1 1) (thickness 0.2032)) (justify left))
  )
  (model ${KISYS3DMOD}/Capacitor_THT.3dshapes/CP_Radial_D6.3mm_P2.50mm.wrl
    (offset (xyz -1.27 0 0))
    (scale (xyz 1 1 1))
    (rotate (xyz 0 0 0))
  )
)