(module 0mm8NP (layer F.Cu) (tedit 0)
  (fp_text reference REF** (at 0 0) (layer F.SilkS) hide
    (effects (font (size 1 1) (thickness 0.15)))
  )
  (fp_text value 0mm8NP (at 0 2) (layer F.Fab) hide
    (effects (font (size 1 1) (thickness 0.15)))
  )
  (fp_line (start -0.912 0.912) (end -0.912 -0.912) (layer F.CrtYd) (width 0.05))
  (fp_line (start -0.912 -0.912) (end 0.912 -0.912) (layer F.CrtYd) (width 0.05))
  (fp_line (start 0.912 -0.912) (end 0.912 0.912) (layer F.CrtYd) (width 0.05))
  (fp_line (start 0.912 0.912) (end -0.912 0.912) (layer F.CrtYd) (width 0.05))
)