(module 1mm2NP (layer F.Cu) (tedit 0)
  (fp_text reference REF** (at 0 0) (layer F.SilkS) hide
    (effects (font (size 1 1) (thickness 0.15)))
  )
  (fp_text value 1mm2NP (at 0 2) (layer F.Fab) hide
    (effects (font (size 1 1) (thickness 0.15)))
  )
  (fp_line (start -0.6645 0.66041) (end -0.6645 -0.66449) (layer F.CrtYd) (width 0.05))
  (fp_line (start -0.6645 -0.66449) (end 0.6604 -0.66449) (layer F.CrtYd) (width 0.05))
  (fp_line (start 0.6604 -0.66449) (end 0.6604 0.66041) (layer F.CrtYd) (width 0.05))
  (fp_line (start 0.6604 0.66041) (end -0.6645 0.66041) (layer F.CrtYd) (width 0.05))
  (pad ~ smd oval (at 0 0) (size 0.1 1.1) (layers F.Cu F.Mask F.Paste)
    (zone_connect 2))
  (pad ~ smd oval (at 0 0 -45) (size 1.519998 0) (layers F.Cu F.Mask F.Paste)
    (zone_connect 2))
)