(module 3mm2NP (layer F.Cu) (tedit 0)
  (fp_text reference REF** (at 0 0) (layer F.SilkS) hide
    (effects (font (size 1 1) (thickness 0.15)))
  )
  (fp_text value 3mm2NP (at 0 2) (layer F.Fab) hide
    (effects (font (size 1 1) (thickness 0.15)))
  )
  (fp_line (start -1.524 1.524) (end -1.524 -1.524) (layer F.CrtYd) (width 0.05))
  (fp_line (start -1.524 -1.524) (end 1.524 -1.524) (layer F.CrtYd) (width 0.05))
  (fp_line (start 1.524 -1.524) (end 1.524 1.524) (layer F.CrtYd) (width 0.05))
  (fp_line (start 1.524 1.524) (end -1.524 1.524) (layer F.CrtYd) (width 0.05))
  (pad ~ smd custom (at 0 0) (size 0.2 0.2) (layers F.Cu F.Mask F.Paste)
    (options (clearance outline) (anchor circle))
    (primitives
      (gr_poly (pts
         (xy -1.2 -1.2) (xy 0 0) (xy -1.2 1.2)) (width 0))
    )
    (zone_connect 2))
  (pad ~ smd custom (at 0 0) (size 0.2 0.2) (layers F.Cu F.Mask F.Paste)
    (options (clearance outline) (anchor circle))
    (primitives
      (gr_poly (pts
         (xy 1.2 1.2) (xy 0 0) (xy 1.2 -1.2)) (width 0))
    )
    (zone_connect 2))
)