(module A3_PER_COVIDIEN_1.5 (layer F.Cu) (tedit 0)
  (attr virtual)
  (fp_text reference REF** (at 0 0) (layer F.SilkS)
    (effects (font (size 1 1) (thickness 0.15)))
  )
  (fp_text value A3_PER_COVIDIEN_1.5 (at 0 2) (layer F.Fab) hide
    (effects (font (size 1 1) (thickness 0.15)))
  )
  (fp_arc (start -28.5 161.25) (end -24.75 161.25) (angle 360) (layer Dwgs.User) (width 0.15))
  (fp_arc (start -28.5 161.25) (end -19.5 161.25) (angle 360) (layer Dwgs.User) (width 0.15))
  (fp_arc (start -102 159.75) (end -100.5 159.75) (angle 360) (layer Dwgs.User) (width 0.15))
  (fp_line (start -324.225 209.475) (end -324.225 -210.929865) (layer Dwgs.User) (width 0.05))
  (fp_line (start -324.225 -210.929865) (end 324.225 -210.929865) (layer Dwgs.User) (width 0.05))
  (fp_line (start 324.225 -210.929865) (end 324.225 209.475) (layer Dwgs.User) (width 0.05))
  (fp_line (start 324.225 209.475) (end -324.225 209.475) (layer Dwgs.User) (width 0.05))
  (fp_line (start -9.75 157.5) (end -9.75 165) (layer Dwgs.User) (width 0.15))
  (fp_line (start -9.75 165) (end 9 170.25) (layer Dwgs.User) (width 0.15))
  (fp_line (start 9 170.25) (end 9 152.25) (layer Dwgs.User) (width 0.15))
  (fp_line (start 9 152.25) (end -9.75 157.5) (layer Dwgs.User) (width 0.15))
  (fp_line (start -39.75 161.25) (end -17.25 161.25) (layer Dwgs.User) (width 0.15))
  (fp_line (start -28.5 150) (end -28.5 172.5) (layer Dwgs.User) (width 0.15))
  (fp_line (start -12 161.25) (end 11.25 161.25) (layer Dwgs.User) (width 0.15))
  (fp_line (start -15.75 161.25) (end -13.5 161.25) (layer Dwgs.User) (width 0.15))
  (fp_line (start -309.75 -195) (end 309.75 -195) (layer Dwgs.User) (width 0.75))
  (fp_line (start 309.75 -195) (end 309.75 195) (layer Dwgs.User) (width 0.75))
  (fp_line (start 309.75 195) (end -309.75 195) (layer Dwgs.User) (width 0.75))
  (fp_line (start -309.75 195) (end -309.75 -195) (layer Dwgs.User) (width 0.75))
  (fp_line (start 309.75 120) (end -50.25 120) (layer Dwgs.User) (width 0.75))
  (fp_line (start -50.25 120) (end -50.25 195) (layer Dwgs.User) (width 0.75))
  (fp_line (start -50.25 195) (end 309.75 195) (layer Dwgs.User) (width 0.75))
  (fp_line (start 309.75 195) (end 309.75 120) (layer Dwgs.User) (width 0.75))
  (fp_line (start -50.25 150) (end -143.25 150) (layer Dwgs.User) (width 0.45))
  (fp_line (start -143.25 150) (end -143.25 195) (layer Dwgs.User) (width 0.45))
  (fp_line (start -143.25 195) (end -50.25 195) (layer Dwgs.User) (width 0.45))
  (fp_line (start -50.25 195) (end -50.25 150) (layer Dwgs.User) (width 0.45))
  (fp_line (start 20.25 195) (end 20.25 120) (layer Dwgs.User) (width 0.45))
  (fp_line (start 61.5 195) (end 61.5 120) (layer Dwgs.User) (width 0.45))
  (fp_line (start 117.75 195) (end 117.75 120) (layer Dwgs.User) (width 0.45))
  (fp_line (start 147.75 195) (end 147.75 120) (layer Dwgs.User) (width 0.45))
  (fp_line (start 147.75 183) (end 61.5 183) (layer Dwgs.User) (width 0.45))
  (fp_line (start 147.75 171) (end 61.5 171) (layer Dwgs.User) (width 0.45))
  (fp_line (start 147.75 159) (end 61.5 159) (layer Dwgs.User) (width 0.45))
  (fp_line (start 147.75 147) (end 61.5 147) (layer Dwgs.User) (width 0.45))
  (fp_line (start 147.75 135) (end 61.5 135) (layer Dwgs.User) (width 0.45))
  (fp_line (start 61.5 181.5) (end 20.25 181.5) (layer Dwgs.User) (width 0.45))
  (fp_line (start 61.5 168) (end 20.25 168) (layer Dwgs.User) (width 0.45))
  (fp_line (start 61.5 154.5) (end 20.25 154.5) (layer Dwgs.User) (width 0.45))
  (fp_line (start 41.25 195) (end 41.25 181.5) (layer Dwgs.User) (width 0.45))
  (fp_line (start 20.25 131.25) (end -50.25 131.25) (layer Dwgs.User) (width 0.45))
  (fp_line (start 147.75 145.5) (end 309.75 145.5) (layer Dwgs.User) (width 0.45))
  (fp_line (start 147.75 169.5) (end 309.75 169.5) (layer Dwgs.User) (width 0.45))
  (fp_line (start 147.75 186) (end 309.75 186) (layer Dwgs.User) (width 0.45))
  (fp_line (start 162.75 169.5) (end 162.75 186) (layer Dwgs.User) (width 0.45))
  (fp_line (start 185.25 169.5) (end 185.25 186) (layer Dwgs.User) (width 0.45))
  (fp_line (start 290.25 169.5) (end 290.25 186) (layer Dwgs.User) (width 0.45))
  (fp_line (start 181.5 186) (end 181.5 195) (layer Dwgs.User) (width 0.45))
  (fp_line (start 271.5 186) (end 271.5 195) (layer Dwgs.User) (width 0.45))
  (fp_line (start 99.75 -195) (end 309.75 -195) (layer Dwgs.User) (width 0.45))
  (fp_line (start 309.75 -195) (end 309.75 -165) (layer Dwgs.User) (width 0.45))
  (fp_line (start 309.75 -165) (end 99.75 -165) (layer Dwgs.User) (width 0.45))
  (fp_line (start 99.75 -165) (end 99.75 -195) (layer Dwgs.User) (width 0.45))
  (fp_line (start 99.75 -185.25) (end 309.75 -185.25) (layer Dwgs.User) (width 0.45))
  (fp_line (start 99.75 -175.5) (end 309.75 -175.5) (layer Dwgs.User) (width 0.45))
  (fp_line (start 116.25 -185.25) (end 116.25 -165) (layer Dwgs.User) (width 0.45))
  (fp_line (start 221.25 -185.25) (end 221.25 -165) (layer Dwgs.User) (width 0.45))
  (fp_line (start 266.25 -185.25) (end 266.25 -165) (layer Dwgs.User) (width 0.45))
  (fp_line (start 309.75 120) (end 321.75 120) (layer Dwgs.User) (width 0.45))
  (fp_line (start 321.75 120) (end 321.75 15.75) (layer Dwgs.User) (width 0.45))
  (fp_line (start 321.75 15.75) (end 309.75 15.75) (layer Dwgs.User) (width 0.45))
  (fp_line (start 309.75 15.75) (end 309.75 120) (layer Dwgs.User) (width 0.45))
  (fp_line (start 309.75 33.75) (end 321.75 33.75) (layer Dwgs.User) (width 0.45))
  (fp_line (start 321.75 33.75) (end 309.75 33.75) (layer Dwgs.User) (width 0.45))
  (fp_line (start 309.75 45) (end 321.75 45) (layer Dwgs.User) (width 0.45))
  (fp_line (start 321.75 45) (end 309.75 45) (layer Dwgs.User) (width 0.45))
  (fp_line (start -310.5 0) (end -314.25 -3.75) (layer Dwgs.User) (width 0.45))
  (fp_line (start -314.25 -3.75) (end -314.25 3.75) (layer Dwgs.User) (width 0.45))
  (fp_line (start -314.25 3.75) (end -310.5 0) (layer Dwgs.User) (width 0.45))
  (fp_line (start -324 0) (end -314.25 0) (layer Dwgs.User) (width 0.45))
  (fp_line (start 310.5 -0.75) (end 314.25 3) (layer Dwgs.User) (width 0.45))
  (fp_line (start 314.25 3) (end 314.25 -4.5) (layer Dwgs.User) (width 0.45))
  (fp_line (start 314.25 -4.5) (end 310.5 -0.75) (layer Dwgs.User) (width 0.45))
  (fp_line (start 324 -0.75) (end 314.25 -0.75) (layer Dwgs.User) (width 0.45))
  (fp_line (start 0 195.75) (end -3.75 199.5) (layer Dwgs.User) (width 0.45))
  (fp_line (start -3.75 199.5) (end 3.75 199.5) (layer Dwgs.User) (width 0.45))
  (fp_line (start 3.75 199.5) (end 0 195.75) (layer Dwgs.User) (width 0.45))
  (fp_line (start 0 209.25) (end 0 199.5) (layer Dwgs.User) (width 0.45))
  (fp_line (start 0 -195.75) (end 3.75 -199.5) (layer Dwgs.User) (width 0.45))
  (fp_line (start 3.75 -199.5) (end -3.75 -199.5) (layer Dwgs.User) (width 0.45))
  (fp_line (start -3.75 -199.5) (end 0 -195.75) (layer Dwgs.User) (width 0.45))
  (fp_line (start 0 -209.25) (end 0 -199.5) (layer Dwgs.User) (width 0.45))
  (fp_line (start -157.5 208.5) (end -157.5 195.29835) (layer Dwgs.User) (width 0.375))
  (fp_line (start 157.5 208.95165) (end 157.5 195.75) (layer Dwgs.User) (width 0.375))
  (fp_line (start -157.5 -210.742365) (end -157.5 -195.75) (layer Dwgs.User) (width 0.375))
  (fp_line (start 157.5 -210.742365) (end 157.5 -195.75) (layer Dwgs.User) (width 0.375))
  (fp_poly (pts (xy 155.25 138.75) (xy 155.25 127.5) (xy 162.75 127.5) (xy 162.75 131.25)
     (xy 159 131.25) (xy 159 135) (xy 162.75 135) (xy 162.75 138.75)) (layer Dwgs.User) (width 0.02))
  (fp_poly (pts (xy 174 127.5) (xy 174 138.75) (xy 166.5 138.75) (xy 166.5 135)
     (xy 170.25 135) (xy 170.25 131.25) (xy 166.5 131.25) (xy 166.5 127.5)) (layer Dwgs.User) (width 0.02))
  (fp_text user "NOTES : UNLESS OTHERWISE SPECIFIED" (at -300 -182.25) (layer Dwgs.User)
    (effects (font (size 1 1) (thickness 0.15)) (justify left))
  )
  (fp_text user REV (at 105 -177.75) (layer Dwgs.User)
    (effects (font (size 1 1) (thickness 0.15)) (justify left))
  )
  (fp_text user DESCRIPTION (at 156 -177.75) (layer Dwgs.User)
    (effects (font (size 1 1) (thickness 0.15)) (justify left))
  )
  (fp_text user DATE (at 239.25 -177.75) (layer Dwgs.User)
    (effects (font (size 1 1) (thickness 0.15)) (justify left))
  )
  (fp_text user "SEE AGILE" (at 233.25 -168) (layer Dwgs.User)
    (effects (font (size 1 1) (thickness 0.15)) (justify left))
  )
  (fp_text user "SEE AGILE" (at 277.5 -168) (layer Dwgs.User)
    (effects (font (size 1 1) (thickness 0.15)) (justify left))
  )
  (fp_text user DATE (at 283.5 -177.75) (layer Dwgs.User)
    (effects (font (size 1 1) (thickness 0.15)) (justify left))
  )
  (fp_text user REVISIONS (at 189 -186.75) (layer Dwgs.User)
    (effects (font (size 1 1) (thickness 0.15)) (justify left))
  )
  (fp_text user "PADS DRAWING - ALL CHANGES MUST BE DONE IN PADS SYSTEM" (at 141.75 -155.25) (layer Dwgs.User)
    (effects (font (size 1 1) (thickness 0.15)) (justify left))
  )
  (fp_text user COVIDIEN (at 180 138) (layer Dwgs.User)
    (effects (font (size 1 1) (thickness 0.45)) (justify left))
  )
  (fp_text user "2101 Faraday Avenue" (at 261 132) (layer Dwgs.User)
    (effects (font (size 1 1) (thickness 0.15)) (justify left))
  )
  (fp_text user "Carlsbad, CA  92008" (at 261 138.75) (layer Dwgs.User)
    (effects (font (size 1 1) (thickness 0.15)) (justify left))
  )
  (fp_text user "TITLE :" (at 150 152.25) (layer Dwgs.User)
    (effects (font (size 1 1) (thickness 0.15)) (justify left))
  )
  (fp_text user "PRINTED CIRCUIT BOARD," (at 186 157.5) (layer Dwgs.User)
    (effects (font (size 1 1) (thickness 0.15)) (justify left))
  )
  (fp_text user SIZE (at 150.75 175.5) (layer Dwgs.User)
    (effects (font (size 1 1) (thickness 0.15)) (justify left))
  )
  (fp_text user MODEL (at 168.75 175.5) (layer Dwgs.User)
    (effects (font (size 1 1) (thickness 0.15)) (justify left))
  )
  (fp_text user "DWG NO." (at 187.5 175.5) (layer Dwgs.User)
    (effects (font (size 1 1) (thickness 0.15)) (justify left))
  )
  (fp_text user REV (at 297 175.5) (layer Dwgs.User)
    (effects (font (size 1 1) (thickness 0.15)) (justify left))
  )
  (fp_text user B (at 154.5 183) (layer Dwgs.User)
    (effects (font (size 1 1) (thickness 0.15)) (justify left))
  )
  (fp_text user "DWG NO." (at 315 118.5 -90) (layer Dwgs.User)
    (effects (font (size 1 1) (thickness 0.15)) (justify left))
  )
  (fp_text user REV (at 315 28.5 -90) (layer Dwgs.User)
    (effects (font (size 1 1) (thickness 0.15)) (justify left))
  )
  (fp_text user SH (at 315 42 -90) (layer Dwgs.User)
    (effects (font (size 1 1) (thickness 0.15)) (justify left))
  )
  (fp_text user APPROVALS (at 78 130.5) (layer Dwgs.User)
    (effects (font (size 1 1) (thickness 0.15)) (justify left))
  )
  (fp_text user DATE (at 128.25 130.5) (layer Dwgs.User)
    (effects (font (size 1 1) (thickness 0.15)) (justify left))
  )
  (fp_text user "N. NAME" (at 97.5 144) (layer Dwgs.User)
    (effects (font (size 1 1) (thickness 0.15)) (justify left))
  )
  (fp_text user "N. NAME" (at 97.5 156) (layer Dwgs.User)
    (effects (font (size 1 1) (thickness 0.15)) (justify left))
  )
  (fp_text user "N. NAME" (at 97.5 168) (layer Dwgs.User)
    (effects (font (size 1 1) (thickness 0.15)) (justify left))
  )
  (fp_text user "SEE AGILE" (at 93 180) (layer Dwgs.User)
    (effects (font (size 1 1) (thickness 0.15)) (justify left))
  )
  (fp_text user "SEE AGILE" (at 93 192) (layer Dwgs.User)
    (effects (font (size 1 1) (thickness 0.15)) (justify left))
  )
  (fp_text user MM/DD/YY (at 123.75 144) (layer Dwgs.User)
    (effects (font (size 1 1) (thickness 0.15)) (justify left))
  )
  (fp_text user MM/DD/YY (at 123.75 156) (layer Dwgs.User)
    (effects (font (size 1 1) (thickness 0.15)) (justify left))
  )
  (fp_text user MM/DD/YY (at 123.75 168) (layer Dwgs.User)
    (effects (font (size 1 1) (thickness 0.15)) (justify left))
  )
  (fp_text user "SEE AGILE" (at 122.25 180) (layer Dwgs.User)
    (effects (font (size 1 1) (thickness 0.15)) (justify left))
  )
  (fp_text user "SEE AGILE" (at 122.25 192) (layer Dwgs.User)
    (effects (font (size 1 1) (thickness 0.15)) (justify left))
  )
  (fp_text user DRAWN (at 63 140.25) (layer Dwgs.User)
    (effects (font (size 1 1) (thickness 0.15)) (justify left))
  )
  (fp_text user ENGINEER (at 63 152.25) (layer Dwgs.User)
    (effects (font (size 1 1) (thickness 0.15)) (justify left))
  )
  (fp_text user CHECKED (at 63 164.25) (layer Dwgs.User)
    (effects (font (size 1 1) (thickness 0.15)) (justify left))
  )
  (fp_text user APPROVED (at 63 176.25) (layer Dwgs.User)
    (effects (font (size 1 1) (thickness 0.15)) (justify left))
  )
  (fp_text user RELEASED (at 63 188.25) (layer Dwgs.User)
    (effects (font (size 1 1) (thickness 0.15)) (justify left))
  )
  (fp_text user "TOLERANCES ARE :" (at 30.75 130.5) (layer Dwgs.User)
    (effects (font (size 1 1) (thickness 0.15)) (justify left))
  )
  (fp_text user ".XX = +/- .20" (at 31.5 139.5) (layer Dwgs.User)
    (effects (font (size 1 1) (thickness 0.15)) (justify left))
  )
  (fp_text user ".XXX = +/- .125" (at 30 144) (layer Dwgs.User)
    (effects (font (size 1 1) (thickness 0.15)) (justify left))
  )
  (fp_text user "ANGLES = +/- 0.5 DEG" (at 27 148.5) (layer Dwgs.User)
    (effects (font (size 1 1) (thickness 0.15)) (justify left))
  )
  (fp_text user N/A (at 38.25 163.5) (layer Dwgs.User)
    (effects (font (size 1 1) (thickness 0.15)) (justify left))
  )
  (fp_text user N/A (at 38.25 177) (layer Dwgs.User)
    (effects (font (size 1 1) (thickness 0.15)) (justify left))
  )
  (fp_text user N/A (at 27.75 190.5) (layer Dwgs.User)
    (effects (font (size 1 1) (thickness 0.15)) (justify left))
  )
  (fp_text user N/A (at 48 190.5) (layer Dwgs.User)
    (effects (font (size 1 1) (thickness 0.15)) (justify left))
  )
  (fp_text user "UNLESS OTHERWISE SPECIFIED" (at 23.25 124.5) (layer Dwgs.User)
    (effects (font (size 1 1) (thickness 0.15)) (justify left))
  )
  (fp_text user "DIMENSIONS ARE MILLIMETERS" (at 23.25 127.5) (layer Dwgs.User)
    (effects (font (size 1 1) (thickness 0.15)) (justify left))
  )
  (fp_text user "DO NOT SCALE DRAWING" (at -38.25 128.25) (layer Dwgs.User)
    (effects (font (size 1 1) (thickness 0.15)) (justify left))
  )
  (fp_text user "THIRD ANGLE PROJECTION" (at -31.5 184.5) (layer Dwgs.User)
    (effects (font (size 1 1) (thickness 0.15)) (justify left))
  )
  (fp_text user "CONFIDENTIALITY STATEMENT" (at -123.75 156) (layer Dwgs.User)
    (effects (font (size 1 1) (thickness 0.3)) (justify left))
  )
  (fp_text user "Copyright C 2012, Covidien" (at -120.75 161.25) (layer Dwgs.User)
    (effects (font (size 1 1) (thickness 0.15)) (justify left))
  )
  (fp_text user "The information contained in this document is the" (at -137.25 170.25) (layer Dwgs.User)
    (effects (font (size 1 1) (thickness 0.15)) (justify left))
  )
  (fp_text user "proprietary and confidential property of Covidien" (at -137.25 174.75) (layer Dwgs.User)
    (effects (font (size 1 1) (thickness 0.15)) (justify left))
  )
  (fp_text user "Supplied Data, Tooling, Partial or finished materials" (at -140.25 179.25) (layer Dwgs.User)
    (effects (font (size 1 1) (thickness 0.15)) (justify left))
  )
  (fp_text user "shall not be disclosed to others without" (at -130.5 183.75) (layer Dwgs.User)
    (effects (font (size 1 1) (thickness 0.15)) (justify left))
  )
  (fp_text user "the written permission of Covidien" (at -126.75 188.25) (layer Dwgs.User)
    (effects (font (size 1 1) (thickness 0.15)) (justify left))
  )
  (fp_text user 4 (at -235.497675 -200.06298) (layer Dwgs.User)
    (effects (font (size 1 1) (thickness 0.762)) (justify left))
  )
  (fp_text user 3 (at -78.75 -204.75) (layer Dwgs.User)
    (effects (font (size 1 1) (thickness 0.76245)))
  )
  (fp_text user 2 (at 75.752325 -200.06298) (layer Dwgs.User)
    (effects (font (size 1 1) (thickness 0.762)) (justify left))
  )
  (fp_text user 1 (at 229.502325 -200.06298) (layer Dwgs.User)
    (effects (font (size 1 1) (thickness 0.762)) (justify left))
  )
  (fp_text user B (at 315.002325 -99.56298) (layer Dwgs.User)
    (effects (font (size 1 1) (thickness 0.762)) (justify left))
  )
  (fp_text user B (at -320.247675 -99.56298) (layer Dwgs.User)
    (effects (font (size 1 1) (thickness 0.762)) (justify left))
  )
  (fp_text user A (at -320.247675 108.93702) (layer Dwgs.User)
    (effects (font (size 1 1) (thickness 0.762)) (justify left))
  )
  (fp_text user 4 (at -235.497675 206.43702) (layer Dwgs.User)
    (effects (font (size 1 1) (thickness 0.762)) (justify left))
  )
  (fp_text user 3 (at -80.25 201.75) (layer Dwgs.User)
    (effects (font (size 1 1) (thickness 0.762)))
  )
  (fp_text user 2 (at 75.752325 206.43702) (layer Dwgs.User)
    (effects (font (size 1 1) (thickness 0.762)) (justify left))
  )
  (fp_text user 1 (at 229.502325 206.43702) (layer Dwgs.User)
    (effects (font (size 1 1) (thickness 0.762)) (justify left))
  )
  (fp_text user "SCALE: x/x" (at 149.25 192.75) (layer Dwgs.User)
    (effects (font (size 1 1) (thickness 0.15)) (justify left))
  )
  (fp_text user "SHEET x OF x" (at 276 192.75) (layer Dwgs.User)
    (effects (font (size 1 1) (thickness 0.15)) (justify left))
  )
  (fp_text user Xnn (at 297 183) (layer Dwgs.User)
    (effects (font (size 1 1) (thickness 0.15)) (justify left))
  )
  (fp_text user XXXXXXXX (at 218.25 183.75) (layer Dwgs.User)
    (effects (font (size 1 1) (thickness 0.15)) (justify left))
  )
  (fp_text user "Template 10093692 Rev A " (at 200.25 192.75) (layer Dwgs.User)
    (effects (font (size 1 1) (thickness 0.15)) (justify left))
  )
  (fp_text user TITLE (at 223.5 167.25) (layer Dwgs.User)
    (effects (font (size 1 1) (thickness 0.15)) (justify left))
  )
  (fp_text user XXXXXXXX (at 321 96.75 -90) (layer Dwgs.User)
    (effects (font (size 1 1) (thickness 0.15)) (justify left))
  )
  (fp_text user X (at 321 41.25 -90) (layer Dwgs.User)
    (effects (font (size 1 1) (thickness 0.15)) (justify left))
  )
  (fp_text user Xnn (at 321 30.75 -90) (layer Dwgs.User)
    (effects (font (size 1 1) (thickness 0.15)) (justify left))
  )
  (fp_text user Xnn (at 105 -168) (layer Dwgs.User)
    (effects (font (size 1 1) (thickness 0.15)) (justify left))
  )
  (fp_text user "RELEASE/CHANGE PER ECO-RXXXXXX." (at 120.75 -168) (layer Dwgs.User)
    (effects (font (size 1 1) (thickness 0.15)) (justify left))
  )
  (fp_text user PBXXX (at 168.75 183) (layer Dwgs.User)
    (effects (font (size 1 1) (thickness 0.15)) (justify left))
  )
)