(module AMP177983-40_0x861ffffffffffffffffffffffffffffffffffffffffffffffffffffffffffff (layer F.Cu) (tedit 0)
  (attr smd)
  (fp_text reference REF** (at 0 0) (layer F.SilkS)
    (effects (font (size 1 1) (thickness 0.15)))
  )
  (fp_text value AMP177983-40_0x861ffffffffffffffffffffffffffffffffffffffffffffffffffffffffffff (at 0 2) (layer F.Fab) hide
    (effects (font (size 1 1) (thickness 0.15)))
  )
  (fp_arc (start 10.1 0) (end 11.2 0) (angle 360) (layer Dwgs.User) (width 0.1))
  (fp_arc (start -10.1 0) (end -9.2 0) (angle 360) (layer Dwgs.User) (width 0.1))
  (fp_arc (start 10.1 0) (end 11.2 0) (angle 360) (layer Dwgs.User) (width 0.1))
  (fp_arc (start -10.1 0) (end -9.2 0) (angle 360) (layer Dwgs.User) (width 0.1))
  (fp_arc (start 10.1 0) (end 11.2 0) (angle 360) (layer Dwgs.User) (width 0.1))
  (fp_arc (start -10.1 0) (end -9.2 0) (angle 360) (layer Dwgs.User) (width 0.1))
  (fp_line (start -11.09 3.597) (end -11.09 -3.597) (layer Dwgs.User) (width 0.05))
  (fp_line (start -11.09 -3.597) (end 11.2049 -3.597) (layer Dwgs.User) (width 0.05))
  (fp_line (start 11.2049 -3.597) (end 11.2049 3.597) (layer Dwgs.User) (width 0.05))
  (fp_line (start 11.2049 3.597) (end -11.09 3.597) (layer Dwgs.User) (width 0.05))
  (fp_line (start 8.4 -3) (end 11 -3) (layer F.SilkS) (width 0.18))
  (fp_line (start 11 -3) (end 11 3) (layer F.SilkS) (width 0.18))
  (fp_line (start 11 3) (end 8.4 3) (layer F.SilkS) (width 0.18))
  (fp_line (start 8.4 3) (end 8.4 1.9) (layer F.SilkS) (width 0.18))
  (fp_line (start 8.4 1.9) (end -8.4 1.9) (layer F.SilkS) (width 0.18))
  (fp_line (start -8.4 1.9) (end -8.4 3) (layer F.SilkS) (width 0.18))
  (fp_line (start -8.4 3) (end -11 3) (layer F.SilkS) (width 0.18))
  (fp_line (start -11 3) (end -11 -3) (layer F.SilkS) (width 0.18))
  (fp_line (start -11 -3) (end -8.4 -3) (layer F.SilkS) (width 0.18))
  (fp_line (start -8.4 -3) (end -8.4 -1.9) (layer F.SilkS) (width 0.18))
  (fp_line (start -8.4 -1.9) (end 8.4 -1.9) (layer F.SilkS) (width 0.18))
  (fp_line (start 8.4 -1.9) (end 8.4 -3) (layer F.SilkS) (width 0.18))
  (fp_line (start 11 3.4) (end -11 3.4) (layer F.CrtYd) (width 0.02))
  (fp_line (start -11 3.4) (end -11 -3.4) (layer F.CrtYd) (width 0.02))
  (fp_line (start -11 -3.4) (end 11 -3.4) (layer F.CrtYd) (width 0.02))
  (fp_line (start 11 -3.4) (end 11 3.4) (layer F.CrtYd) (width 0.02))
  (fp_line (start 8.4 -3) (end 11 -3) (layer F.Fab) (width 0.1))
  (fp_line (start 11 -3) (end 11 3) (layer F.Fab) (width 0.1))
  (fp_line (start 11 3) (end 8.4 3) (layer F.Fab) (width 0.1))
  (fp_line (start 8.4 3) (end 8.4 1.9) (layer F.Fab) (width 0.1))
  (fp_line (start 8.4 1.9) (end -8.4 1.9) (layer F.Fab) (width 0.1))
  (fp_line (start -8.4 1.9) (end -8.4 3) (layer F.Fab) (width 0.1))
  (fp_line (start -8.4 3) (end -11 3) (layer F.Fab) (width 0.1))
  (fp_line (start -11 3) (end -11 -3) (layer F.Fab) (width 0.1))
  (fp_line (start -11 -3) (end -8.4 -3) (layer F.Fab) (width 0.1))
  (fp_line (start -8.4 -3) (end -8.4 -1.9) (layer F.Fab) (width 0.1))
  (fp_line (start -8.4 -1.9) (end 8.4 -1.9) (layer F.Fab) (width 0.1))
  (fp_line (start 8.4 -1.9) (end 8.4 -3) (layer F.Fab) (width 0.1))
  (fp_line (start -8.4 -1) (end 8.4 -1) (layer F.Fab) (width 0.1))
  (fp_line (start 8.4 -1) (end 8.4 1) (layer F.Fab) (width 0.1))
  (fp_line (start 8.4 1) (end -8.4 1) (layer F.Fab) (width 0.1))
  (fp_line (start -8.4 1) (end -8.4 -1) (layer F.Fab) (width 0.1))
  (fp_line (start 9.6 -0.2) (end 10.4 -0.2) (layer F.Fab) (width 0.1))
  (fp_line (start 10.4 -0.2) (end 10.4 1.9) (layer F.Fab) (width 0.1))
  (fp_line (start 10.4 1.9) (end -10.4 1.9) (layer F.Fab) (width 0.1))
  (fp_line (start -10.4 1.9) (end -10.4 -0.2) (layer F.Fab) (width 0.1))
  (fp_line (start -10.4 -0.2) (end -9.6 -0.2) (layer F.Fab) (width 0.1))
  (fp_line (start -9.6 -0.2) (end -9.6 -1.9) (layer F.Fab) (width 0.1))
  (fp_line (start -9.6 -1.9) (end 9.6 -1.9) (layer F.Fab) (width 0.1))
  (fp_line (start 9.6 -1.9) (end 9.6 -0.2) (layer F.Fab) (width 0.1))
  (fp_line (start -7.6 -1.9) (end -7.6 -2.8) (layer F.Fab) (width 0.1))
  (fp_line (start -6.8 -1.9) (end -6.8 -2.8) (layer F.Fab) (width 0.1))
  (fp_line (start -6 -1.9) (end -6 -2.8) (layer F.Fab) (width 0.1))
  (fp_line (start -5.2 -1.9) (end -5.2 -2.8) (layer F.Fab) (width 0.1))
  (fp_line (start -4.4 -1.9) (end -4.4 -2.8) (layer F.Fab) (width 0.1))
  (fp_line (start -3.6 -1.9) (end -3.6 -2.8) (layer F.Fab) (width 0.1))
  (fp_line (start -2.8 -1.9) (end -2.8 -2.8) (layer F.Fab) (width 0.1))
  (fp_line (start -2 -1.9) (end -2 -2.8) (layer F.Fab) (width 0.1))
  (fp_line (start -1.2 -1.9) (end -1.2 -2.8) (layer F.Fab) (width 0.1))
  (fp_line (start -0.4 -1.9) (end -0.4 -2.8) (layer F.Fab) (width 0.1))
  (fp_line (start 0.4 -1.9) (end 0.4 -2.8) (layer F.Fab) (width 0.1))
  (fp_line (start 1.2 -1.9) (end 1.2 -2.8) (layer F.Fab) (width 0.1))
  (fp_line (start 2 -1.9) (end 2 -2.8) (layer F.Fab) (width 0.1))
  (fp_line (start 2.8 -1.9) (end 2.8 -2.8) (layer F.Fab) (width 0.1))
  (fp_line (start 3.6 -1.9) (end 3.6 -2.8) (layer F.Fab) (width 0.1))
  (fp_line (start 4.4 -1.9) (end 4.4 -2.8) (layer F.Fab) (width 0.1))
  (fp_line (start 5.2 -1.9) (end 5.2 -2.8) (layer F.Fab) (width 0.1))
  (fp_line (start 6 -1.9) (end 6 -2.8) (layer F.Fab) (width 0.1))
  (fp_line (start 6.8 -1.9) (end 6.8 -2.8) (layer F.Fab) (width 0.1))
  (fp_line (start 7.6 -1.9) (end 7.6 -2.8) (layer F.Fab) (width 0.1))
  (fp_line (start -7.6 1.9) (end -7.6 2.8) (layer F.Fab) (width 0.1))
  (fp_line (start -6.8 1.9) (end -6.8 2.8) (layer F.Fab) (width 0.1))
  (fp_line (start -6 1.9) (end -6 2.8) (layer F.Fab) (width 0.1))
  (fp_line (start -5.2 1.9) (end -5.2 2.8) (layer F.Fab) (width 0.1))
  (fp_line (start -4.4 1.9) (end -4.4 2.8) (layer F.Fab) (width 0.1))
  (fp_line (start -3.6 1.9) (end -3.6 2.8) (layer F.Fab) (width 0.1))
  (fp_line (start -2.8 1.9) (end -2.8 2.8) (layer F.Fab) (width 0.1))
  (fp_line (start -2 1.9) (end -2 2.8) (layer F.Fab) (width 0.1))
  (fp_line (start -1.2 1.9) (end -1.2 2.8) (layer F.Fab) (width 0.1))
  (fp_line (start -0.4 1.9) (end -0.4 2.8) (layer F.Fab) (width 0.1))
  (fp_line (start 0.4 1.9) (end 0.4 2.8) (layer F.Fab) (width 0.1))
  (fp_line (start 1.2 1.9) (end 1.2 2.8) (layer F.Fab) (width 0.1))
  (fp_line (start 2 1.9) (end 2 2.8) (layer F.Fab) (width 0.1))
  (fp_line (start 2.8 1.9) (end 2.8 2.8) (layer F.Fab) (width 0.1))
  (fp_line (start 3.6 1.9) (end 3.6 2.8) (layer F.Fab) (width 0.1))
  (fp_line (start 4.4 1.9) (end 4.4 2.8) (layer F.Fab) (width 0.1))
  (fp_line (start 5.2 1.9) (end 5.2 2.8) (layer F.Fab) (width 0.1))
  (fp_line (start 6 1.9) (end 6 2.8) (layer F.Fab) (width 0.1))
  (fp_line (start 6.8 1.9) (end 6.8 2.8) (layer F.Fab) (width 0.1))
  (fp_line (start 7.6 1.9) (end 7.6 2.8) (layer F.Fab) (width 0.1))
  (fp_poly (pts (xy 10.54 -2.67) (xy 10.14 -2.07) (xy 9.74 -2.67) (xy 10.54 -2.67)) (layer F.SilkS) (width 0.02))
  (fp_poly (pts (xy 10.54 -2.67) (xy 10.14 -2.07) (xy 9.74 -2.67) (xy 10.54 -2.67)) (layer F.Fab) (width 0.02))
  (pad 40 smd rect (at -7.6 2.2) (size 0.508 2.286) (layers F.Cu F.Paste F.Mask)
    (solder_mask_margin 0.1016) (clearance 0.2032) (zone_connect 2))
  (pad 39 smd rect (at -6.8 2.2) (size 0.508 2.286) (layers F.Cu F.Paste F.Mask)
    (solder_mask_margin 0.1016) (clearance 0.2032) (zone_connect 2))
  (pad 38 smd rect (at -6 2.2) (size 0.508 2.286) (layers F.Cu F.Paste F.Mask)
    (solder_mask_margin 0.1016) (clearance 0.2032) (zone_connect 2))
  (pad 37 smd rect (at -5.2 2.2) (size 0.508 2.286) (layers F.Cu F.Paste F.Mask)
    (solder_mask_margin 0.1016) (clearance 0.2032) (zone_connect 2))
  (pad 36 smd rect (at -4.4 2.2) (size 0.508 2.286) (layers F.Cu F.Paste F.Mask)
    (solder_mask_margin 0.1016) (clearance 0.2032) (zone_connect 2))
  (pad 35 smd rect (at -3.6 2.2) (size 0.508 2.286) (layers F.Cu F.Paste F.Mask)
    (solder_mask_margin 0.1016) (clearance 0.2032) (zone_connect 2))
  (pad 34 smd rect (at -2.8 2.2) (size 0.508 2.286) (layers F.Cu F.Paste F.Mask)
    (solder_mask_margin 0.1016) (clearance 0.2032) (zone_connect 2))
  (pad 33 smd rect (at -2 2.2) (size 0.508 2.286) (layers F.Cu F.Paste F.Mask)
    (solder_mask_margin 0.1016) (clearance 0.2032) (zone_connect 2))
  (pad 32 smd rect (at -1.2 2.2) (size 0.508 2.286) (layers F.Cu F.Paste F.Mask)
    (solder_mask_margin 0.1016) (clearance 0.2032) (zone_connect 2))
  (pad 31 smd rect (at -0.4 2.2) (size 0.508 2.286) (layers F.Cu F.Paste F.Mask)
    (solder_mask_margin 0.1016) (clearance 0.2032) (zone_connect 2))
  (pad 30 smd rect (at 0.4 2.2) (size 0.508 2.286) (layers F.Cu F.Paste F.Mask)
    (solder_mask_margin 0.1016) (clearance 0.2032) (zone_connect 2))
  (pad 29 smd rect (at 1.2 2.2) (size 0.508 2.286) (layers F.Cu F.Paste F.Mask)
    (solder_mask_margin 0.1016) (clearance 0.2032) (zone_connect 2))
  (pad 28 smd rect (at 2 2.2) (size 0.508 2.286) (layers F.Cu F.Paste F.Mask)
    (solder_mask_margin 0.1016) (clearance 0.2032) (zone_connect 2))
  (pad 27 smd rect (at 2.8 2.2) (size 0.508 2.286) (layers F.Cu F.Paste F.Mask)
    (solder_mask_margin 0.1016) (clearance 0.2032) (zone_connect 2))
  (pad 26 smd rect (at 3.6 2.2) (size 0.508 2.286) (layers F.Cu F.Paste F.Mask)
    (solder_mask_margin 0.1016) (clearance 0.2032) (zone_connect 2))
  (pad 25 smd rect (at 4.4 2.2) (size 0.508 2.286) (layers F.Cu F.Paste F.Mask)
    (solder_mask_margin 0.1016) (clearance 0.2032) (zone_connect 2))
  (pad 24 smd rect (at 5.2 2.2) (size 0.508 2.286) (layers F.Cu F.Paste F.Mask)
    (solder_mask_margin 0.1016) (clearance 0.2032) (zone_connect 2))
  (pad 23 smd rect (at 6 2.2) (size 0.508 2.286) (layers F.Cu F.Paste F.Mask)
    (solder_mask_margin 0.1016) (clearance 0.2032) (zone_connect 2))
  (pad 22 smd rect (at 6.8 2.2) (size 0.508 2.286) (layers F.Cu F.Paste F.Mask)
    (solder_mask_margin 0.1016) (clearance 0.2032) (zone_connect 2))
  (pad 21 smd rect (at 7.6 2.2) (size 0.508 2.286) (layers F.Cu F.Paste F.Mask)
    (solder_mask_margin 0.1016) (clearance 0.2032) (zone_connect 2))
  (pad 20 smd rect (at -7.6 -2.2) (size 0.508 2.286) (layers F.Cu F.Paste F.Mask)
    (solder_mask_margin 0.1016) (clearance 0.2032) (zone_connect 2))
  (pad 19 smd rect (at -6.8 -2.2) (size 0.508 2.286) (layers F.Cu F.Paste F.Mask)
    (solder_mask_margin 0.1016) (clearance 0.2032) (zone_connect 2))
  (pad 18 smd rect (at -6 -2.2) (size 0.508 2.286) (layers F.Cu F.Paste F.Mask)
    (solder_mask_margin 0.1016) (clearance 0.2032) (zone_connect 2))
  (pad 17 smd rect (at -5.2 -2.2) (size 0.508 2.286) (layers F.Cu F.Paste F.Mask)
    (solder_mask_margin 0.1016) (clearance 0.2032) (zone_connect 2))
  (pad 16 smd rect (at -4.4 -2.2) (size 0.508 2.286) (layers F.Cu F.Paste F.Mask)
    (solder_mask_margin 0.1016) (clearance 0.2032) (zone_connect 2))
  (pad 15 smd rect (at -3.6 -2.2) (size 0.508 2.286) (layers F.Cu F.Paste F.Mask)
    (solder_mask_margin 0.1016) (clearance 0.2032) (zone_connect 2))
  (pad 14 smd rect (at -2.8 -2.2) (size 0.508 2.286) (layers F.Cu F.Paste F.Mask)
    (solder_mask_margin 0.1016) (clearance 0.2032) (zone_connect 2))
  (pad 13 smd rect (at -2 -2.2) (size 0.508 2.286) (layers F.Cu F.Paste F.Mask)
    (solder_mask_margin 0.1016) (clearance 0.2032) (zone_connect 2))
  (pad 12 smd rect (at -1.2 -2.2) (size 0.508 2.286) (layers F.Cu F.Paste F.Mask)
    (solder_mask_margin 0.1016) (clearance 0.2032) (zone_connect 2))
  (pad 11 smd rect (at -0.4 -2.2) (size 0.508 2.286) (layers F.Cu F.Paste F.Mask)
    (solder_mask_margin 0.1016) (clearance 0.2032) (zone_connect 2))
  (pad 10 smd rect (at 0.4 -2.2) (size 0.508 2.286) (layers F.Cu F.Paste F.Mask)
    (solder_mask_margin 0.1016) (clearance 0.2032) (zone_connect 2))
  (pad 9 smd rect (at 1.2 -2.2) (size 0.508 2.286) (layers F.Cu F.Paste F.Mask)
    (solder_mask_margin 0.1016) (clearance 0.2032) (zone_connect 2))
  (pad 8 smd rect (at 2 -2.2) (size 0.508 2.286) (layers F.Cu F.Paste F.Mask)
    (solder_mask_margin 0.1016) (clearance 0.2032) (zone_connect 2))
  (pad 7 smd rect (at 2.8 -2.2) (size 0.508 2.286) (layers F.Cu F.Paste F.Mask)
    (solder_mask_margin 0.1016) (clearance 0.2032) (zone_connect 2))
  (pad 6 smd rect (at 3.6 -2.2) (size 0.508 2.286) (layers F.Cu F.Paste F.Mask)
    (solder_mask_margin 0.1016) (clearance 0.2032) (zone_connect 2))
  (pad 5 smd rect (at 4.4 -2.2) (size 0.508 2.286) (layers F.Cu F.Paste F.Mask)
    (solder_mask_margin 0.1016) (clearance 0.2032) (zone_connect 2))
  (pad 4 smd rect (at 5.2 -2.2) (size 0.508 2.286) (layers F.Cu F.Paste F.Mask)
    (solder_mask_margin 0.1016) (clearance 0.2032) (zone_connect 2))
  (pad 3 smd rect (at 6 -2.2) (size 0.508 2.286) (layers F.Cu F.Paste F.Mask)
    (solder_mask_margin 0.1016) (clearance 0.2032) (zone_connect 2))
  (pad 2 smd rect (at 6.8 -2.2) (size 0.508 2.286) (layers F.Cu F.Paste F.Mask)
    (solder_mask_margin 0.1016) (clearance 0.2032) (zone_connect 2))
  (pad 1 smd rect (at 7.6 -2.2) (size 0.508 2.286) (layers F.Cu F.Paste F.Mask)
    (solder_mask_margin 0.1016) (clearance 0.2032) (zone_connect 2))
  (pad "" np_thru_hole circle (at -10.1 0) (size 0.7112 0.7112) (drill 0.8) (layers F&B.Cu *.Mask)
    (solder_mask_margin 0.1778) (clearance 0.5461) (zone_connect 2))
  (pad "" np_thru_hole circle (at 10.1 0) (size 0.9652 0.9652) (drill 1.2) (layers F&B.Cu *.Mask)
    (solder_mask_margin 0.2794) (clearance 0.6223) (zone_connect 2))
  (model ${KIPRJMOD}/../Library/Footprints.3dshapes/c-5177983-1-a-3d.stp
    (offset (xyz 0 0 3.75))
    (scale (xyz 1 1 1))
    (rotate (xyz 0 0 0))
  )
)
