(module B4BZR-SM3TF (layer F.Cu) (tedit 0)
  (attr smd)
  (fp_text reference REF** (at 0 0) (layer F.SilkS)
    (effects (font (size 1 1) (thickness 0.15)))
  )
  (fp_text value B4BZR-SM3TF (at 0 2) (layer F.Fab) hide
    (effects (font (size 1 1) (thickness 0.15)))
  )
  (fp_arc (start 2.25 -0.6) (end 2.5 -0.6) (angle 360) (layer F.Fab) (width 0.1))
  (fp_arc (start 0.75 -0.6) (end 1 -0.6) (angle 360) (layer F.Fab) (width 0.1))
  (fp_arc (start -0.74999 -0.6) (end -0.5 -0.6) (angle 360) (layer F.Fab) (width 0.1))
  (fp_arc (start -2.24999 -0.6) (end -2 -0.6) (angle 360) (layer F.Fab) (width 0.1))
  (fp_line (start -5.25 3.8) (end -5.25 -1.94) (layer Dwgs.User) (width 0.05))
  (fp_line (start -5.25 -1.94) (end 5.25 -1.94) (layer Dwgs.User) (width 0.05))
  (fp_line (start 5.25 -1.94) (end 5.25 3.8) (layer Dwgs.User) (width 0.05))
  (fp_line (start 5.25 3.8) (end -5.25 3.8) (layer Dwgs.User) (width 0.05))
  (fp_line (start -2.9 1.85) (end -4.5 1.85) (layer F.SilkS) (width 0.18))
  (fp_line (start -4.5 1.85) (end -4.5 1.35) (layer F.SilkS) (width 0.18))
  (fp_line (start 2.9 1.85) (end 4.5 1.85) (layer F.SilkS) (width 0.18))
  (fp_line (start 4.5 1.85) (end 4.5 1.35) (layer F.SilkS) (width 0.18))
  (fp_line (start -4.5 -1.55) (end -4.5 -1.85) (layer F.SilkS) (width 0.18))
  (fp_line (start -4.5 -1.85) (end 4.5 -1.85) (layer F.SilkS) (width 0.18))
  (fp_line (start 4.5 -1.85) (end 4.5 -1.55) (layer F.SilkS) (width 0.18))
  (fp_line (start -2.7 -1.85) (end -2.25 -1.4) (layer F.SilkS) (width 0.18))
  (fp_line (start -2.25 -1.4) (end -1.8 -1.85) (layer F.SilkS) (width 0.18))
  (fp_line (start 2.7 3.8) (end -2.7 3.8) (layer F.CrtYd) (width 0.02))
  (fp_line (start -2.7 3.8) (end -2.7 2.05) (layer F.CrtYd) (width 0.02))
  (fp_line (start -2.7 2.05) (end -5.25 2.05) (layer F.CrtYd) (width 0.02))
  (fp_line (start -5.25 2.05) (end -5.25 -1.85) (layer F.CrtYd) (width 0.02))
  (fp_line (start -5.25 -1.85) (end 5.25 -1.85) (layer F.CrtYd) (width 0.02))
  (fp_line (start 5.25 -1.85) (end 5.25 2.05) (layer F.CrtYd) (width 0.02))
  (fp_line (start 5.25 2.05) (end 2.7 2.05) (layer F.CrtYd) (width 0.02))
  (fp_line (start 2.7 2.05) (end 2.7 3.8) (layer F.CrtYd) (width 0.02))
  (fp_line (start 2.25 1.85) (end 2.25 3.35) (layer F.Fab) (width 0.1))
  (fp_line (start 0.75 1.85) (end 0.75 3.35) (layer F.Fab) (width 0.1))
  (fp_line (start -4.5 0) (end 4.5 0) (layer F.Fab) (width 0.1))
  (fp_line (start -0.75 1.85) (end -0.75 3.35) (layer F.Fab) (width 0.1))
  (fp_line (start -2.25 1.85) (end -2.25 3.35) (layer F.Fab) (width 0.1))
  (fp_line (start 4.5 1.85) (end 4.5 -1.85) (layer F.Fab) (width 0.1))
  (fp_line (start 4.5 -1.85) (end -4.5 -1.85) (layer F.Fab) (width 0.1))
  (fp_line (start -4.5 -1.85) (end -4.5 1.85) (layer F.Fab) (width 0.1))
  (fp_line (start -4.5 1.85) (end 4.5 1.85) (layer F.Fab) (width 0.1))
  (fp_line (start -3.45 -1.85) (end -4.5 -0.8) (layer F.Fab) (width 0.1))
  (pad 1 smd rect (at -2.25 1.15) (size 0.7 5.1) (layers F.Cu F.Mask F.Paste)
    (solder_mask_margin 0.1)
    (zone_connect 2))
  (pad 2 smd rect (at -0.75 1.15) (size 0.7 5.1) (layers F.Cu F.Mask F.Paste)
    (solder_mask_margin 0.1)
    (zone_connect 2))
  (pad 3 smd rect (at 0.75 1.15) (size 0.7 5.1) (layers F.Cu F.Mask F.Paste)
    (solder_mask_margin 0.1)
    (zone_connect 2))
  (pad 4 smd rect (at 2.25 1.15) (size 0.7 5.1) (layers F.Cu F.Mask F.Paste)
    (solder_mask_margin 0.1)
    (zone_connect 2))
  (pad 5 smd rect (at 4.3 -0.1) (size 1.7 2.2) (layers F.Cu F.Mask F.Paste)
    (solder_mask_margin 0.1)
    (zone_connect 2))
  (pad 6 smd rect (at -4.3 -0.1) (size 1.7 2.2) (layers F.Cu F.Mask F.Paste)
    (solder_mask_margin 0.1)
    (zone_connect 2))
  (model "${KIPRJMOD}/../Library/Footprints.3dshapes/JST B4B-ZR-SM4-TF.step"
    (offset (xyz 0 0 0))
    (scale (xyz 1 1 1))
    (rotate (xyz 0 0 0))
  )
)