(module C0603-SANS-SE (layer F.Cu) (tedit 0)
  (attr smd)
  (fp_text reference REF** (at 0 0) (layer F.SilkS)
    (effects (font (size 1 1) (thickness 0.15)))
  )
  (fp_text value C0603-SANS-SE (at 0 2) (layer F.Fab) hide
    (effects (font (size 1 1) (thickness 0.15)))
  )
  (fp_line (start -1.3462 0.8128) (end -1.3462 -0.8128) (layer Dwgs.User) (width 0.05))
  (fp_line (start -1.3462 -0.8128) (end 1.3462 -0.8128) (layer Dwgs.User) (width 0.05))
  (fp_line (start 1.3462 -0.8128) (end 1.3462 0.8128) (layer Dwgs.User) (width 0.05))
  (fp_line (start 1.3462 0.8128) (end -1.3462 0.8128) (layer Dwgs.User) (width 0.05))
  (fp_line (start -1.2 -0.65) (end 1.2 -0.65) (layer F.CrtYd) (width 0.02))
  (fp_line (start 1.2 -0.65) (end 1.2 0.65) (layer F.CrtYd) (width 0.02))
  (fp_line (start 1.2 0.65) (end -1.2 0.65) (layer F.CrtYd) (width 0.02))
  (fp_line (start -1.2 0.65) (end -1.2 -0.65) (layer F.CrtYd) (width 0.02))
  (fp_line (start 0.9 -0.4) (end -0.9 -0.4) (layer F.Fab) (width 0.1))
  (fp_line (start -0.9 -0.4) (end -0.9 0.4) (layer F.Fab) (width 0.1))
  (fp_line (start -0.9 0.4) (end 0.9 0.4) (layer F.Fab) (width 0.1))
  (fp_line (start 0.9 0.4) (end 0.9 -0.4) (layer F.Fab) (width 0.1))
  (pad 1 smd rect (at -0.635 0) (size 0.9144 1.1176) (layers F.Cu F.Mask F.Paste)
    (clearance 0.2032) (solder_mask_margin 0.1016)
    (zone_connect 2))
  (pad 2 smd rect (at 0.635 0) (size 0.9144 1.1176) (layers F.Cu F.Mask F.Paste)
    (clearance 0.2032) (solder_mask_margin 0.1016)
    (zone_connect 2))
)