(module C0805-STRAP (layer F.Cu) (tedit 0)
  (attr smd)
  (fp_text reference REF** (at 0 0) (layer F.SilkS)
    (effects (font (size 1 1) (thickness 0.15)))
  )
  (fp_text value C0805-STRAP (at 0 2) (layer F.Fab) hide
    (effects (font (size 1 1) (thickness 0.15)))
  )
  (fp_line (start -1.605 0.8) (end -1.605 -0.8) (layer Dwgs.User) (width 0.05))
  (fp_line (start -1.605 -0.8) (end 1.605 -0.8) (layer Dwgs.User) (width 0.05))
  (fp_line (start 1.605 -0.8) (end 1.605 0.8) (layer Dwgs.User) (width 0.05))
  (fp_line (start 1.605 0.8) (end -1.605 0.8) (layer Dwgs.User) (width 0.05))
  (fp_line (start -1.6 -0.8) (end 1.6 -0.8) (layer F.CrtYd) (width 0.02))
  (fp_line (start 1.6 -0.8) (end 1.6 0.8) (layer F.CrtYd) (width 0.02))
  (fp_line (start 1.6 0.8) (end -1.6 0.8) (layer F.CrtYd) (width 0.02))
  (fp_line (start -1.6 0.8) (end -1.6 -0.8) (layer F.CrtYd) (width 0.02))
  (pad 1 smd rect (at -1 0) (size 1 1.25) (layers F.Cu F.Mask F.Paste)
    (solder_mask_margin 0.105)
    (zone_connect 2))
  (pad 2 smd rect (at 1 0) (size 1 1.25) (layers F.Cu F.Mask F.Paste)
    (solder_mask_margin 0.105)
    (zone_connect 2))
)