(module C0805-AIROX-MURATA-BLM21PG221SH1 (layer F.Cu) (tedit 0)
  (attr smd)
  (fp_text reference REF** (at 0 0) (layer F.SilkS)
    (effects (font (size 1 1) (thickness 0.15)))
  )
  (fp_text value C0805-AIROX-MURATA-BLM21PG221SH1 (at 0 2) (layer F.Fab) hide
    (effects (font (size 1 1) (thickness 0.15)))
  )
  (fp_line (start -1.905 1.09) (end -1.905 -1.09) (layer Dwgs.User) (width 0.05))
  (fp_line (start -1.905 -1.09) (end 1.905 -1.09) (layer Dwgs.User) (width 0.05))
  (fp_line (start 1.905 -1.09) (end 1.905 1.09) (layer Dwgs.User) (width 0.05))
  (fp_line (start 1.905 1.09) (end -1.905 1.09) (layer Dwgs.User) (width 0.05))
  (fp_line (start -1.7 -1) (end 1.7 -1) (layer F.SilkS) (width 0.18))
  (fp_line (start 1.7 -1) (end 1.7 1) (layer F.SilkS) (width 0.18))
  (fp_line (start 1.7 1) (end -1.7 1) (layer F.SilkS) (width 0.18))
  (fp_line (start -1.7 1) (end -1.7 -1) (layer F.SilkS) (width 0.18))
  (fp_line (start -1.905 -0.9525) (end 1.905 -0.9525) (layer F.CrtYd) (width 0.02))
  (fp_line (start 1.905 -0.9525) (end 1.905 0.9525) (layer F.CrtYd) (width 0.02))
  (fp_line (start 1.905 0.9525) (end -1.905 0.9525) (layer F.CrtYd) (width 0.02))
  (fp_line (start -1.905 0.9525) (end -1.905 -0.9525) (layer F.CrtYd) (width 0.02))
  (fp_line (start 1.1 -0.635) (end 1.1 0.635) (layer F.CrtYd) (width 0.02))
  (fp_line (start 1.1 0.635) (end -1.1 0.635) (layer F.CrtYd) (width 0.02))
  (fp_line (start -1.1 0.635) (end -1.1 -0.635) (layer F.CrtYd) (width 0.02))
  (fp_line (start -1.1 -0.635) (end 1.1 -0.635) (layer F.CrtYd) (width 0.02))
  (fp_line (start -1 0.635) (end -0.5 0.635) (layer F.Fab) (width 0.1))
  (fp_line (start -0.5 0.635) (end -0.5 -0.635) (layer F.Fab) (width 0.1))
  (fp_line (start -0.5 -0.635) (end -1 -0.635) (layer F.Fab) (width 0.1))
  (fp_line (start -1 -0.635) (end -1 0.635) (layer F.Fab) (width 0.1))
  (fp_line (start 1 0.635) (end 0.5 0.635) (layer F.Fab) (width 0.1))
  (fp_line (start 0.5 0.635) (end 0.5 -0.635) (layer F.Fab) (width 0.1))
  (fp_line (start 0.5 -0.635) (end 1 -0.635) (layer F.Fab) (width 0.1))
  (fp_line (start 1 -0.635) (end 1 0.635) (layer F.Fab) (width 0.1))
  (fp_line (start -1 0.635) (end 1 0.635) (layer F.Fab) (width 0.1))
  (fp_line (start 1 0.635) (end 1 -0.635) (layer F.Fab) (width 0.1))
  (fp_line (start 1 -0.635) (end -1 -0.635) (layer F.Fab) (width 0.1))
  (fp_line (start -1 -0.635) (end -1 0.635) (layer F.Fab) (width 0.1))
  (pad 1 smd rect (at -0.9 0) (size 1.15 1.45) (layers F.Cu F.Mask F.Paste)
    (solder_mask_margin 0.105)
    (zone_connect 2))
  (pad 2 smd rect (at 0.9 0) (size 1.15 1.45) (layers F.Cu F.Mask F.Paste)
    (solder_mask_margin 0.105)
    (zone_connect 2))
)