(module CAR1.05 (layer F.Cu) (tedit 0)
  (fp_text reference REF** (at 0 0) (layer F.SilkS) hide
    (effects (font (size 1 1) (thickness 0.15)))
  )
  (fp_text value CAR1.05 (at 0 2) (layer F.Fab) hide
    (effects (font (size 1 1) (thickness 0.15)))
  )
  (fp_line (start -0.63 0.63) (end -0.63 -0.63) (layer F.CrtYd) (width 0.05))
  (fp_line (start -0.63 -0.63) (end 0.63 -0.63) (layer F.CrtYd) (width 0.05))
  (fp_line (start 0.63 -0.63) (end 0.63 0.63) (layer F.CrtYd) (width 0.05))
  (fp_line (start 0.63 0.63) (end -0.63 0.63) (layer F.CrtYd) (width 0.05))
  (pad ~ smd rect (at 0 0) (size 1.05 1.05) (layers F.Cu F.Mask F.Paste)
    (zone_connect 2))
)