(module DF3_03512_COUCHE (layer F.Cu) (tedit 0)
  (fp_text reference REF** (at 0 0) (layer F.SilkS)
    (effects (font (size 1 1) (thickness 0.15)))
  )
  (fp_text value DF3_03512_COUCHE (at 0 2) (layer F.Fab) hide
    (effects (font (size 1 1) (thickness 0.15)))
  )
  (fp_arc (start 1.27 0) (end 2.032 0) (angle 360) (layer B.CrtYd) (width 0.02))
  (fp_line (start -3.275 1.0922) (end -3.275 -13.11) (layer Dwgs.User) (width 0.05))
  (fp_line (start -3.275 -13.11) (end 3.275 -13.11) (layer Dwgs.User) (width 0.05))
  (fp_line (start 3.275 -13.11) (end 3.275 1.0922) (layer Dwgs.User) (width 0.05))
  (fp_line (start 3.275 1.0922) (end -3.275 1.0922) (layer Dwgs.User) (width 0.05))
  (fp_line (start 3.15 -12.985) (end -3.15 -12.985) (layer F.SilkS) (width 0.18))
  (fp_line (start -3.15 -12.985) (end -3.15 -1.985) (layer F.SilkS) (width 0.18))
  (fp_line (start -3.15 -1.985) (end 3.15 -1.985) (layer F.SilkS) (width 0.18))
  (fp_line (start 3.15 -1.985) (end 3.15 -12.985) (layer F.SilkS) (width 0.18))
  (fp_line (start -2.8575 -2.8575) (end -1.5875 -2.8575) (layer F.SilkS) (width 0.18))
  (fp_line (start -2.2225 -2.2225) (end -2.2225 -3.4925) (layer F.SilkS) (width 0.18))
  (fp_line (start 3.15 -1.985) (end 1.905 -1.985) (layer F.CrtYd) (width 0.02))
  (fp_line (start 1.905 -1.985) (end 1.905 0.635) (layer F.CrtYd) (width 0.02))
  (fp_line (start 1.905 0.635) (end -1.905 0.635) (layer F.CrtYd) (width 0.02))
  (fp_line (start -1.905 0.635) (end -1.905 -1.985) (layer F.CrtYd) (width 0.02))
  (fp_line (start -1.905 -1.985) (end -3.15 -1.985) (layer F.CrtYd) (width 0.02))
  (fp_line (start -3.15 -1.985) (end -3.15 -12.985) (layer F.CrtYd) (width 0.02))
  (fp_line (start -3.15 -12.985) (end 3.15 -12.985) (layer F.CrtYd) (width 0.02))
  (fp_line (start 3.15 -12.985) (end 3.15 -1.985) (layer F.CrtYd) (width 0.02))
  (fp_line (start -0.508 -0.762) (end -0.508 0.762) (layer B.CrtYd) (width 0.02))
  (fp_line (start -0.508 0.762) (end -2.032 0.762) (layer B.CrtYd) (width 0.02))
  (fp_line (start -2.032 0.762) (end -2.032 -0.762) (layer B.CrtYd) (width 0.02))
  (fp_line (start -2.032 -0.762) (end -0.508 -0.762) (layer B.CrtYd) (width 0.02))
  (fp_line (start -3.15 -1.985) (end 3.15 -1.985) (layer Dwgs.User) (width 0.25))
  (fp_line (start 3.15 -1.985) (end 3.15 -12.985) (layer Dwgs.User) (width 0.25))
  (fp_line (start 3.15 -12.985) (end -3.15 -12.985) (layer Dwgs.User) (width 0.25))
  (fp_line (start -3.15 -12.985) (end -3.15 -1.985) (layer Dwgs.User) (width 0.25))
  (fp_line (start 1.27 0) (end 1.27 -1.905) (layer Dwgs.User) (width 0.25))
  (fp_line (start -1.27 0) (end -1.27 -1.905) (layer Dwgs.User) (width 0.25))
  (pad + thru_hole rect (at -1.27 0) (size 1.524 1.524) (drill 0.8128 (offset 0 0 )) (layers *.Cu *.Mask)
    (clearance 0.3048) (solder_mask_margin 0.1905)
    (zone_connect 2) (thermal_width 0.381) (thermal_gap 0.3302))
  (pad - thru_hole circle (at 1.27 0) (size 1.524 1.524) (drill 0.8128 (offset 0 0 )) (layers *.Cu *.Mask)
    (clearance 0.3048) (solder_mask_margin 0.254)
    (zone_connect 2) (thermal_width 0.381) (thermal_gap 0.3302))
  (fp_text user + (at -2.54 -2.54515) (layer Dwgs.User)
    (effects (font (size 1 1) (thickness 0.2032)) (justify left))
  )
)