(module FIX35M (layer F.Cu) (tedit 0)
  (fp_text reference REF** (at 0 0) (layer F.SilkS)
    (effects (font (size 1 1) (thickness 0.15)))
  )
  (fp_text value FIX35M (at 0 2) (layer F.Fab) hide
    (effects (font (size 1 1) (thickness 0.15)))
  )
  (fp_arc (start 0 0) (end 3.175 0) (angle 360) (layer B.CrtYd) (width 0.02))
  (fp_arc (start 0 0) (end 1.75 0) (angle 360) (layer F.Fab) (width 0.1))
  (fp_line (start -3.5052 3.5052) (end -3.5052 -3.5052) (layer Dwgs.User) (width 0.05))
  (fp_line (start -3.5052 -3.5052) (end 3.5052 -3.5052) (layer Dwgs.User) (width 0.05))
  (fp_line (start 3.5052 -3.5052) (end 3.5052 3.5052) (layer Dwgs.User) (width 0.05))
  (fp_line (start 3.5052 3.5052) (end -3.5052 3.5052) (layer Dwgs.User) (width 0.05))
  (fp_line (start 3.175 -3.175) (end 3.175 3.175) (layer F.CrtYd) (width 0.02))
  (fp_line (start 3.175 3.175) (end -3.175 3.175) (layer F.CrtYd) (width 0.02))
  (fp_line (start -3.175 3.175) (end -3.175 -3.175) (layer F.CrtYd) (width 0.02))
  (fp_line (start -3.175 -3.175) (end 3.175 -3.175) (layer F.CrtYd) (width 0.02))
  (pad 1 thru_hole circle (at 0 0) (size 6.35 6.35) (drill 3.5052 (offset 0 0 )) (layers *.Cu *.Mask)
    (clearance 0.3048) (solder_mask_margin 0.3302)
    (zone_connect 2) (thermal_width 0.381) (thermal_gap 0.3302))
)