(module GDCAFE-3PTS (layer F.Cu) (tedit 0)
  (attr smd)
  (fp_text reference REF** (at 0 0) (layer F.SilkS)
    (effects (font (size 1 1) (thickness 0.15)))
  )
  (fp_text value GDCAFE-3PTS (at 0 2) (layer F.Fab) hide
    (effects (font (size 1 1) (thickness 0.15)))
  )
  (fp_line (start -2.10821 1.0922) (end -2.10821 -1.0922) (layer Dwgs.User) (width 0.05))
  (fp_line (start -2.10821 -1.0922) (end 2.10821 -1.0922) (layer Dwgs.User) (width 0.05))
  (fp_line (start 2.10821 -1.0922) (end 2.10821 1.0922) (layer Dwgs.User) (width 0.05))
  (fp_line (start 2.10821 1.0922) (end -2.10821 1.0922) (layer Dwgs.User) (width 0.05))
  (fp_line (start -2.081 -0.505) (end -1.643 -0.943) (layer F.CrtYd) (width 0.02))
  (fp_line (start -1.643 -0.943) (end 1.619 -0.943) (layer F.CrtYd) (width 0.02))
  (fp_line (start 1.619 -0.943) (end 2.081 -0.481) (layer F.CrtYd) (width 0.02))
  (fp_line (start 2.081 -0.481) (end 2.081 0.505) (layer F.CrtYd) (width 0.02))
  (fp_line (start 2.081 0.505) (end 1.643 0.943) (layer F.CrtYd) (width 0.02))
  (fp_line (start 1.643 0.943) (end -1.619 0.943) (layer F.CrtYd) (width 0.02))
  (fp_line (start -1.619 0.943) (end -2.081 0.481) (layer F.CrtYd) (width 0.02))
  (fp_line (start -2.081 0.481) (end -2.081 -0.505) (layer F.CrtYd) (width 0.02))
  (pad 1 smd custom (at -1.524 0) (size 0.2 0.2) (layers F.Cu F.Mask)
    (options (clearance outline) (anchor circle))
    (primitives
      (gr_arc (start 0.381 0) (end 0.381 0.762) (angle 180) (width 0))
      (gr_line (start 0.4445 -0.762) (end 0.4445 0.762) (width 0))
      (gr_line (start 0.4445 0.762) (end 0.381 0.762) (width 0))
      (gr_line (start 0.381 -0.762) (end 0.4445 -0.762) (width 0))
    )
    (zone_connect 2))
  (pad 2 smd rect (at 0 0) (size 1.524 1.524) (layers F.Cu F.Mask)
    (clearance 0.3048) (solder_mask_margin 0.2032)
    (zone_connect 2) (thermal_width 0.381) (thermal_gap 0.3302))
  (pad 3 smd custom (at 1.524 0) (size 0.2 0.2) (layers F.Cu F.Mask)
    (options (clearance outline) (anchor circle))
    (primitives
      (gr_arc (start -0.381 0) (end -0.381 -0.762) (angle 180) (width 0))
      (gr_line (start -0.4445 0.762) (end -0.4445 -0.762) (width 0))
      (gr_line (start -0.4445 -0.762) (end -0.381 -0.762) (width 0))
      (gr_line (start -0.381 0.762) (end -0.4445 0.762) (width 0))
    )
    (zone_connect 2))
)