(module MEL25 (layer F.Cu) (tedit 0)
  (fp_text reference REF** (at 0 0) (layer F.SilkS) hide
    (effects (font (size 1 1) (thickness 0.15)))
  )
  (fp_text value MEL25 (at 0 2) (layer F.Fab) hide
    (effects (font (size 1 1) (thickness 0.15)))
  )
  (pad ~ np_thru_hole circle (at 0 0) (size 2.032 2.032) (drill 2.5146 (offset 0 0 )) (layers *.Cu *.Mask)
    (clearance 0.5334) (solder_mask_margin 0.4318)
    (zone_connect 2) (thermal_width 0.3048) (thermal_gap 0.3048))
)