(module MEL60 (layer F.Cu) (tedit 0)
  (fp_text reference REF** (at 0 0) (layer F.SilkS) hide
    (effects (font (size 1 1) (thickness 0.15)))
  )
  (fp_text value MEL60 (at 0 2) (layer F.Fab) hide
    (effects (font (size 1 1) (thickness 0.15)))
  )
  (pad ~ np_thru_hole circle (at 0 0) (size 5.842 5.842) (drill 5.9944 (offset 0 0 )) (layers *.Cu *.Mask)
    (clearance 0.5842) (solder_mask_margin 0.5842)
    (zone_connect 2))
)