(module MX.A8_SUPPORT.DIL (layer F.Cu) (tedit 0)
  (fp_text reference REF** (at 0 0) (layer F.SilkS)
    (effects (font (size 1 1) (thickness 0.15)))
  )
  (fp_text value MX.A8_SUPPORT.DIL (at 0 2) (layer F.Fab) hide
    (effects (font (size 1 1) (thickness 0.15)))
  )
  (fp_arc (start 2.54 0) (end 3.3782 0) (angle 360) (layer B.CrtYd) (width 0.02))
  (fp_arc (start 5.08 0) (end 5.9182 0) (angle 360) (layer B.CrtYd) (width 0.02))
  (fp_arc (start 7.62 0) (end 8.4582 0) (angle 360) (layer B.CrtYd) (width 0.02))
  (fp_arc (start 7.62 -7.62) (end 8.4582 -7.62) (angle 360) (layer B.CrtYd) (width 0.02))
  (fp_arc (start 5.08 -7.62) (end 5.9182 -7.62) (angle 360) (layer B.CrtYd) (width 0.02))
  (fp_arc (start 2.54 -7.62) (end 3.3782 -7.62) (angle 360) (layer B.CrtYd) (width 0.02))
  (fp_arc (start 0 -7.62) (end 0.8382 -7.62) (angle 360) (layer B.CrtYd) (width 0.02))
  (fp_arc (start 2.286 -3.8532) (end 2.286 -3.3452) (angle -180) (layer F.Fab) (width 0.1))
  (fp_arc (start -0.25399 -0.254) (end 0 -0.254) (angle 360) (layer F.Fab) (width 0.02))
  (fp_line (start -1.995 1.36) (end -1.995 -8.98) (layer Dwgs.User) (width 0.05))
  (fp_line (start -1.995 -8.98) (end 9.615 -8.98) (layer Dwgs.User) (width 0.05))
  (fp_line (start 9.615 -8.98) (end 9.615 1.36) (layer Dwgs.User) (width 0.05))
  (fp_line (start 9.615 1.36) (end -1.995 1.36) (layer Dwgs.User) (width 0.05))
  (fp_line (start -1.905 1.27) (end -1.905 -8.89) (layer F.SilkS) (width 0.18))
  (fp_line (start -1.905 -8.89) (end 9.525 -8.89) (layer F.SilkS) (width 0.18))
  (fp_line (start 9.525 -8.89) (end 9.525 1.27) (layer F.SilkS) (width 0.18))
  (fp_line (start 9.525 1.27) (end -1.905 1.27) (layer F.SilkS) (width 0.18))
  (fp_line (start -1.905 -4.445) (end -0.635 -4.445) (layer F.SilkS) (width 0.18))
  (fp_line (start -0.635 -4.445) (end -0.635 -3.175) (layer F.SilkS) (width 0.18))
  (fp_line (start -0.635 -3.175) (end -1.905 -3.175) (layer F.SilkS) (width 0.18))
  (fp_line (start -1.905 -8.89) (end 9.525 -8.89) (layer F.CrtYd) (width 0.02))
  (fp_line (start 9.525 -8.89) (end 9.525 1.27) (layer F.CrtYd) (width 0.02))
  (fp_line (start 9.525 1.27) (end -1.905 1.27) (layer F.CrtYd) (width 0.02))
  (fp_line (start -1.905 1.27) (end -1.905 -8.89) (layer F.CrtYd) (width 0.02))
  (fp_line (start -1.905 -8.89) (end 9.525 -8.89) (layer F.CrtYd) (width 0.02))
  (fp_line (start 9.525 -8.89) (end 9.525 1.27) (layer F.CrtYd) (width 0.02))
  (fp_line (start 9.525 1.27) (end -1.905 1.27) (layer F.CrtYd) (width 0.02))
  (fp_line (start -1.905 1.27) (end -1.905 -8.89) (layer F.CrtYd) (width 0.02))
  (fp_line (start 0.8382 -0.8382) (end 0.8382 0.8382) (layer B.CrtYd) (width 0.02))
  (fp_line (start 0.8382 0.8382) (end -0.8382 0.8382) (layer B.CrtYd) (width 0.02))
  (fp_line (start -0.8382 0.8382) (end -0.8382 -0.8382) (layer B.CrtYd) (width 0.02))
  (fp_line (start -0.8382 -0.8382) (end 0.8382 -0.8382) (layer B.CrtYd) (width 0.02))
  (fp_line (start 8.89 -8.255) (end 8.89 0.635) (layer F.Fab) (width 0.1))
  (fp_line (start 8.89 0.635) (end -1.27 0.635) (layer F.Fab) (width 0.1))
  (fp_line (start -1.27 0.635) (end -1.27 -8.255) (layer F.Fab) (width 0.1))
  (fp_line (start -1.27 -8.255) (end 8.89 -8.255) (layer F.Fab) (width 0.1))
  (fp_line (start -1.905 -4.445) (end -0.635 -4.445) (layer F.Fab) (width 0.1))
  (fp_line (start -0.635 -4.445) (end -0.635 -3.175) (layer F.Fab) (width 0.1))
  (fp_line (start -0.635 -3.175) (end -1.905 -3.175) (layer F.Fab) (width 0.1))
  (fp_line (start 9.525 -8.89) (end 9.525 1.27) (layer F.Fab) (width 0.1))
  (fp_line (start 9.525 1.27) (end -1.905 1.27) (layer F.Fab) (width 0.1))
  (fp_line (start -1.905 1.27) (end -1.905 -8.89) (layer F.Fab) (width 0.1))
  (fp_line (start -1.905 -8.89) (end 9.525 -8.89) (layer F.Fab) (width 0.1))
  (fp_line (start 1.27 -3.3452) (end 2.286 -3.3452) (layer F.Fab) (width 0.1))
  (fp_line (start 2.286 -4.3612) (end 1.27 -4.3612) (layer F.Fab) (width 0.1))
  (fp_line (start 1.27 -4.3612) (end 1.27 -3.3452) (layer F.Fab) (width 0.1))
  (fp_line (start 1.27 -1.9609) (end 6.35 -1.9609) (layer F.Fab) (width 0.1))
  (fp_line (start 6.35 -1.9609) (end 6.35 -5.7836) (layer F.Fab) (width 0.1))
  (fp_line (start 6.35 -5.7836) (end 1.27 -5.7836) (layer F.Fab) (width 0.1))
  (fp_line (start 1.27 -5.7836) (end 1.27 -1.9609) (layer F.Fab) (width 0.1))
  (pad 1 thru_hole rect (at 0 0) (size 1.6764 1.6764) (drill 0.9652 (offset 0 0 )) (layers *.Cu *.Mask)
    (clearance 0.1524) (solder_mask_margin 0.1016)
    (zone_connect 2) (thermal_width 0.2032) (thermal_gap 0.2032))
  (pad 2 thru_hole circle (at 2.54 0) (size 1.6764 1.6764) (drill 0.9652 (offset 0 0 )) (layers *.Cu *.Mask)
    (clearance 0.1524) (solder_mask_margin 0.1016)
    (zone_connect 2) (thermal_width 0.2032) (thermal_gap 0.2032))
  (pad 3 thru_hole circle (at 5.08 0) (size 1.6764 1.6764) (drill 0.9652 (offset 0 0 )) (layers *.Cu *.Mask)
    (clearance 0.1524) (solder_mask_margin 0.1016)
    (zone_connect 2) (thermal_width 0.2032) (thermal_gap 0.2032))
  (pad 4 thru_hole circle (at 7.62 0) (size 1.6764 1.6764) (drill 0.9652 (offset 0 0 )) (layers *.Cu *.Mask)
    (clearance 0.1524) (solder_mask_margin 0.1016)
    (zone_connect 2) (thermal_width 0.2032) (thermal_gap 0.2032))
  (pad 5 thru_hole circle (at 7.62 -7.62) (size 1.6764 1.6764) (drill 0.9652 (offset 0 0 )) (layers *.Cu *.Mask)
    (clearance 0.1524) (solder_mask_margin 0.1016)
    (zone_connect 2) (thermal_width 0.2032) (thermal_gap 0.2032))
  (pad 6 thru_hole circle (at 5.08 -7.62) (size 1.6764 1.6764) (drill 0.9652 (offset 0 0 )) (layers *.Cu *.Mask)
    (clearance 0.1524) (solder_mask_margin 0.1016)
    (zone_connect 2) (thermal_width 0.2032) (thermal_gap 0.2032))
  (pad 7 thru_hole circle (at 2.54 -7.62) (size 1.6764 1.6764) (drill 0.9652 (offset 0 0 )) (layers *.Cu *.Mask)
    (clearance 0.1524) (solder_mask_margin 0.1016)
    (zone_connect 2) (thermal_width 0.2032) (thermal_gap 0.2032))
  (pad 8 thru_hole circle (at 0 -7.62) (size 1.6764 1.6764) (drill 0.9652 (offset 0 0 )) (layers *.Cu *.Mask)
    (clearance 0.1524) (solder_mask_margin 0.1016)
    (zone_connect 2) (thermal_width 0.2032) (thermal_gap 0.2032))
)