(module OBLS154L132R132A90 (layer F.Cu) (tedit 0)
  (fp_text reference REF** (at 0 0) (layer F.SilkS) hide
    (effects (font (size 1 1) (thickness 0.15)))
  )
  (fp_text value OBLS154L132R132A90 (at 0 2) (layer F.Fab) hide
    (effects (font (size 1 1) (thickness 0.15)))
  )
  (fp_line (start -2.34696 4.02336) (end -2.34696 -4.02336) (layer F.CrtYd) (width 0.05))
  (fp_line (start -2.34696 -4.02336) (end 2.34696 -4.02336) (layer F.CrtYd) (width 0.05))
  (fp_line (start 2.34696 -4.02336) (end 2.34696 4.02336) (layer F.CrtYd) (width 0.05))
  (fp_line (start 2.34696 4.02336) (end -2.34696 4.02336) (layer F.CrtYd) (width 0.05))
  (pad ~ smd rect (at 0 0) (size 3.9116 6.7056) (layers F.Cu F.Mask F.Paste)
    (zone_connect 2))
)