(module OBLS36L22R22A90 (layer F.Cu) (tedit 0)
  (fp_text reference REF** (at 0 0) (layer F.SilkS) hide
    (effects (font (size 1 1) (thickness 0.15)))
  )
  (fp_text value OBLS36L22R22A90 (at 0 2) (layer F.Fab) hide
    (effects (font (size 1 1) (thickness 0.15)))
  )
  (fp_line (start -0.54864 0.67056) (end -0.54864 -0.67056) (layer F.CrtYd) (width 0.05))
  (fp_line (start -0.54864 -0.67056) (end 0.54864 -0.67056) (layer F.CrtYd) (width 0.05))
  (fp_line (start 0.54864 -0.67056) (end 0.54864 0.67056) (layer F.CrtYd) (width 0.05))
  (fp_line (start 0.54864 0.67056) (end -0.54864 0.67056) (layer F.CrtYd) (width 0.05))
  (pad ~ smd rect (at 0 0) (size 0.9144 1.1176) (layers F.Cu F.Mask F.Paste)
    (zone_connect 2))
)