(module OBLS32L97R97A90 (layer F.Cu) (tedit 0)
  (fp_text reference REF** (at 0 0) (layer F.SilkS) hide
    (effects (font (size 1 1) (thickness 0.15)))
  )
  (fp_text value OBLS32L97R97A90 (at 0 2) (layer F.Fab) hide
    (effects (font (size 1 1) (thickness 0.15)))
  )
  (fp_line (start -0.48768 2.95656) (end -0.48768 -2.95656) (layer F.CrtYd) (width 0.05))
  (fp_line (start -0.48768 -2.95656) (end 0.48768 -2.95656) (layer F.CrtYd) (width 0.05))
  (fp_line (start 0.48768 -2.95656) (end 0.48768 2.95656) (layer F.CrtYd) (width 0.05))
  (fp_line (start 0.48768 2.95656) (end -0.48768 2.95656) (layer F.CrtYd) (width 0.05))
  (pad ~ smd rect (at 0 0) (size 0.8128 4.9276) (layers F.Cu F.Mask F.Paste)
    (zone_connect 2))
)