(module PR-0.8X0.9-new (layer F.Cu) (tedit 0)
  (fp_text reference REF** (at 0 0) (layer F.SilkS) hide
    (effects (font (size 1 1) (thickness 0.15)))
  )
  (fp_text value masque_comp (at 0 2) (layer F.Fab) hide
    (effects (font (size 1 1) (thickness 0.15)))
  )
  (fp_line (start -0.606 0.666) (end -0.606 -0.666) (layer F.CrtYd) (width 0.05))
  (fp_line (start -0.606 -0.666) (end 0.606 -0.666) (layer F.CrtYd) (width 0.05))
  (fp_line (start 0.606 -0.666) (end 0.606 0.666) (layer F.CrtYd) (width 0.05))
  (fp_line (start 0.606 0.666) (end -0.606 0.666) (layer F.CrtYd) (width 0.05))
  (pad ~ smd rect (at 0 0) (size 0.8 0.9) (layers F.Cu F.Mask F.Paste)
    (solder_mask_margin 0.105)
    (zone_connect 2))
)