(module PR.A1 (layer F.Cu) (tedit 0)
  (fp_text reference REF** (at 0 0) (layer F.SilkS) hide
    (effects (font (size 1 1) (thickness 0.15)))
  )
  (fp_text value masque_comp (at 0 2) (layer F.Fab) hide
    (effects (font (size 1 1) (thickness 0.15)))
  )
  (fp_line (start -0.48768 1.18872) (end -0.48768 -1.18872) (layer F.CrtYd) (width 0.05))
  (fp_line (start -0.48768 -1.18872) (end 0.48768 -1.18872) (layer F.CrtYd) (width 0.05))
  (fp_line (start 0.48768 -1.18872) (end 0.48768 1.18872) (layer F.CrtYd) (width 0.05))
  (fp_line (start 0.48768 1.18872) (end -0.48768 1.18872) (layer F.CrtYd) (width 0.05))
  (pad ~ smd rect (at 0 0) (size 0.6096 1.778) (layers F.Cu F.Mask F.Paste)
    (solder_mask_margin 0.1016)
    (zone_connect 2))
)