(module PRP0.95-1.6-FS-NM (layer F.Cu) (tedit 0)
  (fp_text reference REF** (at 0 0) (layer F.SilkS) hide
    (effects (font (size 1 1) (thickness 0.15)))
  )
  (fp_text value PRP0.95-1.6-FS-NM (at 0 2) (layer F.Fab) hide
    (effects (font (size 1 1) (thickness 0.15)))
  )
  (pad ~ np_thru_hole circle (at 0 0) (size 1.6002 1.6002) (drill 0.95 (offset 0 0 )) (layers *.Cu *.Mask)
    (solder_mask_margin 0.1016)
    (zone_connect 2))
)