(module PT-1.0MM_PAST=2mm (layer F.Cu) (tedit 0)
  (fp_text reference REF** (at 0 0) (layer F.SilkS)
    (effects (font (size 1 1) (thickness 0.15)))
  )
  (fp_text value PT-1.0MM_PAST=2mm (at 0 2) (layer F.Fab) hide
    (effects (font (size 1 1) (thickness 0.15)))
  )
  (fp_arc (start 0 0) (end 1.016 0) (angle 360) (layer B.CrtYd) (width 0.02))
  (fp_arc (start 0 0) (end 0.635 0) (angle 360) (layer F.Fab) (width 0.1))
  (fp_arc (start 0 0) (end 1 0) (angle 360) (layer F.Fab) (width 0.1))
  (fp_line (start -1.1938 1.1938) (end -1.1938 -1.1938) (layer Dwgs.User) (width 0.05))
  (fp_line (start -1.1938 -1.1938) (end 1.1938 -1.1938) (layer Dwgs.User) (width 0.05))
  (fp_line (start 1.1938 -1.1938) (end 1.1938 1.1938) (layer Dwgs.User) (width 0.05))
  (fp_line (start 1.1938 1.1938) (end -1.1938 1.1938) (layer Dwgs.User) (width 0.05))
  (fp_line (start 1.016 -1.016) (end 1.016 1.016) (layer F.CrtYd) (width 0.02))
  (fp_line (start 1.016 1.016) (end -1.016 1.016) (layer F.CrtYd) (width 0.02))
  (fp_line (start -1.016 1.016) (end -1.016 -1.016) (layer F.CrtYd) (width 0.02))
  (fp_line (start -1.016 -1.016) (end 1.016 -1.016) (layer F.CrtYd) (width 0.02))
  (pad 1 thru_hole circle (at 0 0) (size 2.032 2.032) (drill 1.016 (offset 0 0 )) (layers *.Cu *.Mask)
    (clearance 0.1016) (solder_mask_margin 0.1016)
    (zone_connect 2))
)