(module PT-1.0MM_DOUILLE (layer F.Cu) (tedit 0)
  (fp_text reference REF** (at 0 0) (layer F.SilkS)
    (effects (font (size 1 1) (thickness 0.15)))
  )
  (fp_text value PT-1.0MM_DOUILLE (at 0 2) (layer F.Fab) hide
    (effects (font (size 1 1) (thickness 0.15)))
  )
  (fp_arc (start 0 0) (end 0.8382 0) (angle 360) (layer B.CrtYd) (width 0.02))
  (fp_arc (start 0 0) (end 0.635 0) (angle 360) (layer F.Fab) (width 0.1))
  (fp_arc (start 0 0) (end 1 0) (angle 360) (layer F.Fab) (width 0.1))
  (fp_line (start -1.1684 1.1684) (end -1.1684 -1.1684) (layer Dwgs.User) (width 0.05))
  (fp_line (start -1.1684 -1.1684) (end 1.1684 -1.1684) (layer Dwgs.User) (width 0.05))
  (fp_line (start 1.1684 -1.1684) (end 1.1684 1.1684) (layer Dwgs.User) (width 0.05))
  (fp_line (start 1.1684 1.1684) (end -1.1684 1.1684) (layer Dwgs.User) (width 0.05))
  (fp_line (start 0.8382 -0.8382) (end 0.8382 0.8382) (layer F.CrtYd) (width 0.02))
  (fp_line (start 0.8382 0.8382) (end -0.8382 0.8382) (layer F.CrtYd) (width 0.02))
  (fp_line (start -0.8382 0.8382) (end -0.8382 -0.8382) (layer F.CrtYd) (width 0.02))
  (fp_line (start -0.8382 -0.8382) (end 0.8382 -0.8382) (layer F.CrtYd) (width 0.02))
  (pad 1 thru_hole circle (at 0 0) (size 1.6764 1.6764) (drill 0.9652 (offset 0 0 )) (layers *.Cu *.Mask)
    (clearance 0.1778) (solder_mask_margin 0.1016)
    (zone_connect 2) (thermal_width 0.381) (thermal_gap 0.3302))
)