(module R2010 (layer F.Cu) (tedit 0)
  (attr smd)
  (fp_text reference REF** (at 0 0) (layer F.SilkS)
    (effects (font (size 1 1) (thickness 0.15)))
  )
  (fp_text value R2010 (at 0 2) (layer F.Fab) hide
    (effects (font (size 1 1) (thickness 0.15)))
  )
  (fp_line (start -3.5825 1.995) (end -3.5825 -1.995) (layer Dwgs.User) (width 0.05))
  (fp_line (start -3.5825 -1.995) (end 3.5825 -1.995) (layer Dwgs.User) (width 0.05))
  (fp_line (start 3.5825 -1.995) (end 3.5825 1.995) (layer Dwgs.User) (width 0.05))
  (fp_line (start 3.5825 1.995) (end -3.5825 1.995) (layer Dwgs.User) (width 0.05))
  (fp_line (start -3.4925 1.905) (end 3.4925 1.905) (layer F.SilkS) (width 0.18))
  (fp_line (start 3.4925 1.905) (end 3.4925 -1.905) (layer F.SilkS) (width 0.18))
  (fp_line (start 3.4925 -1.905) (end -3.4925 -1.905) (layer F.SilkS) (width 0.18))
  (fp_line (start -3.4925 -1.905) (end -3.4925 1.905) (layer F.SilkS) (width 0.18))
  (fp_line (start -3.4925 -1.905) (end 3.4925 -1.905) (layer F.CrtYd) (width 0.02))
  (fp_line (start 3.4925 -1.905) (end 3.4925 1.905) (layer F.CrtYd) (width 0.02))
  (fp_line (start 3.4925 1.905) (end -3.4925 1.905) (layer F.CrtYd) (width 0.02))
  (fp_line (start -3.4925 1.905) (end -3.4925 -1.905) (layer F.CrtYd) (width 0.02))
  (fp_line (start -2.8 -1.5) (end -2.8 1.5) (layer F.Fab) (width 0.1))
  (fp_line (start -2.8 1.5) (end 2.8 1.5) (layer F.Fab) (width 0.1))
  (fp_line (start 2.8 1.5) (end 2.8 -1.5) (layer F.Fab) (width 0.1))
  (fp_line (start 2.8 -1.5) (end -2.8 -1.5) (layer F.Fab) (width 0.1))
  (pad 1 smd rect (at -2.5 0) (size 1.5748 3.175) (layers F.Cu F.Mask F.Paste)
    (clearance 0.2032) (solder_mask_margin 0.1016)
    (zone_connect 2))
  (pad 2 smd rect (at 2.5 0) (size 1.5748 3.175) (layers F.Cu F.Mask F.Paste)
    (clearance 0.2032) (solder_mask_margin 0.1016)
    (zone_connect 2))
  (model ${KISYS3DMOD}/Resistor_SMD.3dshapes/R_2010_5025Metric.wrl
    (offset (xyz 0 0 0))
    (scale (xyz 1 1 1))
    (rotate (xyz 0 0 0))
  )
)