(module RC1206_STRAP (layer F.Cu) (tedit 0)
  (attr smd)
  (fp_text reference REF** (at 0 0) (layer F.SilkS)
    (effects (font (size 1 1) (thickness 0.15)))
  )
  (fp_text value RC1206_STRAP (at 0 2) (layer F.Fab) hide
    (effects (font (size 1 1) (thickness 0.15)))
  )
  (fp_line (start -2.4638 1.2065) (end -2.4638 -1.2065) (layer Dwgs.User) (width 0.05))
  (fp_line (start -2.4638 -1.2065) (end 2.4638 -1.2065) (layer Dwgs.User) (width 0.05))
  (fp_line (start 2.4638 -1.2065) (end 2.4638 1.2065) (layer Dwgs.User) (width 0.05))
  (fp_line (start 2.4638 1.2065) (end -2.4638 1.2065) (layer Dwgs.User) (width 0.05))
  (fp_line (start 2.2098 -0.9525) (end 2.2098 0.9525) (layer F.CrtYd) (width 0.02))
  (fp_line (start 2.2098 0.9525) (end -2.2098 0.9525) (layer F.CrtYd) (width 0.02))
  (fp_line (start -2.2098 0.9525) (end -2.2098 -0.9525) (layer F.CrtYd) (width 0.02))
  (fp_line (start -2.2098 -0.9525) (end 2.2098 -0.9525) (layer F.CrtYd) (width 0.02))
  (pad 1 smd rect (at -1.4224 0) (size 1.5748 1.905) (layers F.Cu F.Mask F.Paste)
    (clearance 0.2032) (solder_mask_margin 0.1016)
    (zone_connect 2))
  (pad 2 smd rect (at 1.4224 0) (size 1.5748 1.905) (layers F.Cu F.Mask F.Paste)
    (clearance 0.2032) (solder_mask_margin 0.1016)
    (zone_connect 2))
)