(module RECT2.5X3.5 (layer F.Cu) (tedit 0)
  (fp_text reference REF** (at 0 0) (layer F.SilkS) hide
    (effects (font (size 1 1) (thickness 0.15)))
  )
  (fp_text value RECT2.5X3.5 (at 0 2) (layer F.Fab) hide
    (effects (font (size 1 1) (thickness 0.15)))
  )
  (fp_line (start -1.5 2.1) (end -1.5 -2.1) (layer F.CrtYd) (width 0.05))
  (fp_line (start -1.5 -2.1) (end 1.5 -2.1) (layer F.CrtYd) (width 0.05))
  (fp_line (start 1.5 -2.1) (end 1.5 2.1) (layer F.CrtYd) (width 0.05))
  (fp_line (start 1.5 2.1) (end -1.5 2.1) (layer F.CrtYd) (width 0.05))
  (pad ~ smd rect (at 0 0) (size 2.5 3.5) (layers F.Cu F.Mask F.Paste)
    (zone_connect 2))
)