(module RNDS112 (layer F.Cu) (tedit 0)
  (fp_text reference REF** (at 0 0) (layer F.SilkS) hide
    (effects (font (size 1 1) (thickness 0.15)))
  )
  (fp_text value RNDS112 (at 0 2) (layer F.Fab) hide
    (effects (font (size 1 1) (thickness 0.15)))
  )
  (fp_line (start -1.70688 1.70688) (end -1.70688 -1.70688) (layer F.CrtYd) (width 0.05))
  (fp_line (start -1.70688 -1.70688) (end 1.70688 -1.70688) (layer F.CrtYd) (width 0.05))
  (fp_line (start 1.70688 -1.70688) (end 1.70688 1.70688) (layer F.CrtYd) (width 0.05))
  (fp_line (start 1.70688 1.70688) (end -1.70688 1.70688) (layer F.CrtYd) (width 0.05))
  (pad ~ smd circle (at 0 0) (size 2.8448 2.8448) (layers F.Cu F.Mask F.Paste)
    (zone_connect 2))
)