(module RNDS80 (layer F.Cu) (tedit 0)
  (fp_text reference REF** (at 0 0) (layer F.SilkS) hide
    (effects (font (size 1 1) (thickness 0.15)))
  )
  (fp_text value RNDS80 (at 0 2) (layer F.Fab) hide
    (effects (font (size 1 1) (thickness 0.15)))
  )
  (fp_line (start -1.2192 1.2192) (end -1.2192 -1.2192) (layer F.CrtYd) (width 0.05))
  (fp_line (start -1.2192 -1.2192) (end 1.2192 -1.2192) (layer F.CrtYd) (width 0.05))
  (fp_line (start 1.2192 -1.2192) (end 1.2192 1.2192) (layer F.CrtYd) (width 0.05))
  (fp_line (start 1.2192 1.2192) (end -1.2192 1.2192) (layer F.CrtYd) (width 0.05))
  (pad ~ smd circle (at 0 0) (size 2.032 2.032) (layers F.Cu F.Mask F.Paste)
    (zone_connect 2))
)