(module RNDS100 (layer F.Cu) (tedit 0)
  (fp_text reference REF** (at 0 0) (layer F.SilkS) hide
    (effects (font (size 1 1) (thickness 0.15)))
  )
  (fp_text value RNDS100 (at 0 2) (layer F.Fab) hide
    (effects (font (size 1 1) (thickness 0.15)))
  )
  (fp_line (start -1.524 1.524) (end -1.524 -1.524) (layer F.CrtYd) (width 0.05))
  (fp_line (start -1.524 -1.524) (end 1.524 -1.524) (layer F.CrtYd) (width 0.05))
  (fp_line (start 1.524 -1.524) (end 1.524 1.524) (layer F.CrtYd) (width 0.05))
  (fp_line (start 1.524 1.524) (end -1.524 1.524) (layer F.CrtYd) (width 0.05))
  (pad ~ smd circle (at 0 0) (size 2.54 2.54) (layers F.Cu F.Mask F.Paste)
    (zone_connect 2))
)