(module SSOP14 (layer F.Cu) (tedit 0)
  (attr smd)
  (fp_text reference REF** (at 0 0) (layer F.SilkS)
    (effects (font (size 1 1) (thickness 0.15)))
  )
  (fp_text value SSOP14 (at 0 2) (layer F.Fab) hide
    (effects (font (size 1 1) (thickness 0.15)))
  )
  (fp_arc (start -1.65 1.85001) (end -1.65 2.1) (angle 360) (layer F.SilkS) (width 0.02))
  (fp_arc (start -1.65 1.85001) (end -1.65 2.1) (angle 360) (layer F.Fab) (width 0.02))
  (fp_line (start -3.34 4.77) (end -3.34 -4.77) (layer Dwgs.User) (width 0.05))
  (fp_line (start -3.34 -4.77) (end 3.34 -4.77) (layer Dwgs.User) (width 0.05))
  (fp_line (start 3.34 -4.77) (end 3.34 4.77) (layer Dwgs.User) (width 0.05))
  (fp_line (start 3.34 4.77) (end -3.34 4.77) (layer Dwgs.User) (width 0.05))
  (fp_line (start -3.25 1.5) (end 3.25 1.5) (layer F.SilkS) (width 0.18))
  (fp_line (start -3.25 2.54) (end 3.25 2.54) (layer F.SilkS) (width 0.18))
  (fp_line (start 3.25 2.54) (end 3.25 -2.54) (layer F.SilkS) (width 0.18))
  (fp_line (start 3.25 -2.54) (end -3.25 -2.54) (layer F.SilkS) (width 0.18))
  (fp_line (start -3.25 -2.54) (end -3.25 2.54) (layer F.SilkS) (width 0.18))
  (fp_line (start -3.25 -4.6) (end 3.25 -4.6) (layer F.CrtYd) (width 0.02))
  (fp_line (start 3.25 -4.6) (end 3.25 4.6) (layer F.CrtYd) (width 0.02))
  (fp_line (start 3.25 4.6) (end -3.25 4.6) (layer F.CrtYd) (width 0.02))
  (fp_line (start -3.25 4.6) (end -3.25 -4.6) (layer F.CrtYd) (width 0.02))
  (fp_line (start 1.95 2.7) (end 1.95 3.9) (layer F.Fab) (width 0.1))
  (fp_line (start 1.3 2.7) (end 1.3 3.9) (layer F.Fab) (width 0.1))
  (fp_line (start 0.65 2.7) (end 0.65 3.9) (layer F.Fab) (width 0.1))
  (fp_line (start 0 2.7) (end 0 3.9) (layer F.Fab) (width 0.1))
  (fp_line (start -0.65 2.7) (end -0.65 3.9) (layer F.Fab) (width 0.1))
  (fp_line (start -1.3 2.7) (end -1.3 3.9) (layer F.Fab) (width 0.1))
  (fp_line (start -1.95 2.7) (end -1.95 3.9) (layer F.Fab) (width 0.1))
  (fp_line (start 1.95 -3.9) (end 1.95 -2.7) (layer F.Fab) (width 0.1))
  (fp_line (start 1.3 -3.9) (end 1.3 -2.7) (layer F.Fab) (width 0.1))
  (fp_line (start 0.65 -3.9) (end 0.65 -2.7) (layer F.Fab) (width 0.1))
  (fp_line (start 0 -3.9) (end 0 -2.7) (layer F.Fab) (width 0.1))
  (fp_line (start -0.65 -3.9) (end -0.65 -2.7) (layer F.Fab) (width 0.1))
  (fp_line (start -1.3 -3.9) (end -1.3 -2.7) (layer F.Fab) (width 0.1))
  (fp_line (start -1.95 -3.9) (end -1.95 -2.7) (layer F.Fab) (width 0.1))
  (fp_line (start -3.25 1.5) (end 3.25 1.5) (layer F.Fab) (width 0.1))
  (fp_line (start -3.25 -2.7) (end -3.25 2.7) (layer F.Fab) (width 0.1))
  (fp_line (start -3.25 2.7) (end 3.25 2.7) (layer F.Fab) (width 0.1))
  (fp_line (start 3.25 2.7) (end 3.25 -2.7) (layer F.Fab) (width 0.1))
  (fp_line (start 3.25 -2.7) (end -3.25 -2.7) (layer F.Fab) (width 0.1))
  (pad 1 smd rect (at -1.95 3.5) (size 0.4064 2.032) (layers F.Cu F.Mask F.Paste)
    (clearance 0.2032) (solder_mask_margin 0.1016)
    (zone_connect 2))
  (pad 2 smd rect (at -1.3 3.5) (size 0.4064 2.032) (layers F.Cu F.Mask F.Paste)
    (clearance 0.2032) (solder_mask_margin 0.1016)
    (zone_connect 2))
  (pad 3 smd rect (at -0.65 3.5) (size 0.4064 2.032) (layers F.Cu F.Mask F.Paste)
    (clearance 0.2032) (solder_mask_margin 0.1016)
    (zone_connect 2))
  (pad 4 smd rect (at 0 3.5) (size 0.4064 2.032) (layers F.Cu F.Mask F.Paste)
    (clearance 0.2032) (solder_mask_margin 0.1016)
    (zone_connect 2))
  (pad 5 smd rect (at 0.65 3.5) (size 0.4064 2.032) (layers F.Cu F.Mask F.Paste)
    (clearance 0.2032) (solder_mask_margin 0.1016)
    (zone_connect 2))
  (pad 6 smd rect (at 1.3 3.5) (size 0.4064 2.032) (layers F.Cu F.Mask F.Paste)
    (clearance 0.2032) (solder_mask_margin 0.1016)
    (zone_connect 2))
  (pad 7 smd rect (at 1.95 3.5) (size 0.4064 2.032) (layers F.Cu F.Mask F.Paste)
    (clearance 0.2032) (solder_mask_margin 0.1016)
    (zone_connect 2))
  (pad 8 smd rect (at 1.95 -3.5) (size 0.4064 2.032) (layers F.Cu F.Mask F.Paste)
    (clearance 0.2032) (solder_mask_margin 0.1016)
    (zone_connect 2))
  (pad 9 smd rect (at 1.3 -3.5) (size 0.4064 2.032) (layers F.Cu F.Mask F.Paste)
    (clearance 0.2032) (solder_mask_margin 0.1016)
    (zone_connect 2))
  (pad 10 smd rect (at 0.65 -3.5) (size 0.4064 2.032) (layers F.Cu F.Mask F.Paste)
    (clearance 0.2032) (solder_mask_margin 0.1016)
    (zone_connect 2))
  (pad 11 smd rect (at 0 -3.5) (size 0.4064 2.032) (layers F.Cu F.Mask F.Paste)
    (clearance 0.2032) (solder_mask_margin 0.1016)
    (zone_connect 2))
  (pad 12 smd rect (at -0.65 -3.5) (size 0.4064 2.032) (layers F.Cu F.Mask F.Paste)
    (clearance 0.2032) (solder_mask_margin 0.1016)
    (zone_connect 2))
  (pad 13 smd rect (at -1.3 -3.5) (size 0.4064 2.032) (layers F.Cu F.Mask F.Paste)
    (clearance 0.2032) (solder_mask_margin 0.1016)
    (zone_connect 2))
  (pad 14 smd rect (at -1.95 -3.5) (size 0.4064 2.032) (layers F.Cu F.Mask F.Paste)
    (clearance 0.2032) (solder_mask_margin 0.1016)
    (zone_connect 2))
)