(module SSOP48 (layer F.Cu) (tedit 0)
  (attr smd)
  (fp_text reference REF** (at 0 0) (layer F.SilkS)
    (effects (font (size 1 1) (thickness 0.15)))
  )
  (fp_text value SSOP48 (at 0 2) (layer F.Fab) hide
    (effects (font (size 1 1) (thickness 0.15)))
  )
  (fp_arc (start -6.858 2.41301) (end -6.858 2.794) (angle 360) (layer F.SilkS) (width 0.02))
  (fp_arc (start -6.87979 2.4348) (end -6.87979 2.794) (angle 360) (layer F.Fab) (width 0.02))
  (fp_line (start -8.09 6.35) (end -8.09 -6.35) (layer Dwgs.User) (width 0.05))
  (fp_line (start -8.09 -6.35) (end 8.09 -6.35) (layer Dwgs.User) (width 0.05))
  (fp_line (start 8.09 -6.35) (end 8.09 6.35) (layer Dwgs.User) (width 0.05))
  (fp_line (start 8.09 6.35) (end -8.09 6.35) (layer Dwgs.User) (width 0.05))
  (fp_line (start 8 -3.8) (end -8 -3.8) (layer F.SilkS) (width 0.18))
  (fp_line (start -8 -3.8) (end -8 3.8) (layer F.SilkS) (width 0.18))
  (fp_line (start -8 3.8) (end 8 3.8) (layer F.SilkS) (width 0.18))
  (fp_line (start 8 3.8) (end 8 -3.8) (layer F.SilkS) (width 0.18))
  (fp_line (start 8 -6.1) (end 8 6.1) (layer F.CrtYd) (width 0.02))
  (fp_line (start 8 6.1) (end -8 6.1) (layer F.CrtYd) (width 0.02))
  (fp_line (start -8 6.1) (end -8 -6.1) (layer F.CrtYd) (width 0.02))
  (fp_line (start -8 -6.1) (end 8 -6.1) (layer F.CrtYd) (width 0.02))
  (fp_line (start 7.3025 -5.23875) (end 7.3025 -3.81) (layer F.Fab) (width 0.1))
  (fp_line (start 6.6675 -5.23875) (end 6.6675 -3.81) (layer F.Fab) (width 0.1))
  (fp_line (start 6.0325 -5.23875) (end 6.0325 -3.81) (layer F.Fab) (width 0.1))
  (fp_line (start 5.3975 -5.23875) (end 5.3975 -3.81) (layer F.Fab) (width 0.1))
  (fp_line (start 4.7625 -5.23875) (end 4.7625 -3.81) (layer F.Fab) (width 0.1))
  (fp_line (start 4.1275 -5.23875) (end 4.1275 -3.81) (layer F.Fab) (width 0.1))
  (fp_line (start 3.4925 -5.23875) (end 3.4925 -3.81) (layer F.Fab) (width 0.1))
  (fp_line (start 2.8575 -5.23875) (end 2.8575 -3.81) (layer F.Fab) (width 0.1))
  (fp_line (start 2.2225 -5.23875) (end 2.2225 -3.81) (layer F.Fab) (width 0.1))
  (fp_line (start 1.5875 -5.23875) (end 1.5875 -3.81) (layer F.Fab) (width 0.1))
  (fp_line (start 0.9525 -5.23875) (end 0.9525 -3.81) (layer F.Fab) (width 0.1))
  (fp_line (start 0.3175 -5.23875) (end 0.3175 -3.81) (layer F.Fab) (width 0.1))
  (fp_line (start -0.3175 -5.23875) (end -0.3175 -3.81) (layer F.Fab) (width 0.1))
  (fp_line (start -0.9525 -5.23875) (end -0.9525 -3.81) (layer F.Fab) (width 0.1))
  (fp_line (start -1.5875 -5.23875) (end -1.5875 -3.81) (layer F.Fab) (width 0.1))
  (fp_line (start -2.2225 -5.23875) (end -2.2225 -3.81) (layer F.Fab) (width 0.1))
  (fp_line (start -2.8575 -5.23875) (end -2.8575 -3.81) (layer F.Fab) (width 0.1))
  (fp_line (start -3.4925 -5.23875) (end -3.4925 -3.81) (layer F.Fab) (width 0.1))
  (fp_line (start -4.1275 -5.23875) (end -4.1275 -3.81) (layer F.Fab) (width 0.1))
  (fp_line (start -4.7625 -5.23875) (end -4.7625 -3.81) (layer F.Fab) (width 0.1))
  (fp_line (start -5.3975 -5.23875) (end -5.3975 -3.81) (layer F.Fab) (width 0.1))
  (fp_line (start -6.0325 -5.23875) (end -6.0325 -3.81) (layer F.Fab) (width 0.1))
  (fp_line (start -6.6675 -5.23875) (end -6.6675 -3.81) (layer F.Fab) (width 0.1))
  (fp_line (start -7.3025 -5.23875) (end -7.3025 -3.81) (layer F.Fab) (width 0.1))
  (fp_line (start 7.3025 3.81) (end 7.3025 5.23875) (layer F.Fab) (width 0.1))
  (fp_line (start 6.6675 3.81) (end 6.6675 5.23875) (layer F.Fab) (width 0.1))
  (fp_line (start 6.0325 3.81) (end 6.0325 5.23875) (layer F.Fab) (width 0.1))
  (fp_line (start 5.3975 3.81) (end 5.3975 5.23875) (layer F.Fab) (width 0.1))
  (fp_line (start 4.7625 3.81) (end 4.7625 5.23875) (layer F.Fab) (width 0.1))
  (fp_line (start 4.1275 3.81) (end 4.1275 5.23875) (layer F.Fab) (width 0.1))
  (fp_line (start 3.4925 3.81) (end 3.4925 5.23875) (layer F.Fab) (width 0.1))
  (fp_line (start 2.8575 3.81) (end 2.8575 5.23875) (layer F.Fab) (width 0.1))
  (fp_line (start 2.2225 3.81) (end 2.2225 5.23875) (layer F.Fab) (width 0.1))
  (fp_line (start 1.5875 3.81) (end 1.5875 5.23875) (layer F.Fab) (width 0.1))
  (fp_line (start 0.9525 3.81) (end 0.9525 5.23875) (layer F.Fab) (width 0.1))
  (fp_line (start 0.3175 3.81) (end 0.3175 5.23875) (layer F.Fab) (width 0.1))
  (fp_line (start -0.3175 3.81) (end -0.3175 5.23875) (layer F.Fab) (width 0.1))
  (fp_line (start -0.9525 3.81) (end -0.9525 5.23875) (layer F.Fab) (width 0.1))
  (fp_line (start -1.5875 3.81) (end -1.5875 5.23875) (layer F.Fab) (width 0.1))
  (fp_line (start -2.2225 3.81) (end -2.2225 5.23875) (layer F.Fab) (width 0.1))
  (fp_line (start -2.8575 3.81) (end -2.8575 5.23875) (layer F.Fab) (width 0.1))
  (fp_line (start -3.4925 3.81) (end -3.4925 5.23875) (layer F.Fab) (width 0.1))
  (fp_line (start -4.1275 3.81) (end -4.1275 5.23875) (layer F.Fab) (width 0.1))
  (fp_line (start -4.7625 3.81) (end -4.7625 5.23875) (layer F.Fab) (width 0.1))
  (fp_line (start -5.3975 3.81) (end -5.3975 5.23875) (layer F.Fab) (width 0.1))
  (fp_line (start -6.0325 3.81) (end -6.0325 5.23875) (layer F.Fab) (width 0.1))
  (fp_line (start -6.6675 3.81) (end -6.6675 5.23875) (layer F.Fab) (width 0.1))
  (fp_line (start -7.3025 3.81) (end -7.3025 5.23875) (layer F.Fab) (width 0.1))
  (fp_line (start -8 -3.8) (end -8 3.8) (layer F.Fab) (width 0.1))
  (fp_line (start -8 3.8) (end 8 3.8) (layer F.Fab) (width 0.1))
  (fp_line (start 8 3.8) (end 8 -3.8) (layer F.Fab) (width 0.1))
  (fp_line (start 8 -3.8) (end -8 -3.8) (layer F.Fab) (width 0.1))
  (pad 1 smd rect (at -7.3025 5.08) (size 0.4064 2.032) (layers F.Cu F.Mask F.Paste)
    (clearance 0.2032) (solder_mask_margin 0.1016)
    (zone_connect 2))
  (pad 2 smd rect (at -6.6675 5.08) (size 0.4064 2.032) (layers F.Cu F.Mask F.Paste)
    (clearance 0.2032) (solder_mask_margin 0.1016)
    (zone_connect 2))
  (pad 3 smd rect (at -6.0325 5.08) (size 0.4064 2.032) (layers F.Cu F.Mask F.Paste)
    (clearance 0.2032) (solder_mask_margin 0.1016)
    (zone_connect 2))
  (pad 4 smd rect (at -5.3975 5.08) (size 0.4064 2.032) (layers F.Cu F.Mask F.Paste)
    (clearance 0.2032) (solder_mask_margin 0.1016)
    (zone_connect 2))
  (pad 5 smd rect (at -4.7625 5.08) (size 0.4064 2.032) (layers F.Cu F.Mask F.Paste)
    (clearance 0.2032) (solder_mask_margin 0.1016)
    (zone_connect 2))
  (pad 6 smd rect (at -4.1275 5.08) (size 0.4064 2.032) (layers F.Cu F.Mask F.Paste)
    (clearance 0.2032) (solder_mask_margin 0.1016)
    (zone_connect 2))
  (pad 7 smd rect (at -3.4925 5.08) (size 0.4064 2.032) (layers F.Cu F.Mask F.Paste)
    (clearance 0.2032) (solder_mask_margin 0.1016)
    (zone_connect 2))
  (pad 8 smd rect (at -2.8575 5.08) (size 0.4064 2.032) (layers F.Cu F.Mask F.Paste)
    (clearance 0.2032) (solder_mask_margin 0.1016)
    (zone_connect 2))
  (pad 9 smd rect (at -2.2225 5.08) (size 0.4064 2.032) (layers F.Cu F.Mask F.Paste)
    (clearance 0.2032) (solder_mask_margin 0.1016)
    (zone_connect 2))
  (pad 10 smd rect (at -1.5875 5.08) (size 0.4064 2.032) (layers F.Cu F.Mask F.Paste)
    (clearance 0.2032) (solder_mask_margin 0.1016)
    (zone_connect 2))
  (pad 11 smd rect (at -0.9525 5.08) (size 0.4064 2.032) (layers F.Cu F.Mask F.Paste)
    (clearance 0.2032) (solder_mask_margin 0.1016)
    (zone_connect 2))
  (pad 12 smd rect (at -0.3175 5.08) (size 0.4064 2.032) (layers F.Cu F.Mask F.Paste)
    (clearance 0.2032) (solder_mask_margin 0.1016)
    (zone_connect 2))
  (pad 13 smd rect (at 0.3175 5.08) (size 0.4064 2.032) (layers F.Cu F.Mask F.Paste)
    (clearance 0.2032) (solder_mask_margin 0.1016)
    (zone_connect 2))
  (pad 14 smd rect (at 0.9525 5.08) (size 0.4064 2.032) (layers F.Cu F.Mask F.Paste)
    (clearance 0.2032) (solder_mask_margin 0.1016)
    (zone_connect 2))
  (pad 15 smd rect (at 1.5875 5.08) (size 0.4064 2.032) (layers F.Cu F.Mask F.Paste)
    (clearance 0.2032) (solder_mask_margin 0.1016)
    (zone_connect 2))
  (pad 16 smd rect (at 2.2225 5.08) (size 0.4064 2.032) (layers F.Cu F.Mask F.Paste)
    (clearance 0.2032) (solder_mask_margin 0.1016)
    (zone_connect 2))
  (pad 17 smd rect (at 2.8575 5.08) (size 0.4064 2.032) (layers F.Cu F.Mask F.Paste)
    (clearance 0.2032) (solder_mask_margin 0.1016)
    (zone_connect 2))
  (pad 18 smd rect (at 3.4925 5.08) (size 0.4064 2.032) (layers F.Cu F.Mask F.Paste)
    (clearance 0.2032) (solder_mask_margin 0.1016)
    (zone_connect 2))
  (pad 19 smd rect (at 4.1275 5.08) (size 0.4064 2.032) (layers F.Cu F.Mask F.Paste)
    (clearance 0.2032) (solder_mask_margin 0.1016)
    (zone_connect 2))
  (pad 20 smd rect (at 4.7625 5.08) (size 0.4064 2.032) (layers F.Cu F.Mask F.Paste)
    (clearance 0.2032) (solder_mask_margin 0.1016)
    (zone_connect 2))
  (pad 21 smd rect (at 5.3975 5.08) (size 0.4064 2.032) (layers F.Cu F.Mask F.Paste)
    (clearance 0.2032) (solder_mask_margin 0.1016)
    (zone_connect 2))
  (pad 22 smd rect (at 6.0325 5.08) (size 0.4064 2.032) (layers F.Cu F.Mask F.Paste)
    (clearance 0.2032) (solder_mask_margin 0.1016)
    (zone_connect 2))
  (pad 23 smd rect (at 6.6675 5.08) (size 0.4064 2.032) (layers F.Cu F.Mask F.Paste)
    (clearance 0.2032) (solder_mask_margin 0.1016)
    (zone_connect 2))
  (pad 24 smd rect (at 7.3025 5.08) (size 0.4064 2.032) (layers F.Cu F.Mask F.Paste)
    (clearance 0.2032) (solder_mask_margin 0.1016)
    (zone_connect 2))
  (pad 25 smd rect (at 7.3025 -5.08) (size 0.4064 2.032) (layers F.Cu F.Mask F.Paste)
    (clearance 0.2032) (solder_mask_margin 0.1016)
    (zone_connect 2))
  (pad 26 smd rect (at 6.6675 -5.08) (size 0.4064 2.032) (layers F.Cu F.Mask F.Paste)
    (clearance 0.2032) (solder_mask_margin 0.1016)
    (zone_connect 2))
  (pad 27 smd rect (at 6.0325 -5.08) (size 0.4064 2.032) (layers F.Cu F.Mask F.Paste)
    (clearance 0.2032) (solder_mask_margin 0.1016)
    (zone_connect 2))
  (pad 28 smd rect (at 5.3975 -5.08) (size 0.4064 2.032) (layers F.Cu F.Mask F.Paste)
    (clearance 0.2032) (solder_mask_margin 0.1016)
    (zone_connect 2))
  (pad 29 smd rect (at 4.7625 -5.08) (size 0.4064 2.032) (layers F.Cu F.Mask F.Paste)
    (clearance 0.2032) (solder_mask_margin 0.1016)
    (zone_connect 2))
  (pad 30 smd rect (at 4.1275 -5.08) (size 0.4064 2.032) (layers F.Cu F.Mask F.Paste)
    (clearance 0.2032) (solder_mask_margin 0.1016)
    (zone_connect 2))
  (pad 31 smd rect (at 3.4925 -5.08) (size 0.4064 2.032) (layers F.Cu F.Mask F.Paste)
    (clearance 0.2032) (solder_mask_margin 0.1016)
    (zone_connect 2))
  (pad 32 smd rect (at 2.8575 -5.08) (size 0.4064 2.032) (layers F.Cu F.Mask F.Paste)
    (clearance 0.2032) (solder_mask_margin 0.1016)
    (zone_connect 2))
  (pad 33 smd rect (at 2.2225 -5.08) (size 0.4064 2.032) (layers F.Cu F.Mask F.Paste)
    (clearance 0.2032) (solder_mask_margin 0.1016)
    (zone_connect 2))
  (pad 34 smd rect (at 1.5875 -5.08) (size 0.4064 2.032) (layers F.Cu F.Mask F.Paste)
    (clearance 0.2032) (solder_mask_margin 0.1016)
    (zone_connect 2))
  (pad 35 smd rect (at 0.9525 -5.08) (size 0.4064 2.032) (layers F.Cu F.Mask F.Paste)
    (clearance 0.2032) (solder_mask_margin 0.1016)
    (zone_connect 2))
  (pad 36 smd rect (at 0.3175 -5.08) (size 0.4064 2.032) (layers F.Cu F.Mask F.Paste)
    (clearance 0.2032) (solder_mask_margin 0.1016)
    (zone_connect 2))
  (pad 37 smd rect (at -0.3175 -5.08) (size 0.4064 2.032) (layers F.Cu F.Mask F.Paste)
    (clearance 0.2032) (solder_mask_margin 0.1016)
    (zone_connect 2))
  (pad 38 smd rect (at -0.9525 -5.08) (size 0.4064 2.032) (layers F.Cu F.Mask F.Paste)
    (clearance 0.2032) (solder_mask_margin 0.1016)
    (zone_connect 2))
  (pad 39 smd rect (at -1.5875 -5.08) (size 0.4064 2.032) (layers F.Cu F.Mask F.Paste)
    (clearance 0.2032) (solder_mask_margin 0.1016)
    (zone_connect 2))
  (pad 40 smd rect (at -2.2225 -5.08) (size 0.4064 2.032) (layers F.Cu F.Mask F.Paste)
    (clearance 0.2032) (solder_mask_margin 0.1016)
    (zone_connect 2))
  (pad 41 smd rect (at -2.8575 -5.08) (size 0.4064 2.032) (layers F.Cu F.Mask F.Paste)
    (clearance 0.2032) (solder_mask_margin 0.1016)
    (zone_connect 2))
  (pad 42 smd rect (at -3.4925 -5.08) (size 0.4064 2.032) (layers F.Cu F.Mask F.Paste)
    (clearance 0.2032) (solder_mask_margin 0.1016)
    (zone_connect 2))
  (pad 43 smd rect (at -4.1275 -5.08) (size 0.4064 2.032) (layers F.Cu F.Mask F.Paste)
    (clearance 0.2032) (solder_mask_margin 0.1016)
    (zone_connect 2))
  (pad 44 smd rect (at -4.7625 -5.08) (size 0.4064 2.032) (layers F.Cu F.Mask F.Paste)
    (clearance 0.2032) (solder_mask_margin 0.1016)
    (zone_connect 2))
  (pad 45 smd rect (at -5.3975 -5.08) (size 0.4064 2.032) (layers F.Cu F.Mask F.Paste)
    (clearance 0.2032) (solder_mask_margin 0.1016)
    (zone_connect 2))
  (pad 46 smd rect (at -6.0325 -5.08) (size 0.4064 2.032) (layers F.Cu F.Mask F.Paste)
    (clearance 0.2032) (solder_mask_margin 0.1016)
    (zone_connect 2))
  (pad 47 smd rect (at -6.6675 -5.08) (size 0.4064 2.032) (layers F.Cu F.Mask F.Paste)
    (clearance 0.2032) (solder_mask_margin 0.1016)
    (zone_connect 2))
  (pad 48 smd rect (at -7.3025 -5.08) (size 0.4064 2.032) (layers F.Cu F.Mask F.Paste)
    (clearance 0.2032) (solder_mask_margin 0.1016)
    (zone_connect 2))
  (model ${KISYS3DMOD}/Package_SO.3dshapes/SSOP-48_7.5x15.9mm_P0.635mm.wrl
    (offset (xyz 0 0 0))
    (scale (xyz 1 1 1))
    (rotate (xyz 0 0 -90))
  )
)