(module TOBLO76I50W15L75R75A0 (layer F.Cu) (tedit 0)
  (fp_text reference REF** (at 0 0) (layer F.SilkS) hide
    (effects (font (size 1 1) (thickness 0.15)))
  )
  (fp_text value TOBLO76I50W15L75R75A0 (at 0 2) (layer F.Fab) hide
    (effects (font (size 1 1) (thickness 0.15)))
  )
  (fp_line (start -2.68224 1.15824) (end -2.68224 -1.15824) (layer F.CrtYd) (width 0.05))
  (fp_line (start -2.68224 -1.15824) (end 2.68224 -1.15824) (layer F.CrtYd) (width 0.05))
  (fp_line (start 2.68224 -1.15824) (end 2.68224 1.15824) (layer F.CrtYd) (width 0.05))
  (fp_line (start 2.68224 1.15824) (end -2.68224 1.15824) (layer F.CrtYd) (width 0.05))
)