(module TOBLO44I24W12L35R35A90 (layer F.Cu) (tedit 0)
  (fp_text reference REF** (at 0 0) (layer F.SilkS) hide
    (effects (font (size 1 1) (thickness 0.15)))
  )
  (fp_text value TOBLO44I24W12L35R35A90 (at 0 2) (layer F.Fab) hide
    (effects (font (size 1 1) (thickness 0.15)))
  )
  (fp_line (start -0.67056 1.3716) (end -0.67056 -1.3716) (layer F.CrtYd) (width 0.05))
  (fp_line (start -0.67056 -1.3716) (end 0.67056 -1.3716) (layer F.CrtYd) (width 0.05))
  (fp_line (start 0.67056 -1.3716) (end 0.67056 1.3716) (layer F.CrtYd) (width 0.05))
  (fp_line (start 0.67056 1.3716) (end -0.67056 1.3716) (layer F.CrtYd) (width 0.05))
)