(module TOBLO82I62W12L37.5R37.5A90 (layer F.Cu) (tedit 0)
  (fp_text reference REF** (at 0 0) (layer F.SilkS) hide
    (effects (font (size 1 1) (thickness 0.15)))
  )
  (fp_text value TOBLO82I62W12L37.5R37.5A90 (at 0 2) (layer F.Fab) hide
    (effects (font (size 1 1) (thickness 0.15)))
  )
  (fp_line (start -1.24968 1.4478) (end -1.24968 -1.4478) (layer F.CrtYd) (width 0.05))
  (fp_line (start -1.24968 -1.4478) (end 1.24968 -1.4478) (layer F.CrtYd) (width 0.05))
  (fp_line (start 1.24968 -1.4478) (end 1.24968 1.4478) (layer F.CrtYd) (width 0.05))
  (fp_line (start 1.24968 1.4478) (end -1.24968 1.4478) (layer F.CrtYd) (width 0.05))
)