(module TRNDO101I75W15 (layer F.Cu) (tedit 0)
  (fp_text reference REF** (at 0 0) (layer F.SilkS) hide
    (effects (font (size 1 1) (thickness 0.15)))
  )
  (fp_text value TRNDO101I75W15 (at 0 2) (layer F.Fab) hide
    (effects (font (size 1 1) (thickness 0.15)))
  )
  (fp_line (start -1.53924 1.53924) (end -1.53924 -1.53924) (layer F.CrtYd) (width 0.05))
  (fp_line (start -1.53924 -1.53924) (end 1.53924 -1.53924) (layer F.CrtYd) (width 0.05))
  (fp_line (start 1.53924 -1.53924) (end 1.53924 1.53924) (layer F.CrtYd) (width 0.05))
  (fp_line (start 1.53924 1.53924) (end -1.53924 1.53924) (layer F.CrtYd) (width 0.05))
  (pad ~ smd circle (at 0 0) (size 0.9525 0.9525) (layers F.Cu F.Mask F.Paste)
    (zone_connect 1) (thermal_width 0.381) (thermal_gap 0.3302))
)