(module TSSOP48 (layer F.Cu) (tedit 0)
  (attr smd)
  (fp_text reference REF** (at 0 0) (layer F.SilkS)
    (effects (font (size 1 1) (thickness 0.15)))
  )
  (fp_text value TSSOP48 (at 0 2) (layer F.Fab) hide
    (effects (font (size 1 1) (thickness 0.15)))
  )
  (fp_arc (start -5.15625 1.34626) (end -5.15625 1.74625) (angle 360) (layer F.SilkS) (width 0.02))
  (fp_arc (start 6.996127 3.75) (end 7 3) (angle 179.408255) (layer F.CrtYd) (width 0.02))
  (fp_arc (start -7 -3.75) (end -7 -3) (angle 180) (layer F.CrtYd) (width 0.02))
  (fp_arc (start -5.15625 1.34626) (end -5.15625 1.74625) (angle 360) (layer F.Fab) (width 0.02))
  (fp_line (start -7.74999 4.766) (end -7.74999 -4.766) (layer Dwgs.User) (width 0.05))
  (fp_line (start -7.74999 -4.766) (end 7.75001 -4.766) (layer Dwgs.User) (width 0.05))
  (fp_line (start 7.75001 -4.766) (end 7.75001 4.766) (layer Dwgs.User) (width 0.05))
  (fp_line (start 7.75001 4.766) (end -7.74999 4.766) (layer Dwgs.User) (width 0.05))
  (fp_line (start 6.25 -2.69875) (end -6.25 -2.69875) (layer F.SilkS) (width 0.18))
  (fp_line (start -6.25 -2.69875) (end -6.25 2.69875) (layer F.SilkS) (width 0.18))
  (fp_line (start -6.25 2.69875) (end 6.25 2.69875) (layer F.SilkS) (width 0.18))
  (fp_line (start 6.25 2.69875) (end 6.25 -2.69875) (layer F.SilkS) (width 0.18))
  (fp_line (start 6.25 3) (end 7 3) (layer F.CrtYd) (width 0.02))
  (fp_line (start 7 4.5) (end -6.25 4.5) (layer F.CrtYd) (width 0.02))
  (fp_line (start -6.25 4.5) (end -6.25 -3) (layer F.CrtYd) (width 0.02))
  (fp_line (start -6.25 -3) (end -7 -3) (layer F.CrtYd) (width 0.02))
  (fp_line (start -7 -4.5) (end 6.25 -4.5) (layer F.CrtYd) (width 0.02))
  (fp_line (start 6.25 -4.5) (end 6.25 3) (layer F.CrtYd) (width 0.02))
  (fp_line (start 5.75 -3.81) (end 5.75 -3.175) (layer F.Fab) (width 0.1))
  (fp_line (start 5.25 -3.81) (end 5.25 -3.175) (layer F.Fab) (width 0.1))
  (fp_line (start 4.75 -3.81) (end 4.75 -3.175) (layer F.Fab) (width 0.1))
  (fp_line (start 4.25 -3.81) (end 4.25 -3.175) (layer F.Fab) (width 0.1))
  (fp_line (start 3.75 -3.81) (end 3.75 -3.175) (layer F.Fab) (width 0.1))
  (fp_line (start 3.25 -3.81) (end 3.25 -3.175) (layer F.Fab) (width 0.1))
  (fp_line (start 2.75 -3.81) (end 2.75 -3.175) (layer F.Fab) (width 0.1))
  (fp_line (start 2.25 -3.81) (end 2.25 -3.175) (layer F.Fab) (width 0.1))
  (fp_line (start 1.75 -3.81) (end 1.75 -3.175) (layer F.Fab) (width 0.1))
  (fp_line (start 1.25 -3.81) (end 1.25 -3.175) (layer F.Fab) (width 0.1))
  (fp_line (start 0.75 -3.81) (end 0.75 -3.175) (layer F.Fab) (width 0.1))
  (fp_line (start 0.25 -3.81) (end 0.25 -3.175) (layer F.Fab) (width 0.1))
  (fp_line (start -0.25 -3.81) (end -0.25 -3.175) (layer F.Fab) (width 0.1))
  (fp_line (start -0.75 -3.81) (end -0.75 -3.175) (layer F.Fab) (width 0.1))
  (fp_line (start -1.25 -3.81) (end -1.25 -3.175) (layer F.Fab) (width 0.1))
  (fp_line (start -1.75 -3.81) (end -1.75 -3.175) (layer F.Fab) (width 0.1))
  (fp_line (start -2.25 -3.81) (end -2.25 -3.175) (layer F.Fab) (width 0.1))
  (fp_line (start -2.75 -3.81) (end -2.75 -3.175) (layer F.Fab) (width 0.1))
  (fp_line (start -3.25 -3.81) (end -3.25 -3.175) (layer F.Fab) (width 0.1))
  (fp_line (start -3.75 -3.81) (end -3.75 -3.175) (layer F.Fab) (width 0.1))
  (fp_line (start -4.25 -3.81) (end -4.25 -3.175) (layer F.Fab) (width 0.1))
  (fp_line (start -4.75 -3.81) (end -4.75 -3.175) (layer F.Fab) (width 0.1))
  (fp_line (start -5.25 -3.81) (end -5.25 -3.175) (layer F.Fab) (width 0.1))
  (fp_line (start -5.75 -3.81) (end -5.75 -3.175) (layer F.Fab) (width 0.1))
  (fp_line (start 5.75 3.175) (end 5.75 3.81) (layer F.Fab) (width 0.1))
  (fp_line (start 5.25 3.175) (end 5.25 3.81) (layer F.Fab) (width 0.1))
  (fp_line (start 4.75 3.175) (end 4.75 3.81) (layer F.Fab) (width 0.1))
  (fp_line (start 4.25 3.175) (end 4.25 3.81) (layer F.Fab) (width 0.1))
  (fp_line (start 3.75 3.175) (end 3.75 3.81) (layer F.Fab) (width 0.1))
  (fp_line (start 3.25 3.175) (end 3.25 3.81) (layer F.Fab) (width 0.1))
  (fp_line (start 2.75 3.175) (end 2.75 3.81) (layer F.Fab) (width 0.1))
  (fp_line (start 2.25 3.175) (end 2.25 3.81) (layer F.Fab) (width 0.1))
  (fp_line (start 1.75 3.175) (end 1.75 3.81) (layer F.Fab) (width 0.1))
  (fp_line (start 1.25 3.175) (end 1.25 3.81) (layer F.Fab) (width 0.1))
  (fp_line (start 0.75 3.175) (end 0.75 3.81) (layer F.Fab) (width 0.1))
  (fp_line (start 0.25 3.175) (end 0.25 3.81) (layer F.Fab) (width 0.1))
  (fp_line (start -0.25 3.175) (end -0.25 3.81) (layer F.Fab) (width 0.1))
  (fp_line (start -0.75 3.175) (end -0.75 3.81) (layer F.Fab) (width 0.1))
  (fp_line (start -1.25 3.175) (end -1.25 3.81) (layer F.Fab) (width 0.1))
  (fp_line (start -1.75 3.175) (end -1.75 3.81) (layer F.Fab) (width 0.1))
  (fp_line (start -2.25 3.175) (end -2.25 3.81) (layer F.Fab) (width 0.1))
  (fp_line (start -2.75 3.175) (end -2.75 3.81) (layer F.Fab) (width 0.1))
  (fp_line (start -3.25 3.175) (end -3.25 3.81) (layer F.Fab) (width 0.1))
  (fp_line (start -3.75 3.175) (end -3.75 3.81) (layer F.Fab) (width 0.1))
  (fp_line (start -4.25 3.175) (end -4.25 3.81) (layer F.Fab) (width 0.1))
  (fp_line (start -4.75 3.175) (end -4.75 3.81) (layer F.Fab) (width 0.1))
  (fp_line (start -5.25 3.175) (end -5.25 3.81) (layer F.Fab) (width 0.1))
  (fp_line (start -5.75 3.175) (end -5.75 3.81) (layer F.Fab) (width 0.1))
  (fp_line (start -6.25 3.175) (end 6.25 3.175) (layer F.Fab) (width 0.1))
  (fp_line (start 6.25 3.175) (end 6.25 -3.175) (layer F.Fab) (width 0.1))
  (fp_line (start 6.25 -3.175) (end -6.25 -3.175) (layer F.Fab) (width 0.1))
  (fp_line (start -6.25 -3.175) (end -6.25 3.175) (layer F.Fab) (width 0.1))
  (pad "" smd circle (at 7 3.75) (size 1.27 1.27) (layers F.Cu F.Mask)
    (solder_mask_margin 0.0508)
    (zone_connect 2))
  (pad "" smd circle (at -7 -3.75) (size 1.27 1.27) (layers F.Cu F.Mask)
    (solder_mask_margin 0.0508)
    (zone_connect 2))
  (pad 1 smd rect (at -5.75 3.75) (size 0.2794 1.524) (layers F.Cu F.Mask F.Paste)
    (clearance 0.2032) (solder_mask_margin 0.1143)
    (zone_connect 2))
  (pad 2 smd rect (at -5.25 3.75) (size 0.2794 1.524) (layers F.Cu F.Mask F.Paste)
    (clearance 0.2032) (solder_mask_margin 0.1143)
    (zone_connect 2))
  (pad 3 smd rect (at -4.75 3.75) (size 0.2794 1.524) (layers F.Cu F.Mask F.Paste)
    (clearance 0.2032) (solder_mask_margin 0.1143)
    (zone_connect 2))
  (pad 4 smd rect (at -4.25 3.75) (size 0.2794 1.524) (layers F.Cu F.Mask F.Paste)
    (clearance 0.2032) (solder_mask_margin 0.1143)
    (zone_connect 2))
  (pad 5 smd rect (at -3.75 3.75) (size 0.2794 1.524) (layers F.Cu F.Mask F.Paste)
    (clearance 0.2032) (solder_mask_margin 0.1143)
    (zone_connect 2))
  (pad 6 smd rect (at -3.25 3.75) (size 0.2794 1.524) (layers F.Cu F.Mask F.Paste)
    (clearance 0.2032) (solder_mask_margin 0.1143)
    (zone_connect 2))
  (pad 7 smd rect (at -2.75 3.75) (size 0.2794 1.524) (layers F.Cu F.Mask F.Paste)
    (clearance 0.2032) (solder_mask_margin 0.1143)
    (zone_connect 2))
  (pad 8 smd rect (at -2.25 3.75) (size 0.2794 1.524) (layers F.Cu F.Mask F.Paste)
    (clearance 0.2032) (solder_mask_margin 0.1143)
    (zone_connect 2))
  (pad 9 smd rect (at -1.75 3.75) (size 0.2794 1.524) (layers F.Cu F.Mask F.Paste)
    (clearance 0.2032) (solder_mask_margin 0.1143)
    (zone_connect 2))
  (pad 10 smd rect (at -1.25 3.75) (size 0.2794 1.524) (layers F.Cu F.Mask F.Paste)
    (clearance 0.2032) (solder_mask_margin 0.1143)
    (zone_connect 2))
  (pad 11 smd rect (at -0.75 3.75) (size 0.2794 1.524) (layers F.Cu F.Mask F.Paste)
    (clearance 0.2032) (solder_mask_margin 0.1143)
    (zone_connect 2))
  (pad 12 smd rect (at -0.25 3.75) (size 0.2794 1.524) (layers F.Cu F.Mask F.Paste)
    (clearance 0.2032) (solder_mask_margin 0.1143)
    (zone_connect 2))
  (pad 13 smd rect (at 0.25 3.75) (size 0.2794 1.524) (layers F.Cu F.Mask F.Paste)
    (clearance 0.2032) (solder_mask_margin 0.1143)
    (zone_connect 2))
  (pad 14 smd rect (at 0.75 3.75) (size 0.2794 1.524) (layers F.Cu F.Mask F.Paste)
    (clearance 0.2032) (solder_mask_margin 0.1143)
    (zone_connect 2))
  (pad 15 smd rect (at 1.25 3.75) (size 0.2794 1.524) (layers F.Cu F.Mask F.Paste)
    (clearance 0.2032) (solder_mask_margin 0.1143)
    (zone_connect 2))
  (pad 16 smd rect (at 1.75 3.75) (size 0.2794 1.524) (layers F.Cu F.Mask F.Paste)
    (clearance 0.2032) (solder_mask_margin 0.1143)
    (zone_connect 2))
  (pad 17 smd rect (at 2.25 3.75) (size 0.2794 1.524) (layers F.Cu F.Mask F.Paste)
    (clearance 0.2032) (solder_mask_margin 0.1143)
    (zone_connect 2))
  (pad 18 smd rect (at 2.75 3.75) (size 0.2794 1.524) (layers F.Cu F.Mask F.Paste)
    (clearance 0.2032) (solder_mask_margin 0.1143)
    (zone_connect 2))
  (pad 19 smd rect (at 3.25 3.75) (size 0.2794 1.524) (layers F.Cu F.Mask F.Paste)
    (clearance 0.2032) (solder_mask_margin 0.1143)
    (zone_connect 2))
  (pad 20 smd rect (at 3.75 3.75) (size 0.2794 1.524) (layers F.Cu F.Mask F.Paste)
    (clearance 0.2032) (solder_mask_margin 0.1143)
    (zone_connect 2))
  (pad 21 smd rect (at 4.25 3.75) (size 0.2794 1.524) (layers F.Cu F.Mask F.Paste)
    (clearance 0.2032) (solder_mask_margin 0.1143)
    (zone_connect 2))
  (pad 22 smd rect (at 4.75 3.75) (size 0.2794 1.524) (layers F.Cu F.Mask F.Paste)
    (clearance 0.2032) (solder_mask_margin 0.1143)
    (zone_connect 2))
  (pad 23 smd rect (at 5.25 3.75) (size 0.2794 1.524) (layers F.Cu F.Mask F.Paste)
    (clearance 0.2032) (solder_mask_margin 0.1143)
    (zone_connect 2))
  (pad 24 smd rect (at 5.75 3.75) (size 0.2794 1.524) (layers F.Cu F.Mask F.Paste)
    (clearance 0.2032) (solder_mask_margin 0.1143)
    (zone_connect 2))
  (pad 25 smd rect (at 5.75 -3.75) (size 0.2794 1.524) (layers F.Cu F.Mask F.Paste)
    (clearance 0.2032) (solder_mask_margin 0.1143)
    (zone_connect 2))
  (pad 26 smd rect (at 5.25 -3.75) (size 0.2794 1.524) (layers F.Cu F.Mask F.Paste)
    (clearance 0.2032) (solder_mask_margin 0.1143)
    (zone_connect 2))
  (pad 27 smd rect (at 4.75 -3.75) (size 0.2794 1.524) (layers F.Cu F.Mask F.Paste)
    (clearance 0.2032) (solder_mask_margin 0.1143)
    (zone_connect 2))
  (pad 28 smd rect (at 4.25 -3.75) (size 0.2794 1.524) (layers F.Cu F.Mask F.Paste)
    (clearance 0.2032) (solder_mask_margin 0.1143)
    (zone_connect 2))
  (pad 29 smd rect (at 3.75 -3.75) (size 0.2794 1.524) (layers F.Cu F.Mask F.Paste)
    (clearance 0.2032) (solder_mask_margin 0.1143)
    (zone_connect 2))
  (pad 30 smd rect (at 3.25 -3.75) (size 0.2794 1.524) (layers F.Cu F.Mask F.Paste)
    (clearance 0.2032) (solder_mask_margin 0.1143)
    (zone_connect 2))
  (pad 31 smd rect (at 2.75 -3.75) (size 0.2794 1.524) (layers F.Cu F.Mask F.Paste)
    (clearance 0.2032) (solder_mask_margin 0.1143)
    (zone_connect 2))
  (pad 32 smd rect (at 2.25 -3.75) (size 0.2794 1.524) (layers F.Cu F.Mask F.Paste)
    (clearance 0.2032) (solder_mask_margin 0.1143)
    (zone_connect 2))
  (pad 33 smd rect (at 1.75 -3.75) (size 0.2794 1.524) (layers F.Cu F.Mask F.Paste)
    (clearance 0.2032) (solder_mask_margin 0.1143)
    (zone_connect 2))
  (pad 34 smd rect (at 1.25 -3.75) (size 0.2794 1.524) (layers F.Cu F.Mask F.Paste)
    (clearance 0.2032) (solder_mask_margin 0.1143)
    (zone_connect 2))
  (pad 35 smd rect (at 0.75 -3.75) (size 0.2794 1.524) (layers F.Cu F.Mask F.Paste)
    (clearance 0.2032) (solder_mask_margin 0.1143)
    (zone_connect 2))
  (pad 36 smd rect (at 0.25 -3.75) (size 0.2794 1.524) (layers F.Cu F.Mask F.Paste)
    (clearance 0.2032) (solder_mask_margin 0.1143)
    (zone_connect 2))
  (pad 37 smd rect (at -0.25 -3.75) (size 0.2794 1.524) (layers F.Cu F.Mask F.Paste)
    (clearance 0.2032) (solder_mask_margin 0.1143)
    (zone_connect 2))
  (pad 38 smd rect (at -0.75 -3.75) (size 0.2794 1.524) (layers F.Cu F.Mask F.Paste)
    (clearance 0.2032) (solder_mask_margin 0.1143)
    (zone_connect 2))
  (pad 39 smd rect (at -1.25 -3.75) (size 0.2794 1.524) (layers F.Cu F.Mask F.Paste)
    (clearance 0.2032) (solder_mask_margin 0.1143)
    (zone_connect 2))
  (pad 40 smd rect (at -1.75 -3.75) (size 0.2794 1.524) (layers F.Cu F.Mask F.Paste)
    (clearance 0.2032) (solder_mask_margin 0.1143)
    (zone_connect 2))
  (pad 41 smd rect (at -2.25 -3.75) (size 0.2794 1.524) (layers F.Cu F.Mask F.Paste)
    (clearance 0.2032) (solder_mask_margin 0.1143)
    (zone_connect 2))
  (pad 42 smd rect (at -2.75 -3.75) (size 0.2794 1.524) (layers F.Cu F.Mask F.Paste)
    (clearance 0.2032) (solder_mask_margin 0.1143)
    (zone_connect 2))
  (pad 43 smd rect (at -3.25 -3.75) (size 0.2794 1.524) (layers F.Cu F.Mask F.Paste)
    (clearance 0.2032) (solder_mask_margin 0.1143)
    (zone_connect 2))
  (pad 44 smd rect (at -3.75 -3.75) (size 0.2794 1.524) (layers F.Cu F.Mask F.Paste)
    (clearance 0.2032) (solder_mask_margin 0.1143)
    (zone_connect 2))
  (pad 45 smd rect (at -4.25 -3.75) (size 0.2794 1.524) (layers F.Cu F.Mask F.Paste)
    (clearance 0.2032) (solder_mask_margin 0.1143)
    (zone_connect 2))
  (pad 46 smd rect (at -4.75 -3.75) (size 0.2794 1.524) (layers F.Cu F.Mask F.Paste)
    (clearance 0.2032) (solder_mask_margin 0.1143)
    (zone_connect 2))
  (pad 47 smd rect (at -5.25 -3.75) (size 0.2794 1.524) (layers F.Cu F.Mask F.Paste)
    (clearance 0.2032) (solder_mask_margin 0.1143)
    (zone_connect 2))
  (pad 48 smd rect (at -5.75 -3.75) (size 0.2794 1.524) (layers F.Cu F.Mask F.Paste)
    (clearance 0.2032) (solder_mask_margin 0.1143)
    (zone_connect 2))
  (model ${KISYS3DMOD}/Package_SO.3dshapes/TSSOP-48_6.1x12.5mm_P0.5mm.wrl
    (offset (xyz 0 0 0))
    (scale (xyz 1 1 1))
    (rotate (xyz 0 0 -90))
  )
)