{
    "footprints" : [
    ],
    "polygons" : [
        {
            "type": "zone2keepout",
            "layer": "F.Cu",
            "net": 11,
            "pos1": [53.467, -5.99496],
            "pos2": [61.07768, -37.18504],
            "before1": [60.794356, -39.046895],
            "after1":  [60.738331, -38.976502],
            "before2": [60.746612, -38.970383],
            "after2": [60.81998, -39.024973],
            "reverse2": "False",
            "skip1": "False",
            "skip2": "False",
            "tracks" : []
        },
        {
            "type": "zone2keepout",
            "layer": "F.Cu",
            "net": 11,
            "pos1": [53.467, -5.99496],
            "pos2": [19.42704, -33.2165],
            "before1": [22.77786, -35.45252],
            "after1":  [22.773578, -35.549823],
            "before2": [22.819421, -35.549823],
            "after2": [22.815139, -35.45252],
            "reverse2": "False",
            "skip1": "True",
            "skip2": "True",
            "tracks" : []
        },
        {
            "type": "zone2polygon",
            "layer": "In2.Cu",
            "net": 12,
            "pos": [18.87097, -46.355],
            "tracks" : [
                [
                    {
                        "pos": [36.97848,-51.435],
                        "width": 0.25
                    },
                    {
                        "pos": [33.02,-49.2125],
                        "width": 0.25
                    },
                    {
                        "pos": [31.242,-51.308],
                        "width": 0.25
                    },
                    {
                        "pos": [29.5275,-49.2125],
                        "width": 0.25
                    },
                    {
                        "pos": [25.87914,-51.435],
                        "width": 0.25
                    },
                    {
                        "pos": [22.606,-52.197],
                        "width": 0.25
                    }
                ],
                [
                    {
                        "pos": [22.606,-53.467],
                        "width": 0.25
                    },
                    {
                        "pos": [22.606,-49.149],
                        "width": 0.25
                    }
                ]
            ]
        },
        {
            "type": "zone2polygon",
            "layer": "F.Cu",
            "net": 52,
            "pos": [36.63339, -43.688],
            "tracks" : [[
                {
                    "pos": [32.242,-44.5925],
                    "width": 0.25
                },
                {
                    "pos": [35.4175,-44.5925],
                    "width": 0.25
                },
                {
                    "pos": [36.068,-43.942],
                    "width": 0.25
                },
                {
                    "pos": [37.481,-43.942],
                    "width": 0.25
                }
            ]]
        },
        {
            "type": "zone2polygon",
            "layer": "F.Cu",
            "net": 48,
            "pos": [28.14197, -43.815],
            "tracks" : [[
                {
                    "pos": [30.242,-44.5925],
                    "width": 0.25
                },
                {
                    "pos": [28.448,-44.5925],
                    "width": 0.25
                },
                {
                    "pos": [27.559,-43.9875],
                    "width": 0.25
                }
            ]]
        },
        {
            "type": "zone2polygon",
            "layer": "F.Cu",
            "net": 11,
            "pos": [33.26695, -38.17882],
            "tracks" : []
        },
        {
            "type": "zone2polygon",
            "layer": "F.Cu",
            "net": 11,
            "pos": [38.2183, -35.61354],
            "tracks" : []
        },
        {
            "type": "zone2polygon",
            "layer": "In2.Cu",
            "net": 11,
            "pos": [67.66504, -24.57653],
            "tracks" : []
        },
        {
            "type": "zone2polygon",
            "layer": "In2.Cu",
            "net": 11,
            "pos": [18.56646, -19.15104],
            "tracks" : []
        },
        {
            "type": "zone2polygon",
            "layer": "F.Cu",
            "net": 11,
            "pos": [54.03059, -29.63499],
            "tracks" : []
        },
        {
            "type": "zone2polygon",
            "layer": "F.Cu",
            "net": 11,
            "pos": [18.25067, -7.84804],
            "tracks" : []
        },
        {
            "type": "zone2polygon",
            "layer": "F.Cu",
            "net": 11,
            "pos": [29.07904, -42.6025],
            "tracks" : []
        },
        {
            "type": "zone2polygon",
            "layer": "F.Cu",
            "net": 11,
            "pos": [10.72947, -19.15104],
            "tracks" : []
        },
        {
            "type": "zone2polygon",
            "layer": "F.Cu",
            "net": 11,
            "pos": [58.79897, -31.59704],
            "tracks" : []
        },
        {
            "type": "zone2polygon",
            "layer": "F.Cu",
            "net": 11,
            "pos": [16.91081, -25.21404],
            "tracks" : []
        },
        {
            "type": "zone2polygon",
            "layer": "F.Cu",
            "net": 11,
            "pos": [61.60384, -36.11453],
            "tracks" : []
        },
        {
            "type": "zone2polygon",
            "layer": "F.Cu",
            "net": 11,
            "pos": [43.99754, -24.47646],
            "tracks" : []
        },
        {
            "type": "zone2polygon",
            "layer": "F.Cu",
            "net": 11,
            "pos": [35.42917, -25.26504],
            "tracks" : []
        },
        {
            "type": "zone2polygon",
            "layer": "F.Cu",
            "net": 11,
            "pos": [54.06701, -43.56104],
            "tracks" : []
        },
        {
            "type": "zone2polygon",
            "layer": "F.Cu",
            "net": 11,
            "pos": [8.78812, -44.67732],
            "tracks" : []
        },
        {
            "type": "zone2polygon",
            "layer": "F.Cu",
            "net": 11,
            "pos": [37.03254, -26.93997],
            "tracks" : []
        },
        {
            "type": "zone2polygon",
            "layer": "F.Cu",
            "net": 11,
            "pos": [32.38975, -24.23104],
            "tracks" : []
        },
        {
            "type": "zone2polygon",
            "layer": "F.Cu",
            "net": 11,
            "pos": [52.38547, -25.24704],
            "tracks" : [[
                {
                    "pos": [52.89696,-26.035],
                    "width": 0.25
                },
                {
                    "pos": [52.578,-26.35396],
                    "width": 0.25
                },
                {
                    "pos": [52.578,-27.051],
                    "width": 0.25
                }
            ]]
        },
        {
            "type": "zone2polygon",
            "layer": "F.Cu",
            "net": 11,
            "pos": [29.53801, -7.84804],
            "cutouts" : [
                {
                    "pos": [60.452, -18.68566],
                    "net": 11,
                    "layer": "F.Cu",
                    "before": [61.23996, -21.27453],
                    "after": [61.23996, -14.66647],
                    "joint": [61.23996, -18.68566],
                    "reverse": "False"
                },
                {
                    "pos": [45.95589, -13.95086],
                    "net": 11,
                    "layer": "F.Cu",
                    "before": [50.99253, -7.84804],
                    "after": [29.53801, -7.84804],
                    "joint": [44.65585, -7.84804],
                    "joint2" : [44.65585, -11.69914],
                    "reverse": "False"
                }
            ],
            "tracks" : [
                [
                    {
                        "pos": [52.89696,-17.526],
                        "width": 0.25
                    },
                    {
                        "pos": [52.324,-17.526],
                        "width": 0.25
                    }
                ],
                [
                    {
                        "pos": [53.552, -16.92096],
                        "width": 0.25
                    },
                    {
                        "pos": [53.552,-16.60704],
                        "width": 0.25
                    }
                ],
                [
                    {
                        "pos": [58.26704, -18.288],
                        "width": 0.25
                    },
                    {
                        "pos": [58.42, -18.44096],
                        "width": 0.25
                    },
                    {
                        "pos": [58.42, -19.685],
                        "width": 0.25
                    },
                    {
                        "pos": [57.997, -19.96896],
                        "width": 0.25
                    }
                ],
                [
                    {
                        "pos": [49.55996, -34.205],
                        "width": 0.25
                    },
                    {
                        "pos": [49.149,-34.61596],
                        "width": 0.25
                    },
                    {
                        "pos": [49.149,-35.306],
                        "width": 0.25
                    }
                ]
            ]
        }
    ],
    "symbols" : {
            "L2-2": "ZL2",
            "L3-2": "ZL3",
            "L4-2": "ZL4"
    },
    "texts" : [
        {
            "string": "1",
            "layer": "F.Cu",
            "oldPos": [24.003, -3.302],
            "newPos": [23.876, -3.556],
            "scale": 1
        },
        {
            "string": "2",
            "layer": "In1.Cu",
            "oldPos": [25.908 , -3.302],
            "newPos": [25.781, -3.556],
            "scale": 1
        },
        {
            "string": "3",
            "layer": "In2.Cu",
            "oldPos": [27.686, -3.302],
            "newPos": [27.686, -3.556],
            "scale": 1
        },
        {
            "string": "4",
            "layer": "B.Cu",
            "oldPos": [29.5275, -3.175],
            "newPos": [29.6545, -3.556],
            "scale": 1
        }
    ],
    "tracks" : [
        {
            "layer": "F.Cu",
            "netname": "GND",
            "width": 0.25,
            "newPos": {
                "start": [74.422, -53.467],
                "end": [73.407, -53.848]
            }
        }
    ],
    "zones" :
    [
        {
            "layer": "B.Cu",
            "net": 0,
            "pos": [19.558, -3.36768],
            "tvp": [0, 1, 1]
        }
    ]
}
