(module ELC09DxxxxF_NoCopper (layer F.Cu) (tedit 5E95CF79)
  (attr virtual)
  (fp_text reference REF** (at 2.2938 -4.328) (layer F.SilkS) hide
    (effects (font (size 1 1) (thickness 0.15)))
  )
  (fp_text value ELC09DxxxxF_NoCopper (at 0 6.3072) (layer F.Fab) hide
    (effects (font (size 1 1) (thickness 0.15)))
  )
  (fp_circle (center 0 0) (end 0 3.9878) (layer F.Fab) (width 0.1))
  (fp_circle (center 0 0) (end 3.9878 0) (layer F.SilkS) (width 0.1778))
  (fp_circle (center 0 0) (end 0 5.6322) (layer F.CrtYd) (width 0.05))
  (pad 1 smd oval (at 0 -2.5) (size 2.2352 2.2352) (layers F.Mask))
  (pad 2 smd oval (at 0 2.5) (size 2.2352 2.2352) (layers F.Mask))
  (model ${KISYS3DMOD}/Inductor_THT.3dshapes/L_Radial_D7.5mm_P5.00mm_Fastron_07P.wrl
    (offset (xyz 0 2.5 0))
    (scale (xyz 1 1 1))
    (rotate (xyz 0 0 90))
  )
)
