(module NetTiePad (layer F.Cu) (tedit 5EB47F73)
  (fp_text reference REF** (at 1.25 -2.5) (layer F.SilkS)
    (effects (font (size 1 1) (thickness 0.15)))
  )
  (fp_text value NetTiePad (at 0 -0.5) (layer F.Fab) hide
    (effects (font (size 1 1) (thickness 0.15)))
  )
  (fp_poly (pts (xy 0 0) (xy 2.5 0) (xy 2.5 -5) (xy 0 -5)) (layer F.Cu) (width 0))
  (pad 1 smd circle (at 1.778 -3.9405) (size 0.9144 0.9144) (layers F.Cu F.Mask))
  (pad 2 smd circle (at 1.269999 -1.083) (size 0.9144 0.9144) (layers F.Cu F.Mask))
)
