{
    "03512" : {
        "model" : "${KISYS3DMOD}/Capacitor_THT.3dshapes/CP_Radial_D6.3mm_P2.50mm.wrl",
        "offset" : [-1.27,0,0]
    },
    "03513" : {
        "model" : "${KISYS3DMOD}/Capacitor_THT.3dshapes/CP_Radial_D8.0mm_P3.50mm.wrl",
        "offset" : [-1.75,0,0]
    },
    "03515" : {
        "model" : "${KISYS3DMOD}/Capacitor_THT.3dshapes/CP_Radial_D10.0mm_P5.00mm.wrl",
        "offset" : [0,-2.5,0],
        "rotate": [0,0,-90]
    },
    "811S1-02" : {
        "model" : "${KIPRJMOD}/../Library/Footprints.3dshapes/811-S1-002-30-014101.step"
    },
    "85SMX" : {
        "model"  : "${KIPRJMOD}/../Library/Footprints.3dshapes/85SMX.step"
    },
    "AMP177983-40" : {
        "model"  : "${KIPRJMOD}/../Library/Footprints.3dshapes/c-5177983-1-a-3d.stp",
        "offset" : [0,0,3.75]
    },
    "ARF7151A" : {
        "model"  : "${KIPRJMOD}/../Library/Footprints.3dshapes/ferrite-ard.stp",
        "offset" : [15.5,-5,3.1],
        "rotate": [0,0,90]
    },
    "ASDX001D44R" : {
        "model"  : "${KIPRJMOD}/../Library/Footprints.3dshapes/capteurpressionASDX001D44R-recenter.stp"
    },
    "ASDX100D44R" : {
        "model"  : "${KIPRJMOD}/../Library/Footprints.3dshapes/capteurpressionASDX100D44R-recenter.stp",
        "rotate": [0,0,180]
    },
    "AX10X30" : {
        "model": "${KIPRJMOD}/../Library/Footprints.3dshapes/CP_Axial_L30.0mm_D10.0mm_P40.64mm_Horizontal.wrl",
        "rotate": [0,0,180]
    },
    "AWM3300V_BT-BLINDAGE" :
    {
        "model": "${KIPRJMOD}/../Library/Footprints.3dshapes/capteur debit.stp",
        "rotate": [180,0,180],
        "offset": [-45.35,-19.65,31.5]
    },
    "B12BZR-SM3TF" : {
        "model": "${KIPRJMOD}/../Library/Footprints.3dshapes/JST B12B-ZR-SM4-TF.step"
        },
    "B2BZR-SM3TF" : {
        "model": "${KIPRJMOD}/../Library/Footprints.3dshapes/JST B2B-ZR-SM4-TF.step"
        },
    "B3BZR-SM3TF" : {
        "model": "${KIPRJMOD}/../Library/Footprints.3dshapes/JST B3B-ZR-SM4-TF.step"
        },
    "B2CAP-RB0505" : [
    {
        "model": "${KIPRJMOD}/../Library/Footprints.3dshapes/capot 2 capteurs P phase 2 - recenter.stp",
        "rotate": [0,0,180]
        },
    {
        "model": "${KIPRJMOD}/../Library/Footprints.3dshapes/isolant adhesif capot capteur.stp",
        "rotate": [90,0,90],
        "offset": [-6.5,4,-6.8]
    },
    {
        "model": "${KIPRJMOD}/../Library/Footprints.3dshapes/isolant adhesif capot capteur.stp",
        "rotate": [90,0,90],
        "offset": [-6.5,-34.5,-6.8]
    }
    ],
    "B3CAP-RB0505" : [
    {
        "model": "${KIPRJMOD}/../Library/Footprints.3dshapes/capot 3 capteurs P phase 2 - recenter.stp"
    },
    {
        "model": "${KIPRJMOD}/../Library/Footprints.3dshapes/isolant adhesif capot capteur.stp",
        "rotate": [90,0,90],
        "offset": [-6.5,13.5,-6.8]
    },
    {
        "model": "${KIPRJMOD}/../Library/Footprints.3dshapes/isolant adhesif capot capteur.stp",
        "rotate": [90,0,90],
        "offset": [-6.5,-44,-6.8]
    }
    ],
    "B4BZR-SM3TF" : {
        "model" : "${KIPRJMOD}/../Library/Footprints.3dshapes/JST B4B-ZR-SM4-TF.step"
    },
    "B6BZR-SM3TF" : {
        "model" : "${KIPRJMOD}/../Library/Footprints.3dshapes/JST B6B-ZR-SM4-TF.step"
    },
    "B7BZR-SM3TF" : {
        "model" : "${KIPRJMOD}/../Library/Footprints.3dshapes/JST B7B-ZR-SM4-TF.step"
    },
    "B8BZR-SM3TF" : {
        "model" : "${KIPRJMOD}/../Library/Footprints.3dshapes/JST B8B-ZR-SM4-TF.step"
    },
    "BARRET2X5F" : {
        "model" : "${KIPRJMOD}/../Library/Footprints.3dshapes/HARWIN_M20-7830546.stp",
        "offset": [-5,1.25,0]
    },
    "BCN16" : {
        "model" : "${KIPRJMOD}/../Library/Footprints.3dshapes/BLACK_CAPCAF80P160X320X90-8N.step",
        "rotate" : [0,0,90]
    },
    "BNX002" : {
        "model" : "${KIPRJMOD}/../Library/Footprints.3dshapes/Murata_BNX002.step",
        "rotate" : [0,0,180]
    },
    "BNX002+SF-AIROX" : [
    {
        "model": "${KIPRJMOD}/../Library/Footprints.3dshapes/Murata_BNX002.step",
        "rotate": [0,0,180]
    },
    {
        "model": "${KISYS3DMOD}/Inductor_THT.3dshapes/L_Axial_L5.3mm_D2.2mm_P10.16mm_Horizontal_Vishay_IM-1.wrl",
        "offset": [5,7.5,0],
        "rotate": [0,0,105]
    },
    {
        "model": "${KISYS3DMOD}/Inductor_THT.3dshapes/L_Axial_L5.3mm_D2.2mm_P10.16mm_Horizontal_Vishay_IM-1.wrl",
        "offset": [-5,7.5,0],
        "rotate": [0,0,75]
    }
    ],
    "BP2X13C" : {
       "model": "${KIPRJMOD}/../Library/Footprints.3dshapes/75867-Y26LF.step",
        "offset": [15.25,3.25,0]
    },
    "BP2X13D" : {
       "model": "${KIPRJMOD}/../Library/Footprints.3dshapes/75869-Y26LF.step",
       "rotate": [-90,0,0],
       "offset": [15.25,5.75,0],
       "alternativeModel": "${KIPRJMOD}/../Library/Footprints.3dshapes/39_26_7265.step"
    },
    "BP2X5C" : {
        "model": "${KIPRJMOD}/../Library/Footprints.3dshapes/39-26-7108.step",
        "offset": [5.1,-1,0]
    },
    "BP2X5D" : {
        "model": "${KIPRJMOD}/../Library/Footprints.3dshapes/7810 - 0000PR.step",
        "offset": [5.1,1.25,0]
    },
    "BSDX-A2" : {
        "model": "${KIPRJMOD}/../Library/Footprints.3dshapes/capteur pression absolue-recenter.stp"
    },
    "BT-4-V150H-4.8V": {
        "model": "${KIPRJMOD}/../Library/Footprints.3dshapes/VARTA_Battery.stp",
        "rotate": [0,0,180]
    },
    "C0402" : {
        "model": "${KISYS3DMOD}/Capacitor_SMD.3dshapes/C_0402_1005Metric.wrl"
    },
    "C0603" : {
        "model": "${KISYS3DMOD}/Capacitor_SMD.3dshapes/C_0603_1608Metric.wrl"
    },
    "C0612-4" : {
        "model": "${KIPRJMOD}/../Library/Footprints.3dshapes/CAPCAF80P160X320X90-8N.step"
    },
    "C0805" : {
        "model": "${KISYS3DMOD}/Capacitor_SMD.3dshapes/C_0805_2012Metric.wrl"
    },
    "C0805-AIROX-BLM21PG221SH1" : {
        "model": "${KISYS3DMOD}/Capacitor_SMD.3dshapes/C_0805_2012Metric.wrl"
    },
    "C0805-AIROX-C0805C106K4PAC" : {
        "model": "${KISYS3DMOD}/Capacitor_SMD.3dshapes/C_0805_2012Metric.wrl"
    },
    "C12000" : {
        "model": "${KIPRJMOD}/../Library/Footprints.3dshapes/NICOMATIC_C12000B.step"
    },
    "C1210" : {
        "model": "${KISYS3DMOD}/Capacitor_SMD.3dshapes/C_1210_3225Metric.wrl"
    },
    "C1812" : {
        "model": "${KISYS3DMOD}/Capacitor_SMD.3dshapes/C_1812_4532Metric.wrl"
    },
    "C2220" : {
        "model": "${KISYS3DMOD}/Capacitor_SMD.3dshapes/C_2220_5650Metric.wrl"
    },
    "C3216" : {
        "model": "${KISYS3DMOD}/Capacitor_SMD.3dshapes/C_1206_3216Metric.wrl"
    },
    "C3528" : {
        "model": "${KISYS3DMOD}/Capacitor_Tantalum_SMD.3dshapes/CP_EIA-3528-21_Kemet-B.wrl"
    },
    "C6032" : {
        "model": "${KISYS3DMOD}/Capacitor_Tantalum_SMD.3dshapes/CP_EIA-6032-28_Kemet-C.wrl"
    },
    "C7343" : {
        "model": "${KISYS3DMOD}/Capacitor_Tantalum_SMD.3dshapes/CP_EIA-7343-30_AVX-N.wrl"
    },
    "CMF1" : [{
        "model": "${KIPRJMOD}/../Library/Footprints.3dshapes/e_0100.1908d005-recenter.stp"
    },
    {
        "model": "${KIPRJMOD}/../Library/Footprints.3dshapes/entretoise hexa  m.stp",
        "offset": [-23.4,3,6.25]
    },
    {
        "model": "${KIPRJMOD}/../Library/Footprints.3dshapes/Vis TCB M3-12 hexa.stp",
        "offset": [-23.4,3,0]
    }
    ],
    "CO31D1" : {
        "model": "${KIPRJMOD}/../Library/Footprints.3dshapes/CP_Axial_L26.0mm_D13.0mm_P33.02mm_Horizontal.wrl",
        "rotate": [0,0,180]
    },
    "CR1220-3000" :[
    {
        "model": "${KISYS3DMOD}/Battery.3dshapes/BatteryHolder_Keystone_3000_1x12mm.wrl",
        "rotate": [0,0,180]
    }
    ],
    "C-SC10": {
        "model": "${KISYS3DMOD}/Capacitor_SMD.3dshapes/CP_Elec_10x10.5.wrl",
        "rotate": [0,0,90]
    },
    "C-SC8": {
        "model": "${KISYS3DMOD}/Capacitor_SMD.3dshapes/CP_Elec_8x10.5.wrl",
        "rotate": [0,0,90]
    },
    "CSTCR" : {
        "model": "${KIPRJMOD}/../Library/Footprints.3dshapes/CSTCR6M00G53-R0.step",
        "rotate": [0,0,0]
    },
    "D0603": {
        "model": "${KISYS3DMOD}/LED_SMD.3dshapes/LED_0603_1608Metric.wrl"
    },
    "DFN10": {
        "model": "${KISYS3DMOD}/Package_DFN_QFN.3dshapes/DFN-10-1EP_3x3mm_P0.5mm_EP1.55x2.48mm.wrl",
        "rotate": [0,0,-90]
    },
    "DLP31S-AIROX" : {
        "model": "${KIPRJMOD}/../Library/Footprints.3dshapes/DLP31SN221ML2L.step",
        "rotate": [0,0,90]
    },
    "DO216AA": {
        "model": "${KIPRJMOD}/../Library/Footprints.3dshapes/ONSEMI_POWERMITE.stp",
        "rotate": [0,0,180]
    },
    "DPAK": {
        "model": "${KIPRJMOD}/../Library/Footprints.3dshapes/TO228P972X240-3N-R540X510.stp",
        "rotate": [0,0,-90]
    },
    "DPAK_cpu": {
        "model": "${KIPRJMOD}/../Library/Footprints.3dshapes/TO228P972X240-3N-R540X510.stp",
        "rotate": [0,0,-90]
    },
    "DPAK-2ANODES": {
        "model": "${KIPRJMOD}/../Library/Footprints.3dshapes/TO228P972X240-3N-R540X510.stp",
        "rotate": [0,0,-90]
    },
    "DPAK-GDS": {
        "model": "${KIPRJMOD}/../Library/Footprints.3dshapes/TO228P991X239-3N-R552X520.stp",
        "rotate": [0,0,-90]
    },
    "EPG-1B-306-HLN": {
        "model": "${KIPRJMOD}/../Library/Footprints.3dshapes/GF1L0C_P06QF00_0000_cp.wrl"
    },
    "F6126": {
        "model": "${KIPRJMOD}/../Library/Footprints.3dshapes/0451Series.step"
    },
    "FIX30": {
        "model": "${KIPRJMOD}/../Library/Footprints.3dshapes/Vis KA22x5 hexalobes.stp",
        "rotate": [180,0,0]
    },
    "FIX35" : [
    {
        "model" : "${KIPRJMOD}/../Library/Footprints.3dshapes/entretoise hexa  m3x8.stp",
        "offset": [0,0,0.8]
    },
    {
        "model" : "${KIPRJMOD}/../Library/Footprints.3dshapes/2966100 Vis TCB M3 x 5 exalobes acier zingué .stp",
        "offset": [0,0,-1.75]
    },
    {
        "model" : "${KIPRJMOD}/../Library/Footprints.3dshapes/Rondelle plate - ZU  3 x 6 EP 0.8.stp"
    }
    ],
    "FIX35_display" : [
    {
        "model" : "${KIPRJMOD}/../Library/Footprints.3dshapes/entretoise hexa  m3x12.stp"
    },
    {
        "model" : "${KIPRJMOD}/../Library/Footprints.3dshapes/2960100 Vis TCB M3-8 hexalobes acier zingué.stp",
        "offset": [0,0,-1.75]
    }
    ],
    "FIX40": {
        "model": "${KIPRJMOD}/../Library/Footprints.3dshapes/entretoise richco - recenter.stp"
    },
    "FU-0031.8221" : [
    {
        "model" : "${KIPRJMOD}/../Library/Footprints.3dshapes/FU-0031.8221.STEP",
        "offset": [4.45,0,2.25],
        "rotate": [-90,0,90]
    },
    {
        "model" : "${KIPRJMOD}/../Library/Footprints.3dshapes/Fuse.STEP",
        "rotate": [-90,0,90]
    }
    ],
    "FU154000": {
        "model": "${KIPRJMOD}/../Library/Footprints.3dshapes/Littelfuse 0154.step"
    },
    "G6K2G" : {
        "model" : "${KISYS3DMOD}/Relay_SMD.3dshapes/Relay_DPDT_Omron_G6K-2G.wrl",
        "rotate": [0,0,-90]
    },
    "GKS913" : {
        "model" : "${KIPRJMOD}/../Library/Footprints.3dshapes/GKS-913-0089.step",
        "offset": [0,0,6],
        "rotate": [0,90,0]
    },
    "HC49-4HSMX": {
        "model": "${KISYS3DMOD}/Crystal.3dshapes/Crystal_SMD_HC49-SD.wrl"
    },
    "HMB12": {
        "model": "${KISYS3DMOD}/Buzzer_Beeper.3dshapes/MagneticBuzzer_StarMicronics_HMB-06_HMB-12.wrl",
        "offset": [0,3.8,0],
        "rotate": [0,0,90]
    },
    "HT-13X27": {
        "model": "${KIPRJMOD}/../Library/Footprints.3dshapes/CP_Axial_L27.0mm_D13.0mm_P30.48mm_Horizontal.wrl"
    },
    "K164": {
        "model": "${KIPRJMOD}/../Library/Footprints.3dshapes/THERM_TDK_B57236S0.stp",
        "offset": [-0.1,0,0],
        "rotate": [0,0,30]
    },
    "LQFP48-PAD0.28X1.2" : {
        "model": "${KISYS3DMOD}/Package_QFP.3dshapes/LQFP-48_7x7mm_P0.5mm.wrl",
        "rotate": [0,0,-90]
    },
    "MCDMR-02T" : {
        "model": "${KIPRJMOD}/../Library/Footprints.3dshapes/SW_DIP_SPSTx02_Slide_6.2x6.02mm_W8.61mm_P2.54mm_LowProfile.wrl"
    },
    "MOL41815-03" : {
        "model": "${KIPRJMOD}/../Library/Footprints.3dshapes/009484038.stp",
        "offset": [3.96,-5.52,11.38]
    },
    "MOL41815-12" : {
        "model": "${KIPRJMOD}/../Library/Footprints.3dshapes/009484128.stp",
        "offset": [21.78,-5.52,11.38]
    },
    "MOL43650-02C": {
        "model": "${KIPRJMOD}/../Library/Footprints.3dshapes/43650-0212.step"
    },
    "MOL43650-02D": {
        "model": "${KIPRJMOD}/../Library/Footprints.3dshapes/436500224.stp",
        "offset": [0,0,5]
    },
    "MOL47500-0001": {
        "model": "${KIPRJMOD}/../Library/Footprints.3dshapes/673298001.stp",
        "offset": [-0.15,1.65,7],
        "rotate": [-90,0,-90]
    },
    "MOL52610-22": {
        "model": "${KIPRJMOD}/../Library/Footprints.3dshapes/526102272.stp",
        "offset": [0,-1.75,0],
        "rotate": [-90,0,0]
    },
    "MOL54819-0511": {
        "model": "${KIPRJMOD}/../Library/Footprints.3dshapes/548190519.stp",
        "offset": [-8.800000000000001,0,2],
        "rotate": [-90,0,90]
    },
    "MOL5566-2": {
        "model": "${KIPRJMOD}/../Library/Footprints.3dshapes/39-28-1023.step",
        "rotate": [0,0,180],
        "offset": [0,2.75,0]
    },
    "MOL6410-2": {
        "model": "${KISYS3DMOD}/Connector_Molex.3dshapes/Molex_KK-254_AE-6410-02A_1x02_P2.54mm_Vertical.wrl"
    },
    "MOL7395-2": {
        "model": "${KIPRJMOD}/../Library/Footprints.3dshapes/0022057028.step",
        "rotate": [0,0,90],
        "offset": [1.25,5.9,0]
    },
    "MOL7395-8": {
        "model": "${KIPRJMOD}/../Library/Footprints.3dshapes/0022057088.step",
        "rotate": [0,0,90],
        "offset": [8.9,5.9,0]
    },
    "MOL7395-9": {
        "model": "${KIPRJMOD}/../Library/Footprints.3dshapes/0022057098.step",
        "rotate": [0,0,90],
        "offset": [10.15,5.9,0]
    },
    "MX.A16_COMPOSANT": {
        "model": "${KISYS3DMOD}/Package_SO.3dshapes/SOIC-16_3.9x9.9mm_P1.27mm.wrl",
        "rotate": [0,0,-90]
    },
    "MX.A20_COMPOSANT": {
        "model": "${KISYS3DMOD}/Package_SO.3dshapes/SOIC-20W_7.5x12.8mm_P1.27mm.wrl",
        "rotate": [0,0,-90]
    },
    "MX.A24_COMPOSANT": {
        "model": "${KISYS3DMOD}/Package_SO.3dshapes/SOIC-24W_7.5x15.4mm_P1.27mm.wrl",
        "rotate": [0,0,-90]
    },
    "MX.A8_COMPOSANT": {
        "model": "${KISYS3DMOD}/Package_SO.3dshapes/SOIC-8_3.9x4.9mm_P1.27mm.wrl",
        "rotate": [0,0,-90]
    },
    "MX.A8M": {
        "model": "${KISYS3DMOD}/Package_SO.3dshapes/SO-8_5.3x6.2mm_P1.27mm.wrl",
        "rotate": [0,0,-90]
    },
    "NK236_1": {
        "model": "${KIPRJMOD}/../Library/Footprints.3dshapes/NK_1511073_cp.wrl"
    },
    "NR4012" : {
        "model": "${KIPRJMOD}/../Library/Footprints.3dshapes/NR4012_cp.wrl",
        "rotate": [0,0,90]
    },
    "NR4018" : {
        "model": "${KIPRJMOD}/../Library/Footprints.3dshapes/NR4018T100M_cp.wrl",
        "rotate": [0,0,90]
    },
    "PKM33EPH-1201C": {
        "model": "${KIPRJMOD}/../Library/Footprints.3dshapes/PKM33EPH1201C_cp.wrl",
        "offset": [0,0,5.5],
        "rotate": [0,0,90]
    },
    "R0402" : {
        "model": "${KISYS3DMOD}/Resistor_SMD.3dshapes/R_0402_1005Metric.wrl"
    },
    "R0603" : {
        "model": "${KISYS3DMOD}/Resistor_SMD.3dshapes/R_0603_1608Metric.wrl"
    },
    "R0805" : {
        "model": "${KISYS3DMOD}/Resistor_SMD.3dshapes/R_0805_2012Metric.wrl"
    },
    "R2010" : {
        "model": "${KISYS3DMOD}/Resistor_SMD.3dshapes/R_2010_5025Metric.wrl"
    },
    "R2512" : {
        "model": "${KISYS3DMOD}/Resistor_SMD.3dshapes/R_2512_6332Metric.wrl"
    },
    "RC1206" : {
        "model": "${KISYS3DMOD}/Inductor_SMD.3dshapes/L_1206_3216Metric.wrl"
    },
    "RC1206-AIROX-C1206C107M9PAC" : {
        "model": "${KISYS3DMOD}/Inductor_SMD.3dshapes/L_1206_3216Metric.wrl"
    },
    "S142.0011-SANS-FIX" : {
        "model": "${KIPRJMOD}/../Library/Footprints.3dshapes/valve chiprop-recenter.stp",
        "rotate": [0,0,180]
    },
    "SC70-5" : {
        "model": "${KISYS3DMOD}/Package_TO_SOT_SMD.3dshapes/SOT-353_SC-70-5.wrl",
        "rotate": [0,0,90]
    },
    "SF-3863-WESI": {
        "model": "${KIPRJMOD}/../Library/Footprints.3dshapes/Bourns_2209-V-RC.step",
        "rotate": [0,0,90],
        "offset": [10.5,0,0]
    },
    "SM2": {
        "model": "${KIPRJMOD}/../Library/Footprints.3dshapes/SM_2_cp.wrl"
    },
    "SMA": {
        "model": "${KISYS3DMOD}/Diode_SMD.3dshapes/D_SMA.wrl"
    },
    "SMB": {
        "model": "${KISYS3DMOD}/Diode_SMD.3dshapes/D_SMB.wrl"
    },
    "SMB-AIROX": {
        "model": "${KISYS3DMOD}/Diode_SMD.3dshapes/D_SMB.wrl"
    },
    "SMC-NP": {
        "model": "${KISYS3DMOD}/Diode_SMD.3dshapes/D_SMC.wrl"
    },
    "SO08-PPAD_COMPOSANT": {
        "model": "${KISYS3DMOD}/Package_SO.3dshapes/SOIC-8-1EP_3.9x4.9mm_P1.27mm_EP2.35x2.35mm.wrl",
        "rotate": [0,0,-90]
    },
    "SO08-PPAD_SI7884": {
        "model": "${KISYS3DMOD}/Package_SO.3dshapes/Vishay_PowerPAK_SO-8.wrl",
        "rotate": [0,0,-90]
    },
    "SOD323-AK": {
        "model": "${KISYS3DMOD}/Diode_SMD.3dshapes/D_SOD-323.wrl"
    },
    "SOD323": {
        "model": "${KISYS3DMOD}/Diode_SMD.3dshapes/D_SOD-323.wrl"
    },
    "SOD80": {
        "model": "${KISYS3DMOD}/Diode_SMD.3dshapes/D_MiniMELF.wrl"
    },
    "SOD87": {
        "model": "${KIPRJMOD}/../Library/Footprints.3dshapes/SOD-87.step",
        "offset": [0,0,1]
    },
    "SOT223": {
        "model": "${KISYS3DMOD}/Package_TO_SOT_SMD.3dshapes/SOT-223.wrl",
        "rotate": [0,0,-90]
    },
    "SOT23-1DIODE": {
        "model": "${KISYS3DMOD}/Package_TO_SOT_SMD.3dshapes/SOT-23.wrl",
        "rotate": [0,0,-90]
    },
    "SOT23-1G": {
        "model": "${KISYS3DMOD}/Diode_SMD.3dshapes/D_SOT-23.wrl",
        "rotate": [0,0,-90]
    },
    "SOT23-5": {
        "model": "${KISYS3DMOD}/Package_TO_SOT_SMD.3dshapes/SOT-23-5.wrl",
        "rotate": [0,0,90]
    },
    "SOT23-6": {
        "model": "${KISYS3DMOD}/Package_TO_SOT_SMD.3dshapes/SOT-23-6.wrl",
        "rotate": [0,0,90]
    },
    "SOT23-BEC": {
        "model": "${KISYS3DMOD}/Package_TO_SOT_SMD.3dshapes/SOT-23.wrl",
        "rotate": [0,0,-90]
    },
    "SOT23-GSD": {
        "model": "${KISYS3DMOD}/Package_TO_SOT_SMD.3dshapes/SOT-23.wrl",
        "rotate": [0,0,-90]
    },
    "SQ276-05856": {
        "model": "${KIPRJMOD}/../Library/Footprints.3dshapes/HCLA_E_11629.step",
        "rotate": [0,0,180]
    },
    "SSOP16" : {
        "model": "${KISYS3DMOD}/Package_SO.3dshapes/SSOP-16_5.3x6.2mm_P0.65mm.wrl",
        "rotate": [0,0,-90]
    },
    "SSOP24" : {
        "model": "${KISYS3DMOD}/Package_SO.3dshapes/SSOP-24_5.3x8.2mm_P0.65mm.wrl",
        "rotate": [0,0,-90]
    },
    "SSOP48" : {
        "model": "${KISYS3DMOD}/Package_SO.3dshapes/SSOP-48_7.5x15.9mm_P0.635mm.wrl",
        "rotate": [0,0,-90]
    },
    "TO220ABGDS-INV_COUCHE" : {
        "model": "${KIPRJMOD}/../Library/Footprints.3dshapes/TO-220-HFLIP_bent.step",
        "rotate": [180,0,90],
        "offset": [0,-13,4.5]
    },
    "TQFP100" : {
        "model": "${KISYS3DMOD}/Package_QFP.3dshapes/TQFP-100_14x14mm_P0.5mm.wrl"
    },
    "TQFP144" : {
        "model": "${KISYS3DMOD}/Package_QFP.3dshapes/LQFP-144_20x20mm_P0.5mm.wrl"
    },
    "TQFP64" : {
        "model": "${KISYS3DMOD}/Package_QFP.3dshapes/HTQFP-64-1EP_10x10mm_P0.5mm_EP8x8mm.wrl"
    },
    "TSOP2-44" : {
        "model": "${KISYS3DMOD}/Package_SO.3dshapes/TSOP-II-44_10.16x18.41mm_P0.8mm.wrl",
        "rotate": [0,0,-90]
    },
    "TSOP48-ENT9.965" : {
        "model": "${KISYS3DMOD}/Package_SO.3dshapes/TSOP-I-48_12x18.4mm_P0.5mm.wrl",
        "rotate": [0,0,-90]
    },
    "TSSOP20_SANS-MIRE" : {
        "model": "${KISYS3DMOD}/Package_SO.3dshapes/TSSOP-20_4.4x6.5mm_P0.65mm.wrl",
        "rotate": [0,0,-90]
    },
    "TSSOP48" : {
        "model": "${KISYS3DMOD}/Package_SO.3dshapes/TSSOP-48_6.1x12.5mm_P0.5mm.wrl",
        "rotate": [0,0,-90]
    },
    "uSO08" : {
        "model": "${KISYS3DMOD}/Package_SO.3dshapes/MSOP-8_3x3mm_P0.65mm.wrl",
        "rotate": [0,0,-90]
    },
    "WE-7427504_ENT-12.7X3": {
        "model": "${KIPRJMOD}/../Library/Footprints.3dshapes/7427504_rev1-recenter.stp"
    },
    "WE-7427512": {
        "model": "${KIPRJMOD}/../Library/Footprints.3dshapes/7427512 (rev1).stp",
        "rotate": [180,0,0],
        "offset": [0,0,2.5]
    },
    "WE-FA": {
        "model": "${KIPRJMOD}/../Library/Footprints.3dshapes/BLACK_CAPCAF80P160X320X90-8N.step"
    },
    "WE-PD4" : {
        "model": "${KIPRJMOD}/../Library/Footprints.3dshapes/IND_WURTH_WE-PD4-L.stp"
    },
    "WEPD4-S" : {
        "model": "${KIPRJMOD}/../Library/Footprints.3dshapes/WE-PD4-S_rev1.stp"
    },
    "WEPD-XXL" : {
        "model": "${KIPRJMOD}/../Library/Footprints.3dshapes/WE-PD-1210_rev1.stp"
    },
    "WETPC-S" : {
        "model": "${KIPRJMOD}/../Library/Footprints.3dshapes/NR4018T100M_cp.wrl",
        "rotate": [0,0,90]
    }
}
