{
    "nets" : ["+10VREF", "+12V", "+15V", "+24V", "+24VUTIL", "+3,3V", "+3.0VREF", "+3.3V", "+5V", "+5VPIC", "+5VREF", "+5VSUPPLY-BOARD", "+BATTV", "+VDC_PERM", "-12V", "0VANA", "B", "CB", "CG", "GND", "GNDA", "PGND", "PGND1", "PSG", "PWR_FLAG", "VACDC", "VALIM", "VALIM_PERM", "VBAT", "VDCEXT", "+ISENSE", "SW1", "OS+"]
}
