(module SOT23-GSD (layer F.Cu) (tedit 0)
  (fp_text reference REF** (at 0 0) (layer F.SilkS)
    (effects (font (size 1 1) (thickness 0.15)))
  )
  (fp_text value SOT23-GSD (at 0 2) (layer F.Fab) hide
    (effects (font (size 1 1) (thickness 0.15)))
  )
  (fp_line (start -1.79 1.89) (end -1.79 -1.89) (layer Dwgs.User) (width 0.05))
  (fp_line (start -1.79 -1.89) (end 1.79 -1.89) (layer Dwgs.User) (width 0.05))
  (fp_line (start 1.79 -1.89) (end 1.79 1.89) (layer Dwgs.User) (width 0.05))
  (fp_line (start 1.79 1.89) (end -1.79 1.89) (layer Dwgs.User) (width 0.05))
  (fp_line (start -1.7 1.8) (end 1.7 1.8) (layer F.SilkS) (width 0.18))
  (fp_line (start 1.7 1.8) (end 1.7 -0.7) (layer F.SilkS) (width 0.18))
  (fp_line (start 1.7 -0.7) (end 0.7 -0.7) (layer F.SilkS) (width 0.18))
  (fp_line (start 0.7 -0.7) (end 0.7 -1.8) (layer F.SilkS) (width 0.18))
  (fp_line (start 0.7 -1.8) (end -0.7 -1.8) (layer F.SilkS) (width 0.18))
  (fp_line (start -0.7 -1.8) (end -0.7 -0.7) (layer F.SilkS) (width 0.18))
  (fp_line (start -0.7 -0.7) (end -1.7 -0.7) (layer F.SilkS) (width 0.18))
  (fp_line (start -1.7 -0.7) (end -1.7 1.8) (layer F.SilkS) (width 0.18))
  (fp_line (start -1.7 1.8) (end -1.7 -0.7) (layer F.CrtYd) (width 0.02))
  (fp_line (start -1.7 -0.7) (end -0.7 -0.7) (layer F.CrtYd) (width 0.02))
  (fp_line (start -0.7 -0.7) (end -0.7 -1.8) (layer F.CrtYd) (width 0.02))
  (fp_line (start -0.7 -1.8) (end 0.7 -1.8) (layer F.CrtYd) (width 0.02))
  (fp_line (start 0.7 -1.8) (end 0.7 -0.7) (layer F.CrtYd) (width 0.02))
  (fp_line (start 0.7 -0.7) (end 1.7 -0.7) (layer F.CrtYd) (width 0.02))
  (fp_line (start 1.7 -0.7) (end 1.7 1.8) (layer F.CrtYd) (width 0.02))
  (fp_line (start 1.7 1.8) (end -1.7 1.8) (layer F.CrtYd) (width 0.02))
  (fp_line (start -1.4478 0.6604) (end 1.4478 0.6604) (layer F.Fab) (width 0.1))
  (fp_line (start 1.4478 0.6604) (end 1.4478 -0.6604) (layer F.Fab) (width 0.1))
  (fp_line (start 1.4478 -0.6604) (end -1.4478 -0.6604) (layer F.Fab) (width 0.1))
  (fp_line (start -1.4478 -0.6604) (end -1.4478 0.6604) (layer F.Fab) (width 0.1))
  (fp_line (start -0.2032 -0.6604) (end -0.2032 -1.2446) (layer F.Fab) (width 0.1))
  (fp_line (start -0.2032 -1.2446) (end 0.2032 -1.2446) (layer F.Fab) (width 0.1))
  (fp_line (start 0.2032 -1.2446) (end 0.2032 -0.6604) (layer F.Fab) (width 0.1))
  (fp_line (start -0.762 0.6604) (end -0.762 1.2446) (layer F.Fab) (width 0.1))
  (fp_line (start -0.762 1.2446) (end -1.1684 1.2446) (layer F.Fab) (width 0.1))
  (fp_line (start -1.1684 1.2446) (end -1.1684 0.6604) (layer F.Fab) (width 0.1))
  (fp_line (start 1.1684 0.6604) (end 1.1684 1.2446) (layer F.Fab) (width 0.1))
  (fp_line (start 1.1684 1.2446) (end 0.762 1.2446) (layer F.Fab) (width 0.1))
  (fp_line (start 0.762 1.2446) (end 0.762 0.6604) (layer F.Fab) (width 0.1))
  (pad D smd rect (at 0 -1.0414) (size 0.9144 1.1176) (layers F.Cu F.Mask F.Paste)
    (clearance 0.2032) (solder_mask_margin 0.1016)
    (zone_connect 2))
  (pad G smd rect (at -0.9652 1.0414) (size 0.9144 1.1176) (layers F.Cu F.Mask F.Paste)
    (clearance 0.2032) (solder_mask_margin 0.1016)
    (zone_connect 2))
  (pad S smd rect (at 0.9652 1.0414) (size 0.9144 1.1176) (layers F.Cu F.Mask F.Paste)
    (clearance 0.2032) (solder_mask_margin 0.1016)
    (zone_connect 2))
  (model ${KISYS3DMOD}/Package_TO_SOT_SMD.3dshapes/SOT-23.wrl
    (offset (xyz 0 0 0))
    (scale (xyz 1 1 1))
    (rotate (xyz 0 0 -90))
  )
)