(module A3_EQFC_COVIDIEN_1 (layer F.Cu) (tedit 0)
  (attr smd)
  (fp_text reference CAM2 (at -121.72013 103.507 unlocked) (layer F.SilkS) hide
    (effects (font (size 1.332992 1.40208) (thickness 0.254)))
  )
  (fp_text value A3_EQFC_COVIDIEN (at -3.54673 -0.3762 unlocked) (layer F.SilkS) hide
    (effects (font (size 1.332992 1.40208) (thickness 0.254)))
  )
)
