(module A3_PER_COVIDIEN (layer F.Cu) (tedit 0)
  (fp_text reference REF** (at 0 0) (layer F.SilkS)
    (effects (font (size 1 1) (thickness 0.15)))
  )
  (fp_text value A3_PER_COVIDIEN (at 0 2) (layer F.Fab) hide
    (effects (font (size 1 1) (thickness 0.15)))
  )
  (fp_arc (start -19 107.5) (end -16.5 107.5) (angle 360) (layer Dwgs.User) (width 0.1))
  (fp_arc (start -19 107.5) (end -13 107.5) (angle 360) (layer Dwgs.User) (width 0.1))
  (fp_arc (start -68 106.5) (end -67 106.5) (angle 360) (layer Dwgs.User) (width 0.1))
  (fp_line (start -216.15 139.65) (end -216.15 -140.61991) (layer Dwgs.User) (width 0.05))
  (fp_line (start -216.15 -140.61991) (end 216.15 -140.61991) (layer Dwgs.User) (width 0.05))
  (fp_line (start 216.15 -140.61991) (end 216.15 139.65) (layer Dwgs.User) (width 0.05))
  (fp_line (start 216.15 139.65) (end -216.15 139.65) (layer Dwgs.User) (width 0.05))
  (fp_line (start -6.5 105) (end -6.5 110) (layer Dwgs.User) (width 0.1))
  (fp_line (start -6.5 110) (end 6 113.5) (layer Dwgs.User) (width 0.1))
  (fp_line (start 6 113.5) (end 6 101.5) (layer Dwgs.User) (width 0.1))
  (fp_line (start 6 101.5) (end -6.5 105) (layer Dwgs.User) (width 0.1))
  (fp_line (start -26.5 107.5) (end -11.5 107.5) (layer Dwgs.User) (width 0.1))
  (fp_line (start -19 100) (end -19 115) (layer Dwgs.User) (width 0.1))
  (fp_line (start -8 107.5) (end 7.5 107.5) (layer Dwgs.User) (width 0.1))
  (fp_line (start -10.5 107.5) (end -9 107.5) (layer Dwgs.User) (width 0.1))
  (fp_line (start -206.5 -130) (end 206.5 -130) (layer Dwgs.User) (width 0.5))
  (fp_line (start 206.5 -130) (end 206.5 130) (layer Dwgs.User) (width 0.5))
  (fp_line (start 206.5 130) (end -206.5 130) (layer Dwgs.User) (width 0.5))
  (fp_line (start -206.5 130) (end -206.5 -130) (layer Dwgs.User) (width 0.5))
  (fp_line (start 206.5 80) (end -33.5 80) (layer Dwgs.User) (width 0.5))
  (fp_line (start -33.5 80) (end -33.5 130) (layer Dwgs.User) (width 0.5))
  (fp_line (start -33.5 130) (end 206.5 130) (layer Dwgs.User) (width 0.5))
  (fp_line (start 206.5 130) (end 206.5 80) (layer Dwgs.User) (width 0.5))
  (fp_line (start -33.5 100) (end -95.5 100) (layer Dwgs.User) (width 0.3))
  (fp_line (start -95.5 100) (end -95.5 130) (layer Dwgs.User) (width 0.3))
  (fp_line (start -95.5 130) (end -33.5 130) (layer Dwgs.User) (width 0.3))
  (fp_line (start -33.5 130) (end -33.5 100) (layer Dwgs.User) (width 0.3))
  (fp_line (start 13.5 130) (end 13.5 80) (layer Dwgs.User) (width 0.3))
  (fp_line (start 41 130) (end 41 80) (layer Dwgs.User) (width 0.3))
  (fp_line (start 78.5 130) (end 78.5 80) (layer Dwgs.User) (width 0.3))
  (fp_line (start 98.5 130) (end 98.5 80) (layer Dwgs.User) (width 0.3))
  (fp_line (start 98.5 122) (end 41 122) (layer Dwgs.User) (width 0.3))
  (fp_line (start 98.5 114) (end 41 114) (layer Dwgs.User) (width 0.3))
  (fp_line (start 98.5 106) (end 41 106) (layer Dwgs.User) (width 0.3))
  (fp_line (start 98.5 98) (end 41 98) (layer Dwgs.User) (width 0.3))
  (fp_line (start 98.5 90) (end 41 90) (layer Dwgs.User) (width 0.3))
  (fp_line (start 41 121) (end 13.5 121) (layer Dwgs.User) (width 0.3))
  (fp_line (start 41 112) (end 13.5 112) (layer Dwgs.User) (width 0.3))
  (fp_line (start 41 103) (end 13.5 103) (layer Dwgs.User) (width 0.3))
  (fp_line (start 27.5 130) (end 27.5 121) (layer Dwgs.User) (width 0.3))
  (fp_line (start 13.5 87.5) (end -33.5 87.5) (layer Dwgs.User) (width 0.3))
  (fp_line (start 98.5 97) (end 206.5 97) (layer Dwgs.User) (width 0.3))
  (fp_line (start 98.5 113) (end 206.5 113) (layer Dwgs.User) (width 0.3))
  (fp_line (start 98.5 124) (end 206.5 124) (layer Dwgs.User) (width 0.3))
  (fp_line (start 108.5 113) (end 108.5 124) (layer Dwgs.User) (width 0.3))
  (fp_line (start 123.5 113) (end 123.5 124) (layer Dwgs.User) (width 0.3))
  (fp_line (start 193.5 113) (end 193.5 124) (layer Dwgs.User) (width 0.3))
  (fp_line (start 121 124) (end 121 130) (layer Dwgs.User) (width 0.3))
  (fp_line (start 181 124) (end 181 130) (layer Dwgs.User) (width 0.3))
  (fp_line (start 66.5 -130) (end 206.5 -130) (layer Dwgs.User) (width 0.3))
  (fp_line (start 206.5 -130) (end 206.5 -110) (layer Dwgs.User) (width 0.3))
  (fp_line (start 206.5 -110) (end 66.5 -110) (layer Dwgs.User) (width 0.3))
  (fp_line (start 66.5 -110) (end 66.5 -130) (layer Dwgs.User) (width 0.3))
  (fp_line (start 66.5 -123.5) (end 206.5 -123.5) (layer Dwgs.User) (width 0.3))
  (fp_line (start 66.5 -117) (end 206.5 -117) (layer Dwgs.User) (width 0.3))
  (fp_line (start 77.5 -123.5) (end 77.5 -110) (layer Dwgs.User) (width 0.3))
  (fp_line (start 147.5 -123.5) (end 147.5 -110) (layer Dwgs.User) (width 0.3))
  (fp_line (start 177.5 -123.5) (end 177.5 -110) (layer Dwgs.User) (width 0.3))
  (fp_line (start 206.5 80) (end 214.5 80) (layer Dwgs.User) (width 0.3))
  (fp_line (start 214.5 80) (end 214.5 10.5) (layer Dwgs.User) (width 0.3))
  (fp_line (start 214.5 10.5) (end 206.5 10.5) (layer Dwgs.User) (width 0.3))
  (fp_line (start 206.5 10.5) (end 206.5 80) (layer Dwgs.User) (width 0.3))
  (fp_line (start 206.5 22.5) (end 214.5 22.5) (layer Dwgs.User) (width 0.3))
  (fp_line (start 214.5 22.5) (end 206.5 22.5) (layer Dwgs.User) (width 0.3))
  (fp_line (start 206.5 30) (end 214.5 30) (layer Dwgs.User) (width 0.3))
  (fp_line (start 214.5 30) (end 206.5 30) (layer Dwgs.User) (width 0.3))
  (fp_line (start -207 0) (end -209.5 -2.5) (layer Dwgs.User) (width 0.3))
  (fp_line (start -209.5 -2.5) (end -209.5 2.5) (layer Dwgs.User) (width 0.3))
  (fp_line (start -209.5 2.5) (end -207 0) (layer Dwgs.User) (width 0.3))
  (fp_line (start -216 0) (end -209.5 0) (layer Dwgs.User) (width 0.3))
  (fp_line (start 207 -0.5) (end 209.5 2) (layer Dwgs.User) (width 0.3))
  (fp_line (start 209.5 2) (end 209.5 -3) (layer Dwgs.User) (width 0.3))
  (fp_line (start 209.5 -3) (end 207 -0.5) (layer Dwgs.User) (width 0.3))
  (fp_line (start 216 -0.5) (end 209.5 -0.5) (layer Dwgs.User) (width 0.3))
  (fp_line (start 0 130.5) (end -2.5 133) (layer Dwgs.User) (width 0.3))
  (fp_line (start -2.5 133) (end 2.5 133) (layer Dwgs.User) (width 0.3))
  (fp_line (start 2.5 133) (end 0 130.5) (layer Dwgs.User) (width 0.3))
  (fp_line (start 0 139.5) (end 0 133) (layer Dwgs.User) (width 0.3))
  (fp_line (start 0 -130.5) (end 2.5 -133) (layer Dwgs.User) (width 0.3))
  (fp_line (start 2.5 -133) (end -2.5 -133) (layer Dwgs.User) (width 0.3))
  (fp_line (start -2.5 -133) (end 0 -130.5) (layer Dwgs.User) (width 0.3))
  (fp_line (start 0 -139.5) (end 0 -133) (layer Dwgs.User) (width 0.3))
  (fp_line (start -105 139) (end -105 130.1989) (layer Dwgs.User) (width 0.25))
  (fp_line (start 105 139.3011) (end 105 130.5) (layer Dwgs.User) (width 0.25))
  (fp_line (start -105 -140.49491) (end -105 -130.5) (layer Dwgs.User) (width 0.25))
  (fp_line (start 105 -140.49491) (end 105 -130.5) (layer Dwgs.User) (width 0.25))
  (fp_poly (pts (xy 103.5 92.5) (xy 103.5 85) (xy 108.5 85) (xy 108.5 87.5)
     (xy 106 87.5) (xy 106 90) (xy 108.5 90) (xy 108.5 92.5)) (layer Dwgs.User) (width 0.02))
  (fp_poly (pts (xy 116 85) (xy 116 92.5) (xy 111 92.5) (xy 111 90)
     (xy 113.5 90) (xy 113.5 87.5) (xy 111 87.5) (xy 111 85)) (layer Dwgs.User) (width 0.02))
  (fp_text user "NOTES : UNLESS OTHERWISE SPECIFIED" (at -200 -121.5) (layer Dwgs.User)
    (effects (font (size 1 1) (thickness 0.1)) (justify left))
  )
  (fp_text user REV (at 70 -118.5) (layer Dwgs.User)
    (effects (font (size 1 1) (thickness 0.1)) (justify left))
  )
  (fp_text user DESCRIPTION (at 104 -118.5) (layer Dwgs.User)
    (effects (font (size 1 1) (thickness 0.1)) (justify left))
  )
  (fp_text user DATE (at 159.5 -118.5) (layer Dwgs.User)
    (effects (font (size 1 1) (thickness 0.1)) (justify left))
  )
  (fp_text user "SEE AGILE" (at 155.5 -112) (layer Dwgs.User)
    (effects (font (size 1 1) (thickness 0.1)) (justify left))
  )
  (fp_text user "SEE AGILE" (at 185 -112) (layer Dwgs.User)
    (effects (font (size 1 1) (thickness 0.1)) (justify left))
  )
  (fp_text user DATE (at 189 -118.5) (layer Dwgs.User)
    (effects (font (size 1 1) (thickness 0.1)) (justify left))
  )
  (fp_text user REVISIONS (at 126 -124.5) (layer Dwgs.User)
    (effects (font (size 1 1) (thickness 0.1)) (justify left))
  )
  (fp_text user "PADS DRAWING - ALL CHANGES MUST BE DONE IN PADS SYSTEM" (at 94.5 -103.5) (layer Dwgs.User)
    (effects (font (size 1 1) (thickness 0.1)) (justify left))
  )
  (fp_text user COVIDIEN (at 120 92) (layer Dwgs.User)
    (effects (font (size 1 1) (thickness 0.3)) (justify left))
  )
  (fp_text user "2101 Faraday Avenue" (at 174 88) (layer Dwgs.User)
    (effects (font (size 1 1) (thickness 0.1)) (justify left))
  )
  (fp_text user "Carlsbad, CA  92008" (at 174 92.5) (layer Dwgs.User)
    (effects (font (size 1 1) (thickness 0.1)) (justify left))
  )
  (fp_text user "TITLE :" (at 100 101.5) (layer Dwgs.User)
    (effects (font (size 1 1) (thickness 0.1)) (justify left))
  )
  (fp_text user "PRINTED CIRCUIT BOARD," (at 124 105) (layer Dwgs.User)
    (effects (font (size 1 1) (thickness 0.1)) (justify left))
  )
  (fp_text user SIZE (at 100.5 117) (layer Dwgs.User)
    (effects (font (size 1 1) (thickness 0.1)) (justify left))
  )
  (fp_text user MODEL (at 112.5 117) (layer Dwgs.User)
    (effects (font (size 1 1) (thickness 0.1)) (justify left))
  )
  (fp_text user "DWG NO." (at 125 117) (layer Dwgs.User)
    (effects (font (size 1 1) (thickness 0.1)) (justify left))
  )
  (fp_text user REV (at 198 117) (layer Dwgs.User)
    (effects (font (size 1 1) (thickness 0.1)) (justify left))
  )
  (fp_text user B (at 103 122) (layer Dwgs.User)
    (effects (font (size 1 1) (thickness 0.1)) (justify left))
  )
  (fp_text user "DWG NO." (at 210 79 -90) (layer Dwgs.User)
    (effects (font (size 1 1) (thickness 0.1)) (justify left))
  )
  (fp_text user REV (at 210 19 -90) (layer Dwgs.User)
    (effects (font (size 1 1) (thickness 0.1)) (justify left))
  )
  (fp_text user SH (at 210 28 -90) (layer Dwgs.User)
    (effects (font (size 1 1) (thickness 0.1)) (justify left))
  )
  (fp_text user APPROVALS (at 52 87) (layer Dwgs.User)
    (effects (font (size 1 1) (thickness 0.1)) (justify left))
  )
  (fp_text user DATE (at 85.5 87) (layer Dwgs.User)
    (effects (font (size 1 1) (thickness 0.1)) (justify left))
  )
  (fp_text user "N. NAME" (at 65 96) (layer Dwgs.User)
    (effects (font (size 1 1) (thickness 0.1)) (justify left))
  )
  (fp_text user "N. NAME" (at 65 104) (layer Dwgs.User)
    (effects (font (size 1 1) (thickness 0.1)) (justify left))
  )
  (fp_text user "N. NAME" (at 65 112) (layer Dwgs.User)
    (effects (font (size 1 1) (thickness 0.1)) (justify left))
  )
  (fp_text user "SEE AGILE" (at 62 120) (layer Dwgs.User)
    (effects (font (size 1 1) (thickness 0.1)) (justify left))
  )
  (fp_text user "SEE AGILE" (at 62 128) (layer Dwgs.User)
    (effects (font (size 1 1) (thickness 0.1)) (justify left))
  )
  (fp_text user MM/DD/YY (at 82.5 96) (layer Dwgs.User)
    (effects (font (size 1 1) (thickness 0.1)) (justify left))
  )
  (fp_text user MM/DD/YY (at 82.5 104) (layer Dwgs.User)
    (effects (font (size 1 1) (thickness 0.1)) (justify left))
  )
  (fp_text user MM/DD/YY (at 82.5 112) (layer Dwgs.User)
    (effects (font (size 1 1) (thickness 0.1)) (justify left))
  )
  (fp_text user "SEE AGILE" (at 81.5 120) (layer Dwgs.User)
    (effects (font (size 1 1) (thickness 0.1)) (justify left))
  )
  (fp_text user "SEE AGILE" (at 81.5 128) (layer Dwgs.User)
    (effects (font (size 1 1) (thickness 0.1)) (justify left))
  )
  (fp_text user DRAWN (at 42 93.5) (layer Dwgs.User)
    (effects (font (size 1 1) (thickness 0.1)) (justify left))
  )
  (fp_text user ENGINEER (at 42 101.5) (layer Dwgs.User)
    (effects (font (size 1 1) (thickness 0.1)) (justify left))
  )
  (fp_text user CHECKED (at 42 109.5) (layer Dwgs.User)
    (effects (font (size 1 1) (thickness 0.1)) (justify left))
  )
  (fp_text user APPROVED (at 42 117.5) (layer Dwgs.User)
    (effects (font (size 1 1) (thickness 0.1)) (justify left))
  )
  (fp_text user RELEASED (at 42 125.5) (layer Dwgs.User)
    (effects (font (size 1 1) (thickness 0.1)) (justify left))
  )
  (fp_text user "TOLERANCES ARE :" (at 20.5 87) (layer Dwgs.User)
    (effects (font (size 1 1) (thickness 0.1)) (justify left))
  )
  (fp_text user ".XX = +/- .20" (at 21 93) (layer Dwgs.User)
    (effects (font (size 1 1) (thickness 0.1)) (justify left))
  )
  (fp_text user ".XXX = +/- .125" (at 20 96) (layer Dwgs.User)
    (effects (font (size 1 1) (thickness 0.1)) (justify left))
  )
  (fp_text user "ANGLES = +/- 0.5 DEG" (at 18 99) (layer Dwgs.User)
    (effects (font (size 1 1) (thickness 0.1)) (justify left))
  )
  (fp_text user N/A (at 25.5 109) (layer Dwgs.User)
    (effects (font (size 1 1) (thickness 0.1)) (justify left))
  )
  (fp_text user N/A (at 25.5 118) (layer Dwgs.User)
    (effects (font (size 1 1) (thickness 0.1)) (justify left))
  )
  (fp_text user N/A (at 18.5 127) (layer Dwgs.User)
    (effects (font (size 1 1) (thickness 0.1)) (justify left))
  )
  (fp_text user N/A (at 32 127) (layer Dwgs.User)
    (effects (font (size 1 1) (thickness 0.1)) (justify left))
  )
  (fp_text user "UNLESS OTHERWISE SPECIFIED" (at 15.5 83) (layer Dwgs.User)
    (effects (font (size 1 1) (thickness 0.1)) (justify left))
  )
  (fp_text user "DIMENSIONS ARE MILLIMETERS" (at 15.5 85) (layer Dwgs.User)
    (effects (font (size 1 1) (thickness 0.1)) (justify left))
  )
  (fp_text user "DO NOT SCALE DRAWING" (at -25.5 85.5) (layer Dwgs.User)
    (effects (font (size 1 1) (thickness 0.1)) (justify left))
  )
  (fp_text user "THIRD ANGLE PROJECTION" (at -21 123) (layer Dwgs.User)
    (effects (font (size 1 1) (thickness 0.1)) (justify left))
  )
  (fp_text user "CONFIDENTIALITY STATEMENT" (at -82.5 104) (layer Dwgs.User)
    (effects (font (size 1 1) (thickness 0.2)) (justify left))
  )
  (fp_text user "Copyright C 2012, Covidien" (at -80.5 107.5) (layer Dwgs.User)
    (effects (font (size 1 1) (thickness 0.1)) (justify left))
  )
  (fp_text user "The information contained in this document is the" (at -91.5 113.5) (layer Dwgs.User)
    (effects (font (size 1 1) (thickness 0.1)) (justify left))
  )
  (fp_text user "proprietary and confidential property of Covidien" (at -91.5 116.5) (layer Dwgs.User)
    (effects (font (size 1 1) (thickness 0.1)) (justify left))
  )
  (fp_text user "Supplied Data, Tooling, Partial or finished materials" (at -93.5 119.5) (layer Dwgs.User)
    (effects (font (size 1 1) (thickness 0.1)) (justify left))
  )
  (fp_text user "shall not be disclosed to others without" (at -87 122.5) (layer Dwgs.User)
    (effects (font (size 1 1) (thickness 0.1)) (justify left))
  )
  (fp_text user "the written permission of Covidien" (at -84.5 125.5) (layer Dwgs.User)
    (effects (font (size 1 1) (thickness 0.1)) (justify left))
  )
  (fp_text user 4 (at -156.99845 -133.37532) (layer Dwgs.User)
    (effects (font (size 1 1) (thickness 0.508)) (justify left))
  )
  (fp_text user 3 (at -52.5 -136.5) (layer Dwgs.User)
    (effects (font (size 1 1) (thickness 0.5083)))
  )
  (fp_text user 2 (at 50.50155 -133.37532) (layer Dwgs.User)
    (effects (font (size 1 1) (thickness 0.508)) (justify left))
  )
  (fp_text user 1 (at 153.00155 -133.37532) (layer Dwgs.User)
    (effects (font (size 1 1) (thickness 0.508)) (justify left))
  )
  (fp_text user B (at 210.00155 -66.37532) (layer Dwgs.User)
    (effects (font (size 1 1) (thickness 0.508)) (justify left))
  )
  (fp_text user B (at -213.49845 -66.37532) (layer Dwgs.User)
    (effects (font (size 1 1) (thickness 0.508)) (justify left))
  )
  (fp_text user A (at -213.49845 72.62468) (layer Dwgs.User)
    (effects (font (size 1 1) (thickness 0.508)) (justify left))
  )
  (fp_text user 4 (at -156.99845 137.62468) (layer Dwgs.User)
    (effects (font (size 1 1) (thickness 0.508)) (justify left))
  )
  (fp_text user 3 (at -53.5 134.5) (layer Dwgs.User)
    (effects (font (size 1 1) (thickness 0.508)))
  )
  (fp_text user 2 (at 50.50155 137.62468) (layer Dwgs.User)
    (effects (font (size 1 1) (thickness 0.508)) (justify left))
  )
  (fp_text user 1 (at 153.00155 137.62468) (layer Dwgs.User)
    (effects (font (size 1 1) (thickness 0.508)) (justify left))
  )
  (fp_text user "SCALE: x/x" (at 99.5 128.5) (layer Dwgs.User)
    (effects (font (size 1 1) (thickness 0.1)) (justify left))
  )
  (fp_text user "SHEET x OF x" (at 184 128.5) (layer Dwgs.User)
    (effects (font (size 1 1) (thickness 0.1)) (justify left))
  )
  (fp_text user Xnn (at 198 122) (layer Dwgs.User)
    (effects (font (size 1 1) (thickness 0.1)) (justify left))
  )
  (fp_text user XXXXXXXX (at 145.5 122.5) (layer Dwgs.User)
    (effects (font (size 1 1) (thickness 0.1)) (justify left))
  )
  (fp_text user "Template 10093692 Rev A " (at 133.5 128.5) (layer Dwgs.User)
    (effects (font (size 1 1) (thickness 0.1)) (justify left))
  )
  (fp_text user TITLE (at 149 111.5) (layer Dwgs.User)
    (effects (font (size 1 1) (thickness 0.1)) (justify left))
  )
  (fp_text user XXXXXXXX (at 214 64.5 -90) (layer Dwgs.User)
    (effects (font (size 1 1) (thickness 0.1)) (justify left))
  )
  (fp_text user X (at 214 27.5 -90) (layer Dwgs.User)
    (effects (font (size 1 1) (thickness 0.1)) (justify left))
  )
  (fp_text user Xnn (at 214 20.5 -90) (layer Dwgs.User)
    (effects (font (size 1 1) (thickness 0.1)) (justify left))
  )
  (fp_text user Xnn (at 70 -112) (layer Dwgs.User)
    (effects (font (size 1 1) (thickness 0.1)) (justify left))
  )
  (fp_text user "RELEASE/CHANGE PER ECO-RXXXXXX." (at 80.5 -112) (layer Dwgs.User)
    (effects (font (size 1 1) (thickness 0.1)) (justify left))
  )
  (fp_text user PBXXX (at 112.5 122) (layer Dwgs.User)
    (effects (font (size 1 1) (thickness 0.1)) (justify left))
  )
)