(module AWM3300V (layer F.Cu) (tedit 5EADDD1A)
  (fp_text reference REF** (at -3.9243 6.7691) (layer F.SilkS)
    (effects (font (size 1 1) (thickness 0.15)))
  )
  (fp_text value AWM3300V (at 3.7592 6.61416) (layer F.Fab)
    (effects (font (size 1 1) (thickness 0.15)))
  )
  (fp_curve (pts (xy -3.502444 -5.836593) (xy -2.702094 -5.836596) (xy -2.053283 -6.485416) (xy -2.053289 -7.285766)) (layer F.SilkS) (width 0.254))
  (fp_curve (pts (xy -2.053289 -7.285766) (xy -2.053295 -8.086121) (xy -2.702115 -8.734927) (xy -3.502464 -8.734921)) (layer F.SilkS) (width 0.254))
  (fp_curve (pts (xy -6.400773 -8.734894) (xy -7.201142 -8.734918) (xy -7.849947 -8.086112) (xy -7.849953 -7.285766)) (layer F.SilkS) (width 0.254))
  (fp_curve (pts (xy -7.849953 -7.285766) (xy -7.849959 -6.485416) (xy -7.20115 -5.836596) (xy -6.400798 -5.836593)) (layer F.SilkS) (width 0.254))
  (fp_curve (pts (xy -16.043871 -3.60768) (xy -16.043856 -3.579193) (xy -16.020763 -3.556097) (xy -15.992274 -3.556097)) (layer Dwgs.User) (width 0.1))
  (fp_curve (pts (xy -15.992274 -3.556097) (xy -15.963786 -3.556097) (xy -15.94069 -3.579193) (xy -15.94069 -3.60768)) (layer Dwgs.User) (width 0.1))
  (fp_curve (pts (xy -15.94069 -3.60768) (xy -15.94069 -3.636166) (xy -15.963786 -3.659265) (xy -15.992274 -3.659265)) (layer Dwgs.User) (width 0.1))
  (fp_curve (pts (xy -15.992274 -3.659265) (xy -16.020763 -3.659265) (xy -16.043856 -3.636166) (xy -16.043856 -3.60768)) (layer Dwgs.User) (width 0.1))
  (fp_curve (pts (xy -0.05309 4.887457) (xy -0.053067 4.915917) (xy -0.029971 4.939013) (xy -0.001481 4.939013)) (layer Dwgs.User) (width 0.1))
  (fp_curve (pts (xy -0.001481 4.939013) (xy 0.027005 4.939013) (xy 0.050101 4.915917) (xy 0.050101 4.887428)) (layer Dwgs.User) (width 0.1))
  (fp_curve (pts (xy 0.050101 4.887428) (xy 0.050101 4.858941) (xy 0.027005 4.835845) (xy -0.001481 4.835845)) (layer Dwgs.User) (width 0.1))
  (fp_curve (pts (xy -0.001481 4.835845) (xy -0.029971 4.835845) (xy -0.053067 4.858941) (xy -0.053067 4.887428)) (layer Dwgs.User) (width 0.1))
  (fp_curve (pts (xy 15.937692 -3.60768) (xy 15.937727 -3.579193) (xy 15.96082 -3.556097) (xy 15.989309 -3.556097)) (layer Dwgs.User) (width 0.1))
  (fp_curve (pts (xy 15.989309 -3.556097) (xy 16.017799 -3.556097) (xy 16.040892 -3.579193) (xy 16.040892 -3.60768)) (layer Dwgs.User) (width 0.1))
  (fp_curve (pts (xy 16.040892 -3.60768) (xy 16.040892 -3.636166) (xy 16.017799 -3.659265) (xy 15.989309 -3.659265)) (layer Dwgs.User) (width 0.1))
  (fp_curve (pts (xy 15.989309 -3.659265) (xy 15.96082 -3.659265) (xy 15.937727 -3.636166) (xy 15.937727 -3.60768)) (layer Dwgs.User) (width 0.1))
  (fp_curve (pts (xy -0.05309 -12.102814) (xy -0.053067 -12.074298) (xy -0.029971 -12.051202) (xy -0.001481 -12.051202)) (layer Dwgs.User) (width 0.1))
  (fp_curve (pts (xy -0.001481 -12.051202) (xy 0.027005 -12.051202) (xy 0.050101 -12.074298) (xy 0.050101 -12.102784)) (layer Dwgs.User) (width 0.1))
  (fp_curve (pts (xy 0.050101 -12.102784) (xy 0.050101 -12.131274) (xy 0.027005 -12.15437) (xy -0.001481 -12.15437)) (layer Dwgs.User) (width 0.1))
  (fp_curve (pts (xy -0.001481 -12.15437) (xy -0.029971 -12.15437) (xy -0.053067 -12.131274) (xy -0.053067 -12.102784)) (layer Dwgs.User) (width 0.1))
  (fp_line (start -16.24076 -12.35456) (end 16.2306 -12.35456) (layer F.SilkS) (width 0.254))
  (fp_line (start 16.23568 -12.35202) (end 16.23568 5.13588) (layer F.SilkS) (width 0.254))
  (fp_line (start 16.23568 5.13588) (end -16.24584 5.13588) (layer F.SilkS) (width 0.254))
  (fp_line (start -16.24584 5.13588) (end -16.24584 -12.34948) (layer F.SilkS) (width 0.254))
  (fp_line (start -16.24076 -11.40714) (end 16.19758 -11.40714) (layer F.SilkS) (width 0.254))
  (fp_line (start -15.24508 -11.39444) (end -15.24508 4.14528) (layer F.SilkS) (width 0.254))
  (fp_line (start -15.24508 4.14528) (end 15.24254 4.14528) (layer F.SilkS) (width 0.254))
  (fp_line (start 15.24254 4.14528) (end 15.24254 -11.4046) (layer F.SilkS) (width 0.254))
  (fp_line (start 13.43914 -11.38682) (end 13.43914 -3.54076) (layer F.SilkS) (width 0.254))
  (fp_line (start 15.24762 -3.54076) (end -15.24 -3.54076) (layer F.SilkS) (width 0.254))
  (fp_line (start -13.44676 -3.55092) (end -13.44676 -11.38936) (layer F.SilkS) (width 0.254))
  (fp_line (start 0.508 -3.54584) (end 0.508 -11.38428) (layer F.SilkS) (width 0.254))
  (fp_line (start 2.2733 -3.54584) (end 2.2733 -11.38428) (layer F.SilkS) (width 0.254))
  (fp_line (start 15.24254 -1.0033) (end 27.178 -1.0033) (layer F.SilkS) (width 0.254))
  (fp_line (start 27.178 -1.0033) (end 27.178 4.14528) (layer F.SilkS) (width 0.254))
  (fp_line (start 27.178 4.14528) (end 15.2273 4.14528) (layer F.SilkS) (width 0.254))
  (fp_line (start -15.2527 4.14528) (end -27.18816 4.14528) (layer F.SilkS) (width 0.254))
  (fp_line (start -27.18816 -1.0033) (end -15.23746 -1.0033) (layer F.SilkS) (width 0.254))
  (fp_line (start -27.18816 4.14528) (end -27.18816 -1.0033) (layer F.SilkS) (width 0.254))
  (fp_line (start -6.39318 -5.83438) (end -3.50774 -5.83438) (layer F.SilkS) (width 0.254))
  (fp_line (start -6.42112 -8.73252) (end -3.53568 -8.73252) (layer F.SilkS) (width 0.254))
  (fp_line (start 7.54126 -8.75792) (end 10.4267 -8.75792) (layer F.SilkS) (width 0.254))
  (fp_line (start 7.5692 -5.85978) (end 10.45464 -5.85978) (layer F.SilkS) (width 0.254))
  (fp_curve (pts (xy 10.459936 -5.861993) (xy 11.260286 -5.861996) (xy 11.909097 -6.510816) (xy 11.909091 -7.311166)) (layer F.SilkS) (width 0.254))
  (fp_curve (pts (xy 11.909091 -7.311166) (xy 11.909085 -8.111521) (xy 11.260265 -8.760327) (xy 10.459916 -8.760321)) (layer F.SilkS) (width 0.254))
  (fp_curve (pts (xy 7.561607 -8.760294) (xy 6.761238 -8.760318) (xy 6.112433 -8.111512) (xy 6.112427 -7.311166)) (layer F.SilkS) (width 0.254))
  (fp_curve (pts (xy 6.112427 -7.311166) (xy 6.112421 -6.510816) (xy 6.76123 -5.861996) (xy 7.561582 -5.861993)) (layer F.SilkS) (width 0.254))
  (pad 1 thru_hole rect (at -2.54 0) (size 1.776964 1.776964) (drill 1.1176) (layers *.Cu *.Mask))
  (pad 2 thru_hole circle (at 0 0) (size 1.776964 1.776964) (drill 1.1176) (layers *.Cu *.Mask))
  (pad 3 thru_hole circle (at 2.54 0) (size 1.776964 1.776964) (drill 1.1176) (layers *.Cu *.Mask))
  (pad NC smd circle (at -4.951673 -7.287722) (size 2.032 2.032) (layers F.Cu)
    (clearance 2.032))
  (pad NC smd circle (at 9.018327 -7.287722) (size 2.032 2.032) (layers B.Cu)
    (clearance 2.032))
  (pad NC smd circle (at -4.951673 -7.287722) (size 2.032 2.032) (layers B.Cu)
    (clearance 2.032))
  (pad NC smd circle (at 9.018327 -7.287722) (size 2.032 2.032) (layers F.Cu)
    (clearance 2.032))
)
