(module B2CAP-RB0505_1 (layer F.Cu) (tedit 5E9C99BE)
  (attr smd)
  (fp_text reference BL2 (at -0.835373 22.081935 unlocked) (layer F.SilkS)
    (effects (font (size 1.224536 1.288002) (thickness 0.1)))
  )
  (fp_text value B2CAP-RB0505 (at 3.29926 0.166535 unlocked) (layer F.SilkS) hide
    (effects (font (size 1.224536 1.288002) (thickness 0.1)))
  )
  (fp_arc (start 0 -9.5) (end 1.613921 -8.318789) (angle -216.2) (layer F.SilkS) (width 0.18))
  (fp_arc (start 0 -9.5) (end -2 -9.5) (angle -106.4) (layer F.SilkS) (width 0.18))
  (fp_arc (start 0 -9.5) (end -2 -9.5) (angle -360) (layer B.Fab) (width 0.1))
  (fp_line (start 5.95854 -19.5) (end -5.95854 -19.5) (layer F.SilkS) (width 0.18))
  (fp_line (start 9.95 19.5) (end 9.04146 19.5) (layer F.SilkS) (width 0.18))
  (fp_line (start -9.04146 -19.5) (end -9.95 -19.5) (layer F.SilkS) (width 0.18))
  (fp_line (start 9.95 -19.5) (end 9.95 19.5) (layer F.SilkS) (width 0.18))
  (fp_line (start -9.04146 19.5) (end -9.95 19.5) (layer F.SilkS) (width 0.18))
  (fp_line (start 9.95 -19.5) (end 9.04146 -19.5) (layer F.SilkS) (width 0.18))
  (fp_line (start -9.95 -19.5) (end -9.95 19.5) (layer F.SilkS) (width 0.18))
  (fp_line (start 5.95854 19.5) (end -5.95854 19.5) (layer F.SilkS) (width 0.18))
  (fp_line (start -9.45 5.5) (end -9.95 5.5) (layer B.Fab) (width 0.05))
  (fp_line (start 9.95 -19.5) (end -9.95 -19.5) (layer B.Fab) (width 0.1))
  (fp_line (start 9.45 -19) (end -9.45 -19) (layer B.Fab) (width 0.1))
  (fp_line (start 9.45 -19) (end 9.45 19) (layer B.Fab) (width 0.1))
  (fp_line (start 9.95 -19.5) (end 9.95 19.5) (layer B.Fab) (width 0.1))
  (fp_line (start 9.95 19.5) (end -9.95 19.5) (layer B.Fab) (width 0.1))
  (fp_line (start 9.45 19) (end -9.45 19) (layer B.Fab) (width 0.1))
  (fp_line (start -9.95 -19.5) (end -9.95 19.5) (layer B.Fab) (width 0.1))
  (fp_line (start -9.45 -19) (end -9.45 19) (layer B.Fab) (width 0.1))
  (fp_line (start -9.45 13.5) (end -9.95 13.5) (layer B.Fab) (width 0.05))
  (fp_line (start -9.45 9.5) (end -9.95 9.5) (layer B.Fab) (width 0.05))
  (pad 4 thru_hole circle (at -7.5 -19.25 180) (size 2.54 2.54) (drill 1.8034) (layers *.Cu *.Mask))
  (pad 3 thru_hole circle (at 7.5 -19.25 180) (size 2.54 2.54) (drill 1.8034) (layers *.Cu *.Mask))
  (pad 2 thru_hole circle (at 7.5 19.25 180) (size 2.54 2.54) (drill 1.8034) (layers *.Cu *.Mask))
  (pad 1 thru_hole circle (at -7.5 19.25 180) (size 2.54 2.54) (drill 1.8034) (layers *.Cu *.Mask))
  (model "${KIPRJMOD}/../Library/Footprints.3dshapes/capot 2 capteurs P phase 2 - recenter.stp"
    (at (xyz 0 0 0))
    (scale (xyz 1 1 1))
    (rotate (xyz 0 0 0))
  )
)
