(module BARRET2X5F_1 (layer F.Cu) (tedit 5E97AA15)
  (attr smd)
  (fp_text reference J10 (at -0.7294 0.5574 unlocked) (layer F.SilkS)
    (effects (font (size 1.0496 1.104) (thickness 0.18)))
  )
  (fp_text value BAR-12-2010 (at -4.4 0.8 unlocked) (layer F.SilkS) hide
    (effects (font (size 1.0496 1.104) (thickness 0.18)))
  )
  (fp_line (start 3.81 -1.27) (end 3.81 3.81) (layer B.Fab) (width 0.1))
  (fp_line (start 1.27 -1.27) (end 1.27 3.81) (layer B.Fab) (width 0.1))
  (fp_line (start 6.35 -1.27) (end 6.35 3.81) (layer B.Fab) (width 0.1))
  (fp_line (start 11.43 3.81) (end -1.27 3.81) (layer B.Fab) (width 0.1))
  (fp_line (start -1.27 -1.27) (end -1.27 3.81) (layer B.Fab) (width 0.1))
  (fp_line (start 8.89 -1.27) (end 8.89 3.81) (layer B.Fab) (width 0.1))
  (fp_line (start 11.43 -1.27) (end 11.43 3.81) (layer B.Fab) (width 0.1))
  (fp_line (start 11.43 -1.27) (end -1.27 -1.27) (layer B.Fab) (width 0.1))
  (fp_line (start 0 -1.27) (end -1.27 0) (layer B.Fab) (width 0.1))
  (fp_line (start 11.43 1.27) (end -1.27 1.27) (layer B.Fab) (width 0.1))
  (fp_line (start 3.99437 -1.27) (end -1.27 -1.27) (layer F.SilkS) (width 0.18))
  (fp_line (start 11.43 3.81) (end -1.27 3.81) (layer F.SilkS) (width 0.18))
  (fp_line (start 0 -1.27) (end -0.1402 -1.1298) (layer F.SilkS) (width 0.18))
  (fp_line (start -1.27 -1.27) (end -1.27 3.81) (layer F.SilkS) (width 0.18))
  (fp_line (start 11.43 -1.27) (end 5.06812 -1.27) (layer F.SilkS) (width 0.18))
  (fp_line (start 11.43 -1.27) (end 11.43 3.81) (layer F.SilkS) (width 0.18))
  (fp_line (start -1.1298 -0.1402) (end -1.27 0) (layer F.SilkS) (width 0.18))
  (pad 1 thru_hole rect (at 0 0 180) (size 1.6764 1.6764) (drill 0.9652) (layers *.Cu *.Mask))
  (pad 2 thru_hole circle (at 0 2.54 180) (size 1.6764 1.6764) (drill 0.9652) (layers *.Cu *.Mask))
  (pad 3 thru_hole circle (at 2.54 0 180) (size 1.6764 1.6764) (drill 0.9652) (layers *.Cu *.Mask))
  (pad 4 thru_hole circle (at 2.54 2.54 180) (size 1.6764 1.6764) (drill 0.9652) (layers *.Cu *.Mask))
  (pad 5 thru_hole circle (at 5.08 0 180) (size 1.6764 1.6764) (drill 0.9652) (layers *.Cu *.Mask))
  (pad 6 thru_hole circle (at 5.08 2.54 180) (size 1.6764 1.6764) (drill 0.9652) (layers *.Cu *.Mask))
  (pad 7 thru_hole circle (at 7.62 0 180) (size 1.6764 1.6764) (drill 0.9652) (layers *.Cu *.Mask))
  (pad 8 thru_hole circle (at 7.62 2.54 180) (size 1.6764 1.6764) (drill 0.9652) (layers *.Cu *.Mask))
  (pad 9 thru_hole circle (at 10.16 0 180) (size 1.6764 1.6764) (drill 0.9652) (layers *.Cu *.Mask))
  (pad 10 thru_hole circle (at 10.16 2.54 180) (size 1.6764 1.6764) (drill 0.9652) (layers *.Cu *.Mask))
  (model "${KIPRJMOD}/../Library/Footprints.3dshapes/HARWIN_M20-7830546.stp"
    (offset (xyz 5 -1.25 0))
    (scale (xyz 1 1 1))
    (rotate (xyz 0 0 0))
  )
)
