(module BARRET2X5F_110001110001110001110001100001100001100001100001100001100001 placed (layer F.Cu) (tedit 5EBE99B9)
  (fp_text reference J10 (at 1.66 -0.504 180) (layer F.SilkS)
    (effects (font (size 1.2 1.2) (thickness 0.1)) (justify left bottom))
  )
  (fp_text value BAR-12-2010 (at 0 2) (layer F.Fab) hide
    (effects (font (size 1 1) (thickness 0.15)))
  )
  (fp_arc (start 0 -2.54) (end 0.8382 -2.54) (angle 360) (layer B.Fab) (width 0.02))
  (fp_arc (start -2.54 0) (end -1.7018 0) (angle 360) (layer B.Fab) (width 0.02))
  (fp_arc (start -2.54 -2.54) (end -1.7018 -2.54) (angle 360) (layer B.Fab) (width 0.02))
  (fp_arc (start -5.08 0) (end -4.2418 0) (angle 360) (layer B.Fab) (width 0.02))
  (fp_arc (start -5.08 -2.54) (end -4.2418 -2.54) (angle 360) (layer B.Fab) (width 0.02))
  (fp_arc (start -7.62 0) (end -6.7818 0) (angle 360) (layer B.Fab) (width 0.02))
  (fp_arc (start -7.62 -2.54) (end -6.7818 -2.54) (angle 360) (layer B.Fab) (width 0.02))
  (fp_arc (start -10.16 0) (end -9.3218 0) (angle 360) (layer B.Fab) (width 0.02))
  (fp_arc (start -10.16 -2.54) (end -9.3218 -2.54) (angle 360) (layer B.Fab) (width 0.02))
  (fp_line (start -11.52 1.36) (end -11.52 -3.9) (layer Dwgs.User) (width 0.05))
  (fp_line (start -11.52 -3.9) (end 1.36 -3.9) (layer Dwgs.User) (width 0.05))
  (fp_line (start 1.36 -3.9) (end 1.36 1.36) (layer Dwgs.User) (width 0.05))
  (fp_line (start 1.36 1.36) (end -11.52 1.36) (layer Dwgs.User) (width 0.05))
  (fp_line (start 1.27 -3.81) (end 1.27 1.27) (layer F.Fab) (width 0.18))
  (fp_line (start 1.27 1.27) (end -11.43 1.27) (layer F.Fab) (width 0.18))
  (fp_line (start -11.43 1.27) (end -11.43 -3.81) (layer F.Fab) (width 0.18))
  (fp_line (start -11.43 -3.81) (end 1.27 -3.81) (layer F.Fab) (width 0.18))
  (fp_line (start 1.27 0) (end 0 1.27) (layer F.Fab) (width 0.18))
  (fp_line (start -8.89 1.27) (end -8.89 -3.81) (layer F.SilkS) (width 0.1))
  (fp_line (start -6.35 1.27) (end -6.35 -3.81) (layer F.SilkS) (width 0.1))
  (fp_line (start 1.27 0) (end 0 1.27) (layer F.SilkS) (width 0.1))
  (fp_line (start 1.27 -3.81) (end 1.27 1.27) (layer F.SilkS) (width 0.1))
  (fp_line (start 1.27 1.27) (end -11.43 1.27) (layer F.SilkS) (width 0.1))
  (fp_line (start -11.43 1.27) (end -11.43 -3.81) (layer F.SilkS) (width 0.1))
  (fp_line (start -11.43 -3.81) (end 1.27 -3.81) (layer F.SilkS) (width 0.1))
  (fp_line (start -3.81 1.27) (end -3.81 -3.81) (layer F.SilkS) (width 0.1))
  (fp_line (start -11.43 -1.27) (end 1.27 -1.27) (layer F.SilkS) (width 0.1))
  (fp_line (start -1.27 1.27) (end -1.27 -3.81) (layer F.SilkS) (width 0.1))
  (fp_line (start -0.8382 -0.8382) (end -0.8382 0.8382) (layer F.SilkS) (width 0.1))
  (fp_line (start -0.8382 0.8382) (end 0.8382 0.8382) (layer F.SilkS) (width 0.1))
  (fp_line (start 0.8382 0.8382) (end 0.8382 -0.8382) (layer F.SilkS) (width 0.1))
  (fp_line (start 0.8382 -0.8382) (end -0.8382 -0.8382) (layer F.SilkS) (width 0.1))
  (fp_poly (pts (xy 1.27 1.27) (xy -11.43 1.27) (xy -11.43 -3.81) (xy 1.27 -3.81)
    (xy 1.27 1.27)) (layer F.Fab) (width 0.02))
  (fp_poly (pts (xy 0.8382 -0.8382) (xy 0.8382 0.8382) (xy -0.8382 0.8382) (xy -0.8382 -0.8382)) (layer B.Fab) (width 0.02))
  (pad 1 thru_hole rect (at 0 0) (size 1.6764 1.6764) (drill 0.9652) (layers *.Mask F.Cu In1.Cu B.Cu)
    (solder_mask_margin 0.1016) (clearance 0.1524) (zone_connect 2) (thermal_width 0.2032) (thermal_gap 0.2032))
  (pad 2 thru_hole circle (at 0 -2.54) (size 1.6764 1.6764) (drill 0.9652) (layers *.Mask F.Cu In1.Cu B.Cu)
    (solder_mask_margin 0.1016) (clearance 0.1524) (zone_connect 2) (thermal_width 0.2032) (thermal_gap 0.2032))
  (pad 3 thru_hole circle (at -2.54 0) (size 1.6764 1.6764) (drill 0.9652) (layers *.Mask F.Cu In1.Cu B.Cu)
    (solder_mask_margin 0.1016) (clearance 0.1524) (zone_connect 2) (thermal_width 0.2032) (thermal_gap 0.2032))
  (pad 4 thru_hole circle (at -2.54 -2.54) (size 1.6764 1.6764) (drill 0.9652) (layers *.Mask F.Cu In1.Cu B.Cu)
    (solder_mask_margin 0.1016) (clearance 0.1524) (zone_connect 2) (thermal_width 0.2032) (thermal_gap 0.2032))
  (pad 5 thru_hole circle (at -5.08 0) (size 1.6764 1.6764) (drill 0.9652) (layers F&B.Cu *.Mask)
    (solder_mask_margin 0.1016) (clearance 0.1524) (zone_connect 2) (thermal_width 0.2032) (thermal_gap 0.2032))
  (pad 6 thru_hole circle (at -5.08 -2.54) (size 1.6764 1.6764) (drill 0.9652) (layers F&B.Cu *.Mask)
    (solder_mask_margin 0.1016) (clearance 0.1524) (zone_connect 2) (thermal_width 0.2032) (thermal_gap 0.2032))
  (pad 7 thru_hole circle (at -7.62 0) (size 1.6764 1.6764) (drill 0.9652) (layers F&B.Cu *.Mask)
    (solder_mask_margin 0.1016) (clearance 0.1524) (zone_connect 2) (thermal_width 0.2032) (thermal_gap 0.2032))
  (pad 8 thru_hole circle (at -7.62 -2.54) (size 1.6764 1.6764) (drill 0.9652) (layers F&B.Cu *.Mask)
    (solder_mask_margin 0.1016) (clearance 0.1524) (zone_connect 2) (thermal_width 0.2032) (thermal_gap 0.2032))
  (pad 9 thru_hole circle (at -10.16 0) (size 1.6764 1.6764) (drill 0.9652) (layers F&B.Cu *.Mask)
    (solder_mask_margin 0.1016) (clearance 0.1524) (zone_connect 2) (thermal_width 0.2032) (thermal_gap 0.2032))
  (pad 10 thru_hole circle (at -10.16 -2.54) (size 1.6764 1.6764) (drill 0.9652) (layers F&B.Cu *.Mask)
    (solder_mask_margin 0.1016) (clearance 0.1524) (zone_connect 2) (thermal_width 0.2032) (thermal_gap 0.2032))
  (model ${KIPRJMOD}/../Library/Footprints.3dshapes/HARWIN_M20-7830546.stp
    (offset (xyz -5 1.25 0))
    (scale (xyz 1 1 1))
    (rotate (xyz 0 0 0))
  )
)
