(module BLIN-AWM33 locked placed (layer F.Cu) (tedit 5EC5ACFE)
  (fp_text reference BL1 (at 0 0) (layer F.SilkS)
    (effects (font (size 1 1) (thickness 0.15)))
  )
  (fp_text value BLIN-AWM33 (at 0 2) (layer F.Fab) hide
    (effects (font (size 1 1) (thickness 0.15)))
  )
  (fp_arc (start 0 0) (end 0.889 0) (angle 360) (layer B.Fab) (width 0.02))
  (fp_arc (start 2.54 0) (end 3.429 0) (angle 360) (layer B.Fab) (width 0.02))
  (fp_arc (start -16 -3.6098) (end -14.73 -3.6098) (angle 360) (layer B.Fab) (width 0.02))
  (fp_arc (start 0 4.8902) (end 1.27 4.8902) (angle 360) (layer B.Fab) (width 0.02))
  (fp_arc (start 16 -3.6098) (end 17.27 -3.6098) (angle 360) (layer B.Fab) (width 0.02))
  (fp_arc (start 0 -12.1098) (end 1.27 -12.1098) (angle 360) (layer B.Fab) (width 0.02))
  (fp_arc (start -4.953 -7.29) (end -3.937 -7.29) (angle 360) (layer B.Fab) (width 0.02))
  (fp_arc (start 9.017 -7.29) (end 10.033 -7.29) (angle 360) (layer B.Fab) (width 0.02))
  (fp_arc (start 10.467 -7.29) (end 10.467 -5.84) (angle -180) (layer F.SilkS) (width 0.1))
  (fp_arc (start 7.567 -7.29) (end 7.567 -8.74) (angle -180) (layer F.SilkS) (width 0.1))
  (fp_arc (start -3.503 -7.29) (end -3.503 -5.84) (angle -180) (layer F.SilkS) (width 0.1))
  (fp_arc (start -6.403 -7.29) (end -6.403 -8.74) (angle -180) (layer F.SilkS) (width 0.1))
  (fp_line (start -27.29 6.4904) (end -27.29 -13.71) (layer Dwgs.User) (width 0.05))
  (fp_line (start -27.29 -13.71) (end 27.29 -13.71) (layer Dwgs.User) (width 0.05))
  (fp_line (start 27.29 -13.71) (end 27.29 6.4904) (layer Dwgs.User) (width 0.05))
  (fp_line (start 27.29 6.4904) (end -27.29 6.4904) (layer Dwgs.User) (width 0.05))
  (fp_line (start -15.25 -1) (end -27.2 -1) (layer F.Fab) (width 0.18))
  (fp_line (start -27.2 -1) (end -27.2 4.1402) (layer F.Fab) (width 0.18))
  (fp_line (start -27.2 4.1402) (end 27.2 4.1402) (layer F.Fab) (width 0.18))
  (fp_line (start 27.2 4.1402) (end 27.2 -1) (layer F.Fab) (width 0.18))
  (fp_line (start 27.2 -1) (end 15.25 -1) (layer F.Fab) (width 0.18))
  (fp_line (start 15.25 -1) (end 15.25 -11.3538) (layer F.Fab) (width 0.18))
  (fp_line (start 15.25 -11.3538) (end -15.25 -11.3538) (layer F.Fab) (width 0.18))
  (fp_line (start -15.25 -11.3538) (end -15.25 -1) (layer F.Fab) (width 0.18))
  (fp_line (start 0.497 -11.3) (end 0.497 -3.54) (layer F.SilkS) (width 0.1))
  (fp_line (start 0.497 -3.54) (end 2.297 -3.54) (layer F.SilkS) (width 0.1))
  (fp_line (start 2.297 -3.54) (end 2.297 -11.3) (layer F.SilkS) (width 0.1))
  (fp_line (start 2.297 -11.3) (end 0.497 -11.3) (layer F.SilkS) (width 0.1))
  (fp_line (start 15.25 -3.54) (end 13.45 -3.54) (layer F.SilkS) (width 0.1))
  (fp_line (start 13.45 -3.54) (end 13.45 -11.3) (layer F.SilkS) (width 0.1))
  (fp_line (start -15.25 -3.54) (end -13.45 -3.54) (layer F.SilkS) (width 0.1))
  (fp_line (start -13.45 -3.54) (end -13.45 -11.3) (layer F.SilkS) (width 0.1))
  (fp_line (start 7.567 -5.84) (end 10.467 -5.84) (layer F.SilkS) (width 0.1))
  (fp_line (start 10.467 -8.74) (end 7.567 -8.74) (layer F.SilkS) (width 0.1))
  (fp_line (start -6.403 -5.84) (end -3.503 -5.84) (layer F.SilkS) (width 0.1))
  (fp_line (start -3.503 -8.74) (end -6.403 -8.74) (layer F.SilkS) (width 0.1))
  (fp_line (start 15.25 -11.3538) (end -15.25 -11.3538) (layer F.SilkS) (width 0.1))
  (fp_line (start -15.25 -11.3538) (end -15.25 4.1402) (layer F.SilkS) (width 0.1))
  (fp_line (start -15.25 4.1402) (end 15.25 4.1402) (layer F.SilkS) (width 0.1))
  (fp_line (start 15.25 4.1402) (end 15.25 -11.3538) (layer F.SilkS) (width 0.1))
  (fp_line (start -15.25 -1) (end -27.2 -1) (layer F.SilkS) (width 0.1))
  (fp_line (start -27.2 -1) (end -27.2 4.1402) (layer F.SilkS) (width 0.1))
  (fp_line (start -27.2 4.1402) (end 27.2 4.1402) (layer F.SilkS) (width 0.1))
  (fp_line (start 27.2 4.1402) (end 27.2 -1) (layer F.SilkS) (width 0.1))
  (fp_line (start 27.2 -1) (end 15.25 -1) (layer F.SilkS) (width 0.1))
  (fp_line (start 15.25 -1) (end 15.25 -11.3538) (layer F.SilkS) (width 0.1))
  (fp_line (start 15.25 -11.3538) (end -15.25 -11.3538) (layer F.SilkS) (width 0.1))
  (fp_line (start -15.25 -11.3538) (end -15.25 -1) (layer F.SilkS) (width 0.1))
  (fp_line (start -13.45 -3.54) (end 13.45 -3.54) (layer F.SilkS) (width 0.1))
  (fp_line (start 16.25 -11.3538) (end -16.25 -11.3538) (layer F.SilkS) (width 0.1))
  (fp_line (start -16.25 -11.3538) (end -16.25 4.1402) (layer F.SilkS) (width 0.1))
  (fp_line (start -16.25 4.1402) (end 16.25 4.1402) (layer F.SilkS) (width 0.1))
  (fp_line (start 16.25 4.1402) (end 16.25 -11.3538) (layer F.SilkS) (width 0.1))
  (fp_line (start -16.25 5.1402) (end 16.25 5.1402) (layer F.SilkS) (width 0.1))
  (fp_line (start 16.25 5.1402) (end 16.25 -12.3598) (layer F.SilkS) (width 0.1))
  (fp_line (start 16.25 -12.3598) (end -16.25 -12.3598) (layer F.SilkS) (width 0.1))
  (fp_line (start -16.25 -12.3598) (end -16.25 5.1402) (layer F.SilkS) (width 0.1))
  (fp_line (start -3.429 -0.889) (end -3.429 0.889) (layer B.SilkS) (width 0.1))
  (fp_line (start -3.429 0.889) (end -1.651 0.889) (layer B.SilkS) (width 0.1))
  (fp_line (start -1.651 0.889) (end -1.651 -0.889) (layer B.SilkS) (width 0.1))
  (fp_line (start -1.651 -0.889) (end -3.429 -0.889) (layer B.SilkS) (width 0.1))
  (fp_poly (pts (xy -1.651 -0.889) (xy -1.651 0.889) (xy -3.429 0.889) (xy -3.429 -0.889)) (layer B.Fab) (width 0.02))
  (pad 1 thru_hole circle (at -16 -3.6098) (size 2.54 2.54) (drill 1.8034) (layers F&B.Cu *.Mask)
    (solder_mask_margin 0.1016) (clearance 0.1016) (zone_connect 2))
  (pad 2 thru_hole circle (at 0 4.8902) (size 2.54 2.54) (drill 1.8034) (layers F&B.Cu *.Mask)
    (solder_mask_margin 0.1016) (clearance 0.1016) (zone_connect 2))
  (pad 3 thru_hole circle (at 16 -3.6098) (size 2.54 2.54) (drill 1.8034) (layers F&B.Cu *.Mask)
    (solder_mask_margin 0.1016) (clearance 0.1016) (zone_connect 2))
  (pad 4 thru_hole circle (at 0 -12.1098) (size 2.54 2.54) (drill 1.8034) (layers F&B.Cu *.Mask)
    (solder_mask_margin 0.1016) (clearance 0.1016) (zone_connect 2))
  (model "${KIPRJMOD}/../Library/Footprints.3dshapes/4096600.M00.023 boitier capteur debit.stp"
    (offset (xyz -45.35 -19.65 0))
    (scale (xyz 1 1 1))
    (rotate (xyz 180 0 180))
  )
)
