(module BNX002 (layer F.Cu) (tedit 5ECBD167)
  (fp_text reference REF** (at 0 -6.985) (layer F.SilkS)
    (effects (font (size 1.2 1.2) (thickness 0.15)))
  )
  (fp_text value BNX002 (at 0 5.08) (layer F.Fab) hide
    (effects (font (size 1 1) (thickness 0.15)))
  )
  (fp_arc (start 2.5 -2.5) (end 3.6176 -2.5) (angle 360) (layer B.CrtYd) (width 0.02))
  (fp_arc (start 2.5 2.5) (end 3.6176 2.5) (angle 360) (layer B.CrtYd) (width 0.02))
  (fp_arc (start -2.5 2.5) (end -1.3824 2.5) (angle 360) (layer B.CrtYd) (width 0.02))
  (fp_arc (start 0 0) (end 1.1176 0) (angle 360) (layer B.CrtYd) (width 0.02))
  (fp_arc (start 5 0) (end 6.1176 0) (angle 360) (layer B.CrtYd) (width 0.02))
  (fp_arc (start -2.5 -2.5) (end -1.3824 -2.5) (angle 360) (layer B.CrtYd) (width 0.02))
  (fp_line (start -6.34 5.84) (end -6.34 -5.84) (layer Dwgs.User) (width 0.05))
  (fp_line (start -6.34 -5.84) (end 6.3716 -5.84) (layer Dwgs.User) (width 0.05))
  (fp_line (start 6.3716 -5.84) (end 6.3716 5.84) (layer Dwgs.User) (width 0.05))
  (fp_line (start 6.3716 5.84) (end -6.34 5.84) (layer Dwgs.User) (width 0.05))
  (fp_line (start -6.25 5.75) (end 6.25 5.75) (layer F.SilkS) (width 0.18))
  (fp_line (start 6.25 5.75) (end 6.25 -5.75) (layer F.SilkS) (width 0.18))
  (fp_line (start 6.25 -5.75) (end -6.25 -5.75) (layer F.SilkS) (width 0.18))
  (fp_line (start -6.25 -5.75) (end -6.25 5.75) (layer F.SilkS) (width 0.18))
  (fp_line (start -6.25 5.75) (end -6.25 -5.75) (layer F.CrtYd) (width 0.02))
  (fp_line (start -6.25 -5.75) (end 6.25 -5.75) (layer F.CrtYd) (width 0.02))
  (fp_line (start 6.25 -5.75) (end 6.25 5.75) (layer F.CrtYd) (width 0.02))
  (fp_line (start 6.25 5.75) (end -6.25 5.75) (layer F.CrtYd) (width 0.02))
  (fp_line (start -6.25 5.75) (end 6.25 5.75) (layer F.Fab) (width 0.1))
  (fp_line (start 6.25 5.75) (end 6.25 -5.75) (layer F.Fab) (width 0.1))
  (fp_line (start 6.25 -5.75) (end -6.25 -5.75) (layer F.Fab) (width 0.1))
  (fp_line (start -6.25 -5.75) (end -6.25 5.75) (layer F.Fab) (width 0.1))
  (fp_line (start -2.5 2.5) (end 2.5 2.5) (layer F.Fab) (width 0.1))
  (fp_line (start 2.5 2.5) (end 2.5 -2.5) (layer F.Fab) (width 0.1))
  (fp_line (start 2.5 -2.5) (end -2.5 -2.5) (layer F.Fab) (width 0.1))
  (fp_line (start -2.5 -2.5) (end -2.5 2.5) (layer F.Fab) (width 0.1))
  (pad B thru_hole circle (at 2.5 -2.5) (size 2.2352 2.2352) (drill 1.2192) (layers *.Cu *.Mask)
    (solder_mask_margin 0.1016) (clearance 0.2032) (zone_connect 2) (thermal_width 0.3048) (thermal_gap 0.254))
  (pad CB thru_hole circle (at 2.5 2.5) (size 2.2352 2.2352) (drill 1.2192) (layers *.Cu *.Mask)
    (solder_mask_margin 0.1016) (clearance 0.2032) (zone_connect 2) (thermal_width 0.3048) (thermal_gap 0.254))
  (pad CG1 thru_hole circle (at -2.5 2.5) (size 2.2352 2.2352) (drill 1.2192) (layers *.Cu *.Mask)
    (solder_mask_margin 0.1016) (clearance 0.2032) (zone_connect 2) (thermal_width 0.3048) (thermal_gap 0.254))
  (pad CG2 thru_hole circle (at 0 0) (size 2.2352 2.2352) (drill 1.2192) (layers *.Cu *.Mask)
    (solder_mask_margin 0.1016) (clearance 0.2032) (zone_connect 2) (thermal_width 0.3048) (thermal_gap 0.254))
  (pad CG3 thru_hole circle (at 5 0) (size 2.2352 2.2352) (drill 1.2192) (layers *.Cu *.Mask)
    (solder_mask_margin 0.1016) (clearance 0.2032) (zone_connect 2) (thermal_width 0.3048) (thermal_gap 0.254))
  (pad PSG thru_hole circle (at -2.5 -2.5) (size 2.2352 2.2352) (drill 1.2192) (layers *.Cu *.Mask)
    (solder_mask_margin 0.1016) (clearance 0.2032) (zone_connect 2) (thermal_width 0.3048) (thermal_gap 0.254))
  (model ${KIPRJMOD}/../Library/Footprints.3dshapes/Murata_BNX002.step
    (at (xyz 0 0 0))
    (scale (xyz 1 1 1))
    (rotate (xyz 0 0 180))
  )
)
