(module BSDX-A2_100011100001100001100001101011100011100001100001 placed (layer F.Cu) (tedit 5EC6992A)
  (fp_text reference IC33 (at 3.175 -0.635 90) (layer F.SilkS)
    (effects (font (size 1.12 1.12) (thickness 0.1)))
  )
  (fp_text value CAPT-BT-BSDX-BARO (at 0 2) (layer F.Fab) hide
    (effects (font (size 1 1) (thickness 0.15)))
  )
  (fp_arc (start 0 0) (end 1 0) (angle 360) (layer F.Fab) (width 0.18))
  (fp_arc (start 0 0) (end 0.575 0) (angle 360) (layer F.Fab) (width 0.18))
  (fp_arc (start 8.3185 -1.27) (end 9.1567 -1.27) (angle 360) (layer B.Fab) (width 0.02))
  (fp_arc (start 8.3185 1.27) (end 9.1567 1.27) (angle 360) (layer B.Fab) (width 0.02))
  (fp_arc (start 8.3185 3.81) (end 9.1567 3.81) (angle 360) (layer B.Fab) (width 0.02))
  (fp_arc (start -8.3185 -3.81) (end -7.4803 -3.81) (angle 360) (layer B.Fab) (width 0.02))
  (fp_arc (start -8.3185 -1.27) (end -7.4803 -1.27) (angle 360) (layer B.Fab) (width 0.02))
  (fp_arc (start -8.3185 1.27) (end -7.4803 1.27) (angle 360) (layer B.Fab) (width 0.02))
  (fp_arc (start -8.3185 3.81) (end -7.4803 3.81) (angle 360) (layer B.Fab) (width 0.02))
  (fp_arc (start 0 0) (end 1 0) (angle 360) (layer F.SilkS) (width 0.1))
  (fp_arc (start 0 0) (end 0.575 0) (angle 360) (layer F.SilkS) (width 0.1))
  (fp_line (start -9.3599 8.09) (end -9.3599 -8.99) (layer Dwgs.User) (width 0.05))
  (fp_line (start -9.3599 -8.99) (end 9.3599 -8.99) (layer Dwgs.User) (width 0.05))
  (fp_line (start 9.3599 -8.99) (end 9.3599 8.09) (layer Dwgs.User) (width 0.05))
  (fp_line (start 9.3599 8.09) (end -9.3599 8.09) (layer Dwgs.User) (width 0.05))
  (fp_line (start -7.05 8) (end 7.05 8) (layer F.Fab) (width 0.18))
  (fp_line (start 7.05 8) (end 7.05 -8.9) (layer F.Fab) (width 0.18))
  (fp_line (start 7.05 -8.9) (end -7.05 -8.9) (layer F.Fab) (width 0.18))
  (fp_line (start -7.05 -8.9) (end -7.05 8) (layer F.Fab) (width 0.18))
  (fp_line (start -5.5 -0.25) (end -5.5 6.5) (layer F.Fab) (width 0.18))
  (fp_line (start -5.5 6.5) (end 5.5 6.5) (layer F.Fab) (width 0.18))
  (fp_line (start 5.5 6.5) (end 5.5 -7.5) (layer F.Fab) (width 0.18))
  (fp_line (start 5.5 -7.5) (end -5.5 -7.5) (layer F.Fab) (width 0.18))
  (fp_line (start -5.5 -7.5) (end -5.5 -0.25) (layer F.Fab) (width 0.18))
  (fp_line (start 8.255 3.175) (end 8.255 4.445) (layer F.SilkS) (width 0.1))
  (fp_line (start 8.255 4.445) (end 7.05 4.445) (layer F.SilkS) (width 0.1))
  (fp_line (start 7.05 4.445) (end 7.05 3.175) (layer F.SilkS) (width 0.1))
  (fp_line (start 7.05 3.175) (end 8.255 3.175) (layer F.SilkS) (width 0.1))
  (fp_line (start 8.255 0.635) (end 8.255 1.905) (layer F.SilkS) (width 0.1))
  (fp_line (start 8.255 1.905) (end 7.05 1.905) (layer F.SilkS) (width 0.1))
  (fp_line (start 7.05 1.905) (end 7.05 0.635) (layer F.SilkS) (width 0.1))
  (fp_line (start 7.05 0.635) (end 8.255 0.635) (layer F.SilkS) (width 0.1))
  (fp_line (start 8.255 -1.905) (end 8.255 -0.635) (layer F.SilkS) (width 0.1))
  (fp_line (start 8.255 -0.635) (end 7.05 -0.635) (layer F.SilkS) (width 0.1))
  (fp_line (start 7.05 -0.635) (end 7.05 -1.905) (layer F.SilkS) (width 0.1))
  (fp_line (start 7.05 -1.905) (end 8.255 -1.905) (layer F.SilkS) (width 0.1))
  (fp_line (start 8.255 -4.445) (end 8.255 -3.175) (layer F.SilkS) (width 0.1))
  (fp_line (start 8.255 -3.175) (end 7.05 -3.175) (layer F.SilkS) (width 0.1))
  (fp_line (start 7.05 -3.175) (end 7.05 -4.445) (layer F.SilkS) (width 0.1))
  (fp_line (start 7.05 -4.445) (end 8.255 -4.445) (layer F.SilkS) (width 0.1))
  (fp_line (start -8.255 3.175) (end -8.255 4.445) (layer F.SilkS) (width 0.1))
  (fp_line (start -8.255 4.445) (end -7.05 4.445) (layer F.SilkS) (width 0.1))
  (fp_line (start -7.05 4.445) (end -7.05 3.175) (layer F.SilkS) (width 0.1))
  (fp_line (start -7.05 3.175) (end -8.255 3.175) (layer F.SilkS) (width 0.1))
  (fp_line (start -8.255 0.635) (end -8.255 1.905) (layer F.SilkS) (width 0.1))
  (fp_line (start -8.255 1.905) (end -7.05 1.905) (layer F.SilkS) (width 0.1))
  (fp_line (start -7.05 1.905) (end -7.05 0.635) (layer F.SilkS) (width 0.1))
  (fp_line (start -7.05 0.635) (end -8.255 0.635) (layer F.SilkS) (width 0.1))
  (fp_line (start -8.255 -1.905) (end -8.255 -0.635) (layer F.SilkS) (width 0.1))
  (fp_line (start -8.255 -0.635) (end -7.05 -0.635) (layer F.SilkS) (width 0.1))
  (fp_line (start -7.05 -0.635) (end -7.05 -1.905) (layer F.SilkS) (width 0.1))
  (fp_line (start -7.05 -1.905) (end -8.255 -1.905) (layer F.SilkS) (width 0.1))
  (fp_line (start -8.255 -4.445) (end -8.255 -3.175) (layer F.SilkS) (width 0.1))
  (fp_line (start -8.255 -3.175) (end -7.05 -3.175) (layer F.SilkS) (width 0.1))
  (fp_line (start -7.05 -3.175) (end -7.05 -4.445) (layer F.SilkS) (width 0.1))
  (fp_line (start -7.05 -4.445) (end -8.255 -4.445) (layer F.SilkS) (width 0.1))
  (fp_line (start -7.05 8) (end 7.05 8) (layer F.SilkS) (width 0.1))
  (fp_line (start 7.05 8) (end 7.05 -8.9) (layer F.SilkS) (width 0.1))
  (fp_line (start 7.05 -8.9) (end -7.05 -8.9) (layer F.SilkS) (width 0.1))
  (fp_line (start -7.05 -8.9) (end -7.05 8) (layer F.SilkS) (width 0.1))
  (fp_line (start -5.5 -0.25) (end -5.5 6.5) (layer F.SilkS) (width 0.1))
  (fp_line (start -5.5 6.5) (end 5.5 6.5) (layer F.SilkS) (width 0.1))
  (fp_line (start 5.5 6.5) (end 5.5 -7.5) (layer F.SilkS) (width 0.1))
  (fp_line (start 5.5 -7.5) (end -5.5 -7.5) (layer F.SilkS) (width 0.1))
  (fp_line (start -5.5 -7.5) (end -5.5 -0.25) (layer F.SilkS) (width 0.1))
  (fp_line (start 7.4803 -4.6482) (end 7.4803 -2.9718) (layer B.SilkS) (width 0.1))
  (fp_line (start 7.4803 -2.9718) (end 9.1567 -2.9718) (layer B.SilkS) (width 0.1))
  (fp_line (start 9.1567 -2.9718) (end 9.1567 -4.6482) (layer B.SilkS) (width 0.1))
  (fp_line (start 9.1567 -4.6482) (end 7.4803 -4.6482) (layer B.SilkS) (width 0.1))
  (fp_poly (pts (xy 9.1 4.6) (xy 7 4.6) (xy 7 8) (xy 1.905 8)
    (xy -1.905 8) (xy -7.1 8) (xy -7.1 4.7) (xy -9.1 4.7)
    (xy -9.1 -4.6) (xy -7.1 -4.6) (xy -7.1 -8.89) (xy 7.1 -8.89)
    (xy 7.1 -4.6) (xy 9.1 -4.6)) (layer F.Fab) (width 0.02))
  (fp_poly (pts (xy 9.1567 -4.6482) (xy 9.1567 -2.9718) (xy 7.4803 -2.9718) (xy 7.4803 -4.6482)) (layer B.Fab) (width 0.02))
  (fp_text user 5 (at -6.6 -3.4) (layer F.SilkS)
    (effects (font (size 1 1) (thickness 0.127)) (justify left))
  )
  (fp_text user 1 (at 6 -3.3) (layer F.SilkS)
    (effects (font (size 1 1) (thickness 0.127)) (justify left))
  )
  (pad 1 thru_hole rect (at 8.3185 -3.81) (size 1.6764 1.6764) (drill 0.9652) (layers *.Mask F.Cu In4.Cu B.Cu)
    (solder_mask_margin 0.1016) (clearance 0.1524) (zone_connect 2) (thermal_width 0.2032) (thermal_gap 0.2032))
  (pad 2 thru_hole circle (at 8.3185 -1.27) (size 1.6764 1.6764) (drill 0.9652) (layers F&B.Cu *.Mask)
    (solder_mask_margin 0.1016) (clearance 0.1524) (zone_connect 2) (thermal_width 0.2032) (thermal_gap 0.2032))
  (pad 3 thru_hole circle (at 8.3185 1.27) (size 1.6764 1.6764) (drill 0.9652) (layers F&B.Cu *.Mask)
    (solder_mask_margin 0.1016) (clearance 0.1524) (zone_connect 2) (thermal_width 0.2032) (thermal_gap 0.2032))
  (pad 4 thru_hole circle (at 8.3185 3.81) (size 1.6764 1.6764) (drill 0.9652) (layers F&B.Cu *.Mask)
    (solder_mask_margin 0.1016) (clearance 0.1524) (zone_connect 2) (thermal_width 0.2032) (thermal_gap 0.2032))
  (pad 5 thru_hole circle (at -8.3185 -3.81) (size 1.6764 1.6764) (drill 0.9652) (layers *.Mask F.Cu In2.Cu In4.Cu B.Cu)
    (solder_mask_margin 0.1016) (clearance 0.1524) (zone_connect 2) (thermal_width 0.2032) (thermal_gap 0.2032))
  (pad 6 thru_hole circle (at -8.3185 -1.27) (size 1.6764 1.6764) (drill 0.9652) (layers *.Mask F.Cu In4.Cu B.Cu)
    (solder_mask_margin 0.1016) (clearance 0.1524) (zone_connect 2) (thermal_width 0.2032) (thermal_gap 0.2032))
  (pad 7 thru_hole circle (at -8.3185 1.27) (size 1.6764 1.6764) (drill 0.9652) (layers F&B.Cu *.Mask)
    (solder_mask_margin 0.1016) (clearance 0.1524) (zone_connect 2) (thermal_width 0.2032) (thermal_gap 0.2032))
  (pad 8 thru_hole circle (at -8.3185 3.81) (size 1.6764 1.6764) (drill 0.9652) (layers F&B.Cu *.Mask)
    (solder_mask_margin 0.1016) (clearance 0.1524) (zone_connect 2) (thermal_width 0.2032) (thermal_gap 0.2032))
  (model "${KIPRJMOD}/../Library/Footprints.3dshapes/capteur pression absolue-recenter.stp"
    (at (xyz 0 0 0))
    (scale (xyz 1 1 1))
    (rotate (xyz 0 0 0))
  )
)
