(module C12000 (layer F.Cu) (tedit 5ECBCE77)
  (descr "nicomatic test point")
  (attr smd)
  (fp_text reference REF** (at 2.5 0 180) (layer F.SilkS)
    (effects (font (size 1.2 1.2) (thickness 0.15)) (justify left))
  )
  (fp_text value C12000 (at 0 2) (layer F.Fab) hide
    (effects (font (size 1 1) (thickness 0.15)))
  )
  (fp_poly (pts (xy -0.4 -0.5) (xy 0.4 -0.5) (xy 0.4 0.5) (xy -0.4 0.5)) (layer F.Cu) (width 0.02))
  (fp_line (start -2.09 1.09) (end -2.09 -1.09) (layer Dwgs.User) (width 0.05))
  (fp_line (start -2.09 -1.09) (end 2.09 -1.09) (layer Dwgs.User) (width 0.05))
  (fp_line (start 2.09 -1.09) (end 2.09 1.09) (layer Dwgs.User) (width 0.05))
  (fp_line (start 2.09 1.09) (end -2.09 1.09) (layer Dwgs.User) (width 0.05))
  (fp_line (start -2 1) (end 2 1) (layer F.SilkS) (width 0.18))
  (fp_line (start 2 1) (end 2 -1) (layer F.SilkS) (width 0.18))
  (fp_line (start 2 -1) (end -2 -1) (layer F.SilkS) (width 0.18))
  (fp_line (start -2 -1) (end -2 1) (layer F.SilkS) (width 0.18))
  (fp_line (start -2 -1) (end 2 -1) (layer F.CrtYd) (width 0.02))
  (fp_line (start 2 -1) (end 2 1) (layer F.CrtYd) (width 0.02))
  (fp_line (start 2 1) (end -2 1) (layer F.CrtYd) (width 0.02))
  (fp_line (start -2 1) (end -2 -1) (layer F.CrtYd) (width 0.02))
  (fp_line (start 1.3 -0.7) (end -1.3 -0.7) (layer F.Fab) (width 0.1))
  (fp_line (start -1.3 -0.7) (end -1.3 0.7) (layer F.Fab) (width 0.1))
  (fp_line (start -1.3 0.7) (end 1.3 0.7) (layer F.Fab) (width 0.1))
  (fp_line (start 1.3 0.7) (end 1.3 -0.7) (layer F.Fab) (width 0.1))
  (pad 1 smd rect (at -1 0) (size 1.524 1.524) (layers F.Cu F.Paste F.Mask)
    (solder_mask_margin 0.1016) (zone_connect 2))
  (pad 2 smd rect (at 1 0) (size 1.524 1.524) (layers F.Cu F.Paste F.Mask)
    (solder_mask_margin 0.1016) (zone_connect 2))
  (model ${KIPRJMOD}/../Library/Footprints.3dshapes/NICOMATIC_C12000B.step
    (at (xyz 0 0 0))
    (scale (xyz 1 1 1))
    (rotate (xyz 0 0 0))
  )
)
