(module C1210_1 (layer F.Cu) (tedit 5E98DB7A)
  (attr smd)
  (fp_text reference C21 (at -0.10572 -2.58162 unlocked) (layer F.SilkS)
    (effects (font (size 1.0496 1.104) (thickness 0.18)))
  )
  (fp_text value C-BC-C1210 (at 4 -0.8 unlocked) (layer F.SilkS) hide
    (effects (font (size 1.0496 1.104) (thickness 0.18)))
  )
  (fp_line (start -1.33673 -1.905) (end -1.07327 -1.905) (layer F.SilkS) (width 0.18))
  (fp_line (start -2.32631 1.905) (end 1.71631 1.905) (layer F.SilkS) (width 0.18))
  (fp_line (start -0.49369 -1.905) (end 2.54 -1.905) (layer F.SilkS) (width 0.18))
  (fp_line (start -2.54 1.76726) (end -2.54 -1.89499) (layer F.SilkS) (width 0.18))
  (fp_line (start 2.54 1.80622) (end 2.54 -1.905) (layer F.SilkS) (width 0.18))
  (fp_line (start -1.778 1.397) (end -1.778 -1.397) (layer F.Fab) (width 0.1))
  (fp_line (start -1.778 -1.397) (end 1.778 -1.397) (layer F.Fab) (width 0.1))
  (fp_line (start 1.778 1.397) (end 1.778 -1.397) (layer F.Fab) (width 0.1))
  (fp_line (start -1.778 1.397) (end 1.778 1.397) (layer F.Fab) (width 0.1))
  (pad 2 smd rect (at 1.4224 0) (size 1.5748 3.175) (layers F.Cu F.Paste F.Mask))
  (pad 1 smd rect (at -1.4224 0) (size 1.5748 3.175) (layers F.Cu F.Paste F.Mask))
  (model ${KISYS3DMOD}/Capacitor_SMD.3dshapes/C_1210_3225Metric.wrl
    (at (xyz 0 0 0))
    (scale (xyz 1 1 1))
    (rotate (xyz 0 0 0))
  )
)
