(module C2220_1 (layer F.Cu) (tedit 5E951C2D)
  (attr smd)
  (fp_text reference C26 (at -0.6985 0.4572 -180 unlocked) (layer F.SilkS)
    (effects (font (size 1.033069 1.086612) (thickness 0.1778)))
  )
  (fp_text value C-BC-C2220 (at -3.937 0.7874 -180 unlocked) (layer F.SilkS) hide
    (effects (font (size 1.033069 1.086612) (thickness 0.1778)))
  )
  (fp_line (start 2.8448 2.54) (end 2.8448 -2.54) (layer B.Fab) (width 0.0762))
  (fp_line (start -2.8448 -2.54) (end 2.8448 -2.54) (layer B.Fab) (width 0.0762))
  (fp_line (start -2.8448 2.54) (end -2.8448 -2.54) (layer B.Fab) (width 0.0762))
  (fp_line (start -2.8448 2.54) (end 2.8448 2.54) (layer B.Fab) (width 0.0762))
  (fp_line (start -1.6256 -2.6924) (end 1.6256 -2.6924) (layer F.SilkS) (width 0.1778))
  (fp_line (start -1.6256 2.6924) (end 1.6256 2.6924) (layer F.SilkS) (width 0.1778))
  (pad 1 smd rect (at -2.8448 0 180) (size 1.905 5.588) (layers F.Cu F.Paste F.Mask))
  (pad 2 smd rect (at 2.8448 0 180) (size 1.905 5.588) (layers F.Cu F.Paste F.Mask))
  (model ${KISYS3DMOD}/Capacitor_SMD.3dshapes/C_2220_5650Metric.wrl
    (at (xyz 0 0 0))
    (scale (xyz 1 1 1))
    (rotate (xyz 0 0 0))
  )
)
