(module CON-43650-0229 (layer F.Cu) (tedit 5E8B8CAF)
  (attr smd)
  (fp_text reference REF** (at -0.3683 3.82905 -270 unlocked) (layer F.SilkS)
    (effects (font (size 0.316586 0.332994) (thickness 0.0254)))
  )
  (fp_text value CON-43650-0229 (at 0.7493 0.0381 -180 unlocked) (layer F.SilkS) hide
    (effects (font (size 0.316586 0.332994) (thickness 0.0254)))
  )
  (fp_line (start -4.826 -1.8796) (end -0.9906 -1.8796) (layer F.SilkS) (width 0.1778))
  (fp_line (start -3.6322 2.4638) (end 3.683 2.4638) (layer F.SilkS) (width 0.1778))
  (fp_line (start 4.826 0.8382) (end 4.826 -1.8796) (layer F.SilkS) (width 0.1778))
  (fp_line (start 0.9906 -1.8796) (end 4.826 -1.8796) (layer F.SilkS) (width 0.1778))
  (fp_line (start 0.9906 -1.8796) (end 0.9906 -3.0988) (layer F.SilkS) (width 0.1778))
  (fp_line (start -0.9906 -3.0988) (end 0.9906 -3.0988) (layer F.SilkS) (width 0.1778))
  (fp_line (start -0.9906 -1.8796) (end -0.9906 -3.0988) (layer F.SilkS) (width 0.1778))
  (fp_line (start -4.826 1.0922) (end -4.826 -1.8796) (layer F.SilkS) (width 0.1778))
  (fp_line (start 4.826 2.4638) (end 4.826 -1.8796) (layer F.Fab) (width 0.1778))
  (fp_line (start -4.826 -1.8796) (end 4.826 -1.8796) (layer F.Fab) (width 0.1778))
  (fp_line (start -4.826 2.4638) (end -4.826 -1.8796) (layer F.Fab) (width 0.1778))
  (fp_line (start -4.826 2.4638) (end 4.826 2.4638) (layer F.Fab) (width 0.1778))
  (pad 4 thru_hole circle (at 4.4958 1.9558) (size 1.9812 1.9812) (drill 1.2954) (layers *.Cu *.Mask))
  (pad 3 thru_hole circle (at -4.4958 1.9558) (size 1.9812 1.9812) (drill 1.2954) (layers *.Cu *.Mask))
  (pad 2 thru_hole circle (at -1.4986 0) (size 1.9812 1.9812) (drill 0.9906) (layers *.Cu *.Mask))
  (pad 1 thru_hole circle (at 1.4986 0) (size 1.9812 1.9812) (drill 0.9906) (layers *.Cu *.Mask))
  (model "${KIPRJMOD}/../Library/Footprints.3dshapes/436500229.stp"
    (offset (xyz 0 0 5.1))
    (scale (xyz 1 1 1))
    (rotate (xyz 0 0 0))
  )
)
