(module FEE_COMP_0.3 (layer F.Cu) (tedit 0)
  (fp_text reference REF** (at 0 0) (layer F.SilkS) hide
    (effects (font (size 1 1) (thickness 0.15)))
  )
  (fp_text value FEE_COMP (at 0 2) (layer F.Fab) hide
    (effects (font (size 1 1) (thickness 0.15)))
  )
  (fp_arc (start 3.332091 -0.984126) (end 3.288846 -1.253676) (angle 182.230765) (layer F.Cu) (width 0.03))
  (fp_arc (start 1.765108 -0.763921) (end 1.820301 -0.49605) (angle 187.286501) (layer F.Cu) (width 0.03))
  (fp_arc (start 1.735667 -1.094474) (end 1.744335 -1.036629) (angle -178.953582) (layer F.Cu) (width 0.03))
  (fp_arc (start 1.674373 -1.440237) (end 1.728057 -1.152468) (angle 185.135802) (layer F.Cu) (width 0.03))
  (fp_arc (start 1.637111 -1.789378) (end 1.646664 -1.731657) (angle -177.202079) (layer F.Cu) (width 0.03))
  (fp_arc (start 1.573542 -2.115135) (end 1.630386 -1.847496) (angle 187.983347) (layer F.Cu) (width 0.03))
  (fp_arc (start 3.331981 -2.362245) (end 3.311301 -2.634966) (angle 172.674124) (layer F.Cu) (width 0.03))
  (fp_arc (start 2.310548 -1.884015) (end 2.306112 -1.942455) (angle -187.317041) (layer F.Cu) (width 0.03))
  (fp_arc (start 3.445544 -1.689136) (end 3.403545 -1.978548) (angle 180.515197) (layer F.Cu) (width 0.03))
  (fp_arc (start 2.408219 -1.188987) (end 2.403783 -1.247427) (angle -187.317041) (layer F.Cu) (width 0.03))
  (fp_line (start -0.342399 -0.13071) (end -0.342399 -4.133352) (layer Dwgs.User) (width 0.05))
  (fp_line (start -0.342399 -4.133352) (end 4.475697 -4.133352) (layer Dwgs.User) (width 0.05))
  (fp_line (start 4.475697 -4.133352) (end 4.475697 -0.13071) (layer Dwgs.User) (width 0.05))
  (fp_line (start 4.475697 -0.13071) (end -0.342399 -0.13071) (layer Dwgs.User) (width 0.05))
  (fp_line (start 3.364812 -0.713097) (end 1.820301 -0.49605) (layer F.Cu) (width 0.03))
  (fp_line (start 1.55442 -2.388075) (end 3.311301 -2.634966) (layer F.Cu) (width 0.03))
  (fp_line (start 3.387267 -2.094387) (end 2.306112 -1.942455) (layer F.Cu) (width 0.03))
  (fp_line (start 2.32239 -1.826616) (end 3.403545 -1.978548) (layer F.Cu) (width 0.03))
  (fp_line (start 3.484938 -1.399359) (end 2.403783 -1.247427) (layer F.Cu) (width 0.03))
  (fp_line (start 2.420061 -1.131588) (end 3.288846 -1.253676) (layer F.Cu) (width 0.03))
  (fp_poly (pts (xy -0.217596 -1.548429) (xy -0.342399 -2.436522) (xy 0.159567 -2.507061) (xy 0.149472 -2.609685)
     (xy 0.147884 -2.712793) (xy 0.154814 -2.815679) (xy 0.170213 -2.917642) (xy 0.193977 -3.017986)
     (xy 0.225944 -3.116026) (xy 0.265896 -3.211092) (xy 0.313559 -3.302535) (xy 0.368608 -3.389731)
     (xy 0.430668 -3.472085) (xy 0.499315 -3.549035) (xy 0.57408 -3.620055) (xy 0.654453 -3.68466)
     (xy 0.739885 -3.74241) (xy 0.829792 -3.79291) (xy 0.923562 -3.835815) (xy 1.020554 -3.870833)
     (xy 1.120105 -3.897724) (xy 1.221537 -3.916305) (xy 2.766045 -4.133352) (xy 2.861373 -4.111957)
     (xy 2.939398 -4.05316) (xy 2.986239 -3.967422) (xy 2.988829 -3.862764) (xy 2.968157 -3.760134)
     (xy 2.925251 -3.66464) (xy 2.862246 -3.581031) (xy 2.782276 -3.513467) (xy 2.68932 -3.46531)
     (xy 2.588001 -3.438954) (xy 1.675821 -3.310767) (xy 1.587056 -3.267) (xy 1.527494 -3.18796)
     (xy 1.509888 -3.09057) (xy 4.159641 -3.462936) (xy 4.267335 -3.458604) (xy 4.364959 -3.412927)
     (xy 4.437296 -3.333026) (xy 4.473069 -3.231354) (xy 4.466703 -3.123761) (xy 4.41919 -3.027017)
     (xy 4.337936 -2.956203) (xy 4.235607 -2.922357) (xy 1.416879 -2.526246) (xy 1.324434 -2.474383)
     (xy 1.246753 -2.402262) (xy 1.18818 -2.313916) (xy 1.15199 -2.214286) (xy 1.140207 -2.108944)
     (xy 1.15349 -2.00378) (xy 1.191096 -1.904677) (xy 1.250923 -1.817175) (xy 1.329624 -1.746168)
     (xy 1.267546 -1.666401) (xy 1.225182 -1.57463) (xy 1.20474 -1.475643) (xy 1.207286 -1.374598)
     (xy 1.232688 -1.276765) (xy 1.27962 -1.187245) (xy 1.345637 -1.110706) (xy 1.427295 -1.051137)
     (xy 1.360158 -0.976406) (xy 1.3153 -0.886518) (xy 1.295948 -0.78794) (xy 1.303494 -0.687765)
     (xy 1.337396 -0.593198) (xy 1.395215 -0.511045) (xy 1.47279 -0.447216) (xy 1.372462 -0.429732)
     (xy 1.271141 -0.419453) (xy 1.169346 -0.41643) (xy 1.067594 -0.420679) (xy 0.966405 -0.432179)
     (xy 0.866295 -0.45087) (xy 0.767774 -0.476657) (xy 0.671344 -0.509409) (xy 0.577497 -0.548959)
     (xy 0.486711 -0.595105) (xy 0.39945 -0.647613) (xy 0.316159 -0.706213) (xy 0.237262 -0.770607)
     (xy 0.163161 -0.840468) (xy 0.094234 -0.915439) (xy 0.030833 -0.995137) (xy -0.026719 -1.079156)
     (xy -0.078128 -1.167068) (xy -0.123133 -1.258424) (xy -0.161504 -1.352759) (xy -0.193045 -1.449592)
     (xy -0.217596 -1.548429)) (layer F.Cu) (width 0))
  (fp_poly (pts (xy 3.831207 -1.763022) (xy 3.813103 -1.875034) (xy 3.753349 -1.971491) (xy 3.661118 -2.037581)
     (xy 3.550572 -2.063157) (xy 3.622286 -2.124404) (xy 3.672515 -2.204222) (xy 3.696705 -2.295375)
     (xy 3.906138 -2.324805) (xy 4.012972 -2.319395) (xy 4.109522 -2.273344) (xy 4.18096 -2.193725)
     (xy 4.216315 -2.092766) (xy 4.210155 -1.985973) (xy 4.163428 -1.889748) (xy 4.083309 -1.818871)
     (xy 3.982104 -1.784226) (xy 3.831207 -1.763022)) (layer F.Cu) (width 0))
  (fp_poly (pts (xy 3.698397 -1.035606) (xy 3.66805 -1.140972) (xy 3.60225 -1.228683) (xy 3.509583 -1.287297)
     (xy 3.609133 -1.320704) (xy 3.697519 -1.377398) (xy 3.769394 -1.45395) (xy 3.820412 -1.54573)
     (xy 3.847485 -1.647186) (xy 4.022439 -1.671771) (xy 4.12451 -1.668974) (xy 4.219397 -1.631257)
     (xy 4.295535 -1.563217) (xy 4.34364 -1.47315) (xy 4.35785 -1.372035) (xy 4.336431 -1.272197)
     (xy 4.281996 -1.185809) (xy 4.201178 -1.1234) (xy 4.103832 -1.092579) (xy 3.698397 -1.035606)) (layer F.Cu) (width 0))
  (fp_poly (pts (xy 2.35989 -0.473445) (xy 3.441045 -0.625377) (xy 3.543619 -0.659075) (xy 3.629323 -0.724738)
     (xy 3.688555 -0.815007) (xy 3.714675 -0.919767) (xy 3.984963 -0.95775) (xy 4.086423 -0.94132)
     (xy 4.177675 -0.894022) (xy 4.249588 -0.820588) (xy 4.294966 -0.728366) (xy 4.309269 -0.626585)
     (xy 4.291065 -0.525428) (xy 4.242176 -0.435019) (xy 4.167494 -0.364402) (xy 4.074492 -0.320646)
     (xy 2.723049 -0.130728) (xy 2.614247 -0.146425) (xy 2.515256 -0.194226) (xy 2.435307 -0.269674)
     (xy 2.381857 -0.365734) (xy 2.35989 -0.473445)) (layer F.Cu) (width 0))
)
