(module GDCAFE-F_FERME_1 (layer F.Cu) (tedit 5EB4BA28)
  (solder_mask_margin 0.05)
  (zone_connect 2)
  (attr smd)
  (fp_text reference JPL2 (at -2.591 1.105 unlocked) (layer F.SilkS)
    (effects (font (size 1.0496 1.104) (thickness 0.18)))
  )
  (fp_text value LINK (at 4.4 -0.8 unlocked) (layer F.SilkS) hide
    (effects (font (size 1.0496 1.104) (thickness 0.18)))
  )
  (fp_poly (pts (xy 0.3175 0.76) (xy -0.3175 0.76) (xy -0.3175 -0.76) (xy 0.3175 -0.76)) (layer F.Mask) (width 0.1))
  (fp_poly (pts (xy 0.3175 0.635) (xy -0.3175 0.635) (xy -0.3175 -0.635) (xy 0.3175 -0.635)) (layer F.Cu) (width 0.1))
  (pad 1 smd circle (at 0.204 0) (size 0.00508 0.00508) (layers F.Cu F.Paste F.Mask)
    (zone_connect 2))
  (pad 1 smd custom (at 0.5 0) (size 0.3 0.3) (layers F.Cu F.Mask)
    (zone_connect 2)
    (options (clearance outline) (anchor circle))
    (primitives
      (gr_poly (pts
         (xy -0.075 -0.625) (xy 0.1 -0.55) (xy 0.225 -0.45) (xy 0.3 -0.325) (xy 0.4 -0.1)
         (xy 0.4 0.125) (xy 0.325 0.275) (xy 0.2 0.475) (xy 0.05 0.575) (xy -0.125 0.65)
         (xy -0.2 0.65) (xy -0.2 -0.65)) (width 0.1))
      (gr_arc (start -0.25 0) (end -0.25 0.7) (angle -180) (width 0.12))
      (gr_line (start -0.25 -0.7) (end -0.25 0.7) (width 0.12))
    ))
  (pad 2 smd custom (at -0.5 0 180) (size 0.3 0.3) (layers F.Cu F.Mask)
    (zone_connect 0)
    (options (clearance outline) (anchor circle))
    (primitives
      (gr_poly (pts
         (xy -0.075 -0.625) (xy 0.1 -0.55) (xy 0.225 -0.45) (xy 0.3 -0.325) (xy 0.4 -0.1)
         (xy 0.4 0.125) (xy 0.325 0.275) (xy 0.2 0.475) (xy 0.05 0.575) (xy -0.125 0.65)
         (xy -0.2 0.65) (xy -0.2 -0.65)) (width 0.1))
      (gr_arc (start -0.25 0) (end -0.25 0.7) (angle -180) (width 0.12))
      (gr_line (start -0.25 -0.7) (end -0.25 0.7) (width 0.12))
    ))
)
