(module HMB12_1 (layer F.Cu) (tedit 5E9B8BB2)
  (attr smd)
  (fp_text reference BUZ1 (at -0.98457 9.401 unlocked) (layer F.SilkS)
    (effects (font (size 1.0496 1.104) (thickness 0.1)))
  )
  (fp_text value BZ-10-HMB12 (at 3.48327 0.0332 unlocked) (layer F.SilkS) hide
    (effects (font (size 1.0496 1.104) (thickness 0.1)))
  )
  (fp_arc (start 0 0) (end -7.967075 -0.725061) (angle -5.2) (layer F.SilkS) (width 0.18))
  (fp_arc (start 0 0) (end 7.996052 0.251286) (angle -168.1) (layer F.SilkS) (width 0.18))
  (fp_arc (start -0.00001 0) (end -7.910061 1.196283) (angle -161) (layer F.SilkS) (width 0.18))
  (fp_arc (start 0 0) (end -8 0) (angle -3.1) (layer F.SilkS) (width 0.18))
  (fp_arc (start 0 0) (end -6 0) (angle -360) (layer B.Fab) (width 0.1))
  (fp_arc (start 0 0) (end -5 0) (angle -360) (layer B.Fab) (width 0.1))
  (fp_arc (start 0 0) (end -2 0) (angle -360) (layer B.Fab) (width 0.1))
  (fp_arc (start 0 0) (end -8 0) (angle -360) (layer B.Fab) (width 0.1))
  (pad - thru_hole circle (at 0 -3.81 180) (size 2.032 2.032) (drill 1.016) (layers *.Cu *.Mask))
  (pad + thru_hole rect (at 0 3.81 180) (size 2.032 2.032) (drill 1.016) (layers *.Cu *.Mask))
  (model ${KISYS3DMOD}/Buzzer_Beeper.3dshapes/MagneticBuzzer_StarMicronics_HMB-06_HMB-12.wrl
    (offset (xyz 0 3.8 0))
    (scale (xyz 1 1 1))
    (rotate (xyz 0 0 90))
  )
)
