(module L0603_1 (layer F.Cu) (tedit 5EAD5A5D)
  (attr smd)
  (fp_text reference L1 (at 0.53913 -2.3652 unlocked) (layer F.SilkS)
    (effects (font (size 1.0496 1.104) (thickness 0.1)))
  )
  (fp_text value L-BC-L0603 (at -3.36943 -0.0332 unlocked) (layer F.SilkS) hide
    (effects (font (size 1.0496 1.104) (thickness 0.1)))
  )
  (fp_line (start -1.42875 0.9525) (end -1.42875 -0.9525) (layer F.SilkS) (width 0.18))
  (fp_line (start -1.42875 0.9525) (end 1.42875 0.9525) (layer F.SilkS) (width 0.18))
  (fp_line (start 1.42875 0.9525) (end 1.42875 -0.9525) (layer F.SilkS) (width 0.18))
  (fp_line (start -1.42875 -0.9525) (end 1.42875 -0.9525) (layer F.SilkS) (width 0.18))
  (fp_line (start -1.4224 0.9398) (end -1.4224 -0.9398) (layer Dwgs.User) (width 0.1778))
  (fp_line (start -1.4224 0.9398) (end 1.4224 0.9398) (layer Dwgs.User) (width 0.1778))
  (fp_line (start 1.4224 0.9398) (end 1.4224 -0.9398) (layer Dwgs.User) (width 0.1778))
  (fp_line (start -1.4224 -0.9398) (end 1.4224 -0.9398) (layer Dwgs.User) (width 0.1778))
  (fp_line (start 0.9 0.4) (end 0.9 -0.4) (layer F.Fab) (width 0.1))
  (fp_line (start -0.9 -0.4) (end 0.9 -0.4) (layer F.Fab) (width 0.1))
  (fp_line (start -0.9 0.4) (end 0.9 0.4) (layer F.Fab) (width 0.1))
  (fp_line (start -0.9 0.4) (end -0.9 -0.4) (layer F.Fab) (width 0.1))
  (pad 2 smd rect (at 0.635 0) (size 0.9144 1.1176) (layers F.Cu F.Paste F.Mask))
  (pad 1 smd rect (at -0.635 0) (size 0.9144 1.1176) (layers F.Cu F.Paste F.Mask))
  (model ${KISYS3DMOD}/Capacitor_SMD.3dshapes/C_0603_1608Metric.wrl
    (at (xyz 0 0 0))
    (scale (xyz 1 1 1))
    (rotate (xyz 0 0 0))
  )
)
