(module MOL43650-02D (layer F.Cu) (tedit 5ECBB6FC)
  (descr "Connector, 2 Circuits, 3.00mm Pitch, Molex Micro-Fit 3.0 Right-Angle Header")
  (attr smd)
  (fp_text reference Ref** (at 2.91917 -0.77224 90) (layer F.SilkS)
    (effects (font (size 1.2 1.2) (thickness 0.1)) (justify left bottom))
  )
  (fp_text value MOL43650-0224 (at 0 3) (layer F.Fab) hide
    (effects (font (size 1 1) (thickness 0.15)))
  )
  (fp_poly (pts (xy -4.85 2.08) (xy -4.85 0.98) (xy -7.25 0.98) (xy -7.25 -0.97)
    (xy -4.85 -0.97) (xy -4.85 -2.02) (xy -2.2366 -2.02) (xy -2.2366 -4.82)
    (xy -0.7634 -4.82) (xy -0.7634 -3.32) (xy 0.7634 -3.32) (xy 0.7634 -4.82)
    (xy 2.2366 -4.82) (xy 2.2366 -2.02) (xy 4.85 -2.02) (xy 4.85 -0.97)
    (xy 7.2392 -0.97) (xy 7.2392 0.98) (xy 4.85 0.98) (xy 4.85 2.08)) (layer F.Fab) (width 0.02))
  (fp_line (start 5.8 -2.15) (end 4.1 -2.15) (layer F.SilkS) (width 0.1))
  (fp_line (start 5.8 2.15) (end 5.8 -2.15) (layer F.SilkS) (width 0.1))
  (fp_line (start 4.1 2.15) (end 5.8 2.15) (layer F.SilkS) (width 0.1))
  (fp_line (start 4.1 -2.15) (end 4.1 2.15) (layer F.SilkS) (width 0.1))
  (fp_line (start -4.1 -2.15) (end -5.8 -2.15) (layer F.SilkS) (width 0.1))
  (fp_line (start -4.1 2.15) (end -4.1 -2.15) (layer F.SilkS) (width 0.1))
  (fp_line (start -5.8 2.15) (end -4.1 2.15) (layer F.SilkS) (width 0.1))
  (fp_line (start -5.8 -2.15) (end -5.8 2.15) (layer F.SilkS) (width 0.1))
  (fp_line (start -0.865 -4.69) (end -2.135 -4.69) (layer F.SilkS) (width 0.1))
  (fp_line (start -0.865 -1.19) (end -0.865 -4.69) (layer F.SilkS) (width 0.1))
  (fp_line (start -2.135 -1.19) (end -0.865 -1.19) (layer F.SilkS) (width 0.1))
  (fp_line (start -2.135 -4.69) (end -2.135 -1.19) (layer F.SilkS) (width 0.1))
  (fp_line (start 2.135 -4.69) (end 0.865 -4.69) (layer F.SilkS) (width 0.1))
  (fp_line (start 2.135 -1.19) (end 2.135 -4.69) (layer F.SilkS) (width 0.1))
  (fp_line (start 0.865 -1.19) (end 2.135 -1.19) (layer F.SilkS) (width 0.1))
  (fp_line (start 0.865 -4.69) (end 0.865 -1.19) (layer F.SilkS) (width 0.1))
  (fp_line (start 4 -2.02) (end 4.85 -1.17) (layer F.SilkS) (width 0.1))
  (fp_line (start 0.5 -1.02) (end 0.5 0.98) (layer F.SilkS) (width 0.1))
  (fp_line (start 2.5 -1.02) (end 0.5 -1.02) (layer F.SilkS) (width 0.1))
  (fp_line (start 2.5 0.48) (end 2.5 -1.02) (layer F.SilkS) (width 0.1))
  (fp_line (start 2 0.98) (end 2.5 0.48) (layer F.SilkS) (width 0.1))
  (fp_line (start 0.5 0.98) (end 2 0.98) (layer F.SilkS) (width 0.1))
  (fp_line (start -0.5 -1.02) (end -2.5 -1.02) (layer F.SilkS) (width 0.1))
  (fp_line (start -0.5 0.98) (end -0.5 -1.02) (layer F.SilkS) (width 0.1))
  (fp_line (start -2 0.98) (end -0.5 0.98) (layer F.SilkS) (width 0.1))
  (fp_line (start -2.5 0.48) (end -2 0.98) (layer F.SilkS) (width 0.1))
  (fp_line (start -2.5 -1.02) (end -2.5 0.48) (layer F.SilkS) (width 0.1))
  (fp_line (start -1 -3.22) (end -1 -2.02) (layer F.SilkS) (width 0.1))
  (fp_line (start 1 -3.22) (end -1 -3.22) (layer F.SilkS) (width 0.1))
  (fp_line (start 1 -2.02) (end 1 -3.22) (layer F.SilkS) (width 0.1))
  (fp_line (start -1 -2.02) (end 1 -2.02) (layer F.SilkS) (width 0.1))
  (fp_line (start 1.15 -4.32) (end 1.15 -2.02) (layer F.SilkS) (width 0.1))
  (fp_line (start 1.85 -4.32) (end 1.15 -4.32) (layer F.SilkS) (width 0.1))
  (fp_line (start 1.85 -2.02) (end 1.85 -4.32) (layer F.SilkS) (width 0.1))
  (fp_line (start 1.15 -2.02) (end 1.85 -2.02) (layer F.SilkS) (width 0.1))
  (fp_line (start -1.85 -4.32) (end -1.85 -2.02) (layer F.SilkS) (width 0.1))
  (fp_line (start -1.15 -4.32) (end -1.85 -4.32) (layer F.SilkS) (width 0.1))
  (fp_line (start -1.15 -2.02) (end -1.15 -4.32) (layer F.SilkS) (width 0.1))
  (fp_line (start -1.85 -2.02) (end -1.15 -2.02) (layer F.SilkS) (width 0.1))
  (fp_line (start 6.85 -0.72) (end 6.85 0.68) (layer F.SilkS) (width 0.1))
  (fp_line (start 4.85 -0.72) (end 6.85 -0.72) (layer F.SilkS) (width 0.1))
  (fp_line (start 4.85 0.68) (end 4.85 -0.72) (layer F.SilkS) (width 0.1))
  (fp_line (start 6.85 0.68) (end 4.85 0.68) (layer F.SilkS) (width 0.1))
  (fp_line (start -4.85 -0.72) (end -4.85 0.68) (layer F.SilkS) (width 0.1))
  (fp_line (start -6.85 -0.72) (end -4.85 -0.72) (layer F.SilkS) (width 0.1))
  (fp_line (start -6.85 0.68) (end -6.85 -0.72) (layer F.SilkS) (width 0.1))
  (fp_line (start -4.85 0.68) (end -6.85 0.68) (layer F.SilkS) (width 0.1))
  (fp_line (start -4.85 -2.02) (end -4.85 2.08) (layer F.SilkS) (width 0.1))
  (fp_line (start 4.85 -2.02) (end -4.85 -2.02) (layer F.SilkS) (width 0.1))
  (fp_line (start 4.85 2.08) (end 4.85 -2.02) (layer F.SilkS) (width 0.1))
  (fp_line (start -4.85 2.08) (end 4.85 2.08) (layer F.SilkS) (width 0.1))
  (fp_line (start 4.85 -2.02) (end 2.3 -2.02) (layer F.Fab) (width 0.18))
  (fp_line (start 4.85 -1.12) (end 4.85 -2.02) (layer F.Fab) (width 0.18))
  (fp_line (start -4.85 -2.02) (end -2.35 -2.02) (layer F.Fab) (width 0.18))
  (fp_line (start -4.85 -1.12) (end -4.85 -2.02) (layer F.Fab) (width 0.18))
  (fp_line (start 4.85 2.08) (end 4.85 1.08) (layer F.Fab) (width 0.18))
  (fp_line (start -4.85 2.08) (end 4.85 2.08) (layer F.Fab) (width 0.18))
  (fp_line (start -4.85 1.08) (end -4.85 2.08) (layer F.Fab) (width 0.18))
  (fp_line (start 4 -2.02) (end 4.85 -1.17) (layer F.Fab) (width 0.18))
  (fp_line (start 7.2392 2.17) (end -7.25 2.17) (layer Dwgs.User) (width 0.05))
  (fp_line (start 7.2392 -4.82) (end 7.2392 2.17) (layer Dwgs.User) (width 0.05))
  (fp_line (start -7.25 -4.82) (end 7.2392 -4.82) (layer Dwgs.User) (width 0.05))
  (fp_line (start -7.25 2.17) (end -7.25 -4.82) (layer Dwgs.User) (width 0.05))
  (pad 4 smd rect (at 4.95 0 90) (size 1.7 4.3) (layers F.Cu F.Paste F.Mask)
    (solder_mask_margin 0.1) (clearance 0.2032) (zone_connect 2))
  (pad 3 smd rect (at -4.95 0 90) (size 1.7 4.3) (layers F.Cu F.Paste F.Mask)
    (solder_mask_margin 0.1) (clearance 0.2032) (zone_connect 2))
  (pad 2 smd rect (at -1.5 -2.94) (size 1.27 3.5) (layers F.Cu F.Paste F.Mask)
    (solder_mask_margin 0.1) (clearance 0.2032) (zone_connect 2))
  (pad 1 smd rect (at 1.5 -2.94) (size 1.27 3.5) (layers F.Cu F.Paste F.Mask)
    (solder_mask_margin 0.1) (clearance 0.2032) (zone_connect 2))
  (model ${KIPRJMOD}/../Library/Footprints.3dshapes/436500224.stp
    (offset (xyz 0 0 5))
    (scale (xyz 1 1 1))
    (rotate (xyz 0 0 0))
  )
)
