(module MX.A16_COMPOSANT (layer F.Cu) (tedit 0)
  (fp_text reference REF** (at 2 -0.75) (layer F.SilkS)
    (effects (font (size 1.2 1.2) (thickness 0.15)) (justify left))
  )
  (fp_text value MX.A16_COMPOSANT (at 0 2) (layer F.Fab) hide
    (effects (font (size 1 1) (thickness 0.15)))
  )
  (fp_arc (start -3.96875 0.63501) (end -3.96875 0.9525) (angle 360) (layer F.SilkS) (width 0.02))
  (fp_arc (start -3.9878 0.033) (end -3.9878 -0.602) (angle 180) (layer F.Fab) (width 0.1))
  (fp_line (start -5.2578 3.816) (end -5.2578 -3.816) (layer Dwgs.User) (width 0.05))
  (fp_line (start -5.2578 -3.816) (end 5.2578 -3.816) (layer Dwgs.User) (width 0.05))
  (fp_line (start 5.2578 -3.816) (end 5.2578 3.816) (layer Dwgs.User) (width 0.05))
  (fp_line (start 5.2578 3.816) (end -5.2578 3.816) (layer Dwgs.User) (width 0.05))
  (fp_line (start 5.0038 -1.5875) (end -5.0038 -1.5875) (layer F.SilkS) (width 0.18))
  (fp_line (start -5.0038 -1.5875) (end -5.0038 1.5875) (layer F.SilkS) (width 0.18))
  (fp_line (start -5.0038 1.5875) (end 5.0038 1.5875) (layer F.SilkS) (width 0.18))
  (fp_line (start 5.0038 1.5875) (end 5.0038 -1.5875) (layer F.SilkS) (width 0.18))
  (fp_line (start 5.08 -3.6) (end 5.08 3.6) (layer F.CrtYd) (width 0.02))
  (fp_line (start 5.08 3.6) (end -5.08 3.6) (layer F.CrtYd) (width 0.02))
  (fp_line (start -5.08 3.6) (end -5.08 -3.6) (layer F.CrtYd) (width 0.02))
  (fp_line (start -5.08 -3.6) (end 5.08 -3.6) (layer F.CrtYd) (width 0.02))
  (fp_line (start 4.445 2.06375) (end 4.445 2.69875) (layer F.Fab) (width 0.1))
  (fp_line (start 3.175 2.06375) (end 3.175 2.69875) (layer F.Fab) (width 0.1))
  (fp_line (start 1.905 2.06375) (end 1.905 2.69875) (layer F.Fab) (width 0.1))
  (fp_line (start 0.635 2.06375) (end 0.635 2.69875) (layer F.Fab) (width 0.1))
  (fp_line (start -0.635 2.06375) (end -0.635 2.69875) (layer F.Fab) (width 0.1))
  (fp_line (start -1.905 2.06375) (end -1.905 2.69875) (layer F.Fab) (width 0.1))
  (fp_line (start -3.175 2.06375) (end -3.175 2.69875) (layer F.Fab) (width 0.1))
  (fp_line (start 4.445 -2.8575) (end 4.445 -2.06375) (layer F.Fab) (width 0.1))
  (fp_line (start 3.175 -2.8575) (end 3.175 -2.06375) (layer F.Fab) (width 0.1))
  (fp_line (start 1.905 -2.8575) (end 1.905 -2.06375) (layer F.Fab) (width 0.1))
  (fp_line (start 0.635 -2.8575) (end 0.635 -2.06375) (layer F.Fab) (width 0.1))
  (fp_line (start -0.635 -2.8575) (end -0.635 -2.06375) (layer F.Fab) (width 0.1))
  (fp_line (start -1.905 -2.8575) (end -1.905 -2.06375) (layer F.Fab) (width 0.1))
  (fp_line (start -3.175 -2.8575) (end -3.175 -2.06375) (layer F.Fab) (width 0.1))
  (fp_line (start -4.445 2.06375) (end -4.445 2.69875) (layer F.Fab) (width 0.1))
  (fp_line (start -4.445 -2.8575) (end -4.445 -2.06375) (layer F.Fab) (width 0.1))
  (fp_line (start -5.0038 -0.602) (end -3.9878 -0.602) (layer F.Fab) (width 0.1))
  (fp_line (start -3.9878 0.668) (end -5.0038 0.668) (layer F.Fab) (width 0.1))
  (fp_line (start 5.0038 -2.06375) (end -5.0038 -2.06375) (layer F.Fab) (width 0.1))
  (fp_line (start -5.0038 -2.06375) (end -5.0038 2.06375) (layer F.Fab) (width 0.1))
  (fp_line (start -5.0038 2.06375) (end 5.0038 2.06375) (layer F.Fab) (width 0.1))
  (fp_line (start 5.0038 2.06375) (end 5.0038 -2.06375) (layer F.Fab) (width 0.1))
  (fp_line (start -5.0038 3.562) (end -5.0038 2.038) (layer F.SilkS) (width 0.02))
  (fp_line (start -5.0038 2.038) (end -4.1402 2.038) (layer F.SilkS) (width 0.02))
  (fp_line (start -4.1402 2.038) (end -4.1402 3.562) (layer F.SilkS) (width 0.02))
  (fp_line (start -4.1402 3.562) (end -5.0038 3.562) (layer F.SilkS) (width 0.02))
  (fp_line (start -3.4798 3.562) (end -3.4798 2.038) (layer F.SilkS) (width 0.02))
  (fp_line (start -3.4798 2.038) (end -2.8702 2.038) (layer F.SilkS) (width 0.02))
  (fp_line (start -2.8702 2.038) (end -2.8702 3.562) (layer F.SilkS) (width 0.02))
  (fp_line (start -2.8702 3.562) (end -3.4798 3.562) (layer F.SilkS) (width 0.02))
  (fp_line (start -2.2098 3.562) (end -2.2098 2.038) (layer F.SilkS) (width 0.02))
  (fp_line (start -2.2098 2.038) (end -1.6002 2.038) (layer F.SilkS) (width 0.02))
  (fp_line (start -1.6002 2.038) (end -1.6002 3.562) (layer F.SilkS) (width 0.02))
  (fp_line (start -1.6002 3.562) (end -2.2098 3.562) (layer F.SilkS) (width 0.02))
  (fp_line (start -0.9398 3.562) (end -0.9398 2.038) (layer F.SilkS) (width 0.02))
  (fp_line (start -0.9398 2.038) (end -0.3302 2.038) (layer F.SilkS) (width 0.02))
  (fp_line (start -0.3302 2.038) (end -0.3302 3.562) (layer F.SilkS) (width 0.02))
  (fp_line (start -0.3302 3.562) (end -0.9398 3.562) (layer F.SilkS) (width 0.02))
  (fp_line (start 0.3302 3.562) (end 0.3302 2.038) (layer F.SilkS) (width 0.02))
  (fp_line (start 0.3302 2.038) (end 0.9398 2.038) (layer F.SilkS) (width 0.02))
  (fp_line (start 0.9398 2.038) (end 0.9398 3.562) (layer F.SilkS) (width 0.02))
  (fp_line (start 0.9398 3.562) (end 0.3302 3.562) (layer F.SilkS) (width 0.02))
  (fp_line (start 1.6002 3.562) (end 1.6002 2.038) (layer F.SilkS) (width 0.02))
  (fp_line (start 1.6002 2.038) (end 2.2098 2.038) (layer F.SilkS) (width 0.02))
  (fp_line (start 2.2098 2.038) (end 2.2098 3.562) (layer F.SilkS) (width 0.02))
  (fp_line (start 2.2098 3.562) (end 1.6002 3.562) (layer F.SilkS) (width 0.02))
  (fp_line (start 2.8702 3.562) (end 2.8702 2.038) (layer F.SilkS) (width 0.02))
  (fp_line (start 2.8702 2.038) (end 3.4798 2.038) (layer F.SilkS) (width 0.02))
  (fp_line (start 3.4798 2.038) (end 3.4798 3.562) (layer F.SilkS) (width 0.02))
  (fp_line (start 3.4798 3.562) (end 2.8702 3.562) (layer F.SilkS) (width 0.02))
  (fp_line (start 4.1402 3.562) (end 4.1402 2.038) (layer F.SilkS) (width 0.02))
  (fp_line (start 4.1402 2.038) (end 5.0038 2.038) (layer F.SilkS) (width 0.02))
  (fp_line (start 5.0038 2.038) (end 5.0038 3.562) (layer F.SilkS) (width 0.02))
  (fp_line (start 5.0038 3.562) (end 4.1402 3.562) (layer F.SilkS) (width 0.02))
  (fp_line (start 4.1402 -2.038) (end 4.1402 -3.562) (layer F.SilkS) (width 0.02))
  (fp_line (start 4.1402 -3.562) (end 5.0038 -3.562) (layer F.SilkS) (width 0.02))
  (fp_line (start 5.0038 -3.562) (end 5.0038 -2.038) (layer F.SilkS) (width 0.02))
  (fp_line (start 5.0038 -2.038) (end 4.1402 -2.038) (layer F.SilkS) (width 0.02))
  (fp_line (start 2.8702 -2.038) (end 2.8702 -3.562) (layer F.SilkS) (width 0.02))
  (fp_line (start 2.8702 -3.562) (end 3.4798 -3.562) (layer F.SilkS) (width 0.02))
  (fp_line (start 3.4798 -3.562) (end 3.4798 -2.038) (layer F.SilkS) (width 0.02))
  (fp_line (start 3.4798 -2.038) (end 2.8702 -2.038) (layer F.SilkS) (width 0.02))
  (fp_line (start 1.6002 -2.038) (end 1.6002 -3.562) (layer F.SilkS) (width 0.02))
  (fp_line (start 1.6002 -3.562) (end 2.2098 -3.562) (layer F.SilkS) (width 0.02))
  (fp_line (start 2.2098 -3.562) (end 2.2098 -2.038) (layer F.SilkS) (width 0.02))
  (fp_line (start 2.2098 -2.038) (end 1.6002 -2.038) (layer F.SilkS) (width 0.02))
  (fp_line (start 0.3302 -2.038) (end 0.3302 -3.562) (layer F.SilkS) (width 0.02))
  (fp_line (start 0.3302 -3.562) (end 0.9398 -3.562) (layer F.SilkS) (width 0.02))
  (fp_line (start 0.9398 -3.562) (end 0.9398 -2.038) (layer F.SilkS) (width 0.02))
  (fp_line (start 0.9398 -2.038) (end 0.3302 -2.038) (layer F.SilkS) (width 0.02))
  (fp_line (start -0.9398 -2.038) (end -0.9398 -3.562) (layer F.SilkS) (width 0.02))
  (fp_line (start -0.9398 -3.562) (end -0.3302 -3.562) (layer F.SilkS) (width 0.02))
  (fp_line (start -0.3302 -3.562) (end -0.3302 -2.038) (layer F.SilkS) (width 0.02))
  (fp_line (start -0.3302 -2.038) (end -0.9398 -2.038) (layer F.SilkS) (width 0.02))
  (fp_line (start -2.2098 -2.038) (end -2.2098 -3.562) (layer F.SilkS) (width 0.02))
  (fp_line (start -2.2098 -3.562) (end -1.6002 -3.562) (layer F.SilkS) (width 0.02))
  (fp_line (start -1.6002 -3.562) (end -1.6002 -2.038) (layer F.SilkS) (width 0.02))
  (fp_line (start -1.6002 -2.038) (end -2.2098 -2.038) (layer F.SilkS) (width 0.02))
  (fp_line (start -3.4798 -2.038) (end -3.4798 -3.562) (layer F.SilkS) (width 0.02))
  (fp_line (start -3.4798 -3.562) (end -2.8702 -3.562) (layer F.SilkS) (width 0.02))
  (fp_line (start -2.8702 -3.562) (end -2.8702 -2.038) (layer F.SilkS) (width 0.02))
  (fp_line (start -2.8702 -2.038) (end -3.4798 -2.038) (layer F.SilkS) (width 0.02))
  (fp_line (start -5.0038 -2.038) (end -5.0038 -3.562) (layer F.SilkS) (width 0.02))
  (fp_line (start -5.0038 -3.562) (end -4.1402 -3.562) (layer F.SilkS) (width 0.02))
  (fp_line (start -4.1402 -3.562) (end -4.1402 -2.038) (layer F.SilkS) (width 0.02))
  (fp_line (start -4.1402 -2.038) (end -5.0038 -2.038) (layer F.SilkS) (width 0.02))
  (pad 1 smd rect (at -4.572 2.8) (size 0.8636 1.524) (layers F.Cu F.Paste F.Mask)
    (solder_mask_margin 0.1016) (clearance 0.2032) (zone_connect 2))
  (pad 2 smd rect (at -3.175 2.8) (size 0.6096 1.524) (layers F.Cu F.Paste F.Mask)
    (solder_mask_margin 0.1016) (clearance 0.2032) (zone_connect 2))
  (pad 3 smd rect (at -1.905 2.8) (size 0.6096 1.524) (layers F.Cu F.Paste F.Mask)
    (solder_mask_margin 0.1016) (clearance 0.2032) (zone_connect 2))
  (pad 4 smd rect (at -0.635 2.8) (size 0.6096 1.524) (layers F.Cu F.Paste F.Mask)
    (solder_mask_margin 0.1016) (clearance 0.2032) (zone_connect 2))
  (pad 5 smd rect (at 0.635 2.8) (size 0.6096 1.524) (layers F.Cu F.Paste F.Mask)
    (solder_mask_margin 0.1016) (clearance 0.2032) (zone_connect 2))
  (pad 6 smd rect (at 1.905 2.8) (size 0.6096 1.524) (layers F.Cu F.Paste F.Mask)
    (solder_mask_margin 0.1016) (clearance 0.2032) (zone_connect 2))
  (pad 7 smd rect (at 3.175 2.8) (size 0.6096 1.524) (layers F.Cu F.Paste F.Mask)
    (solder_mask_margin 0.1016) (clearance 0.2032) (zone_connect 2))
  (pad 8 smd rect (at 4.572 2.8) (size 0.8636 1.524) (layers F.Cu F.Paste F.Mask)
    (solder_mask_margin 0.1016) (clearance 0.2032) (zone_connect 2))
  (pad 9 smd rect (at 4.572 -2.8) (size 0.8636 1.524) (layers F.Cu F.Paste F.Mask)
    (solder_mask_margin 0.1016) (clearance 0.2032) (zone_connect 2))
  (pad 10 smd rect (at 3.175 -2.8) (size 0.6096 1.524) (layers F.Cu F.Paste F.Mask)
    (solder_mask_margin 0.1016) (clearance 0.2032) (zone_connect 2))
  (pad 11 smd rect (at 1.905 -2.8) (size 0.6096 1.524) (layers F.Cu F.Paste F.Mask)
    (solder_mask_margin 0.1016) (clearance 0.2032) (zone_connect 2))
  (pad 12 smd rect (at 0.635 -2.8) (size 0.6096 1.524) (layers F.Cu F.Paste F.Mask)
    (solder_mask_margin 0.1016) (clearance 0.2032) (zone_connect 2))
  (pad 13 smd rect (at -0.635 -2.8) (size 0.6096 1.524) (layers F.Cu F.Paste F.Mask)
    (solder_mask_margin 0.1016) (clearance 0.2032) (zone_connect 2))
  (pad 14 smd rect (at -1.905 -2.8) (size 0.6096 1.524) (layers F.Cu F.Paste F.Mask)
    (solder_mask_margin 0.1016) (clearance 0.2032) (zone_connect 2))
  (pad 15 smd rect (at -3.175 -2.8) (size 0.6096 1.524) (layers F.Cu F.Paste F.Mask)
    (solder_mask_margin 0.1016) (clearance 0.2032) (zone_connect 2))
  (pad 16 smd rect (at -4.572 -2.8) (size 0.8636 1.524) (layers F.Cu F.Paste F.Mask)
    (solder_mask_margin 0.1016) (clearance 0.2032) (zone_connect 2))
  (model ${KISYS3DMOD}/Package_SO.3dshapes/SOIC-16_3.9x9.9mm_P1.27mm.wrl
    (at (xyz 0 0 0))
    (scale (xyz 1 1 1))
    (rotate (xyz 0 0 -90))
  )
)
