(module PT-1.3MM_FOURCHE_100001 placed (layer F.Cu) (tedit 5EBE99BA)
  (fp_text reference PST9 (at -1.27 2.54) (layer F.SilkS)
    (effects (font (size 1.2 1.2) (thickness 0.1)) (justify left bottom))
  )
  (fp_text value PT-10-1013 (at 0 2) (layer F.Fab) hide
    (effects (font (size 1 1) (thickness 0.15)))
  )
  (fp_arc (start 0 0) (end 1.00402 0) (angle 360) (layer F.Fab) (width 0.02))
  (fp_arc (start 0 0) (end 1.143 0) (angle 360) (layer B.Fab) (width 0.02))
  (fp_arc (start 0 0) (end 1 0) (angle 360) (layer F.SilkS) (width 0.1))
  (fp_line (start -1.4732 1.4732) (end -1.4732 -1.4732) (layer Dwgs.User) (width 0.05))
  (fp_line (start -1.4732 -1.4732) (end 1.4732 -1.4732) (layer Dwgs.User) (width 0.05))
  (fp_line (start 1.4732 -1.4732) (end 1.4732 1.4732) (layer Dwgs.User) (width 0.05))
  (fp_line (start 1.4732 1.4732) (end -1.4732 1.4732) (layer Dwgs.User) (width 0.05))
  (fp_line (start -0.3048 -0.8) (end -0.3048 0.9) (layer F.SilkS) (width 0.1))
  (fp_line (start 0.3048 -0.8) (end 0.3048 0.889) (layer F.SilkS) (width 0.1))
  (pad 1 thru_hole circle (at 0 0) (size 2.286 2.286) (drill 1.3208) (layers F&B.Cu *.Mask)
    (solder_mask_margin 0.1016) (clearance 0.127) (zone_connect 2) (thermal_width 0.381) (thermal_gap 0.3302))
)
