(module RLY-41-52-9-024-0010 (layer F.Cu) (tedit 5E8BA7A0)
  (attr smd)
  (fp_text reference REF** (at 27.1653 -3.90525 -90 unlocked) (layer F.SilkS)
    (effects (font (size 0.316586 0.332994) (thickness 0.0254)))
  )
  (fp_text value RLY-41-52-9-024-0010 (at 5.8928 -3.3401 unlocked) (layer F.SilkS) hide
    (effects (font (size 0.316586 0.332994) (thickness 0.0254)))
  )
  (fp_line (start -2.54 2.5908) (end -2.54 -10.0838) (layer F.SilkS) (width 0.1778))
  (fp_line (start 26.4414 2.5908) (end 26.4414 -10.0838) (layer F.SilkS) (width 0.1778))
  (fp_line (start -2.54 -10.0838) (end 26.4414 -10.0838) (layer F.SilkS) (width 0.1778))
  (fp_line (start -2.54 2.5908) (end 26.4414 2.5908) (layer F.SilkS) (width 0.1778))
  (pad A2 thru_hole circle (at 0 -7.493) (size 2.4892 2.4892) (drill 1.2954) (layers *.Cu *.Mask))
  (pad A1 thru_hole circle (at 0 0) (size 2.4892 2.4892) (drill 1.2954) (layers *.Cu *.Mask))
  (pad 24 thru_hole circle (at 24.9936 -7.493) (size 2.4892 2.4892) (drill 1.2954) (layers *.Cu *.Mask))
  (pad 22 thru_hole circle (at 14.986 -7.493) (size 2.4892 2.4892) (drill 1.2954) (layers *.Cu *.Mask))
  (pad 21 thru_hole circle (at 19.9898 -7.493) (size 2.4892 2.4892) (drill 1.2954) (layers *.Cu *.Mask))
  (pad 14 thru_hole circle (at 24.9936 0) (size 2.4892 2.4892) (drill 1.2954) (layers *.Cu *.Mask))
  (pad 12 thru_hole circle (at 14.986 0) (size 2.4892 2.4892) (drill 1.2954) (layers *.Cu *.Mask))
  (pad 11 thru_hole circle (at 19.9898 0) (size 2.4892 2.4892) (drill 1.2954) (layers *.Cu *.Mask))
  (model "${KIPRJMOD}/../Library/Footprints.3dshapes/4152 v1.step"
    (offset (xyz -34.7 -2.3 7))
    (scale (xyz 1 1 1))
    (rotate (xyz -180 -180 -90))
  )
)
