(module SMA (layer F.Cu) (tedit 5ED5C6B3)
  (descr "SMA surface mount diode package")
  (solder_mask_margin 0.1016)
  (clearance 0.2032)
  (zone_connect 2)
  (attr smd)
  (fp_text reference REF** (at 3.5 0 -180) (layer F.SilkS)
    (effects (font (size 1.2 1.2) (thickness 0.15)) (justify left))
  )
  (fp_text value SMA (at 0 2.5) (layer F.Fab) hide
    (effects (font (size 1 1) (thickness 0.15)))
  )
  (fp_poly (pts (xy -1.9 1.4) (xy -1.9 -1.4) (xy -1.3 -1.4) (xy -1.3 1.4)
    (xy -1.9 1.4)) (layer F.Fab) (width 0.02))
  (fp_line (start -3.10625 1.51875) (end -3.10625 -1.51875) (layer Dwgs.User) (width 0.05))
  (fp_line (start -3.10625 -1.51875) (end 3.10625 -1.51875) (layer Dwgs.User) (width 0.05))
  (fp_line (start 3.10625 -1.51875) (end 3.10625 1.51875) (layer Dwgs.User) (width 0.05))
  (fp_line (start 3.10625 1.51875) (end -3.10625 1.51875) (layer Dwgs.User) (width 0.05))
  (fp_line (start -2.69875 -1.42875) (end -3.01625 -1.11125) (layer F.SilkS) (width 0.18))
  (fp_line (start -3.01625 -1.11125) (end -3.01625 1.11125) (layer F.SilkS) (width 0.18))
  (fp_line (start -3.01625 1.11125) (end -2.69875 1.42875) (layer F.SilkS) (width 0.18))
  (fp_line (start -2.69875 1.42875) (end 3.01625 1.42875) (layer F.SilkS) (width 0.18))
  (fp_line (start 3.01625 1.42875) (end 3.01625 -1.42875) (layer F.SilkS) (width 0.18))
  (fp_line (start 3.01625 -1.42875) (end -2.69875 -1.42875) (layer F.SilkS) (width 0.18))
  (fp_line (start -2.69875 1.42875) (end -3.01625 1.11125) (layer F.CrtYd) (width 0.02))
  (fp_line (start -3.01625 1.11125) (end -3.01625 -1.11125) (layer F.CrtYd) (width 0.02))
  (fp_line (start -3.01625 -1.11125) (end -2.69875 -1.42875) (layer F.CrtYd) (width 0.02))
  (fp_line (start -2.69875 -1.42875) (end 3.01625 -1.42875) (layer F.CrtYd) (width 0.02))
  (fp_line (start 3.01625 -1.42875) (end 3.01625 1.42875) (layer F.CrtYd) (width 0.02))
  (fp_line (start 3.01625 1.42875) (end -2.69875 1.42875) (layer F.CrtYd) (width 0.02))
  (fp_line (start -2.3 -1.4) (end -2.3 1.4) (layer F.Fab) (width 0.1))
  (fp_line (start -2.3 1.4) (end 2.3 1.4) (layer F.Fab) (width 0.1))
  (fp_line (start 2.3 1.4) (end 2.3 -1.4) (layer F.Fab) (width 0.1))
  (fp_line (start 2.3 -1.4) (end -2.3 -1.4) (layer F.Fab) (width 0.1))
  (fp_line (start -2.7 0.75) (end -2.3 0.75) (layer F.Fab) (width 0.1))
  (fp_line (start -2.3 0.75) (end -2.3 -0.75) (layer F.Fab) (width 0.1))
  (fp_line (start -2.3 -0.75) (end -2.7 -0.75) (layer F.Fab) (width 0.1))
  (fp_line (start -2.7 -0.75) (end -2.7 0.75) (layer F.Fab) (width 0.1))
  (fp_line (start 2.3 0.75) (end 2.7 0.75) (layer F.Fab) (width 0.1))
  (fp_line (start 2.7 0.75) (end 2.7 -0.75) (layer F.Fab) (width 0.1))
  (fp_line (start 2.7 -0.75) (end 2.3 -0.75) (layer F.Fab) (width 0.1))
  (fp_line (start 2.3 -0.75) (end 2.3 0.75) (layer F.Fab) (width 0.1))
  (pad A smd rect (at 1.905 0) (size 1.5748 1.905) (layers F.Cu F.Paste F.Mask)
    (zone_connect 2))
  (pad K smd rect (at -1.905 0) (size 1.5748 1.905) (layers F.Cu F.Paste F.Mask)
    (zone_connect 2))
  (model ${KISYS3DMOD}/Diode_SMD.3dshapes/D_SMA.wrl
    (at (xyz 0 0 0))
    (scale (xyz 1 1 1))
    (rotate (xyz 0 0 0))
  )
)
