(module SMB-AIROX (layer F.Cu) (tedit 0)
  (fp_text reference REF** (at -0.24294 0.84552) (layer F.SilkS)
    (effects (font (size 1.2 1.2) (thickness 0.15)) (justify left))
  )
  (fp_text value SMB-AIROX (at 0 2) (layer F.Fab) hide
    (effects (font (size 1 1) (thickness 0.15)))
  )
  (fp_poly (pts (xy -1.9 1.9) (xy -1.9 -1.9) (xy -1.3 -1.9) (xy -1.3 1.9)
    (xy -1.9 1.9)) (layer F.Fab) (width 0.02))
  (fp_line (start -3.39 2.09) (end -3.39 -2.09) (layer Dwgs.User) (width 0.05))
  (fp_line (start -3.39 -2.09) (end 3.39 -2.09) (layer Dwgs.User) (width 0.05))
  (fp_line (start 3.39 -2.09) (end 3.39 2.09) (layer Dwgs.User) (width 0.05))
  (fp_line (start 3.39 2.09) (end -3.39 2.09) (layer Dwgs.User) (width 0.05))
  (fp_line (start -3.3 1.8) (end -3.3 -1.8) (layer F.SilkS) (width 0.18))
  (fp_line (start -3.3 -1.8) (end -3.1 -2) (layer F.SilkS) (width 0.18))
  (fp_line (start -3.1 -2) (end 3.3 -2) (layer F.SilkS) (width 0.18))
  (fp_line (start 3.3 -2) (end 3.3 2) (layer F.SilkS) (width 0.18))
  (fp_line (start 3.3 2) (end -3.1 2) (layer F.SilkS) (width 0.18))
  (fp_line (start -3.1 2) (end -3.3 1.8) (layer F.SilkS) (width 0.18))
  (fp_line (start -3.1 2) (end -3.3 1.8) (layer F.CrtYd) (width 0.02))
  (fp_line (start -3.3 1.8) (end -3.3 -1.8) (layer F.CrtYd) (width 0.02))
  (fp_line (start -3.3 -1.8) (end -3.1 -2) (layer F.CrtYd) (width 0.02))
  (fp_line (start -3.1 -2) (end 3.3 -2) (layer F.CrtYd) (width 0.02))
  (fp_line (start 3.3 -2) (end 3.3 2) (layer F.CrtYd) (width 0.02))
  (fp_line (start 3.3 2) (end -3.1 2) (layer F.CrtYd) (width 0.02))
  (fp_line (start 2.85 0.955) (end 2.85 -1.155) (layer F.Fab) (width 0.1))
  (fp_line (start 2.85 -1.155) (end 2.3 -1.155) (layer F.Fab) (width 0.1))
  (fp_line (start 2.3 -1.155) (end 2.3 0.955) (layer F.Fab) (width 0.1))
  (fp_line (start 2.3 0.955) (end 2.85 0.955) (layer F.Fab) (width 0.1))
  (fp_line (start -2.85 -1.055) (end -2.85 1.055) (layer F.Fab) (width 0.1))
  (fp_line (start -2.85 1.055) (end -2.3 1.055) (layer F.Fab) (width 0.1))
  (fp_line (start -2.3 1.055) (end -2.3 -1.055) (layer F.Fab) (width 0.1))
  (fp_line (start -2.3 -1.055) (end -2.85 -1.055) (layer F.Fab) (width 0.1))
  (fp_line (start 2.3 -1.97) (end -2.3 -1.97) (layer F.Fab) (width 0.1))
  (fp_line (start -2.3 -1.97) (end -2.3 1.97) (layer F.Fab) (width 0.1))
  (fp_line (start -2.3 1.97) (end 2.3 1.97) (layer F.Fab) (width 0.1))
  (fp_line (start 2.3 1.97) (end 2.3 -1.97) (layer F.Fab) (width 0.1))
  (fp_line (start 1.135 -1.37) (end 1.135 1.37) (layer F.SilkS) (width 0))
  (fp_line (start 1.135 1.37) (end 3.285 1.37) (layer F.SilkS) (width 0))
  (fp_line (start 3.285 1.37) (end 3.285 -1.37) (layer F.SilkS) (width 0))
  (fp_line (start 3.285 -1.37) (end 1.135 -1.37) (layer F.SilkS) (width 0))
  (fp_line (start -3.285 -1.37) (end -3.285 1.37) (layer F.SilkS) (width 0))
  (fp_line (start -3.285 1.37) (end -1.135 1.37) (layer F.SilkS) (width 0))
  (fp_line (start -1.135 1.37) (end -1.135 -1.37) (layer F.SilkS) (width 0))
  (fp_line (start -1.135 -1.37) (end -3.285 -1.37) (layer F.SilkS) (width 0))
  (pad A smd rect (at 2.21 0) (size 2.15 2.74) (layers F.Cu F.Paste F.Mask)
    (solder_mask_margin 0.1) (zone_connect 2))
  (pad K smd rect (at -2.21 0) (size 2.15 2.74) (layers F.Cu F.Paste F.Mask)
    (solder_mask_margin 0.1) (zone_connect 2))
  (model ${KISYS3DMOD}/Diode_SMD.3dshapes/D_SMB.wrl
    (at (xyz 0 0 0))
    (scale (xyz 1 1 1))
    (rotate (xyz 0 0 0))
  )
)
