(module SO08-PPAD_SI7884_1 (layer F.Cu) (tedit 5EA05A47)
  (attr smd)
  (fp_text reference T19 (at -0.6985 0.4572 unlocked) (layer F.SilkS)
    (effects (font (size 1.033069 1.086612) (thickness 0.1778)))
  )
  (fp_text value L-SO08-SI7884DP (at -5.9055 0.7874 unlocked) (layer F.SilkS) hide
    (effects (font (size 1.033069 1.086612) (thickness 0.1778)))
  )
  (fp_arc (start 1.524 0) (end 1.524 -0.508) (angle -180) (layer B.Fab) (width 0.0762))
  (fp_line (start -2.54 -1.5748) (end -2.54 -1.524) (layer F.SilkS) (width 0.1778))
  (fp_line (start 2.54 -1.5748) (end -2.54 -1.5748) (layer F.SilkS) (width 0.1778))
  (fp_line (start 2.54 -1.5748) (end 2.54 -1.524) (layer F.SilkS) (width 0.1778))
  (fp_line (start 2.54 -0.508) (end 2.54 0.508) (layer B.Fab) (width 0.0762))
  (fp_line (start -1.905 -2.6924) (end -1.905 -1.905) (layer B.Fab) (width 0.0762))
  (fp_line (start 1.905 1.905) (end 1.905 2.6924) (layer B.Fab) (width 0.0762))
  (fp_line (start -0.635 -2.6924) (end -0.635 -1.905) (layer B.Fab) (width 0.0762))
  (fp_line (start 2.54 0.508) (end 1.524 0.508) (layer B.Fab) (width 0.0762))
  (fp_line (start 2.54 -1.905) (end 2.54 1.905) (layer B.Fab) (width 0.0762))
  (fp_line (start -1.905 1.905) (end -1.905 2.6924) (layer B.Fab) (width 0.0762))
  (fp_line (start -2.54 -1.905) (end -2.54 1.905) (layer B.Fab) (width 0.0762))
  (fp_line (start 2.54 1.905) (end -2.54 1.905) (layer B.Fab) (width 0.0762))
  (fp_line (start 2.54 -1.905) (end -2.54 -1.905) (layer B.Fab) (width 0.0762))
  (fp_line (start -0.635 1.905) (end -0.635 2.6924) (layer B.Fab) (width 0.0762))
  (fp_line (start 1.905 -2.6924) (end 1.905 -1.905) (layer B.Fab) (width 0.0762))
  (fp_line (start 0.635 1.905) (end 0.635 2.6924) (layer B.Fab) (width 0.0762))
  (fp_line (start 0.635 -2.6924) (end 0.635 -1.905) (layer B.Fab) (width 0.0762))
  (pad D4 smd rect (at 0 0.82) (size 3.91 3.81) (layers F.Cu F.Paste F.Mask))
  (pad S2 smd rect (at -0.635 -2.6924 180) (size 0.6096 1.524) (layers F.Cu F.Paste F.Mask))
  (pad S1 smd rect (at 0.635 -2.6924 180) (size 0.6096 1.524) (layers F.Cu F.Paste F.Mask))
  (pad S smd rect (at 2.032 -2.6924 180) (size 0.8636 1.524) (layers F.Cu F.Paste F.Mask))
  (pad G smd rect (at -2.032 -2.6924 180) (size 0.8636 1.524) (layers F.Cu F.Paste F.Mask))
  (pad D3 smd rect (at 2.032 2.6924 180) (size 0.8636 1.524) (layers F.Cu F.Paste F.Mask))
  (pad D2 smd rect (at 0.635 2.6924 180) (size 0.6096 1.524) (layers F.Cu F.Paste F.Mask))
  (pad D1 smd rect (at -0.635 2.6924 180) (size 0.6096 1.524) (layers F.Cu F.Paste F.Mask))
  (pad D smd rect (at -2.032 2.6924 180) (size 0.8636 1.524) (layers F.Cu F.Paste F.Mask))
  (model ${KISYS3DMOD}/Package_SO.3dshapes/Vishay_PowerPAK_SO-8.wrl
    (offset (xyz 0 0 3))
    (scale (xyz 1 1 1))
    (rotate (xyz 0 0 -90))
  )
)
