(module SOT23-BEC (layer F.Cu) (tedit 5EC6FA01)
  (descr "SOT23 package with pad numbers B, E, and C")
  (attr smd)
  (fp_text reference REF** (at 1 -2) (layer F.SilkS)
    (effects (font (size 1.2 1.2) (thickness 0.15)) (justify left))
  )
  (fp_text value SOT23-BEC (at 0 3) (layer F.Fab) hide
    (effects (font (size 1 1) (thickness 0.15)))
  )
  (fp_line (start -1.83625 1.995) (end -1.83625 -1.995) (layer Dwgs.User) (width 0.05))
  (fp_line (start -1.83625 -1.995) (end 1.83625 -1.995) (layer Dwgs.User) (width 0.05))
  (fp_line (start 1.83625 -1.995) (end 1.83625 1.995) (layer Dwgs.User) (width 0.05))
  (fp_line (start 1.83625 1.995) (end -1.83625 1.995) (layer Dwgs.User) (width 0.05))
  (fp_line (start -1.74625 1.905) (end 1.74625 1.905) (layer F.SilkS) (width 0.18))
  (fp_line (start 1.74625 1.905) (end 1.74625 -0.9525) (layer F.SilkS) (width 0.18))
  (fp_line (start 1.74625 -0.9525) (end 0.9525 -0.9525) (layer F.SilkS) (width 0.18))
  (fp_line (start 0.9525 -0.9525) (end 0.9525 -1.905) (layer F.SilkS) (width 0.18))
  (fp_line (start 0.9525 -1.905) (end -0.9525 -1.905) (layer F.SilkS) (width 0.18))
  (fp_line (start -0.9525 -1.905) (end -0.9525 -0.9525) (layer F.SilkS) (width 0.18))
  (fp_line (start -0.9525 -0.9525) (end -1.74625 -0.9525) (layer F.SilkS) (width 0.18))
  (fp_line (start -1.74625 -0.9525) (end -1.74625 1.905) (layer F.SilkS) (width 0.18))
  (fp_line (start -1.74625 1.905) (end -1.74625 -0.9525) (layer F.CrtYd) (width 0.02))
  (fp_line (start -1.74625 -0.9525) (end -0.9525 -0.9525) (layer F.CrtYd) (width 0.02))
  (fp_line (start -0.9525 -0.9525) (end -0.9525 -1.905) (layer F.CrtYd) (width 0.02))
  (fp_line (start -0.9525 -1.905) (end 0.9525 -1.905) (layer F.CrtYd) (width 0.02))
  (fp_line (start 0.9525 -1.905) (end 0.9525 -0.9525) (layer F.CrtYd) (width 0.02))
  (fp_line (start 0.9525 -0.9525) (end 1.74625 -0.9525) (layer F.CrtYd) (width 0.02))
  (fp_line (start 1.74625 -0.9525) (end 1.74625 1.905) (layer F.CrtYd) (width 0.02))
  (fp_line (start 1.74625 1.905) (end -1.74625 1.905) (layer F.CrtYd) (width 0.02))
  (fp_line (start -1.4478 0.6604) (end 1.4478 0.6604) (layer F.Fab) (width 0.1))
  (fp_line (start 1.4478 0.6604) (end 1.4478 -0.6604) (layer F.Fab) (width 0.1))
  (fp_line (start 1.4478 -0.6604) (end -1.4478 -0.6604) (layer F.Fab) (width 0.1))
  (fp_line (start -1.4478 -0.6604) (end -1.4478 0.6604) (layer F.Fab) (width 0.1))
  (fp_line (start -0.2032 -0.6604) (end -0.2032 -1.2446) (layer F.Fab) (width 0.1))
  (fp_line (start -0.2032 -1.2446) (end 0.2032 -1.2446) (layer F.Fab) (width 0.1))
  (fp_line (start 0.2032 -1.2446) (end 0.2032 -0.6604) (layer F.Fab) (width 0.1))
  (fp_line (start 1.1684 0.6604) (end 1.1684 1.2446) (layer F.Fab) (width 0.1))
  (fp_line (start 1.1684 1.2446) (end 0.762 1.2446) (layer F.Fab) (width 0.1))
  (fp_line (start 0.762 1.2446) (end 0.762 0.6604) (layer F.Fab) (width 0.1))
  (fp_line (start -0.762 0.6604) (end -0.762 1.2446) (layer F.Fab) (width 0.1))
  (fp_line (start -0.762 1.2446) (end -1.1684 1.2446) (layer F.Fab) (width 0.1))
  (fp_line (start -1.1684 1.2446) (end -1.1684 0.6604) (layer F.Fab) (width 0.1))
  (pad B smd rect (at -0.9652 1.0414) (size 0.9144 1.1176) (layers F.Cu F.Paste F.Mask)
    (solder_mask_margin 0.1016) (clearance 0.2032) (zone_connect 2))
  (pad C smd rect (at 0 -1.0414) (size 0.9144 1.1176) (layers F.Cu F.Paste F.Mask)
    (solder_mask_margin 0.1016) (clearance 0.2032) (zone_connect 2))
  (pad E smd rect (at 0.9652 1.0414) (size 0.9144 1.1176) (layers F.Cu F.Paste F.Mask)
    (solder_mask_margin 0.1016) (clearance 0.2032) (zone_connect 2))
  (model ${KISYS3DMOD}/Package_TO_SOT_SMD.3dshapes/SOT-23.wrl
    (at (xyz 0 0 0))
    (scale (xyz 1 1 1))
    (rotate (xyz 0 0 -90))
  )
)
