(module SOT223 (layer F.Cu) (tedit 0)
  (fp_text reference REF** (at -1.5 1.0675 180) (layer F.SilkS)
    (effects (font (size 1.2 1.2) (thickness 0.15)) (justify left))
  )
  (fp_text value SOT223 (at 0 2) (layer F.Fab) hide
    (effects (font (size 1 1) (thickness 0.15)))
  )
  (fp_line (start -3.44 4.25) (end -3.44 -4.25) (layer Dwgs.User) (width 0.05))
  (fp_line (start -3.44 -4.25) (end 3.44 -4.25) (layer Dwgs.User) (width 0.05))
  (fp_line (start 3.44 -4.25) (end 3.44 4.25) (layer Dwgs.User) (width 0.05))
  (fp_line (start 3.44 4.25) (end -3.44 4.25) (layer Dwgs.User) (width 0.05))
  (fp_line (start -3.3 -1.8) (end -2.75 -1.25) (layer F.SilkS) (width 0.18))
  (fp_line (start 2.8 1.2) (end 3.35 1.75) (layer F.SilkS) (width 0.18))
  (fp_line (start 3.3 -1.8) (end 2.75 -1.25) (layer F.SilkS) (width 0.18))
  (fp_line (start -2.8 1.3) (end -3.35 1.85) (layer F.SilkS) (width 0.18))
  (fp_line (start 2.8 -1.3) (end -2.8 -1.3) (layer F.SilkS) (width 0.18))
  (fp_line (start -2.8 -1.3) (end -2.8 1.3) (layer F.SilkS) (width 0.18))
  (fp_line (start -2.8 1.3) (end 2.8 1.3) (layer F.SilkS) (width 0.18))
  (fp_line (start 2.8 1.3) (end 2.8 -1.3) (layer F.SilkS) (width 0.18))
  (fp_line (start 3.35 -1.85) (end -3.35 -1.85) (layer F.SilkS) (width 0.18))
  (fp_line (start -3.35 -1.85) (end -3.35 1.85) (layer F.SilkS) (width 0.18))
  (fp_line (start -3.35 1.85) (end 3.35 1.85) (layer F.SilkS) (width 0.18))
  (fp_line (start 3.35 1.85) (end 3.35 -1.85) (layer F.SilkS) (width 0.18))
  (fp_line (start 3.35 -1.905) (end 3.35 2) (layer F.CrtYd) (width 0.02))
  (fp_line (start 3.35 2) (end 3.2 2) (layer F.CrtYd) (width 0.02))
  (fp_line (start 3.2 2) (end 3.2 4.2) (layer F.CrtYd) (width 0.02))
  (fp_line (start 3.2 4.2) (end -3.2 4.2) (layer F.CrtYd) (width 0.02))
  (fp_line (start -3.2 4.2) (end -3.2 2) (layer F.CrtYd) (width 0.02))
  (fp_line (start -3.2 2) (end -3.35 2) (layer F.CrtYd) (width 0.02))
  (fp_line (start -3.35 2) (end -3.35 -1.905) (layer F.CrtYd) (width 0.02))
  (fp_line (start -3.35 -1.905) (end -2 -1.905) (layer F.CrtYd) (width 0.02))
  (fp_line (start -2 -1.905) (end -2 -4.2) (layer F.CrtYd) (width 0.02))
  (fp_line (start -2 -4.2) (end 2 -4.2) (layer F.CrtYd) (width 0.02))
  (fp_line (start 2 -4.2) (end 2 -1.905) (layer F.CrtYd) (width 0.02))
  (fp_line (start 2 -1.905) (end 3.35 -1.905) (layer F.CrtYd) (width 0.02))
  (fp_line (start 3.3 -1.8) (end 2.75 -1.25) (layer F.Fab) (width 0.1))
  (fp_line (start 2.8 1.2) (end 3.35 1.75) (layer F.Fab) (width 0.1))
  (fp_line (start -2.8 1.3) (end -3.35 1.85) (layer F.Fab) (width 0.1))
  (fp_line (start -3.3 -1.8) (end -2.75 -1.25) (layer F.Fab) (width 0.1))
  (fp_line (start 2.8 -1.3) (end -2.8 -1.3) (layer F.Fab) (width 0.1))
  (fp_line (start -2.8 -1.3) (end -2.8 1.3) (layer F.Fab) (width 0.1))
  (fp_line (start -2.8 1.3) (end 2.8 1.3) (layer F.Fab) (width 0.1))
  (fp_line (start 2.8 1.3) (end 2.8 -1.3) (layer F.Fab) (width 0.1))
  (fp_line (start 1.9 3.656) (end 2.7 3.656) (layer F.Fab) (width 0.1))
  (fp_line (start 2.7 3.656) (end 2.7 1.856) (layer F.Fab) (width 0.1))
  (fp_line (start 2.7 1.856) (end 1.9 1.856) (layer F.Fab) (width 0.1))
  (fp_line (start 1.9 1.856) (end 1.9 3.656) (layer F.Fab) (width 0.1))
  (fp_line (start -0.4 3.656) (end 0.4 3.656) (layer F.Fab) (width 0.1))
  (fp_line (start 0.4 3.656) (end 0.4 1.856) (layer F.Fab) (width 0.1))
  (fp_line (start 0.4 1.856) (end -0.4 1.856) (layer F.Fab) (width 0.1))
  (fp_line (start -0.4 1.856) (end -0.4 3.656) (layer F.Fab) (width 0.1))
  (fp_line (start -2.7 3.656) (end -1.9 3.656) (layer F.Fab) (width 0.1))
  (fp_line (start -1.9 3.656) (end -1.9 1.856) (layer F.Fab) (width 0.1))
  (fp_line (start -1.9 1.856) (end -2.7 1.856) (layer F.Fab) (width 0.1))
  (fp_line (start -2.7 1.856) (end -2.7 3.656) (layer F.Fab) (width 0.1))
  (fp_line (start -1.55 -1.856) (end 1.55 -1.856) (layer F.Fab) (width 0.1))
  (fp_line (start 1.55 -1.856) (end 1.55 -3.656) (layer F.Fab) (width 0.1))
  (fp_line (start 1.55 -3.656) (end -1.55 -3.656) (layer F.Fab) (width 0.1))
  (fp_line (start -1.55 -3.656) (end -1.55 -1.856) (layer F.Fab) (width 0.1))
  (fp_line (start -3.35 1.85) (end 3.35 1.85) (layer F.Fab) (width 0.1))
  (fp_line (start 3.35 1.85) (end 3.35 -1.85) (layer F.Fab) (width 0.1))
  (fp_line (start 3.35 -1.85) (end -3.35 -1.85) (layer F.Fab) (width 0.1))
  (fp_line (start -3.35 -1.85) (end -3.35 1.85) (layer F.Fab) (width 0.1))
  (fp_line (start -3.05 2.15) (end -3.05 4.15) (layer F.SilkS) (width 0))
  (fp_line (start -3.05 4.15) (end -1.55 4.15) (layer F.SilkS) (width 0))
  (fp_line (start -1.55 4.15) (end -1.55 2.15) (layer F.SilkS) (width 0))
  (fp_line (start -1.55 2.15) (end -3.05 2.15) (layer F.SilkS) (width 0))
  (fp_line (start -0.75 2.15) (end -0.75 4.15) (layer F.SilkS) (width 0))
  (fp_line (start -0.75 4.15) (end 0.75 4.15) (layer F.SilkS) (width 0))
  (fp_line (start 0.75 4.15) (end 0.75 2.15) (layer F.SilkS) (width 0))
  (fp_line (start 0.75 2.15) (end -0.75 2.15) (layer F.SilkS) (width 0))
  (fp_line (start 1.55 2.15) (end 1.55 4.15) (layer F.SilkS) (width 0))
  (fp_line (start 1.55 4.15) (end 3.05 4.15) (layer F.SilkS) (width 0))
  (fp_line (start 3.05 4.15) (end 3.05 2.15) (layer F.SilkS) (width 0))
  (fp_line (start 3.05 2.15) (end 1.55 2.15) (layer F.SilkS) (width 0))
  (fp_line (start -1 -5.05) (end -1 -1.25) (layer F.SilkS) (width 0))
  (fp_line (start -1 -1.25) (end 1 -1.25) (layer F.SilkS) (width 0))
  (fp_line (start 1 -1.25) (end 1 -5.05) (layer F.SilkS) (width 0))
  (fp_line (start 1 -5.05) (end -1 -5.05) (layer F.SilkS) (width 0))
  (pad 1 smd rect (at -2.3 3.15) (size 1.5 2) (layers F.Cu F.Paste F.Mask)
    (solder_mask_margin 0.1) (zone_connect 2))
  (pad 2 smd rect (at 0 3.15) (size 1.5 2) (layers F.Cu F.Paste F.Mask)
    (solder_mask_margin 0.1) (zone_connect 2))
  (pad 3 smd rect (at 2.3 3.15) (size 1.5 2) (layers F.Cu F.Paste F.Mask)
    (solder_mask_margin 0.1) (zone_connect 2))
  (pad 4 smd rect (at 0 -3.15 90) (size 2 3.8) (layers F.Cu F.Paste F.Mask)
    (solder_mask_margin 0.1) (zone_connect 2))
  (model ${KISYS3DMOD}/Package_TO_SOT_SMD.3dshapes/SOT-223.wrl
    (at (xyz 0 0 0))
    (scale (xyz 1 1 1))
    (rotate (xyz 0 0 -90))
  )
)
