(module TO170P1420X457-8NA (layer F.Cu) (tedit 5E987D36)
  (attr smd)
  (fp_text reference REF** (at -10.5791 -0.0889 90 unlocked) (layer F.SilkS)
    (effects (font (size 0.316586 0.332994) (thickness 0.0254)))
  )
  (fp_text value TO170P1420X457-8NA (at 2.1463 -0.0381 -180 unlocked) (layer F.SilkS) hide
    (effects (font (size 0.316586 0.332994) (thickness 0.0254)))
  )
  (fp_arc (start 5.8166 6.1468) (end 5.715 6.1468) (angle -360) (layer F.SilkS) (width 0.2286))
  (fp_line (start 1.3208 5.1054) (end -0.1524 5.1054) (layer F.SilkS) (width 0.1778))
  (fp_line (start 1.3208 -5.1054) (end -0.1524 -5.1054) (layer F.SilkS) (width 0.1778))
  (fp_line (start 1.3208 -5.1054) (end 1.3208 5.1054) (layer F.SilkS) (width 0.1778))
  (fp_line (start -7.4422 5.0038) (end -7.8486 5.0038) (layer F.Fab) (width 0.0762))
  (fp_line (start -7.8486 5.0038) (end -8.7122 4.064) (layer F.Fab) (width 0.0762))
  (fp_line (start 1.7272 -5.3594) (end -7.4422 -5.3594) (layer F.Fab) (width 0.0762))
  (fp_line (start 1.7272 5.3594) (end -7.4422 5.3594) (layer F.Fab) (width 0.0762))
  (fp_line (start -8.7122 -4.064) (end -8.7122 4.064) (layer F.Fab) (width 0.0762))
  (fp_line (start -7.4422 -5.3594) (end -7.4422 5.3594) (layer F.Fab) (width 0.0762))
  (fp_line (start -7.8486 -5.0038) (end -8.7122 -4.064) (layer F.Fab) (width 0.0762))
  (fp_line (start -7.4422 -5.0038) (end -7.8486 -5.0038) (layer F.Fab) (width 0.0762))
  (fp_line (start 1.7272 -5.3594) (end 1.7272 5.3594) (layer F.Fab) (width 0.0762))
  (pad 8 smd rect (at -4.572 0 90) (size 10.7696 7.874) (layers F.Cu F.Paste F.Mask))
  (pad 7 smd rect (at 4.572 -3.81) (size 3.4544 1.016) (layers F.Cu F.Paste F.Mask))
  (pad 6 smd rect (at 4.572 -2.54) (size 3.4544 1.016) (layers F.Cu F.Paste F.Mask))
  (pad 5 smd rect (at 4.572 -1.27) (size 3.4544 1.016) (layers F.Cu F.Paste F.Mask))
  (pad 4 smd rect (at 4.572 0) (size 3.4544 1.016) (layers F.Cu F.Paste F.Mask))
  (pad 3 smd rect (at 4.572 1.27) (size 3.4544 1.016) (layers F.Cu F.Paste F.Mask))
  (pad 2 smd rect (at 4.572 2.54) (size 3.4544 1.016) (layers F.Cu F.Paste F.Mask))
  (pad 1 smd rect (at 4.572 3.81) (size 3.4544 1.016) (layers F.Cu F.Paste F.Mask))
  (model ${KISYS3DMOD}/Package_TO_SOT_SMD.3dshapes/TO-263-7_TabPin8.wrl
    (offset (xyz -1.5 0 0))
    (scale (xyz 1 1 1))
    (rotate (xyz 0 0 180))
  )
)
