(module TO220ABGDS-INV_COUCHE (layer F.Cu) (tedit 5ED5C629)
  (descr "TO-220AB package, inverted so the tab is exposed to air")
  (fp_text reference REF** (at 0 0) (layer F.SilkS)
    (effects (font (size 1.2 1.2) (thickness 0.15)))
  )
  (fp_text value TO220ABGDS-INV_COUCHE (at 0 2) (layer F.Fab) hide
    (effects (font (size 1 1) (thickness 0.15)))
  )
  (fp_arc (start 0 17.78) (end 1.1176 17.78) (angle 360) (layer B.CrtYd) (width 0.02))
  (fp_arc (start 2.54 17.78) (end 3.6576 17.78) (angle 360) (layer B.CrtYd) (width 0.02))
  (fp_arc (start -2.54 17.78) (end -1.4224 17.78) (angle 360) (layer B.CrtYd) (width 0.02))
  (fp_arc (start 0 0) (end 2.032 0) (angle 360) (layer F.Fab) (width 0.1))
  (fp_line (start -5.4875 19.1516) (end -5.4875 -2.9475) (layer Dwgs.User) (width 0.05))
  (fp_line (start -5.4875 -2.9475) (end 5.4875 -2.9475) (layer Dwgs.User) (width 0.05))
  (fp_line (start 5.4875 -2.9475) (end 5.4875 19.1516) (layer Dwgs.User) (width 0.05))
  (fp_line (start 5.4875 19.1516) (end -5.4875 19.1516) (layer Dwgs.User) (width 0.05))
  (fp_line (start -5.3975 12.7) (end 5.3975 12.7) (layer F.SilkS) (width 0.18))
  (fp_line (start 5.3975 12.7) (end 5.3975 -2.8575) (layer F.SilkS) (width 0.18))
  (fp_line (start 5.3975 -2.8575) (end -5.3975 -2.8575) (layer F.SilkS) (width 0.18))
  (fp_line (start -5.3975 -2.8575) (end -5.3975 12.7) (layer F.SilkS) (width 0.18))
  (fp_line (start -2.54 12.7) (end -2.54 15.24) (layer F.SilkS) (width 0.18))
  (fp_line (start 0 12.7) (end 0 15.24) (layer F.SilkS) (width 0.18))
  (fp_line (start 2.54 12.7) (end 2.54 15.24) (layer F.SilkS) (width 0.18))
  (fp_line (start 3.6576 16.6624) (end 3.6576 18.8976) (layer F.CrtYd) (width 0.02))
  (fp_line (start 3.6576 18.8976) (end -3.6576 18.8976) (layer F.CrtYd) (width 0.02))
  (fp_line (start -3.6576 18.8976) (end -3.6576 16.6624) (layer F.CrtYd) (width 0.02))
  (fp_line (start -3.6576 16.6624) (end 3.6576 16.6624) (layer F.CrtYd) (width 0.02))
  (fp_line (start -4.5 12) (end 4.5 12) (layer F.Fab) (width 0.1))
  (fp_line (start 4.5 12) (end 4.5 3) (layer F.Fab) (width 0.1))
  (fp_line (start 4.5 3) (end -4.5 3) (layer F.Fab) (width 0.1))
  (fp_line (start -4.5 3) (end -4.5 12) (layer F.Fab) (width 0.1))
  (fp_line (start -2.54 12.7) (end -2.54 15.24) (layer F.Fab) (width 0.1))
  (fp_line (start 0 12.7) (end 0 17.145) (layer F.Fab) (width 0.1))
  (fp_line (start 2.54 12.7) (end 2.54 17.145) (layer F.Fab) (width 0.1))
  (fp_line (start -5.3975 12.7) (end 5.3975 12.7) (layer F.Fab) (width 0.1))
  (fp_line (start 5.3975 12.7) (end 5.3975 -2.8575) (layer F.Fab) (width 0.1))
  (fp_line (start 5.3975 -2.8575) (end -5.3975 -2.8575) (layer F.Fab) (width 0.1))
  (fp_line (start -5.3975 -2.8575) (end -5.3975 12.7) (layer F.Fab) (width 0.1))
  (fp_line (start -2.54 12.7) (end -2.54 17.145) (layer F.Fab) (width 0.1))
  (pad D thru_hole circle (at 0 17.78) (size 2.2352 2.2352) (drill 1.2192) (layers *.Cu *.Mask)
    (solder_mask_margin 0.1016) (clearance 0.2032) (zone_connect 2) (thermal_width 0.3048) (thermal_gap 0.254))
  (pad G thru_hole circle (at 2.54 17.78) (size 2.2352 2.2352) (drill 1.2192) (layers *.Cu *.Mask)
    (solder_mask_margin 0.1016) (clearance 0.2032) (zone_connect 2) (thermal_width 0.3048) (thermal_gap 0.254))
  (pad S thru_hole circle (at -2.54 17.78) (size 2.2352 2.2352) (drill 1.2192) (layers *.Cu *.Mask)
    (solder_mask_margin 0.1016) (clearance 0.2032) (zone_connect 2) (thermal_width 0.3048) (thermal_gap 0.254))
  (model ${KIPRJMOD}/../Library/Footprints.3dshapes/TO-220-HFLIP_bent.step
    (offset (xyz 0 -13 4.5))
    (scale (xyz 1 1 1))
    (rotate (xyz 180 0 90))
  )
)
