(module TSOP48-ENT9.965_1 (layer F.Cu) (tedit 5E9B95C2)
  (attr smd)
  (fp_text reference IC7 (at -87.81114 147.95701 unlocked) (layer F.SilkS) hide
    (effects (font (size 1.332992 1.40208) (thickness 0.254)))
  )
  (fp_text value L-BC-TSOP48 (at -2.53073 -0.2492 unlocked) (layer F.SilkS) hide
    (effects (font (size 1.332992 1.40208) (thickness 0.254)))
  )
  (fp_circle (center -4.99999 7.95249) (end -4.6 7.95249) (layer F.Fab) (width 0.00003))
  (fp_line (start -6 -8.75) (end 6 -8.75) (layer F.SilkS) (width 0.18))
  (fp_line (start 6 8.75) (end 6 -8.75) (layer F.SilkS) (width 0.18))
  (fp_line (start -6 8.75) (end -6 -8.75) (layer F.SilkS) (width 0.18))
  (fp_line (start -6 8.75) (end 6 8.75) (layer F.SilkS) (width 0.18))
  (fp_line (start 5.65 -10) (end 5.85 -10) (layer F.Fab) (width 0.01))
  (fp_line (start 5.85 -9.25) (end 5.85 -10) (layer F.Fab) (width 0.01))
  (fp_line (start -5.85 10) (end -5.65 10) (layer F.Fab) (width 0.01))
  (fp_line (start 5.65 -9.25) (end 5.65 -10) (layer F.Fab) (width 0.01))
  (fp_line (start 5.15 -10) (end 5.35 -10) (layer F.Fab) (width 0.01))
  (fp_line (start 5.35 -9.25) (end 5.35 -10) (layer F.Fab) (width 0.01))
  (fp_line (start -5.85 10) (end -5.85 9.25) (layer F.Fab) (width 0.01))
  (fp_line (start -5.35 10) (end -5.15 10) (layer F.Fab) (width 0.01))
  (fp_line (start 5.15 -9.25) (end 5.15 -10) (layer F.Fab) (width 0.01))
  (fp_line (start -5.65 10) (end -5.65 9.25) (layer F.Fab) (width 0.01))
  (fp_line (start 4.65 -10) (end 4.85 -10) (layer F.Fab) (width 0.01))
  (fp_line (start 4.85 -9.25) (end 4.85 -10) (layer F.Fab) (width 0.01))
  (fp_line (start -5.35 10) (end -5.35 9.25) (layer F.Fab) (width 0.01))
  (fp_line (start -4.85 10) (end -4.65 10) (layer F.Fab) (width 0.01))
  (fp_line (start 4.65 -9.25) (end 4.65 -10) (layer F.Fab) (width 0.01))
  (fp_line (start -5.15 10) (end -5.15 9.25) (layer F.Fab) (width 0.01))
  (fp_line (start 4.15 -10) (end 4.35 -10) (layer F.Fab) (width 0.01))
  (fp_line (start -6 -9.2075) (end 6 -9.2075) (layer F.Fab) (width 0.1))
  (fp_line (start 4.35 -9.25) (end 4.35 -10) (layer F.Fab) (width 0.01))
  (fp_line (start -4.85 10) (end -4.85 9.25) (layer F.Fab) (width 0.01))
  (fp_line (start -4.35 10) (end -4.15 10) (layer F.Fab) (width 0.01))
  (fp_line (start 4.15 -9.25) (end 4.15 -10) (layer F.Fab) (width 0.01))
  (fp_line (start -4.65 10) (end -4.65 9.25) (layer F.Fab) (width 0.01))
  (fp_line (start 3.65 -10) (end 3.85 -10) (layer F.Fab) (width 0.01))
  (fp_line (start -6 9.2075) (end -6 -9.2075) (layer F.Fab) (width 0.1))
  (fp_line (start 3.85 -9.25) (end 3.85 -10) (layer F.Fab) (width 0.01))
  (fp_line (start -4.35 10) (end -4.35 9.25) (layer F.Fab) (width 0.01))
  (fp_line (start -3.85 10) (end -3.65 10) (layer F.Fab) (width 0.01))
  (fp_line (start 3.65 -9.25) (end 3.65 -10) (layer F.Fab) (width 0.01))
  (fp_line (start -4.15 10) (end -4.15 9.25) (layer F.Fab) (width 0.01))
  (fp_line (start 3.15 -10) (end 3.35 -10) (layer F.Fab) (width 0.01))
  (fp_line (start 3.35 -9.25) (end 3.35 -10) (layer F.Fab) (width 0.01))
  (fp_line (start -3.85 10) (end -3.85 9.25) (layer F.Fab) (width 0.01))
  (fp_line (start -3.35 10) (end -3.15 10) (layer F.Fab) (width 0.01))
  (fp_line (start 6 9.2075) (end 6 -9.2075) (layer F.Fab) (width 0.1))
  (fp_line (start 3.15 -9.25) (end 3.15 -10) (layer F.Fab) (width 0.01))
  (fp_line (start -3.65 10) (end -3.65 9.25) (layer F.Fab) (width 0.01))
  (fp_line (start 2.65 -10) (end 2.85 -10) (layer F.Fab) (width 0.01))
  (fp_line (start 2.85 -9.25) (end 2.85 -10) (layer F.Fab) (width 0.01))
  (fp_line (start -3.35 10) (end -3.35 9.25) (layer F.Fab) (width 0.01))
  (fp_line (start -2.85 10) (end -2.65 10) (layer F.Fab) (width 0.01))
  (fp_line (start 2.65 -9.25) (end 2.65 -10) (layer F.Fab) (width 0.01))
  (fp_line (start -3.15 10) (end -3.15 9.25) (layer F.Fab) (width 0.01))
  (fp_line (start 2.15 -10) (end 2.35 -10) (layer F.Fab) (width 0.01))
  (fp_line (start 2.35 -9.25) (end 2.35 -10) (layer F.Fab) (width 0.01))
  (fp_line (start -2.85 10) (end -2.85 9.25) (layer F.Fab) (width 0.01))
  (fp_line (start -2.35 10) (end -2.15 10) (layer F.Fab) (width 0.01))
  (fp_line (start 2.15 -9.25) (end 2.15 -10) (layer F.Fab) (width 0.01))
  (fp_line (start -2.65 10) (end -2.65 9.25) (layer F.Fab) (width 0.01))
  (fp_line (start 1.65 -10) (end 1.85 -10) (layer F.Fab) (width 0.01))
  (fp_line (start 1.85 -9.25) (end 1.85 -10) (layer F.Fab) (width 0.01))
  (fp_line (start -2.35 10) (end -2.35 9.25) (layer F.Fab) (width 0.01))
  (fp_line (start -1.85 10) (end -1.65 10) (layer F.Fab) (width 0.01))
  (fp_line (start 1.65 -9.25) (end 1.65 -10) (layer F.Fab) (width 0.01))
  (fp_line (start -2.15 10) (end -2.15 9.25) (layer F.Fab) (width 0.01))
  (fp_line (start 1.15 -10) (end 1.35 -10) (layer F.Fab) (width 0.01))
  (fp_line (start 1.35 -9.25) (end 1.35 -10) (layer F.Fab) (width 0.01))
  (fp_line (start -1.85 10) (end -1.85 9.25) (layer F.Fab) (width 0.01))
  (fp_line (start -1.35 10) (end -1.15 10) (layer F.Fab) (width 0.01))
  (fp_line (start 1.15 -9.25) (end 1.15 -10) (layer F.Fab) (width 0.01))
  (fp_line (start -1.65 10) (end -1.65 9.25) (layer F.Fab) (width 0.01))
  (fp_line (start 0.65 -10) (end 0.85 -10) (layer F.Fab) (width 0.01))
  (fp_line (start 0.85 -9.25) (end 0.85 -10) (layer F.Fab) (width 0.01))
  (fp_line (start -1.35 10) (end -1.35 9.25) (layer F.Fab) (width 0.01))
  (fp_line (start -0.85 10) (end -0.65 10) (layer F.Fab) (width 0.01))
  (fp_line (start 0.65 -9.25) (end 0.65 -10) (layer F.Fab) (width 0.01))
  (fp_line (start -1.15 10) (end -1.15 9.25) (layer F.Fab) (width 0.01))
  (fp_line (start 0.15 -10) (end 0.35 -10) (layer F.Fab) (width 0.01))
  (fp_line (start 0.35 -9.25) (end 0.35 -10) (layer F.Fab) (width 0.01))
  (fp_line (start -0.85 10) (end -0.85 9.25) (layer F.Fab) (width 0.01))
  (fp_line (start -0.35 10) (end -0.15 10) (layer F.Fab) (width 0.01))
  (fp_line (start 0.15 -9.25) (end 0.15 -10) (layer F.Fab) (width 0.01))
  (fp_line (start -0.65 10) (end -0.65 9.25) (layer F.Fab) (width 0.01))
  (fp_line (start -0.35 -10) (end -0.15 -10) (layer F.Fab) (width 0.01))
  (fp_line (start -0.15 -9.25) (end -0.15 -10) (layer F.Fab) (width 0.01))
  (fp_line (start -0.35 10) (end -0.35 9.25) (layer F.Fab) (width 0.01))
  (fp_line (start 0.15 10) (end 0.35 10) (layer F.Fab) (width 0.01))
  (fp_line (start -0.35 -9.25) (end -0.35 -10) (layer F.Fab) (width 0.01))
  (fp_line (start -0.15 10) (end -0.15 9.25) (layer F.Fab) (width 0.01))
  (fp_line (start -0.85 -10) (end -0.65 -10) (layer F.Fab) (width 0.01))
  (fp_line (start -0.65 -9.25) (end -0.65 -10) (layer F.Fab) (width 0.01))
  (fp_line (start 0.15 10) (end 0.15 9.25) (layer F.Fab) (width 0.01))
  (fp_line (start 0.65 10) (end 0.85 10) (layer F.Fab) (width 0.01))
  (fp_line (start -0.85 -9.25) (end -0.85 -10) (layer F.Fab) (width 0.01))
  (fp_line (start 0.35 10) (end 0.35 9.25) (layer F.Fab) (width 0.01))
  (fp_line (start -1.35 -10) (end -1.15 -10) (layer F.Fab) (width 0.01))
  (fp_line (start -1.15 -9.25) (end -1.15 -10) (layer F.Fab) (width 0.01))
  (fp_line (start 0.65 10) (end 0.65 9.25) (layer F.Fab) (width 0.01))
  (fp_line (start 1.15 10) (end 1.35 10) (layer F.Fab) (width 0.01))
  (fp_line (start -1.35 -9.25) (end -1.35 -10) (layer F.Fab) (width 0.01))
  (fp_line (start 0.85 10) (end 0.85 9.25) (layer F.Fab) (width 0.01))
  (fp_line (start -1.85 -10) (end -1.65 -10) (layer F.Fab) (width 0.01))
  (fp_line (start -1.65 -9.25) (end -1.65 -10) (layer F.Fab) (width 0.01))
  (fp_line (start 1.15 10) (end 1.15 9.25) (layer F.Fab) (width 0.01))
  (fp_line (start 1.65 10) (end 1.85 10) (layer F.Fab) (width 0.01))
  (fp_line (start -1.85 -9.25) (end -1.85 -10) (layer F.Fab) (width 0.01))
  (fp_line (start 1.35 10) (end 1.35 9.25) (layer F.Fab) (width 0.01))
  (fp_line (start -2.35 -10) (end -2.15 -10) (layer F.Fab) (width 0.01))
  (fp_line (start -2.15 -9.25) (end -2.15 -10) (layer F.Fab) (width 0.01))
  (fp_line (start 1.65 10) (end 1.65 9.25) (layer F.Fab) (width 0.01))
  (fp_line (start 2.15 10) (end 2.35 10) (layer F.Fab) (width 0.01))
  (fp_line (start -2.35 -9.25) (end -2.35 -10) (layer F.Fab) (width 0.01))
  (fp_line (start 1.85 10) (end 1.85 9.25) (layer F.Fab) (width 0.01))
  (fp_line (start -2.85 -10) (end -2.65 -10) (layer F.Fab) (width 0.01))
  (fp_line (start -2.65 -9.25) (end -2.65 -10) (layer F.Fab) (width 0.01))
  (fp_line (start 2.15 10) (end 2.15 9.25) (layer F.Fab) (width 0.01))
  (fp_line (start 2.65 10) (end 2.85 10) (layer F.Fab) (width 0.01))
  (fp_line (start -2.85 -9.25) (end -2.85 -10) (layer F.Fab) (width 0.01))
  (fp_line (start 2.35 10) (end 2.35 9.25) (layer F.Fab) (width 0.01))
  (fp_line (start -3.35 -10) (end -3.15 -10) (layer F.Fab) (width 0.01))
  (fp_line (start -3.15 -9.25) (end -3.15 -10) (layer F.Fab) (width 0.01))
  (fp_line (start 2.65 10) (end 2.65 9.25) (layer F.Fab) (width 0.01))
  (fp_line (start 3.15 10) (end 3.35 10) (layer F.Fab) (width 0.01))
  (fp_line (start -3.35 -9.25) (end -3.35 -10) (layer F.Fab) (width 0.01))
  (fp_line (start 2.85 10) (end 2.85 9.25) (layer F.Fab) (width 0.01))
  (fp_line (start -3.85 -10) (end -3.65 -10) (layer F.Fab) (width 0.01))
  (fp_line (start -3.65 -9.25) (end -3.65 -10) (layer F.Fab) (width 0.01))
  (fp_line (start 3.15 10) (end 3.15 9.25) (layer F.Fab) (width 0.01))
  (fp_line (start 3.65 10) (end 3.85 10) (layer F.Fab) (width 0.01))
  (fp_line (start -3.85 -9.25) (end -3.85 -10) (layer F.Fab) (width 0.01))
  (fp_line (start 3.35 10) (end 3.35 9.25) (layer F.Fab) (width 0.01))
  (fp_line (start -4.35 -10) (end -4.15 -10) (layer F.Fab) (width 0.01))
  (fp_line (start -4.15 -9.25) (end -4.15 -10) (layer F.Fab) (width 0.01))
  (fp_line (start 3.65 10) (end 3.65 9.25) (layer F.Fab) (width 0.01))
  (fp_line (start 4.15 10) (end 4.35 10) (layer F.Fab) (width 0.01))
  (fp_line (start -4.35 -9.25) (end -4.35 -10) (layer F.Fab) (width 0.01))
  (fp_line (start 3.85 10) (end 3.85 9.25) (layer F.Fab) (width 0.01))
  (fp_line (start -4.85 -10) (end -4.65 -10) (layer F.Fab) (width 0.01))
  (fp_line (start -4.65 -9.25) (end -4.65 -10) (layer F.Fab) (width 0.01))
  (fp_line (start 4.15 10) (end 4.15 9.25) (layer F.Fab) (width 0.01))
  (fp_line (start 4.65 10) (end 4.85 10) (layer F.Fab) (width 0.01))
  (fp_line (start -4.85 -9.25) (end -4.85 -10) (layer F.Fab) (width 0.01))
  (fp_line (start 4.35 10) (end 4.35 9.25) (layer F.Fab) (width 0.01))
  (fp_line (start -5.35 -10) (end -5.15 -10) (layer F.Fab) (width 0.01))
  (fp_line (start -5.15 -9.25) (end -5.15 -10) (layer F.Fab) (width 0.01))
  (fp_line (start 4.65 10) (end 4.65 9.25) (layer F.Fab) (width 0.01))
  (fp_line (start 5.15 10) (end 5.35 10) (layer F.Fab) (width 0.01))
  (fp_line (start -5.35 -9.25) (end -5.35 -10) (layer F.Fab) (width 0.01))
  (fp_line (start 4.85 10) (end 4.85 9.25) (layer F.Fab) (width 0.01))
  (fp_line (start -5.85 -10) (end -5.65 -10) (layer F.Fab) (width 0.01))
  (fp_line (start -5.65 -9.25) (end -5.65 -10) (layer F.Fab) (width 0.01))
  (fp_line (start 5.15 10) (end 5.15 9.25) (layer F.Fab) (width 0.01))
  (fp_line (start 5.65 10) (end 5.85 10) (layer F.Fab) (width 0.01))
  (fp_line (start -5.85 -9.25) (end -5.85 -10) (layer F.Fab) (width 0.01))
  (fp_line (start -6 9.2075) (end 6 9.2075) (layer F.Fab) (width 0.1))
  (fp_line (start 5.35 10) (end 5.35 9.25) (layer F.Fab) (width 0.01))
  (fp_line (start 5.65 10) (end 5.65 9.25) (layer F.Fab) (width 0.01))
  (fp_line (start 5.85 10) (end 5.85 9.25) (layer F.Fab) (width 0.01))
  (pad 48 smd rect (at -5.75 -9.965) (size 0.28 1.4) (layers F.Cu F.Paste F.Mask))
  (pad 47 smd rect (at -5.25 -9.965) (size 0.28 1.4) (layers F.Cu F.Paste F.Mask))
  (pad 46 smd rect (at -4.75 -9.965) (size 0.28 1.4) (layers F.Cu F.Paste F.Mask))
  (pad 45 smd rect (at -4.25 -9.965) (size 0.28 1.4) (layers F.Cu F.Paste F.Mask))
  (pad 44 smd rect (at -3.75 -9.965) (size 0.28 1.4) (layers F.Cu F.Paste F.Mask))
  (pad 43 smd rect (at -3.25 -9.965) (size 0.28 1.4) (layers F.Cu F.Paste F.Mask))
  (pad 42 smd rect (at -2.75 -9.965) (size 0.28 1.4) (layers F.Cu F.Paste F.Mask))
  (pad 41 smd rect (at -2.25 -9.965) (size 0.28 1.4) (layers F.Cu F.Paste F.Mask))
  (pad 40 smd rect (at -1.75 -9.965) (size 0.28 1.4) (layers F.Cu F.Paste F.Mask))
  (pad 39 smd rect (at -1.25 -9.965) (size 0.28 1.4) (layers F.Cu F.Paste F.Mask))
  (pad 38 smd rect (at -0.75 -9.965) (size 0.28 1.4) (layers F.Cu F.Paste F.Mask))
  (pad 37 smd rect (at -0.25 -9.965) (size 0.28 1.4) (layers F.Cu F.Paste F.Mask))
  (pad 36 smd rect (at 0.25 -9.965) (size 0.28 1.4) (layers F.Cu F.Paste F.Mask))
  (pad 35 smd rect (at 0.75 -9.965) (size 0.28 1.4) (layers F.Cu F.Paste F.Mask))
  (pad 34 smd rect (at 1.25 -9.965) (size 0.28 1.4) (layers F.Cu F.Paste F.Mask))
  (pad 33 smd rect (at 1.75 -9.965) (size 0.28 1.4) (layers F.Cu F.Paste F.Mask))
  (pad 32 smd rect (at 2.25 -9.965) (size 0.28 1.4) (layers F.Cu F.Paste F.Mask))
  (pad 31 smd rect (at 2.75 -9.965) (size 0.28 1.4) (layers F.Cu F.Paste F.Mask))
  (pad 30 smd rect (at 3.25 -9.965) (size 0.28 1.4) (layers F.Cu F.Paste F.Mask))
  (pad 29 smd rect (at 3.75 -9.965) (size 0.28 1.4) (layers F.Cu F.Paste F.Mask))
  (pad 28 smd rect (at 4.25 -9.965) (size 0.28 1.4) (layers F.Cu F.Paste F.Mask))
  (pad 27 smd rect (at 4.75 -9.965) (size 0.28 1.4) (layers F.Cu F.Paste F.Mask))
  (pad 26 smd rect (at 5.25 -9.965) (size 0.28 1.4) (layers F.Cu F.Paste F.Mask))
  (pad 25 smd rect (at 5.75 -9.965) (size 0.28 1.4) (layers F.Cu F.Paste F.Mask))
  (pad 24 smd rect (at 5.75 9.965) (size 0.28 1.4) (layers F.Cu F.Paste F.Mask))
  (pad 23 smd rect (at 5.25 9.965) (size 0.28 1.4) (layers F.Cu F.Paste F.Mask))
  (pad 22 smd rect (at 4.75 9.965) (size 0.28 1.4) (layers F.Cu F.Paste F.Mask))
  (pad 21 smd rect (at 4.25 9.965) (size 0.28 1.4) (layers F.Cu F.Paste F.Mask))
  (pad 20 smd rect (at 3.75 9.965) (size 0.28 1.4) (layers F.Cu F.Paste F.Mask))
  (pad 19 smd rect (at 3.25 9.965) (size 0.28 1.4) (layers F.Cu F.Paste F.Mask))
  (pad 18 smd rect (at 2.75 9.965) (size 0.28 1.4) (layers F.Cu F.Paste F.Mask))
  (pad 17 smd rect (at 2.25 9.965) (size 0.28 1.4) (layers F.Cu F.Paste F.Mask))
  (pad 16 smd rect (at 1.75 9.965) (size 0.28 1.4) (layers F.Cu F.Paste F.Mask))
  (pad 15 smd rect (at 1.25 9.965) (size 0.28 1.4) (layers F.Cu F.Paste F.Mask))
  (pad 14 smd rect (at 0.75 9.965) (size 0.28 1.4) (layers F.Cu F.Paste F.Mask))
  (pad 13 smd rect (at 0.25 9.965) (size 0.28 1.4) (layers F.Cu F.Paste F.Mask))
  (pad 12 smd rect (at -0.25 9.965) (size 0.28 1.4) (layers F.Cu F.Paste F.Mask))
  (pad 11 smd rect (at -0.75 9.965) (size 0.28 1.4) (layers F.Cu F.Paste F.Mask))
  (pad 10 smd rect (at -1.25 9.965) (size 0.28 1.4) (layers F.Cu F.Paste F.Mask))
  (pad 9 smd rect (at -1.75 9.965) (size 0.28 1.4) (layers F.Cu F.Paste F.Mask))
  (pad 8 smd rect (at -2.25 9.965) (size 0.28 1.4) (layers F.Cu F.Paste F.Mask))
  (pad 7 smd rect (at -2.75 9.965) (size 0.28 1.4) (layers F.Cu F.Paste F.Mask))
  (pad 6 smd rect (at -3.25 9.965) (size 0.28 1.4) (layers F.Cu F.Paste F.Mask))
  (pad 5 smd rect (at -3.75 9.965) (size 0.28 1.4) (layers F.Cu F.Paste F.Mask))
  (pad 4 smd rect (at -4.25 9.965) (size 0.28 1.4) (layers F.Cu F.Paste F.Mask))
  (pad 3 smd rect (at -4.75 9.965) (size 0.28 1.4) (layers F.Cu F.Paste F.Mask))
  (pad 2 smd rect (at -5.25 9.965) (size 0.28 1.4) (layers F.Cu F.Paste F.Mask))
  (pad 1 smd rect (at -5.75 9.965) (size 0.28 1.4) (layers F.Cu F.Paste F.Mask))
  (model ${KISYS3DMOD}/Package_SO.3dshapes/TSOP-I-48_12x18.4mm_P0.5mm.wrl
    (at (xyz 0 0 0))
    (scale (xyz 1 1 1))
    (rotate (xyz 0 0 -90))
  )
)
