(module TSOP2-44_1 (layer F.Cu) (tedit 5E9B9588)
  (attr smd)
  (fp_text reference IC3 (at 0.82483 -8.0548 unlocked) (layer F.SilkS)
    (effects (font (size 1.0496 1.104) (thickness 0.1)))
  )
  (fp_text value L-BC-TSOP2-44 (at -4.44273 -0.0332 unlocked) (layer F.SilkS) hide
    (effects (font (size 1.0496 1.104) (thickness 0.1)))
  )
  (fp_circle (center -8.25499 4.12749) (end -7.855 4.12749) (layer F.Fab) (width 0.00003))
  (fp_line (start 8.92352 -4.7625) (end 9.525 -4.7625) (layer F.SilkS) (width 0.18))
  (fp_line (start 9.525 4.7625) (end 9.525 -4.7625) (layer F.SilkS) (width 0.18))
  (fp_line (start -9.3919 4.7625) (end -8.92352 4.7625) (layer F.SilkS) (width 0.18))
  (fp_line (start -9.525 4.7487) (end -9.525 -4.7625) (layer F.SilkS) (width 0.18))
  (fp_line (start 8.92352 4.7625) (end 9.525 4.7625) (layer F.SilkS) (width 0.18))
  (fp_line (start -9.525 -4.7625) (end -8.92352 -4.7625) (layer F.SilkS) (width 0.18))
  (fp_line (start 6.8 5.715) (end 6.8 5.08) (layer F.Fab) (width 0.1))
  (fp_line (start -4.4 -5.08) (end -4.4 -5.715) (layer F.Fab) (width 0.1))
  (fp_line (start -7.6 -5.08) (end -7.6 -5.715) (layer F.Fab) (width 0.1))
  (fp_line (start 8.4 -5.08) (end 8.4 -5.715) (layer F.Fab) (width 0.1))
  (fp_line (start -6 -5.08) (end -6 -5.715) (layer F.Fab) (width 0.1))
  (fp_line (start 3.6 5.715) (end 3.6 5.08) (layer F.Fab) (width 0.1))
  (fp_line (start 9.525 5.08) (end 9.525 -5.08) (layer F.Fab) (width 0.1))
  (fp_line (start 7.6 -5.08) (end 7.6 -5.715) (layer F.Fab) (width 0.1))
  (fp_line (start -8.4 5.715) (end -8.4 5.08) (layer F.Fab) (width 0.1))
  (fp_line (start -9.525 -5.08) (end 9.525 -5.08) (layer F.Fab) (width 0.1))
  (fp_line (start 6.8 -5.08) (end 6.8 -5.715) (layer F.Fab) (width 0.1))
  (fp_line (start -7.6 5.715) (end -7.6 5.08) (layer F.Fab) (width 0.1))
  (fp_line (start 6 -5.08) (end 6 -5.715) (layer F.Fab) (width 0.1))
  (fp_line (start -6.8 5.715) (end -6.8 5.08) (layer F.Fab) (width 0.1))
  (fp_line (start 5.2 -5.08) (end 5.2 -5.715) (layer F.Fab) (width 0.1))
  (fp_line (start -6 5.715) (end -6 5.08) (layer F.Fab) (width 0.1))
  (fp_line (start 4.4 -5.08) (end 4.4 -5.715) (layer F.Fab) (width 0.1))
  (fp_line (start -5.2 5.715) (end -5.2 5.08) (layer F.Fab) (width 0.1))
  (fp_line (start 6 5.715) (end 6 5.08) (layer F.Fab) (width 0.1))
  (fp_line (start 3.6 -5.08) (end 3.6 -5.715) (layer F.Fab) (width 0.1))
  (fp_line (start -5.2 -5.08) (end -5.2 -5.715) (layer F.Fab) (width 0.1))
  (fp_line (start -4.4 5.715) (end -4.4 5.08) (layer F.Fab) (width 0.1))
  (fp_line (start 2.8 -5.08) (end 2.8 -5.715) (layer F.Fab) (width 0.1))
  (fp_line (start -3.6 5.715) (end -3.6 5.08) (layer F.Fab) (width 0.1))
  (fp_line (start 2 -5.08) (end 2 -5.715) (layer F.Fab) (width 0.1))
  (fp_line (start -2.8 5.715) (end -2.8 5.08) (layer F.Fab) (width 0.1))
  (fp_line (start 1.2 -5.08) (end 1.2 -5.715) (layer F.Fab) (width 0.1))
  (fp_line (start -2 5.715) (end -2 5.08) (layer F.Fab) (width 0.1))
  (fp_line (start -6.8 -5.08) (end -6.8 -5.715) (layer F.Fab) (width 0.1))
  (fp_line (start 0.4 -5.08) (end 0.4 -5.715) (layer F.Fab) (width 0.1))
  (fp_line (start -1.2 5.715) (end -1.2 5.08) (layer F.Fab) (width 0.1))
  (fp_line (start 4.4 5.715) (end 4.4 5.08) (layer F.Fab) (width 0.1))
  (fp_line (start -0.4 -5.08) (end -0.4 -5.715) (layer F.Fab) (width 0.1))
  (fp_line (start -0.4 5.715) (end -0.4 5.08) (layer F.Fab) (width 0.1))
  (fp_line (start -9.525 5.08) (end -9.525 -5.08) (layer F.Fab) (width 0.1))
  (fp_line (start -1.2 -5.08) (end -1.2 -5.715) (layer F.Fab) (width 0.1))
  (fp_line (start 0.4 5.715) (end 0.4 5.08) (layer F.Fab) (width 0.1))
  (fp_line (start -2 -5.08) (end -2 -5.715) (layer F.Fab) (width 0.1))
  (fp_line (start 1.2 5.715) (end 1.2 5.08) (layer F.Fab) (width 0.1))
  (fp_line (start 8.4 5.715) (end 8.4 5.08) (layer F.Fab) (width 0.1))
  (fp_line (start -2.8 -5.08) (end -2.8 -5.715) (layer F.Fab) (width 0.1))
  (fp_line (start 2 5.715) (end 2 5.08) (layer F.Fab) (width 0.1))
  (fp_line (start -9.525 5.08) (end 9.525 5.08) (layer F.Fab) (width 0.1))
  (fp_line (start 7.6 5.715) (end 7.6 5.08) (layer F.Fab) (width 0.1))
  (fp_line (start -3.6 -5.08) (end -3.6 -5.715) (layer F.Fab) (width 0.1))
  (fp_line (start -8.4 -5.08) (end -8.4 -5.715) (layer F.Fab) (width 0.1))
  (fp_line (start 2.8 5.715) (end 2.8 5.08) (layer F.Fab) (width 0.1))
  (fp_line (start 5.2 5.715) (end 5.2 5.08) (layer F.Fab) (width 0.1))
  (pad 44 smd rect (at -8.4 -5.715) (size 0.508 1.524) (layers F.Cu F.Paste F.Mask))
  (pad 43 smd rect (at -7.6 -5.715) (size 0.508 1.524) (layers F.Cu F.Paste F.Mask))
  (pad 42 smd rect (at -6.8 -5.715) (size 0.508 1.524) (layers F.Cu F.Paste F.Mask))
  (pad 41 smd rect (at -6 -5.715) (size 0.508 1.524) (layers F.Cu F.Paste F.Mask))
  (pad 40 smd rect (at -5.2 -5.715) (size 0.508 1.524) (layers F.Cu F.Paste F.Mask))
  (pad 39 smd rect (at -4.4 -5.715) (size 0.508 1.524) (layers F.Cu F.Paste F.Mask))
  (pad 38 smd rect (at -3.6 -5.715) (size 0.508 1.524) (layers F.Cu F.Paste F.Mask))
  (pad 37 smd rect (at -2.8 -5.715) (size 0.508 1.524) (layers F.Cu F.Paste F.Mask))
  (pad 36 smd rect (at -2 -5.715) (size 0.508 1.524) (layers F.Cu F.Paste F.Mask))
  (pad 35 smd rect (at -1.2 -5.715) (size 0.508 1.524) (layers F.Cu F.Paste F.Mask))
  (pad 34 smd rect (at -0.4 -5.715) (size 0.508 1.524) (layers F.Cu F.Paste F.Mask))
  (pad 33 smd rect (at 0.4 -5.715) (size 0.508 1.524) (layers F.Cu F.Paste F.Mask))
  (pad 32 smd rect (at 1.2 -5.715) (size 0.508 1.524) (layers F.Cu F.Paste F.Mask))
  (pad 31 smd rect (at 2 -5.715) (size 0.508 1.524) (layers F.Cu F.Paste F.Mask))
  (pad 30 smd rect (at 2.8 -5.715) (size 0.508 1.524) (layers F.Cu F.Paste F.Mask))
  (pad 29 smd rect (at 3.6 -5.715) (size 0.508 1.524) (layers F.Cu F.Paste F.Mask))
  (pad 28 smd rect (at 4.4 -5.715) (size 0.508 1.524) (layers F.Cu F.Paste F.Mask))
  (pad 27 smd rect (at 5.2 -5.715) (size 0.508 1.524) (layers F.Cu F.Paste F.Mask))
  (pad 26 smd rect (at 6 -5.715) (size 0.508 1.524) (layers F.Cu F.Paste F.Mask))
  (pad 25 smd rect (at 6.8 -5.715) (size 0.508 1.524) (layers F.Cu F.Paste F.Mask))
  (pad 24 smd rect (at 7.6 -5.715) (size 0.508 1.524) (layers F.Cu F.Paste F.Mask))
  (pad 23 smd rect (at 8.4 -5.715) (size 0.508 1.524) (layers F.Cu F.Paste F.Mask))
  (pad 22 smd rect (at 8.4 5.715) (size 0.508 1.524) (layers F.Cu F.Paste F.Mask))
  (pad 21 smd rect (at 7.6 5.715) (size 0.508 1.524) (layers F.Cu F.Paste F.Mask))
  (pad 20 smd rect (at 6.8 5.715) (size 0.508 1.524) (layers F.Cu F.Paste F.Mask))
  (pad 19 smd rect (at 6 5.715) (size 0.508 1.524) (layers F.Cu F.Paste F.Mask))
  (pad 18 smd rect (at 5.2 5.715) (size 0.508 1.524) (layers F.Cu F.Paste F.Mask))
  (pad 17 smd rect (at 4.4 5.715) (size 0.508 1.524) (layers F.Cu F.Paste F.Mask))
  (pad 16 smd rect (at 3.6 5.715) (size 0.508 1.524) (layers F.Cu F.Paste F.Mask))
  (pad 15 smd rect (at 2.8 5.715) (size 0.508 1.524) (layers F.Cu F.Paste F.Mask))
  (pad 14 smd rect (at 2 5.715) (size 0.508 1.524) (layers F.Cu F.Paste F.Mask))
  (pad 13 smd rect (at 1.2 5.715) (size 0.508 1.524) (layers F.Cu F.Paste F.Mask))
  (pad 12 smd rect (at 0.4 5.715) (size 0.508 1.524) (layers F.Cu F.Paste F.Mask))
  (pad 11 smd rect (at -0.4 5.715) (size 0.508 1.524) (layers F.Cu F.Paste F.Mask))
  (pad 10 smd rect (at -1.2 5.715) (size 0.508 1.524) (layers F.Cu F.Paste F.Mask))
  (pad 9 smd rect (at -2 5.715) (size 0.508 1.524) (layers F.Cu F.Paste F.Mask))
  (pad 8 smd rect (at -2.8 5.715) (size 0.508 1.524) (layers F.Cu F.Paste F.Mask))
  (pad 7 smd rect (at -3.6 5.715) (size 0.508 1.524) (layers F.Cu F.Paste F.Mask))
  (pad 6 smd rect (at -4.4 5.715) (size 0.508 1.524) (layers F.Cu F.Paste F.Mask))
  (pad 5 smd rect (at -5.2 5.715) (size 0.508 1.524) (layers F.Cu F.Paste F.Mask))
  (pad 4 smd rect (at -6 5.715) (size 0.508 1.524) (layers F.Cu F.Paste F.Mask))
  (pad 3 smd rect (at -6.8 5.715) (size 0.508 1.524) (layers F.Cu F.Paste F.Mask))
  (pad 2 smd rect (at -7.6 5.715) (size 0.508 1.524) (layers F.Cu F.Paste F.Mask))
  (pad 1 smd rect (at -8.4 5.715) (size 0.508 1.524) (layers F.Cu F.Paste F.Mask))
  (model ${KISYS3DMOD}/Package_SO.3dshapes/TSOP-II-44_10.16x18.41mm_P0.8mm.wrl
    (at (xyz 0 0 0))
    (scale (xyz 1 1 1))
    (rotate (xyz 0 0 -90))
  )
)
