(module TSSOP20_SANS-MIRE (layer F.Cu) (tedit 0)
  (fp_text reference REF** (at 2 -0.75) (layer F.SilkS)
    (effects (font (size 1.2 1.2) (thickness 0.15)) (justify left))
  )
  (fp_text value TSSOP20_SANS-MIRE (at 0 2) (layer F.Fab) hide
    (effects (font (size 1 1) (thickness 0.15)))
  )
  (fp_arc (start -1.9 0.6877) (end -1.9 1.1) (angle 360) (layer F.SilkS) (width 0.02))
  (fp_arc (start -1.9 0.6877) (end -1.9 1.1) (angle 360) (layer F.Fab) (width 0.02))
  (fp_line (start -3.54 4.27) (end -3.54 -4.27) (layer Dwgs.User) (width 0.05))
  (fp_line (start -3.54 -4.27) (end 3.54 -4.27) (layer Dwgs.User) (width 0.05))
  (fp_line (start 3.54 -4.27) (end 3.54 4.27) (layer Dwgs.User) (width 0.05))
  (fp_line (start 3.54 4.27) (end -3.54 4.27) (layer Dwgs.User) (width 0.05))
  (fp_line (start -3.45 1.8) (end 3.45 1.8) (layer F.SilkS) (width 0.18))
  (fp_line (start 3.45 1.8) (end 3.45 -1.8) (layer F.SilkS) (width 0.18))
  (fp_line (start 3.45 -1.8) (end -3.45 -1.8) (layer F.SilkS) (width 0.18))
  (fp_line (start -3.45 -1.8) (end -3.45 1.8) (layer F.SilkS) (width 0.18))
  (fp_line (start -3.45 -4.1) (end 3.45 -4.1) (layer F.CrtYd) (width 0.02))
  (fp_line (start 3.45 -4.1) (end 3.45 4.1) (layer F.CrtYd) (width 0.02))
  (fp_line (start 3.45 4.1) (end -3.45 4.1) (layer F.CrtYd) (width 0.02))
  (fp_line (start -3.45 4.1) (end -3.45 -4.1) (layer F.CrtYd) (width 0.02))
  (fp_line (start -3.45 -2.2) (end -3.45 2.2) (layer F.Fab) (width 0.1))
  (fp_line (start -3.45 2.2) (end 3.45 2.2) (layer F.Fab) (width 0.1))
  (fp_line (start 3.45 2.2) (end 3.45 -2.2) (layer F.Fab) (width 0.1))
  (fp_line (start 3.45 -2.2) (end -3.45 -2.2) (layer F.Fab) (width 0.1))
  (fp_line (start -2.925 -3.4) (end -2.925 -2.2) (layer F.Fab) (width 0.1))
  (fp_line (start -2.275 -3.4) (end -2.275 -2.2) (layer F.Fab) (width 0.1))
  (fp_line (start -1.625 -3.4) (end -1.625 -2.2) (layer F.Fab) (width 0.1))
  (fp_line (start -0.975 -3.4) (end -0.975 -2.2) (layer F.Fab) (width 0.1))
  (fp_line (start -0.325 -3.4) (end -0.325 -2.2) (layer F.Fab) (width 0.1))
  (fp_line (start 0.325 -3.4) (end 0.325 -2.2) (layer F.Fab) (width 0.1))
  (fp_line (start 0.975 -3.4) (end 0.975 -2.2) (layer F.Fab) (width 0.1))
  (fp_line (start 1.625 -3.4) (end 1.625 -2.2) (layer F.Fab) (width 0.1))
  (fp_line (start 2.275 -3.4) (end 2.275 -2.2) (layer F.Fab) (width 0.1))
  (fp_line (start 2.925 -3.4) (end 2.925 -2.2) (layer F.Fab) (width 0.1))
  (fp_line (start -2.925 2.2) (end -2.925 3.4) (layer F.Fab) (width 0.1))
  (fp_line (start -2.275 2.2) (end -2.275 3.4) (layer F.Fab) (width 0.1))
  (fp_line (start -1.625 2.2) (end -1.625 3.4) (layer F.Fab) (width 0.1))
  (fp_line (start -0.975 2.2) (end -0.975 3.4) (layer F.Fab) (width 0.1))
  (fp_line (start -0.325 2.2) (end -0.325 3.4) (layer F.Fab) (width 0.1))
  (fp_line (start 0.325 2.2) (end 0.325 3.4) (layer F.Fab) (width 0.1))
  (fp_line (start 0.975 2.2) (end 0.975 3.4) (layer F.Fab) (width 0.1))
  (fp_line (start 1.625 2.2) (end 1.625 3.4) (layer F.Fab) (width 0.1))
  (fp_line (start 2.275 2.2) (end 2.275 3.4) (layer F.Fab) (width 0.1))
  (fp_line (start 2.925 2.2) (end 2.925 3.4) (layer F.Fab) (width 0.1))
  (fp_line (start -3.1282 4.016) (end -3.1282 1.984) (layer F.SilkS) (width 0.02))
  (fp_line (start -3.1282 1.984) (end -2.7218 1.984) (layer F.SilkS) (width 0.02))
  (fp_line (start -2.7218 1.984) (end -2.7218 4.016) (layer F.SilkS) (width 0.02))
  (fp_line (start -2.7218 4.016) (end -3.1282 4.016) (layer F.SilkS) (width 0.02))
  (fp_line (start -2.4782 4.016) (end -2.4782 1.984) (layer F.SilkS) (width 0.02))
  (fp_line (start -2.4782 1.984) (end -2.0718 1.984) (layer F.SilkS) (width 0.02))
  (fp_line (start -2.0718 1.984) (end -2.0718 4.016) (layer F.SilkS) (width 0.02))
  (fp_line (start -2.0718 4.016) (end -2.4782 4.016) (layer F.SilkS) (width 0.02))
  (fp_line (start -1.8282 4.016) (end -1.8282 1.984) (layer F.SilkS) (width 0.02))
  (fp_line (start -1.8282 1.984) (end -1.4218 1.984) (layer F.SilkS) (width 0.02))
  (fp_line (start -1.4218 1.984) (end -1.4218 4.016) (layer F.SilkS) (width 0.02))
  (fp_line (start -1.4218 4.016) (end -1.8282 4.016) (layer F.SilkS) (width 0.02))
  (fp_line (start -1.1782 4.016) (end -1.1782 1.984) (layer F.SilkS) (width 0.02))
  (fp_line (start -1.1782 1.984) (end -0.7718 1.984) (layer F.SilkS) (width 0.02))
  (fp_line (start -0.7718 1.984) (end -0.7718 4.016) (layer F.SilkS) (width 0.02))
  (fp_line (start -0.7718 4.016) (end -1.1782 4.016) (layer F.SilkS) (width 0.02))
  (fp_line (start -0.5282 4.016) (end -0.5282 1.984) (layer F.SilkS) (width 0.02))
  (fp_line (start -0.5282 1.984) (end -0.1218 1.984) (layer F.SilkS) (width 0.02))
  (fp_line (start -0.1218 1.984) (end -0.1218 4.016) (layer F.SilkS) (width 0.02))
  (fp_line (start -0.1218 4.016) (end -0.5282 4.016) (layer F.SilkS) (width 0.02))
  (fp_line (start 0.1218 4.016) (end 0.1218 1.984) (layer F.SilkS) (width 0.02))
  (fp_line (start 0.1218 1.984) (end 0.5282 1.984) (layer F.SilkS) (width 0.02))
  (fp_line (start 0.5282 1.984) (end 0.5282 4.016) (layer F.SilkS) (width 0.02))
  (fp_line (start 0.5282 4.016) (end 0.1218 4.016) (layer F.SilkS) (width 0.02))
  (fp_line (start 0.7718 4.016) (end 0.7718 1.984) (layer F.SilkS) (width 0.02))
  (fp_line (start 0.7718 1.984) (end 1.1782 1.984) (layer F.SilkS) (width 0.02))
  (fp_line (start 1.1782 1.984) (end 1.1782 4.016) (layer F.SilkS) (width 0.02))
  (fp_line (start 1.1782 4.016) (end 0.7718 4.016) (layer F.SilkS) (width 0.02))
  (fp_line (start 1.4218 4.016) (end 1.4218 1.984) (layer F.SilkS) (width 0.02))
  (fp_line (start 1.4218 1.984) (end 1.8282 1.984) (layer F.SilkS) (width 0.02))
  (fp_line (start 1.8282 1.984) (end 1.8282 4.016) (layer F.SilkS) (width 0.02))
  (fp_line (start 1.8282 4.016) (end 1.4218 4.016) (layer F.SilkS) (width 0.02))
  (fp_line (start 2.0718 4.016) (end 2.0718 1.984) (layer F.SilkS) (width 0.02))
  (fp_line (start 2.0718 1.984) (end 2.4782 1.984) (layer F.SilkS) (width 0.02))
  (fp_line (start 2.4782 1.984) (end 2.4782 4.016) (layer F.SilkS) (width 0.02))
  (fp_line (start 2.4782 4.016) (end 2.0718 4.016) (layer F.SilkS) (width 0.02))
  (fp_line (start 2.7218 4.016) (end 2.7218 1.984) (layer F.SilkS) (width 0.02))
  (fp_line (start 2.7218 1.984) (end 3.1282 1.984) (layer F.SilkS) (width 0.02))
  (fp_line (start 3.1282 1.984) (end 3.1282 4.016) (layer F.SilkS) (width 0.02))
  (fp_line (start 3.1282 4.016) (end 2.7218 4.016) (layer F.SilkS) (width 0.02))
  (fp_line (start 2.7218 -1.984) (end 2.7218 -4.016) (layer F.SilkS) (width 0.02))
  (fp_line (start 2.7218 -4.016) (end 3.1282 -4.016) (layer F.SilkS) (width 0.02))
  (fp_line (start 3.1282 -4.016) (end 3.1282 -1.984) (layer F.SilkS) (width 0.02))
  (fp_line (start 3.1282 -1.984) (end 2.7218 -1.984) (layer F.SilkS) (width 0.02))
  (fp_line (start 2.0718 -1.984) (end 2.0718 -4.016) (layer F.SilkS) (width 0.02))
  (fp_line (start 2.0718 -4.016) (end 2.4782 -4.016) (layer F.SilkS) (width 0.02))
  (fp_line (start 2.4782 -4.016) (end 2.4782 -1.984) (layer F.SilkS) (width 0.02))
  (fp_line (start 2.4782 -1.984) (end 2.0718 -1.984) (layer F.SilkS) (width 0.02))
  (fp_line (start 1.4218 -1.984) (end 1.4218 -4.016) (layer F.SilkS) (width 0.02))
  (fp_line (start 1.4218 -4.016) (end 1.8282 -4.016) (layer F.SilkS) (width 0.02))
  (fp_line (start 1.8282 -4.016) (end 1.8282 -1.984) (layer F.SilkS) (width 0.02))
  (fp_line (start 1.8282 -1.984) (end 1.4218 -1.984) (layer F.SilkS) (width 0.02))
  (fp_line (start 0.7718 -1.984) (end 0.7718 -4.016) (layer F.SilkS) (width 0.02))
  (fp_line (start 0.7718 -4.016) (end 1.1782 -4.016) (layer F.SilkS) (width 0.02))
  (fp_line (start 1.1782 -4.016) (end 1.1782 -1.984) (layer F.SilkS) (width 0.02))
  (fp_line (start 1.1782 -1.984) (end 0.7718 -1.984) (layer F.SilkS) (width 0.02))
  (fp_line (start 0.1218 -1.984) (end 0.1218 -4.016) (layer F.SilkS) (width 0.02))
  (fp_line (start 0.1218 -4.016) (end 0.5282 -4.016) (layer F.SilkS) (width 0.02))
  (fp_line (start 0.5282 -4.016) (end 0.5282 -1.984) (layer F.SilkS) (width 0.02))
  (fp_line (start 0.5282 -1.984) (end 0.1218 -1.984) (layer F.SilkS) (width 0.02))
  (fp_line (start -0.5282 -1.984) (end -0.5282 -4.016) (layer F.SilkS) (width 0.02))
  (fp_line (start -0.5282 -4.016) (end -0.1218 -4.016) (layer F.SilkS) (width 0.02))
  (fp_line (start -0.1218 -4.016) (end -0.1218 -1.984) (layer F.SilkS) (width 0.02))
  (fp_line (start -0.1218 -1.984) (end -0.5282 -1.984) (layer F.SilkS) (width 0.02))
  (fp_line (start -1.1782 -1.984) (end -1.1782 -4.016) (layer F.SilkS) (width 0.02))
  (fp_line (start -1.1782 -4.016) (end -0.7718 -4.016) (layer F.SilkS) (width 0.02))
  (fp_line (start -0.7718 -4.016) (end -0.7718 -1.984) (layer F.SilkS) (width 0.02))
  (fp_line (start -0.7718 -1.984) (end -1.1782 -1.984) (layer F.SilkS) (width 0.02))
  (fp_line (start -1.8282 -1.984) (end -1.8282 -4.016) (layer F.SilkS) (width 0.02))
  (fp_line (start -1.8282 -4.016) (end -1.4218 -4.016) (layer F.SilkS) (width 0.02))
  (fp_line (start -1.4218 -4.016) (end -1.4218 -1.984) (layer F.SilkS) (width 0.02))
  (fp_line (start -1.4218 -1.984) (end -1.8282 -1.984) (layer F.SilkS) (width 0.02))
  (fp_line (start -2.4782 -1.984) (end -2.4782 -4.016) (layer F.SilkS) (width 0.02))
  (fp_line (start -2.4782 -4.016) (end -2.0718 -4.016) (layer F.SilkS) (width 0.02))
  (fp_line (start -2.0718 -4.016) (end -2.0718 -1.984) (layer F.SilkS) (width 0.02))
  (fp_line (start -2.0718 -1.984) (end -2.4782 -1.984) (layer F.SilkS) (width 0.02))
  (fp_line (start -3.1282 -1.984) (end -3.1282 -4.016) (layer F.SilkS) (width 0.02))
  (fp_line (start -3.1282 -4.016) (end -2.7218 -4.016) (layer F.SilkS) (width 0.02))
  (fp_line (start -2.7218 -4.016) (end -2.7218 -1.984) (layer F.SilkS) (width 0.02))
  (fp_line (start -2.7218 -1.984) (end -3.1282 -1.984) (layer F.SilkS) (width 0.02))
  (pad 1 smd rect (at -2.925 3) (size 0.4064 2.032) (layers F.Cu F.Paste F.Mask)
    (solder_mask_margin 0.1016) (clearance 0.2032) (zone_connect 2))
  (pad 2 smd rect (at -2.275 3) (size 0.4064 2.032) (layers F.Cu F.Paste F.Mask)
    (solder_mask_margin 0.1016) (clearance 0.2032) (zone_connect 2))
  (pad 3 smd rect (at -1.625 3) (size 0.4064 2.032) (layers F.Cu F.Paste F.Mask)
    (solder_mask_margin 0.1016) (clearance 0.2032) (zone_connect 2))
  (pad 4 smd rect (at -0.975 3) (size 0.4064 2.032) (layers F.Cu F.Paste F.Mask)
    (solder_mask_margin 0.1016) (clearance 0.2032) (zone_connect 2))
  (pad 5 smd rect (at -0.325 3) (size 0.4064 2.032) (layers F.Cu F.Paste F.Mask)
    (solder_mask_margin 0.1016) (clearance 0.2032) (zone_connect 2))
  (pad 6 smd rect (at 0.325 3) (size 0.4064 2.032) (layers F.Cu F.Paste F.Mask)
    (solder_mask_margin 0.1016) (clearance 0.2032) (zone_connect 2))
  (pad 7 smd rect (at 0.975 3) (size 0.4064 2.032) (layers F.Cu F.Paste F.Mask)
    (solder_mask_margin 0.1016) (clearance 0.2032) (zone_connect 2))
  (pad 8 smd rect (at 1.625 3) (size 0.4064 2.032) (layers F.Cu F.Paste F.Mask)
    (solder_mask_margin 0.1016) (clearance 0.2032) (zone_connect 2))
  (pad 9 smd rect (at 2.275 3) (size 0.4064 2.032) (layers F.Cu F.Paste F.Mask)
    (solder_mask_margin 0.1016) (clearance 0.2032) (zone_connect 2))
  (pad 10 smd rect (at 2.925 3) (size 0.4064 2.032) (layers F.Cu F.Paste F.Mask)
    (solder_mask_margin 0.1016) (clearance 0.2032) (zone_connect 2))
  (pad 11 smd rect (at 2.925 -3) (size 0.4064 2.032) (layers F.Cu F.Paste F.Mask)
    (solder_mask_margin 0.1016) (clearance 0.2032) (zone_connect 2))
  (pad 12 smd rect (at 2.275 -3) (size 0.4064 2.032) (layers F.Cu F.Paste F.Mask)
    (solder_mask_margin 0.1016) (clearance 0.2032) (zone_connect 2))
  (pad 13 smd rect (at 1.625 -3) (size 0.4064 2.032) (layers F.Cu F.Paste F.Mask)
    (solder_mask_margin 0.1016) (clearance 0.2032) (zone_connect 2))
  (pad 14 smd rect (at 0.975 -3) (size 0.4064 2.032) (layers F.Cu F.Paste F.Mask)
    (solder_mask_margin 0.1016) (clearance 0.2032) (zone_connect 2))
  (pad 15 smd rect (at 0.325 -3) (size 0.4064 2.032) (layers F.Cu F.Paste F.Mask)
    (solder_mask_margin 0.1016) (clearance 0.2032) (zone_connect 2))
  (pad 16 smd rect (at -0.325 -3) (size 0.4064 2.032) (layers F.Cu F.Paste F.Mask)
    (solder_mask_margin 0.1016) (clearance 0.2032) (zone_connect 2))
  (pad 17 smd rect (at -0.975 -3) (size 0.4064 2.032) (layers F.Cu F.Paste F.Mask)
    (solder_mask_margin 0.1016) (clearance 0.2032) (zone_connect 2))
  (pad 18 smd rect (at -1.625 -3) (size 0.4064 2.032) (layers F.Cu F.Paste F.Mask)
    (solder_mask_margin 0.1016) (clearance 0.2032) (zone_connect 2))
  (pad 19 smd rect (at -2.275 -3) (size 0.4064 2.032) (layers F.Cu F.Paste F.Mask)
    (solder_mask_margin 0.1016) (clearance 0.2032) (zone_connect 2))
  (pad 20 smd rect (at -2.925 -3) (size 0.4064 2.032) (layers F.Cu F.Paste F.Mask)
    (solder_mask_margin 0.1016) (clearance 0.2032) (zone_connect 2))
  (model ${KISYS3DMOD}/Package_SO.3dshapes/TSSOP-20_4.4x6.5mm_P0.65mm.wrl
    (at (xyz 0 0 0))
    (scale (xyz 1 1 1))
    (rotate (xyz 0 0 -90))
  )
)
