(module uSO08 placed (layer F.Cu) (tedit 5EBE99BA)
  (fp_text reference IC7 (at 0.9525 0.9525 -90) (layer F.SilkS)
    (effects (font (size 1.2 1.2) (thickness 0.1)) (justify left bottom))
  )
  (fp_text value L-BC-MSOP08 (at 0 2) (layer F.Fab) hide
    (effects (font (size 1 1) (thickness 0.15)))
  )
  (fp_poly (pts (xy 1.5 -3) (xy 1.5 3) (xy -1.5 3) (xy -1.5 -3)) (layer F.Fab) (width 0.02))
  (fp_line (start -0.7718 -1.388) (end -1.1782 -1.388) (layer F.SilkS) (width 0.02))
  (fp_line (start -0.7718 -2.912) (end -0.7718 -1.388) (layer F.SilkS) (width 0.02))
  (fp_line (start -1.1782 -2.912) (end -0.7718 -2.912) (layer F.SilkS) (width 0.02))
  (fp_line (start -1.1782 -1.388) (end -1.1782 -2.912) (layer F.SilkS) (width 0.02))
  (fp_line (start -0.1218 -1.388) (end -0.5282 -1.388) (layer F.SilkS) (width 0.02))
  (fp_line (start -0.1218 -2.912) (end -0.1218 -1.388) (layer F.SilkS) (width 0.02))
  (fp_line (start -0.5282 -2.912) (end -0.1218 -2.912) (layer F.SilkS) (width 0.02))
  (fp_line (start -0.5282 -1.388) (end -0.5282 -2.912) (layer F.SilkS) (width 0.02))
  (fp_line (start 0.5282 -1.388) (end 0.1218 -1.388) (layer F.SilkS) (width 0.02))
  (fp_line (start 0.5282 -2.912) (end 0.5282 -1.388) (layer F.SilkS) (width 0.02))
  (fp_line (start 0.1218 -2.912) (end 0.5282 -2.912) (layer F.SilkS) (width 0.02))
  (fp_line (start 0.1218 -1.388) (end 0.1218 -2.912) (layer F.SilkS) (width 0.02))
  (fp_line (start 1.1782 -1.388) (end 0.7718 -1.388) (layer F.SilkS) (width 0.02))
  (fp_line (start 1.1782 -2.912) (end 1.1782 -1.388) (layer F.SilkS) (width 0.02))
  (fp_line (start 0.7718 -2.912) (end 1.1782 -2.912) (layer F.SilkS) (width 0.02))
  (fp_line (start 0.7718 -1.388) (end 0.7718 -2.912) (layer F.SilkS) (width 0.02))
  (fp_line (start 1.1782 2.912) (end 0.7718 2.912) (layer F.SilkS) (width 0.02))
  (fp_line (start 1.1782 1.388) (end 1.1782 2.912) (layer F.SilkS) (width 0.02))
  (fp_line (start 0.7718 1.388) (end 1.1782 1.388) (layer F.SilkS) (width 0.02))
  (fp_line (start 0.7718 2.912) (end 0.7718 1.388) (layer F.SilkS) (width 0.02))
  (fp_line (start 0.5282 2.912) (end 0.1218 2.912) (layer F.SilkS) (width 0.02))
  (fp_line (start 0.5282 1.388) (end 0.5282 2.912) (layer F.SilkS) (width 0.02))
  (fp_line (start 0.1218 1.388) (end 0.5282 1.388) (layer F.SilkS) (width 0.02))
  (fp_line (start 0.1218 2.912) (end 0.1218 1.388) (layer F.SilkS) (width 0.02))
  (fp_line (start -0.1218 2.912) (end -0.5282 2.912) (layer F.SilkS) (width 0.02))
  (fp_line (start -0.1218 1.388) (end -0.1218 2.912) (layer F.SilkS) (width 0.02))
  (fp_line (start -0.5282 1.388) (end -0.1218 1.388) (layer F.SilkS) (width 0.02))
  (fp_line (start -0.5282 2.912) (end -0.5282 1.388) (layer F.SilkS) (width 0.02))
  (fp_line (start -0.7718 2.912) (end -1.1782 2.912) (layer F.SilkS) (width 0.02))
  (fp_line (start -0.7718 1.388) (end -0.7718 2.912) (layer F.SilkS) (width 0.02))
  (fp_line (start -1.1782 1.388) (end -0.7718 1.388) (layer F.SilkS) (width 0.02))
  (fp_line (start -1.1782 2.912) (end -1.1782 1.388) (layer F.SilkS) (width 0.02))
  (fp_line (start 1.5 -1.5) (end -1.5 -1.5) (layer F.SilkS) (width 0.1))
  (fp_line (start 1.5 1.5) (end 1.5 -1.5) (layer F.SilkS) (width 0.1))
  (fp_line (start -1.5 1.5) (end 1.5 1.5) (layer F.SilkS) (width 0.1))
  (fp_line (start -1.5 -1.5) (end -1.5 1.5) (layer F.SilkS) (width 0.1))
  (fp_line (start -1.5 -1.2) (end -1.5 1.2) (layer F.Fab) (width 0.18))
  (fp_line (start 1.5 -1.2) (end -1.5 -1.2) (layer F.Fab) (width 0.18))
  (fp_line (start 1.5 1.2) (end 1.5 -1.2) (layer F.Fab) (width 0.18))
  (fp_line (start -1.5 1.2) (end 1.5 1.2) (layer F.Fab) (width 0.18))
  (fp_line (start 1.59 3.0136) (end -1.59 3.0136) (layer Dwgs.User) (width 0.05))
  (fp_line (start 1.59 -3.0136) (end 1.59 3.0136) (layer Dwgs.User) (width 0.05))
  (fp_line (start -1.59 -3.0136) (end 1.59 -3.0136) (layer Dwgs.User) (width 0.05))
  (fp_line (start -1.59 3.0136) (end -1.59 -3.0136) (layer Dwgs.User) (width 0.05))
  (fp_arc (start -0.65 0.65001) (end -0.65 0.9) (angle 360) (layer F.SilkS) (width 0.02))
  (pad 8 smd rect (at -0.975 -2.15) (size 0.4064 1.524) (layers F.Cu F.Paste F.Mask)
    (solder_mask_margin 0.1016) (zone_connect 2))
  (pad 7 smd rect (at -0.325 -2.15) (size 0.4064 1.524) (layers F.Cu F.Paste F.Mask)
    (solder_mask_margin 0.1016) (zone_connect 2))
  (pad 6 smd rect (at 0.325 -2.15) (size 0.4064 1.524) (layers F.Cu F.Paste F.Mask)
    (solder_mask_margin 0.1016) (zone_connect 2))
  (pad 5 smd rect (at 0.975 -2.15) (size 0.4064 1.524) (layers F.Cu F.Paste F.Mask)
    (solder_mask_margin 0.1016) (zone_connect 2))
  (pad 4 smd rect (at 0.975 2.15) (size 0.4064 1.524) (layers F.Cu F.Paste F.Mask)
    (solder_mask_margin 0.1016) (zone_connect 2))
  (pad 3 smd rect (at 0.325 2.15) (size 0.4064 1.524) (layers F.Cu F.Paste F.Mask)
    (solder_mask_margin 0.1016) (zone_connect 2))
  (pad 2 smd rect (at -0.325 2.15) (size 0.4064 1.524) (layers F.Cu F.Paste F.Mask)
    (solder_mask_margin 0.1016) (zone_connect 2))
  (pad 1 smd rect (at -0.975 2.15) (size 0.4064 1.524) (layers F.Cu F.Paste F.Mask)
    (solder_mask_margin 0.1016) (zone_connect 2))
  (model ${KISYS3DMOD}/Package_SO.3dshapes/MSOP-8_3x3mm_P0.65mm.wrl
    (at (xyz 0 0 0))
    (scale (xyz 1 1 1))
    (rotate (xyz 0 0 -90))
  )
)
