(module VIA-08X03 (layer F.Cu) (tedit 0)
  (descr "tented via, 32 mil pads on all layers, 12 mil hole")
  (tags via)
  (fp_text reference Ref** (at 0 0) (layer F.SilkS) hide
    (effects (font (size 1 1) (thickness 0.15)))
  )
  (fp_text value VIA-08X03 (at 0 2) (layer F.Fab) hide
    (effects (font (size 1 1) (thickness 0.15)))
  )
  (pad ~ thru_hole circle (at 0 0) (size 0.8128 0.8128) (drill 0.3048) (layers *.Cu)
    (clearance 0.2032) (zone_connect 2))
)
