(module VIA-08X03-VE (layer F.Cu) (tedit 5EC5BAB1)
  (descr "un-tented via, 32 mil pads on all layers, 12 mil hole")
  (tags via)
  (fp_text reference Ref** (at 0 -1.27) (layer F.SilkS) hide
    (effects (font (size 1 1) (thickness 0.15)))
  )
  (fp_text value VIA-08X03-VE (at 0 1.27) (layer F.Fab) hide
    (effects (font (size 1 1) (thickness 0.15)))
  )
  (pad ~ thru_hole circle (at 0 0) (size 0.8128 0.8128) (drill 0.3048) (layers *.Cu *.Mask)
    (solder_mask_margin 0.1016) (clearance 0.2032) (zone_connect 2))
)
