(module WE-FA (layer F.Cu) (tedit 5EC7D26F)
  (attr smd)
  (fp_text reference REF** (at -1.75 0) (layer F.SilkS)
    (effects (font (size 1.2 1.2) (thickness 0.15)) (justify right))
  )
  (fp_text value WE-FA (at 0 2) (layer F.Fab) hide
    (effects (font (size 1 1) (thickness 0.15)))
  )
  (fp_line (start -1.868 1.614) (end -1.868 -1.614) (layer Dwgs.User) (width 0.05))
  (fp_line (start -1.868 -1.614) (end 1.868 -1.614) (layer Dwgs.User) (width 0.05))
  (fp_line (start 1.868 -1.614) (end 1.868 1.614) (layer Dwgs.User) (width 0.05))
  (fp_line (start 1.868 1.614) (end -1.868 1.614) (layer Dwgs.User) (width 0.05))
  (fp_line (start -1.778 1.524) (end 1.778 1.524) (layer F.SilkS) (width 0.18))
  (fp_line (start 1.778 1.524) (end 1.778 -1.524) (layer F.SilkS) (width 0.18))
  (fp_line (start 1.778 -1.524) (end -1.778 -1.524) (layer F.SilkS) (width 0.18))
  (fp_line (start -1.778 -1.524) (end -1.778 1.524) (layer F.SilkS) (width 0.18))
  (fp_line (start 1.778 -1.524) (end 1.778 1.524) (layer F.CrtYd) (width 0.02))
  (fp_line (start 1.778 1.524) (end -1.778 1.524) (layer F.CrtYd) (width 0.02))
  (fp_line (start -1.778 1.524) (end -1.778 -1.524) (layer F.CrtYd) (width 0.02))
  (fp_line (start -1.778 -1.524) (end 1.778 -1.524) (layer F.CrtYd) (width 0.02))
  (fp_line (start -1.6 0.6) (end -1.4 0.6) (layer F.Fab) (width 0.1))
  (fp_line (start -1.4 0.6) (end -1.4 0.8) (layer F.Fab) (width 0.1))
  (fp_line (start -1.4 0.8) (end -1 0.8) (layer F.Fab) (width 0.1))
  (fp_line (start -1 0.8) (end -1 0.6) (layer F.Fab) (width 0.1))
  (fp_line (start -1 0.6) (end -0.6 0.6) (layer F.Fab) (width 0.1))
  (fp_line (start -0.6 0.6) (end -0.6 0.8) (layer F.Fab) (width 0.1))
  (fp_line (start -0.6 0.8) (end -0.2 0.8) (layer F.Fab) (width 0.1))
  (fp_line (start -0.2 0.8) (end -0.2 0.6) (layer F.Fab) (width 0.1))
  (fp_line (start -0.2 0.6) (end 0.2 0.6) (layer F.Fab) (width 0.1))
  (fp_line (start 0.2 0.6) (end 0.2 0.8) (layer F.Fab) (width 0.1))
  (fp_line (start 0.2 0.8) (end 0.6 0.8) (layer F.Fab) (width 0.1))
  (fp_line (start 0.6 0.8) (end 0.6 0.6) (layer F.Fab) (width 0.1))
  (fp_line (start 0.6 0.6) (end 1 0.6) (layer F.Fab) (width 0.1))
  (fp_line (start 1 0.6) (end 1 0.8) (layer F.Fab) (width 0.1))
  (fp_line (start 1 0.8) (end 1.4 0.8) (layer F.Fab) (width 0.1))
  (fp_line (start 1.4 0.8) (end 1.4 0.6) (layer F.Fab) (width 0.1))
  (fp_line (start 1.4 0.6) (end 1.6 0.6) (layer F.Fab) (width 0.1))
  (fp_line (start 1.6 0.6) (end 1.6 -0.6) (layer F.Fab) (width 0.1))
  (fp_line (start 1.6 -0.6) (end 1.4 -0.6) (layer F.Fab) (width 0.1))
  (fp_line (start 1.4 -0.6) (end 1.4 -0.8) (layer F.Fab) (width 0.1))
  (fp_line (start 1.4 -0.8) (end 1 -0.8) (layer F.Fab) (width 0.1))
  (fp_line (start 1 -0.8) (end 1 -0.6) (layer F.Fab) (width 0.1))
  (fp_line (start 1 -0.6) (end 0.6 -0.6) (layer F.Fab) (width 0.1))
  (fp_line (start 0.6 -0.6) (end 0.6 -0.8) (layer F.Fab) (width 0.1))
  (fp_line (start 0.6 -0.8) (end 0.2 -0.8) (layer F.Fab) (width 0.1))
  (fp_line (start 0.2 -0.8) (end 0.2 -0.6) (layer F.Fab) (width 0.1))
  (fp_line (start 0.2 -0.6) (end -0.2 -0.6) (layer F.Fab) (width 0.1))
  (fp_line (start -0.2 -0.6) (end -0.2 -0.8) (layer F.Fab) (width 0.1))
  (fp_line (start -0.2 -0.8) (end -0.6 -0.8) (layer F.Fab) (width 0.1))
  (fp_line (start -0.6 -0.8) (end -0.6 -0.6) (layer F.Fab) (width 0.1))
  (fp_line (start -0.6 -0.6) (end -1 -0.6) (layer F.Fab) (width 0.1))
  (fp_line (start -1 -0.6) (end -1 -0.8) (layer F.Fab) (width 0.1))
  (fp_line (start -1 -0.8) (end -1.4 -0.8) (layer F.Fab) (width 0.1))
  (fp_line (start -1.4 -0.8) (end -1.4 -0.6) (layer F.Fab) (width 0.1))
  (fp_line (start -1.4 -0.6) (end -1.6 -0.6) (layer F.Fab) (width 0.1))
  (fp_line (start -1.6 -0.6) (end -1.6 0.6) (layer F.Fab) (width 0.1))
  (pad L1A smd rect (at -1.2 0.8) (size 0.5588 0.9144) (layers F.Cu F.Paste F.Mask)
    (solder_mask_margin 0.1016) (clearance 0.2032) (zone_connect 2))
  (pad L1B smd rect (at -1.2 -0.8) (size 0.5588 0.9144) (layers F.Cu F.Paste F.Mask)
    (solder_mask_margin 0.1016) (clearance 0.2032) (zone_connect 2))
  (pad L2A smd rect (at -0.4 0.8) (size 0.5588 0.9144) (layers F.Cu F.Paste F.Mask)
    (solder_mask_margin 0.1016) (clearance 0.2032) (zone_connect 2))
  (pad L2B smd rect (at -0.4 -0.8) (size 0.5588 0.9144) (layers F.Cu F.Paste F.Mask)
    (solder_mask_margin 0.1016) (clearance 0.2032) (zone_connect 2))
  (pad L3A smd rect (at 0.4 0.8) (size 0.5588 0.9144) (layers F.Cu F.Paste F.Mask)
    (solder_mask_margin 0.1016) (clearance 0.2032) (zone_connect 2))
  (pad L3B smd rect (at 0.4 -0.8) (size 0.5588 0.9144) (layers F.Cu F.Paste F.Mask)
    (solder_mask_margin 0.1016) (clearance 0.2032) (zone_connect 2))
  (pad L4A smd rect (at 1.2 0.8) (size 0.5588 0.9144) (layers F.Cu F.Paste F.Mask)
    (solder_mask_margin 0.1016) (clearance 0.2032) (zone_connect 2))
  (pad L4B smd rect (at 1.2 -0.8) (size 0.5588 0.9144) (layers F.Cu F.Paste F.Mask)
    (solder_mask_margin 0.1016) (clearance 0.2032) (zone_connect 2))
  (model ${KIPRJMOD}/../Library/Footprints.3dshapes/BLACK_CAPCAF80P160X320X90-8N.step
    (at (xyz 0 0 0))
    (scale (xyz 1 1 1))
    (rotate (xyz 0 0 0))
  )
)
