(module A3_EQFS (layer F.Cu) (tedit 0)
  (attr virtual)
  (fp_text reference REF** (at 0 0) (layer F.SilkS)
    (effects (font (size 1 1) (thickness 0.15)))
  )
  (fp_text value A3_EQFS (at 0 2) (layer F.Fab) hide
    (effects (font (size 1 1) (thickness 0.15)))
  )
  (fp_line (start -148.6261 210.135) (end -148.6261 -210.1195) (layer Dwgs.User) (width 0.05))
  (fp_line (start -148.6261 -210.1195) (end 148.6261 -210.1195) (layer Dwgs.User) (width 0.05))
  (fp_line (start 148.6261 -210.1195) (end 148.6261 210.135) (layer Dwgs.User) (width 0.05))
  (fp_line (start 148.6261 210.135) (end -148.6261 210.135) (layer Dwgs.User) (width 0.05))
  (fp_line (start 2.54 200.01554) (end 0 202.01958) (layer Dwgs.User) (width 0.25))
  (fp_line (start 0 202.01958) (end -2.54 200.01554) (layer Dwgs.User) (width 0.25))
  (fp_line (start 0.05 210.01) (end 2.54 199.96554) (layer Dwgs.User) (width 0.25))
  (fp_line (start 2.54 199.96554) (end -2.54 199.96554) (layer Dwgs.User) (width 0.25))
  (fp_line (start -2.54 199.96554) (end -0.04 209.97) (layer Dwgs.User) (width 0.25))
  (fp_line (start -148.5011 105.0036) (end -138.50619 105.0036) (layer Dwgs.User) (width 0.25))
  (fp_line (start -148.5011 -105.0036) (end -138.50619 -105.0036) (layer Dwgs.User) (width 0.25))
  (fp_line (start 148.5011 -104.775) (end 139.7 -104.775) (layer Dwgs.User) (width 0.25))
  (fp_line (start 148.5011 104.775) (end 139.7 104.775) (layer Dwgs.User) (width 0.25))
  (fp_line (start 0.01 210.01) (end 0 202.09958) (layer Dwgs.User) (width 0.25))
  (fp_line (start 0 -209.9945) (end 0 -200.66) (layer Dwgs.User) (width 0.25))
  (fp_line (start 148.5011 0) (end 139.7 0) (layer Dwgs.User) (width 0.25))
  (fp_line (start -148.5011 0) (end -138.50619 0) (layer Dwgs.User) (width 0.25))
  (fp_line (start 148.5011 209.9945) (end -148.5011 209.9945) (layer Dwgs.User) (width 0.25))
  (fp_line (start -148.5011 209.9945) (end -148.5011 -209.9945) (layer Dwgs.User) (width 0.25))
  (fp_line (start -148.5011 -209.9945) (end 148.5011 -209.9945) (layer Dwgs.User) (width 0.25))
  (fp_line (start 148.5011 -209.9945) (end 148.5011 209.9945) (layer Dwgs.User) (width 0.25))
  (fp_line (start -2.286 200.66) (end -138.43 200.66) (layer Dwgs.User) (width 0.5))
  (fp_line (start -138.43 200.66) (end -138.43 -200.66) (layer Dwgs.User) (width 0.5))
  (fp_line (start -138.43 -200.66) (end 139.7 -200.66) (layer Dwgs.User) (width 0.5))
  (fp_line (start 139.7 -200.66) (end 139.7 200.66) (layer Dwgs.User) (width 0.5))
  (fp_line (start 139.7 200.66) (end 2.286 200.66) (layer Dwgs.User) (width 0.5))
  (fp_text user 1 (at -141.93 155.00463) (layer Dwgs.User)
    (effects (font (size 1 1) (thickness 0.508)) (justify left mirror))
  )
  (fp_text user 2 (at -141.27 54.64463) (layer Dwgs.User)
    (effects (font (size 1 1) (thickness 0.508)) (justify left mirror))
  )
  (fp_text user 3 (at -141.27 -48.36444) (layer Dwgs.User)
    (effects (font (size 1 1) (thickness 0.5083)) (justify left mirror))
  )
  (fp_text user 4 (at -141.6 -152.99537) (layer Dwgs.User)
    (effects (font (size 1 1) (thickness 0.508)) (justify left mirror))
  )
  (fp_text user A (at -73 -203.5 -270) (layer Dwgs.User)
    (effects (font (size 1 1) (thickness 0.508)) (justify left mirror))
  )
  (fp_text user B (at 71.5 -203.5 -270) (layer Dwgs.User)
    (effects (font (size 1 1) (thickness 0.508)) (justify left mirror))
  )
  (fp_text user 4 (at 142 -159 -270) (layer Dwgs.User)
    (effects (font (size 1 1) (thickness 0.508)) (justify left mirror))
  )
  (fp_text user 3 (at 142 -53 -270) (layer Dwgs.User)
    (effects (font (size 1 1) (thickness 0.508)) (justify left mirror))
  )
  (fp_text user 2 (at 142 49.5 -270) (layer Dwgs.User)
    (effects (font (size 1 1) (thickness 0.508)) (justify left mirror))
  )
  (fp_text user 1 (at 142 152.5 -270) (layer Dwgs.User)
    (effects (font (size 1 1) (thickness 0.508)) (justify left mirror))
  )
  (fp_text user B (at 72.5 207.5) (layer Dwgs.User)
    (effects (font (size 1 1) (thickness 0.508)) (justify left mirror))
  )
  (fp_text user A (at -70.5 207.5) (layer Dwgs.User)
    (effects (font (size 1 1) (thickness 0.508)) (justify left mirror))
  )
)