(module C0402 (layer F.Cu) (tedit 0)
  (attr smd)
  (fp_text reference REF** (at 0 0) (layer F.SilkS)
    (effects (font (size 1 1) (thickness 0.15)))
  )
  (fp_text value C0402 (at 0 2) (layer F.Fab) hide
    (effects (font (size 1 1) (thickness 0.15)))
  )
  (fp_line (start -1.2016 0.56625) (end -1.2016 -0.56625) (layer Dwgs.User) (width 0.05))
  (fp_line (start -1.2016 -0.56625) (end 1.20125 -0.56625) (layer Dwgs.User) (width 0.05))
  (fp_line (start 1.20125 -0.56625) (end 1.20125 0.56625) (layer Dwgs.User) (width 0.05))
  (fp_line (start 1.20125 0.56625) (end -1.2016 0.56625) (layer Dwgs.User) (width 0.05))
  (fp_line (start -1.1116 0.47625) (end 1.11125 0.47625) (layer F.SilkS) (width 0.18))
  (fp_line (start 1.11125 0.47625) (end 1.11125 -0.47625) (layer F.SilkS) (width 0.18))
  (fp_line (start 1.11125 -0.47625) (end -1.1116 -0.47625) (layer F.SilkS) (width 0.18))
  (fp_line (start -1.1116 -0.47625) (end -1.1116 0.47625) (layer F.SilkS) (width 0.18))
  (fp_line (start -1.11125 -0.47625) (end 1.11125 -0.47625) (layer F.CrtYd) (width 0.02))
  (fp_line (start 1.11125 -0.47625) (end 1.11125 0.47625) (layer F.CrtYd) (width 0.02))
  (fp_line (start 1.11125 0.47625) (end -1.11125 0.47625) (layer F.CrtYd) (width 0.02))
  (fp_line (start -1.11125 0.47625) (end -1.11125 -0.47625) (layer F.CrtYd) (width 0.02))
  (fp_line (start 0.55 0.3) (end 0.55 -0.3) (layer F.Fab) (width 0.1))
  (fp_line (start 0.55 -0.3) (end -0.55 -0.3) (layer F.Fab) (width 0.1))
  (fp_line (start -0.55 -0.3) (end -0.55 0.3) (layer F.Fab) (width 0.1))
  (fp_line (start -0.55 0.3) (end 0.55 0.3) (layer F.Fab) (width 0.1))
  (pad 1 smd rect (at -0.55 0 270) (size 0.5 0.6) (layers F.Cu F.Mask F.Paste)
    (solder_mask_margin 0.1)
    (zone_connect 2))
  (pad 2 smd rect (at 0.55 0 270) (size 0.5 0.6) (layers F.Cu F.Mask F.Paste)
    (solder_mask_margin 0.1)
    (zone_connect 2))
  (model ${KISYS3DMOD}/Capacitor_SMD.3dshapes/C_0402_1005Metric.wrl
    (offset (xyz 0 0 0))
    (scale (xyz 1 1 1))
    (rotate (xyz 0 0 0))
  )
)