(module C0603-SANS-SE (layer F.Cu) (tedit 0)
  (attr smd)
  (fp_text reference REF** (at 0 0) (layer F.SilkS)
    (effects (font (size 1 1) (thickness 0.15)))
  )
  (fp_text value C0603-SANS-SE (at 0 2) (layer F.Fab) hide
    (effects (font (size 1 1) (thickness 0.15)))
  )
  (fp_line (start -1.42875 0.635) (end -1.42875 -0.635) (layer Dwgs.User) (width 0.05))
  (fp_line (start -1.42875 -0.635) (end 1.42875 -0.635) (layer Dwgs.User) (width 0.05))
  (fp_line (start 1.42875 -0.635) (end 1.42875 0.635) (layer Dwgs.User) (width 0.05))
  (fp_line (start 1.42875 0.635) (end -1.42875 0.635) (layer Dwgs.User) (width 0.05))
  (fp_line (start 1.42875 -0.635) (end 1.42875 0.635) (layer F.CrtYd) (width 0.02))
  (fp_line (start 1.42875 0.635) (end -1.42875 0.635) (layer F.CrtYd) (width 0.02))
  (fp_line (start -1.42875 0.635) (end -1.42875 -0.635) (layer F.CrtYd) (width 0.02))
  (fp_line (start -1.42875 -0.635) (end 1.42875 -0.635) (layer F.CrtYd) (width 0.02))
  (fp_line (start 0.9 -0.4) (end -0.9 -0.4) (layer F.Fab) (width 0.1))
  (fp_line (start -0.9 -0.4) (end -0.9 0.4) (layer F.Fab) (width 0.1))
  (fp_line (start -0.9 0.4) (end 0.9 0.4) (layer F.Fab) (width 0.1))
  (fp_line (start 0.9 0.4) (end 0.9 -0.4) (layer F.Fab) (width 0.1))
  (pad 1 smd rect (at -0.75 0) (size 0.8 0.8) (layers F.Cu F.Mask F.Paste)
    (solder_mask_margin 0.1)
    (zone_connect 2))
  (pad 2 smd rect (at 0.75 0) (size 0.8 0.8) (layers F.Cu F.Mask F.Paste)
    (solder_mask_margin 0.1)
    (zone_connect 2))
)