(module CART-AIROX_PERCAGE (layer F.Cu) (tedit 0)
  (attr virtual)
  (fp_text reference REF** (at 0 0) (layer F.SilkS)
    (effects (font (size 1 1) (thickness 0.15)))
  )
  (fp_text value CART-AIROX_PERCAGE (at 0 2) (layer F.Fab) hide
    (effects (font (size 1 1) (thickness 0.15)))
  )
  (fp_line (start -193.254 0.254) (end -193.254 -59.77468) (layer Dwgs.User) (width 0.05))
  (fp_line (start -193.254 -59.77468) (end 0.254 -59.77468) (layer Dwgs.User) (width 0.05))
  (fp_line (start 0.254 -59.77468) (end 0.254 0.254) (layer Dwgs.User) (width 0.05))
  (fp_line (start 0.254 0.254) (end -193.254 0.254) (layer Dwgs.User) (width 0.05))
  (fp_line (start -32 -59.4) (end -39 -59.4) (layer Dwgs.User) (width 0.1524))
  (fp_line (start -39 -59.4) (end -39 -56) (layer Dwgs.User) (width 0.1524))
  (fp_line (start -39 -56) (end -32 -56) (layer Dwgs.User) (width 0.1524))
  (fp_line (start -32 -56) (end -32 -59.4) (layer Dwgs.User) (width 0.1524))
  (fp_line (start -23.5 -42) (end -23.5 -56) (layer Dwgs.User) (width 0.1524))
  (fp_line (start 0.1 -45.6) (end -192.9 -45.6) (layer Dwgs.User) (width 0.1524))
  (fp_line (start 0 -48.8) (end -193 -48.8) (layer Dwgs.User) (width 0.1524))
  (fp_line (start 0 -52.2) (end -193 -52.2) (layer Dwgs.User) (width 0.1524))
  (fp_line (start -32 -56) (end -32 -59.4) (layer Dwgs.User) (width 0.1524))
  (fp_line (start -32 -59.4) (end 0 -59.4) (layer Dwgs.User) (width 0.1524))
  (fp_line (start 0 -59.4) (end 0 -56) (layer Dwgs.User) (width 0.1524))
  (fp_line (start -101 -8) (end -101 -56) (layer Dwgs.User) (width 0.1524))
  (fp_line (start -174 -8) (end -174 -56) (layer Dwgs.User) (width 0.1524))
  (fp_line (start -179 -8) (end -179 -56) (layer Dwgs.User) (width 0.1524))
  (fp_line (start -187 -8) (end -187 -56) (layer Dwgs.User) (width 0.1524))
  (fp_line (start -193 -11.4) (end -93 -11.4) (layer Dwgs.User) (width 0.1524))
  (fp_line (start -193 -14.8) (end -93 -14.8) (layer Dwgs.User) (width 0.1524))
  (fp_line (start -193 -18.2) (end -93 -18.2) (layer Dwgs.User) (width 0.1524))
  (fp_line (start -193 -21.6) (end -93 -21.6) (layer Dwgs.User) (width 0.1524))
  (fp_line (start -193 -25) (end -93 -25) (layer Dwgs.User) (width 0.1524))
  (fp_line (start -193 -28.4) (end -93 -28.4) (layer Dwgs.User) (width 0.1524))
  (fp_line (start -193 -31.8) (end -93 -31.8) (layer Dwgs.User) (width 0.1524))
  (fp_line (start -193 -35.2) (end -93 -35.2) (layer Dwgs.User) (width 0.1524))
  (fp_line (start -193 -38.6) (end -93 -38.6) (layer Dwgs.User) (width 0.1524))
  (fp_line (start -193 -42) (end -93 -42) (layer Dwgs.User) (width 0.1524))
  (fp_line (start -193 0) (end 0 0) (layer Dwgs.User) (width 0.508))
  (fp_line (start 0 0) (end 0 -56) (layer Dwgs.User) (width 0.508))
  (fp_line (start 0 -56) (end -193 -56) (layer Dwgs.User) (width 0.508))
  (fp_line (start -193 -56) (end -193 0) (layer Dwgs.User) (width 0.508))
  (fp_line (start -93 0) (end -93 -56) (layer Dwgs.User) (width 0.508))
  (fp_line (start -193 -8) (end 0 -8) (layer Dwgs.User) (width 0.508))
  (fp_line (start -68.5 0) (end -68.5 -8) (layer Dwgs.User) (width 0.508))
  (fp_line (start -93 -21.5) (end 0 -21.5) (layer Dwgs.User) (width 0.508))
  (fp_line (start -93 -42) (end 0 -42) (layer Dwgs.User) (width 0.508))
  (fp_text user MODIFICATIONS (at -147.9 -11.77306) (layer Dwgs.User)
    (effects (font (size 1 1) (thickness 0.05)) (justify left))
  )
  (fp_text user CREATION (at -144.1 -8.47306) (layer Dwgs.User)
    (effects (font (size 1 1) (thickness 0.05)) (justify left))
  )
  (fp_text user "Appareil :" (at -91.6 -18.53506) (layer Dwgs.User)
    (effects (font (size 1 1) (thickness 0.05)) (justify left))
  )
  (fp_text user A (at -38 -56.6) (layer Dwgs.User)
    (effects (font (size 1 1) (thickness 0.1)) (justify left))
  )
  (fp_text user "Diffusion :" (at -31.3 -57) (layer Dwgs.User)
    (effects (font (size 1 1) (thickness 0.05)) (justify left))
  )
  (fp_text user "T.G :" (at -22.8 -53) (layer Dwgs.User)
    (effects (font (size 1 1) (thickness 0.05)) (justify left))
  )
  (fp_text user "S. Tolerie :" (at -22.8 -49.7) (layer Dwgs.User)
    (effects (font (size 1 1) (thickness 0.05)) (justify left))
  )
  (fp_text user "Designation :" (at -91.7 -39.4) (layer Dwgs.User)
    (effects (font (size 1 1) (thickness 0.05)) (justify left))
  )
  (fp_text user Rev (at -191.7 -11.7) (layer Dwgs.User)
    (effects (font (size 1 1) (thickness 0.05)) (justify left))
  )
  (fp_text user Date (at -185.2 -12.5) (layer Dwgs.User)
    (effects (font (size 1 1) (thickness 0.05)) (justify left))
  )
  (fp_text user Par (at -177.8 -13.3) (layer Dwgs.User)
    (effects (font (size 1 1) (thickness 0.05)) (justify left))
  )
  (fp_text user By (at -177.8 -11.9) (layer Dwgs.User)
    (effects (font (size 1 1) (thickness 0.05)) (justify left))
  )
  (fp_text user Ind (at -191.7 -13.3) (layer Dwgs.User)
    (effects (font (size 1 1) (thickness 0.05)) (justify left))
  )
  (fp_text user "Ce document ne peut etre copie ou communique sans l'autorisation de AIROX" (at -140.2 -4.6) (layer Dwgs.User)
    (effects (font (size 1 1) (thickness 0.05)))
  )
  (fp_text user "This document cannot be copied/distributed whithout AIROX authorisation" (at -140.1 -1.6) (layer Dwgs.User)
    (effects (font (size 1 1) (thickness 0.05)))
  )
  (fp_text user Verif (at -99.9 -13.3) (layer Dwgs.User)
    (effects (font (size 1 1) (thickness 0.1)) (justify left))
  )
  (fp_text user Check (at -99.8 -11.8) (layer Dwgs.User)
    (effects (font (size 1 1) (thickness 0.1)) (justify left))
  )
  (fp_text user "Code :                n` plan :" (at -91.5 -6.2) (layer Dwgs.User)
    (effects (font (size 1 1) (thickness 0.05)) (justify left))
  )
  (fp_text user "Part Number :         Drawing Number :" (at -91.5 -4.5) (layer Dwgs.User)
    (effects (font (size 1 1) (thickness 0.05)) (justify left))
  )
  (fp_text user "Product :" (at -91.6 -16.7) (layer Dwgs.User)
    (effects (font (size 1 1) (thickness 0.05)) (justify left))
  )
  (fp_text user "Description :" (at -91.7 -37.7) (layer Dwgs.User)
    (effects (font (size 1 1) (thickness 0.05)) (justify left))
  )
  (fp_text user "Valable pour : " (at -91.6 -44.1) (layer Dwgs.User)
    (effects (font (size 1 1) (thickness 0.05)) (justify left))
  )
  (fp_text user "Traitement :" (at -91.7 -47.3) (layer Dwgs.User)
    (effects (font (size 1 1) (thickness 0.05)) (justify left))
  )
  (fp_text user "Aspect :" (at -91.7 -50.6) (layer Dwgs.User)
    (effects (font (size 1 1) (thickness 0.05)) (justify left))
  )
  (fp_text user "Matiere :" (at -91.7 -54.3) (layer Dwgs.User)
    (effects (font (size 1 1) (thickness 0.05)) (justify left))
  )
  (fp_text user "Material :" (at -91.7 -52.7) (layer Dwgs.User)
    (effects (font (size 1 1) (thickness 0.05)) (justify left))
  )
  (fp_text user "Texture :" (at -91.7 -49.2) (layer Dwgs.User)
    (effects (font (size 1 1) (thickness 0.05)) (justify left))
  )
  (fp_text user "Process :" (at -91.7 -45.9) (layer Dwgs.User)
    (effects (font (size 1 1) (thickness 0.05)) (justify left))
  )
  (fp_text user "Qte :" (at -22.7 -47.4) (layer Dwgs.User)
    (effects (font (size 1 1) (thickness 0.05)) (justify left))
  )
  (fp_text user "Qty :" (at -22.7 -46) (layer Dwgs.User)
    (effects (font (size 1 1) (thickness 0.05)) (justify left))
  )
  (fp_text user Scale: (at -22.8 -42.6) (layer Dwgs.User)
    (effects (font (size 1 1) (thickness 0.05)) (justify left))
  )
  (fp_text user Echelle: (at -22.8 -44) (layer Dwgs.User)
    (effects (font (size 1 1) (thickness 0.05)) (justify left))
  )
  (fp_text user "Valid for : " (at -91.6 -42.7) (layer Dwgs.User)
    (effects (font (size 1 1) (thickness 0.05)) (justify left))
  )
)