(module GKS913 (layer F.Cu) (tedit 0)
  (fp_text reference REF** (at 0 0) (layer F.SilkS)
    (effects (font (size 1 1) (thickness 0.15)))
  )
  (fp_text value GKS913 (at 0 2) (layer F.Fab) hide
    (effects (font (size 1 1) (thickness 0.15)))
  )
  (fp_arc (start 0 0) (end 1.75 0) (angle 360) (layer F.SilkS) (width 0.18))
  (fp_arc (start 0 0) (end 1.75 0) (angle 360) (layer F.CrtYd) (width 0.02))
  (fp_arc (start 0 0) (end 2.15 0) (angle 360) (layer B.CrtYd) (width 0.02))
  (fp_arc (start 0 0) (end 1.75 0) (angle 360) (layer F.Fab) (width 0.1))
  (fp_arc (start 0 0) (end 1.325 0) (angle 360) (layer F.Fab) (width 0.1))
  (fp_arc (start 0 0) (end 1.15 0) (angle 360) (layer F.Fab) (width 0.1))
  (fp_line (start -2.25 2.25) (end -2.25 -2.25) (layer Dwgs.User) (width 0.05))
  (fp_line (start -2.25 -2.25) (end 2.25 -2.25) (layer Dwgs.User) (width 0.05))
  (fp_line (start 2.25 -2.25) (end 2.25 2.25) (layer Dwgs.User) (width 0.05))
  (fp_line (start 2.25 2.25) (end -2.25 2.25) (layer Dwgs.User) (width 0.05))
  (pad 1 thru_hole circle (at 0 0) (size 4.3 4.3) (drill 2.8956 (offset 0 0 )) (layers *.Cu *.Mask)
    (solder_mask_margin 0.1)
    (zone_connect 2))
  (model ${KIPRJMOD}/../Library/Footprints.3dshapes/GKS-913-0089.step
    (offset (xyz 0 0 6))
    (scale (xyz 1 1 1))
    (rotate (xyz 0 90 0))
  )
)