(module MIRECMS_MICROCONTROLE (layer F.Cu) (tedit 0)
  (attr smd)
  (fp_text reference REF** (at 0 0) (layer F.SilkS)
    (effects (font (size 1 1) (thickness 0.15)))
  )
  (fp_text value MIRECMS_MICROCONTROLE (at 0 2) (layer F.Fab) hide
    (effects (font (size 1 1) (thickness 0.15)))
  )
  (fp_line (start -1.5 1.5) (end -1.5 -1.5) (layer Dwgs.User) (width 0.05))
  (fp_line (start -1.5 -1.5) (end 1.5 -1.5) (layer Dwgs.User) (width 0.05))
  (fp_line (start 1.5 -1.5) (end 1.5 1.5) (layer Dwgs.User) (width 0.05))
  (fp_line (start 1.5 1.5) (end -1.5 1.5) (layer Dwgs.User) (width 0.05))
  (fp_line (start 1.5 0) (end 1.49665 -0.100189) (layer F.CrtYd) (width 0.02))
  (fp_line (start 1.49665 -0.100189) (end 1.486616 -0.19993) (layer F.CrtYd) (width 0.02))
  (fp_line (start 1.486616 -0.19993) (end 1.469943 -0.298779) (layer F.CrtYd) (width 0.02))
  (fp_line (start 1.469943 -0.298779) (end 1.446704 -0.396293) (layer F.CrtYd) (width 0.02))
  (fp_line (start 1.446704 -0.396293) (end 1.417004 -0.492037) (layer F.CrtYd) (width 0.02))
  (fp_line (start 1.417004 -0.492037) (end 1.380975 -0.585584) (layer F.CrtYd) (width 0.02))
  (fp_line (start 1.380975 -0.585584) (end 1.338778 -0.676515) (layer F.CrtYd) (width 0.02))
  (fp_line (start 1.338778 -0.676515) (end 1.290602 -0.764425) (layer F.CrtYd) (width 0.02))
  (fp_line (start 1.290602 -0.764425) (end 1.236662 -0.848921) (layer F.CrtYd) (width 0.02))
  (fp_line (start 1.236662 -0.848921) (end 1.177199 -0.929625) (layer F.CrtYd) (width 0.02))
  (fp_line (start 1.177199 -0.929625) (end 1.112478 -1.006177) (layer F.CrtYd) (width 0.02))
  (fp_line (start 1.112478 -1.006177) (end 1.042789 -1.078236) (layer F.CrtYd) (width 0.02))
  (fp_line (start 1.042789 -1.078236) (end 0.968442 -1.145478) (layer F.CrtYd) (width 0.02))
  (fp_line (start 0.968442 -1.145478) (end 0.88977 -1.207605) (layer F.CrtYd) (width 0.02))
  (fp_line (start 0.88977 -1.207605) (end 0.807124 -1.264338) (layer F.CrtYd) (width 0.02))
  (fp_line (start 0.807124 -1.264338) (end 0.720873 -1.315425) (layer F.CrtYd) (width 0.02))
  (fp_line (start 0.720873 -1.315425) (end 0.631402 -1.360636) (layer F.CrtYd) (width 0.02))
  (fp_line (start 0.631402 -1.360636) (end 0.539112 -1.399771) (layer F.CrtYd) (width 0.02))
  (fp_line (start 0.539112 -1.399771) (end 0.444413 -1.432654) (layer F.CrtYd) (width 0.02))
  (fp_line (start 0.444413 -1.432654) (end 0.34773 -1.459138) (layer F.CrtYd) (width 0.02))
  (fp_line (start 0.34773 -1.459138) (end 0.249494 -1.479105) (layer F.CrtYd) (width 0.02))
  (fp_line (start 0.249494 -1.479105) (end 0.150144 -1.492467) (layer F.CrtYd) (width 0.02))
  (fp_line (start 0.150144 -1.492467) (end 0.050122 -1.499162) (layer F.CrtYd) (width 0.02))
  (fp_line (start 0.050122 -1.499162) (end -0.050122 -1.499162) (layer F.CrtYd) (width 0.02))
  (fp_line (start -0.050122 -1.499162) (end -0.150144 -1.492467) (layer F.CrtYd) (width 0.02))
  (fp_line (start -0.150144 -1.492467) (end -0.249494 -1.479105) (layer F.CrtYd) (width 0.02))
  (fp_line (start -0.249494 -1.479105) (end -0.34773 -1.459138) (layer F.CrtYd) (width 0.02))
  (fp_line (start -0.34773 -1.459138) (end -0.444413 -1.432654) (layer F.CrtYd) (width 0.02))
  (fp_line (start -0.444413 -1.432654) (end -0.539112 -1.399771) (layer F.CrtYd) (width 0.02))
  (fp_line (start -0.539112 -1.399771) (end -0.631402 -1.360636) (layer F.CrtYd) (width 0.02))
  (fp_line (start -0.631402 -1.360636) (end -0.720873 -1.315425) (layer F.CrtYd) (width 0.02))
  (fp_line (start -0.720873 -1.315425) (end -0.807124 -1.264338) (layer F.CrtYd) (width 0.02))
  (fp_line (start -0.807124 -1.264338) (end -0.88977 -1.207605) (layer F.CrtYd) (width 0.02))
  (fp_line (start -0.88977 -1.207605) (end -0.968442 -1.145478) (layer F.CrtYd) (width 0.02))
  (fp_line (start -0.968442 -1.145478) (end -1.042789 -1.078236) (layer F.CrtYd) (width 0.02))
  (fp_line (start -1.042789 -1.078236) (end -1.112478 -1.006177) (layer F.CrtYd) (width 0.02))
  (fp_line (start -1.112478 -1.006177) (end -1.177199 -0.929625) (layer F.CrtYd) (width 0.02))
  (fp_line (start -1.177199 -0.929625) (end -1.236662 -0.848921) (layer F.CrtYd) (width 0.02))
  (fp_line (start -1.236662 -0.848921) (end -1.290602 -0.764425) (layer F.CrtYd) (width 0.02))
  (fp_line (start -1.290602 -0.764425) (end -1.338778 -0.676515) (layer F.CrtYd) (width 0.02))
  (fp_line (start -1.338778 -0.676515) (end -1.380975 -0.585584) (layer F.CrtYd) (width 0.02))
  (fp_line (start -1.380975 -0.585584) (end -1.417004 -0.492037) (layer F.CrtYd) (width 0.02))
  (fp_line (start -1.417004 -0.492037) (end -1.446704 -0.396293) (layer F.CrtYd) (width 0.02))
  (fp_line (start -1.446704 -0.396293) (end -1.469943 -0.298779) (layer F.CrtYd) (width 0.02))
  (fp_line (start -1.469943 -0.298779) (end -1.486616 -0.19993) (layer F.CrtYd) (width 0.02))
  (fp_line (start -1.486616 -0.19993) (end -1.49665 -0.100189) (layer F.CrtYd) (width 0.02))
  (fp_line (start -1.49665 -0.100189) (end -1.5 0) (layer F.CrtYd) (width 0.02))
  (fp_line (start -1.5 0) (end -1.49665 0.100189) (layer F.CrtYd) (width 0.02))
  (fp_line (start -1.49665 0.100189) (end -1.486616 0.19993) (layer F.CrtYd) (width 0.02))
  (fp_line (start -1.486616 0.19993) (end -1.469943 0.298779) (layer F.CrtYd) (width 0.02))
  (fp_line (start -1.469943 0.298779) (end -1.446704 0.396293) (layer F.CrtYd) (width 0.02))
  (fp_line (start -1.446704 0.396293) (end -1.417004 0.492037) (layer F.CrtYd) (width 0.02))
  (fp_line (start -1.417004 0.492037) (end -1.380975 0.585584) (layer F.CrtYd) (width 0.02))
  (fp_line (start -1.380975 0.585584) (end -1.338778 0.676515) (layer F.CrtYd) (width 0.02))
  (fp_line (start -1.338778 0.676515) (end -1.290602 0.764425) (layer F.CrtYd) (width 0.02))
  (fp_line (start -1.290602 0.764425) (end -1.236662 0.848921) (layer F.CrtYd) (width 0.02))
  (fp_line (start -1.236662 0.848921) (end -1.177199 0.929625) (layer F.CrtYd) (width 0.02))
  (fp_line (start -1.177199 0.929625) (end -1.112478 1.006177) (layer F.CrtYd) (width 0.02))
  (fp_line (start -1.112478 1.006177) (end -1.042789 1.078236) (layer F.CrtYd) (width 0.02))
  (fp_line (start -1.042789 1.078236) (end -0.968442 1.145478) (layer F.CrtYd) (width 0.02))
  (fp_line (start -0.968442 1.145478) (end -0.88977 1.207605) (layer F.CrtYd) (width 0.02))
  (fp_line (start -0.88977 1.207605) (end -0.807124 1.264338) (layer F.CrtYd) (width 0.02))
  (fp_line (start -0.807124 1.264338) (end -0.720873 1.315425) (layer F.CrtYd) (width 0.02))
  (fp_line (start -0.720873 1.315425) (end -0.631402 1.360636) (layer F.CrtYd) (width 0.02))
  (fp_line (start -0.631402 1.360636) (end -0.539112 1.399771) (layer F.CrtYd) (width 0.02))
  (fp_line (start -0.539112 1.399771) (end -0.444413 1.432654) (layer F.CrtYd) (width 0.02))
  (fp_line (start -0.444413 1.432654) (end -0.34773 1.459138) (layer F.CrtYd) (width 0.02))
  (fp_line (start -0.34773 1.459138) (end -0.249494 1.479105) (layer F.CrtYd) (width 0.02))
  (fp_line (start -0.249494 1.479105) (end -0.150144 1.492467) (layer F.CrtYd) (width 0.02))
  (fp_line (start -0.150144 1.492467) (end -0.050122 1.499162) (layer F.CrtYd) (width 0.02))
  (fp_line (start -0.050122 1.499162) (end 0.050122 1.499162) (layer F.CrtYd) (width 0.02))
  (fp_line (start 0.050122 1.499162) (end 0.150144 1.492467) (layer F.CrtYd) (width 0.02))
  (fp_line (start 0.150144 1.492467) (end 0.249494 1.479105) (layer F.CrtYd) (width 0.02))
  (fp_line (start 0.249494 1.479105) (end 0.34773 1.459138) (layer F.CrtYd) (width 0.02))
  (fp_line (start 0.34773 1.459138) (end 0.444413 1.432654) (layer F.CrtYd) (width 0.02))
  (fp_line (start 0.444413 1.432654) (end 0.539112 1.399771) (layer F.CrtYd) (width 0.02))
  (fp_line (start 0.539112 1.399771) (end 0.631402 1.360636) (layer F.CrtYd) (width 0.02))
  (fp_line (start 0.631402 1.360636) (end 0.720873 1.315425) (layer F.CrtYd) (width 0.02))
  (fp_line (start 0.720873 1.315425) (end 0.807124 1.264338) (layer F.CrtYd) (width 0.02))
  (fp_line (start 0.807124 1.264338) (end 0.88977 1.207605) (layer F.CrtYd) (width 0.02))
  (fp_line (start 0.88977 1.207605) (end 0.968442 1.145478) (layer F.CrtYd) (width 0.02))
  (fp_line (start 0.968442 1.145478) (end 1.042789 1.078236) (layer F.CrtYd) (width 0.02))
  (fp_line (start 1.042789 1.078236) (end 1.112478 1.006177) (layer F.CrtYd) (width 0.02))
  (fp_line (start 1.112478 1.006177) (end 1.177199 0.929625) (layer F.CrtYd) (width 0.02))
  (fp_line (start 1.177199 0.929625) (end 1.236662 0.848921) (layer F.CrtYd) (width 0.02))
  (fp_line (start 1.236662 0.848921) (end 1.290602 0.764425) (layer F.CrtYd) (width 0.02))
  (fp_line (start 1.290602 0.764425) (end 1.338778 0.676515) (layer F.CrtYd) (width 0.02))
  (fp_line (start 1.338778 0.676515) (end 1.380975 0.585584) (layer F.CrtYd) (width 0.02))
  (fp_line (start 1.380975 0.585584) (end 1.417004 0.492037) (layer F.CrtYd) (width 0.02))
  (fp_line (start 1.417004 0.492037) (end 1.446704 0.396293) (layer F.CrtYd) (width 0.02))
  (fp_line (start 1.446704 0.396293) (end 1.469943 0.298779) (layer F.CrtYd) (width 0.02))
  (fp_line (start 1.469943 0.298779) (end 1.486616 0.19993) (layer F.CrtYd) (width 0.02))
  (fp_line (start 1.486616 0.19993) (end 1.49665 0.100189) (layer F.CrtYd) (width 0.02))
  (fp_line (start 1.49665 0.100189) (end 1.5 0) (layer F.CrtYd) (width 0.02))
  (pad 1 smd circle (at 0 0) (size 0.2032 0.2032) (layers F.Cu)
    (zone_connect 2))
  (fp_poly (pts (xy 0.635 0) (xy 0.626777 -0.101861) (xy 0.602321 -0.201084) (xy 0.562265 -0.295099)
     (xy 0.507646 -0.381471) (xy 0.43988 -0.457964) (xy 0.360721 -0.522595) (xy 0.27222 -0.573691)
     (xy 0.176668 -0.609929) (xy 0.076541 -0.63037) (xy -0.025569 -0.634485) (xy -0.127016 -0.622167)
     (xy -0.225174 -0.593735) (xy -0.3175 -0.549926) (xy -0.401603 -0.491874) (xy -0.475304 -0.421083)
     (xy -0.536696 -0.339386) (xy -0.584187 -0.248899) (xy -0.616548 -0.151965) (xy -0.632941 -0.051096)
     (xy -0.632941 0.051096) (xy -0.616548 0.151965) (xy -0.584187 0.248899) (xy -0.536696 0.339386)
     (xy -0.475304 0.421083) (xy -0.401603 0.491874) (xy -0.3175 0.549926) (xy -0.225174 0.593735)
     (xy -0.127016 0.622167) (xy -0.025569 0.634485) (xy 0.076541 0.63037) (xy 0.176668 0.609929)
     (xy 0.27222 0.573691) (xy 0.360721 0.522595) (xy 0.43988 0.457964) (xy 0.507646 0.381471)
     (xy 0.562265 0.295099) (xy 0.602321 0.201084) (xy 0.626777 0.101861) (xy 0.635 0)) (layer F.Cu) (width 0.02))
  (fp_poly (pts (xy 1.27 0) (xy 1.265985 -0.100902) (xy 1.253967 -0.201165) (xy 1.23402 -0.300157)
     (xy 1.206272 -0.397252) (xy 1.170897 -0.491834) (xy 1.128119 -0.583308) (xy 1.078209 -0.671093)
     (xy 1.021482 -0.754635) (xy 0.958297 -0.833407) (xy 0.889053 -0.906909) (xy 0.814189 -0.974678)
     (xy 0.734177 -1.036284) (xy 0.649523 -1.091339) (xy 0.560763 -1.139493) (xy 0.468457 -1.180444)
     (xy 0.37319 -1.213931) (xy 0.275563 -1.239744) (xy 0.176194 -1.257718) (xy 0.075711 -1.267741)
     (xy -0.02525 -1.269749) (xy -0.126052 -1.263729) (xy -0.226057 -1.249719) (xy -0.324633 -1.227808)
     (xy -0.421156 -1.198135) (xy -0.515017 -1.160886) (xy -0.605622 -1.116298) (xy -0.692397 -1.064653)
     (xy -0.774795 -1.006276) (xy -0.852295 -0.941538) (xy -0.924406 -0.870846) (xy -0.990673 -0.794649)
     (xy -1.050676 -0.713428) (xy -1.104037 -0.627696) (xy -1.150417 -0.537996) (xy -1.189525 -0.444895)
     (xy -1.221111 -0.34898) (xy -1.244978 -0.25086) (xy -1.260973 -0.151153) (xy -1.268996 -0.050491)
     (xy -1.268996 0.050491) (xy -1.260973 0.151153) (xy -1.244978 0.25086) (xy -1.221111 0.34898)
     (xy -1.189525 0.444895) (xy -1.150417 0.537996) (xy -1.104037 0.627696) (xy -1.050676 0.713428)
     (xy -0.990673 0.794649) (xy -0.924406 0.870846) (xy -0.852295 0.941538) (xy -0.774795 1.006276)
     (xy -0.692397 1.064653) (xy -0.605622 1.116298) (xy -0.515017 1.160886) (xy -0.421156 1.198135)
     (xy -0.324633 1.227808) (xy -0.226057 1.249719) (xy -0.126052 1.263729) (xy -0.02525 1.269749)
     (xy 0.075711 1.267741) (xy 0.176194 1.257718) (xy 0.275563 1.239744) (xy 0.37319 1.213931)
     (xy 0.468457 1.180444) (xy 0.560763 1.139493) (xy 0.649523 1.091339) (xy 0.734177 1.036284)
     (xy 0.814189 0.974678) (xy 0.889053 0.906909) (xy 0.958297 0.833407) (xy 1.021482 0.754635)
     (xy 1.078209 0.671093) (xy 1.128119 0.583308) (xy 1.170897 0.491834) (xy 1.206272 0.397252)
     (xy 1.23402 0.300157) (xy 1.253967 0.201165) (xy 1.265985 0.100902) (xy 1.27 0)) (layer F.Mask) (width 0.02))
)