(module RECT1.0X1.1 (layer F.Cu) (tedit 0)
  (fp_text reference REF** (at 0 0) (layer F.SilkS) hide
    (effects (font (size 1 1) (thickness 0.15)))
  )
  (fp_text value RECT1.0X1.1 (at 0 2) (layer F.Fab) hide
    (effects (font (size 1 1) (thickness 0.15)))
  )
  (fp_line (start -0.6 0.66) (end -0.6 -0.66) (layer F.CrtYd) (width 0.05))
  (fp_line (start -0.6 -0.66) (end 0.6 -0.66) (layer F.CrtYd) (width 0.05))
  (fp_line (start 0.6 -0.66) (end 0.6 0.66) (layer F.CrtYd) (width 0.05))
  (fp_line (start 0.6 0.66) (end -0.6 0.66) (layer F.CrtYd) (width 0.05))
  (pad ~ smd rect (at 0 0) (size 1 1.1) (layers F.Cu F.Mask F.Paste)
    (zone_connect 2))
)