ISO-10303-21;
HEADER;
/* Generated by software containing ST-Developer
 * from STEP Tools, Inc. (www.steptools.com) 
 */

FILE_DESCRIPTION(
/* description */ ('10106052_Batt GND Contact'),
/* implementation_level */ '2;1');

FILE_NAME(
/* name */ 
'C:\\Users\\huesof\\Downloads\\medtronic-pb560-ventilator-system-file-
set-2\\Electronic PCBAs\\10106052_PowerPack_PCBA\\PCBA\\10106052C00\\1
0106052_Batt GND Contact-recenter.stp',
/* time_stamp */ '2020-04-16T12:14:02-04:00',
/* author */ ('huesof'),
/* organization */ (''),
/* preprocessor_version */ 'ST-DEVELOPER v18',
/* originating_system */ 'Autodesk Inventor 2020',
/* authorisation */ '');

FILE_SCHEMA (('AUTOMOTIVE_DESIGN { 1 0 10303 214 3 1 1 }'));
ENDSEC;

DATA;
#10=MECHANICAL_DESIGN_GEOMETRIC_PRESENTATION_REPRESENTATION('',(#13),#272);
#11=SHAPE_REPRESENTATION_RELATIONSHIP('SRR','None',#279,#12);
#12=ADVANCED_BREP_SHAPE_REPRESENTATION('',(#14),#271);
#13=STYLED_ITEM('',(#288),#14);
#14=MANIFOLD_SOLID_BREP('Solid1',#141);
#15=CONICAL_SURFACE('',#181,1.55,0.523598775598298);
#16=SPHERICAL_SURFACE('',#179,1.15);
#17=LINE('',#241,#22);
#18=LINE('',#249,#23);
#19=LINE('',#253,#24);
#20=LINE('',#260,#25);
#21=LINE('',#268,#26);
#22=VECTOR('',#194,1.325);
#23=VECTOR('',#205,1.75);
#24=VECTOR('',#210,0.9);
#25=VECTOR('',#219,1.15);
#26=VECTOR('',#230,1.55);
#27=CYLINDRICAL_SURFACE('',#164,1.325);
#28=CYLINDRICAL_SURFACE('',#170,1.75);
#29=CYLINDRICAL_SURFACE('',#172,0.9);
#30=CYLINDRICAL_SURFACE('',#176,1.15);
#31=FACE_BOUND('',#45,.T.);
#32=FACE_BOUND('',#49,.T.);
#33=FACE_BOUND('',#53,.T.);
#34=FACE_OUTER_BOUND('',#44,.T.);
#35=FACE_OUTER_BOUND('',#46,.T.);
#36=FACE_OUTER_BOUND('',#47,.T.);
#37=FACE_OUTER_BOUND('',#48,.T.);
#38=FACE_OUTER_BOUND('',#50,.T.);
#39=FACE_OUTER_BOUND('',#51,.T.);
#40=FACE_OUTER_BOUND('',#52,.T.);
#41=FACE_OUTER_BOUND('',#54,.T.);
#42=FACE_OUTER_BOUND('',#55,.T.);
#43=FACE_OUTER_BOUND('',#56,.T.);
#44=EDGE_LOOP('',(#95));
#45=EDGE_LOOP('',(#96));
#46=EDGE_LOOP('',(#97,#98,#99,#100));
#47=EDGE_LOOP('',(#101));
#48=EDGE_LOOP('',(#102));
#49=EDGE_LOOP('',(#103));
#50=EDGE_LOOP('',(#104,#105,#106,#107));
#51=EDGE_LOOP('',(#108,#109,#110,#111));
#52=EDGE_LOOP('',(#112));
#53=EDGE_LOOP('',(#113));
#54=EDGE_LOOP('',(#114,#115,#116,#117,#118));
#55=EDGE_LOOP('',(#119,#120,#121,#122));
#56=EDGE_LOOP('',(#123,#124,#125,#126));
#57=CIRCLE('',#162,1.55);
#58=CIRCLE('',#163,0.9);
#59=CIRCLE('',#165,1.325);
#60=CIRCLE('',#166,1.325);
#61=CIRCLE('',#169,1.75);
#62=CIRCLE('',#171,1.75);
#63=CIRCLE('',#173,0.9);
#64=CIRCLE('',#175,1.15);
#65=CIRCLE('',#177,1.15);
#66=CIRCLE('',#178,1.15);
#67=CIRCLE('',#180,1.15);
#68=VERTEX_POINT('',#233);
#69=VERTEX_POINT('',#235);
#70=VERTEX_POINT('',#238);
#71=VERTEX_POINT('',#240);
#72=VERTEX_POINT('',#245);
#73=VERTEX_POINT('',#248);
#74=VERTEX_POINT('',#252);
#75=VERTEX_POINT('',#256);
#76=VERTEX_POINT('',#259);
#77=VERTEX_POINT('',#261);
#78=VERTEX_POINT('',#265);
#79=EDGE_CURVE('',#68,#68,#57,.T.);
#80=EDGE_CURVE('',#69,#69,#58,.T.);
#81=EDGE_CURVE('',#70,#70,#59,.T.);
#82=EDGE_CURVE('',#70,#71,#17,.T.);
#83=EDGE_CURVE('',#71,#71,#60,.T.);
#84=EDGE_CURVE('',#72,#72,#61,.T.);
#85=EDGE_CURVE('',#72,#73,#18,.T.);
#86=EDGE_CURVE('',#73,#73,#62,.F.);
#87=EDGE_CURVE('',#69,#74,#19,.T.);
#88=EDGE_CURVE('',#74,#74,#63,.T.);
#89=EDGE_CURVE('',#75,#75,#64,.T.);
#90=EDGE_CURVE('',#75,#76,#20,.T.);
#91=EDGE_CURVE('',#76,#77,#65,.T.);
#92=EDGE_CURVE('',#77,#76,#66,.T.);
#93=EDGE_CURVE('',#78,#77,#67,.T.);
#94=EDGE_CURVE('',#73,#68,#21,.T.);
#95=ORIENTED_EDGE('',*,*,#79,.T.);
#96=ORIENTED_EDGE('',*,*,#80,.F.);
#97=ORIENTED_EDGE('',*,*,#81,.T.);
#98=ORIENTED_EDGE('',*,*,#82,.T.);
#99=ORIENTED_EDGE('',*,*,#83,.F.);
#100=ORIENTED_EDGE('',*,*,#82,.F.);
#101=ORIENTED_EDGE('',*,*,#81,.F.);
#102=ORIENTED_EDGE('',*,*,#84,.F.);
#103=ORIENTED_EDGE('',*,*,#83,.T.);
#104=ORIENTED_EDGE('',*,*,#84,.T.);
#105=ORIENTED_EDGE('',*,*,#85,.T.);
#106=ORIENTED_EDGE('',*,*,#86,.T.);
#107=ORIENTED_EDGE('',*,*,#85,.F.);
#108=ORIENTED_EDGE('',*,*,#80,.T.);
#109=ORIENTED_EDGE('',*,*,#87,.T.);
#110=ORIENTED_EDGE('',*,*,#88,.F.);
#111=ORIENTED_EDGE('',*,*,#87,.F.);
#112=ORIENTED_EDGE('',*,*,#89,.F.);
#113=ORIENTED_EDGE('',*,*,#88,.T.);
#114=ORIENTED_EDGE('',*,*,#89,.T.);
#115=ORIENTED_EDGE('',*,*,#90,.T.);
#116=ORIENTED_EDGE('',*,*,#91,.T.);
#117=ORIENTED_EDGE('',*,*,#92,.T.);
#118=ORIENTED_EDGE('',*,*,#90,.F.);
#119=ORIENTED_EDGE('',*,*,#92,.F.);
#120=ORIENTED_EDGE('',*,*,#93,.F.);
#121=ORIENTED_EDGE('',*,*,#93,.T.);
#122=ORIENTED_EDGE('',*,*,#91,.F.);
#123=ORIENTED_EDGE('',*,*,#86,.F.);
#124=ORIENTED_EDGE('',*,*,#94,.T.);
#125=ORIENTED_EDGE('',*,*,#79,.F.);
#126=ORIENTED_EDGE('',*,*,#94,.F.);
#127=PLANE('',#161);
#128=PLANE('',#167);
#129=PLANE('',#168);
#130=PLANE('',#174);
#131=ADVANCED_FACE('',(#34,#31),#127,.T.);
#132=ADVANCED_FACE('',(#35),#27,.T.);
#133=ADVANCED_FACE('',(#36),#128,.F.);
#134=ADVANCED_FACE('',(#37,#32),#129,.F.);
#135=ADVANCED_FACE('',(#38),#28,.T.);
#136=ADVANCED_FACE('',(#39),#29,.T.);
#137=ADVANCED_FACE('',(#40,#33),#130,.F.);
#138=ADVANCED_FACE('',(#41),#30,.T.);
#139=ADVANCED_FACE('',(#42),#16,.T.);
#140=ADVANCED_FACE('',(#43),#15,.T.);
#141=CLOSED_SHELL('',(#131,#132,#133,#134,#135,#136,#137,#138,#139,#140));
#142=DERIVED_UNIT_ELEMENT(#144,1.);
#143=DERIVED_UNIT_ELEMENT(#274,3.);
#144=(
MASS_UNIT()
NAMED_UNIT(*)
SI_UNIT($,.GRAM.)
);
#145=DERIVED_UNIT((#142,#143));
#146=MEASURE_REPRESENTATION_ITEM('density measure',
POSITIVE_RATIO_MEASURE(1.),#145);
#147=PROPERTY_DEFINITION_REPRESENTATION(#152,#149);
#148=PROPERTY_DEFINITION_REPRESENTATION(#153,#150);
#149=REPRESENTATION('material name',(#151),#271);
#150=REPRESENTATION('density',(#146),#271);
#151=DESCRIPTIVE_REPRESENTATION_ITEM('Generic','Generic');
#152=PROPERTY_DEFINITION('material property','material name',#281);
#153=PROPERTY_DEFINITION('material property','density of part',#281);
#154=DATE_TIME_ROLE('creation_date');
#155=APPLIED_DATE_AND_TIME_ASSIGNMENT(#156,#154,(#281));
#156=DATE_AND_TIME(#157,#158);
#157=CALENDAR_DATE(2007,30,10);
#158=LOCAL_TIME(13,35,50.,#159);
#159=COORDINATED_UNIVERSAL_TIME_OFFSET(0,0,.BEHIND.);
#160=AXIS2_PLACEMENT_3D('placement',#231,#182,#183);
#161=AXIS2_PLACEMENT_3D('',#232,#184,#185);
#162=AXIS2_PLACEMENT_3D('',#234,#186,#187);
#163=AXIS2_PLACEMENT_3D('',#236,#188,#189);
#164=AXIS2_PLACEMENT_3D('',#237,#190,#191);
#165=AXIS2_PLACEMENT_3D('',#239,#192,#193);
#166=AXIS2_PLACEMENT_3D('',#242,#195,#196);
#167=AXIS2_PLACEMENT_3D('',#243,#197,#198);
#168=AXIS2_PLACEMENT_3D('',#244,#199,#200);
#169=AXIS2_PLACEMENT_3D('',#246,#201,#202);
#170=AXIS2_PLACEMENT_3D('',#247,#203,#204);
#171=AXIS2_PLACEMENT_3D('',#250,#206,#207);
#172=AXIS2_PLACEMENT_3D('',#251,#208,#209);
#173=AXIS2_PLACEMENT_3D('',#254,#211,#212);
#174=AXIS2_PLACEMENT_3D('',#255,#213,#214);
#175=AXIS2_PLACEMENT_3D('',#257,#215,#216);
#176=AXIS2_PLACEMENT_3D('',#258,#217,#218);
#177=AXIS2_PLACEMENT_3D('',#262,#220,#221);
#178=AXIS2_PLACEMENT_3D('',#263,#222,#223);
#179=AXIS2_PLACEMENT_3D('',#264,#224,#225);
#180=AXIS2_PLACEMENT_3D('',#266,#226,#227);
#181=AXIS2_PLACEMENT_3D('',#267,#228,#229);
#182=DIRECTION('axis',(0.,0.,1.));
#183=DIRECTION('refdir',(1.,0.,0.));
#184=DIRECTION('center_axis',(0.,0.,1.));
#185=DIRECTION('ref_axis',(1.,0.,0.));
#186=DIRECTION('center_axis',(0.,0.,1.));
#187=DIRECTION('ref_axis',(1.,0.,0.));
#188=DIRECTION('center_axis',(0.,0.,1.));
#189=DIRECTION('ref_axis',(1.,0.,0.));
#190=DIRECTION('center_axis',(0.,0.,-1.));
#191=DIRECTION('ref_axis',(-1.,0.,0.));
#192=DIRECTION('center_axis',(0.,0.,1.));
#193=DIRECTION('ref_axis',(1.,0.,0.));
#194=DIRECTION('',(0.,0.,1.));
#195=DIRECTION('center_axis',(0.,0.,1.));
#196=DIRECTION('ref_axis',(1.,0.,0.));
#197=DIRECTION('center_axis',(0.,0.,1.));
#198=DIRECTION('ref_axis',(1.,0.,0.));
#199=DIRECTION('center_axis',(0.,0.,1.));
#200=DIRECTION('ref_axis',(1.,0.,0.));
#201=DIRECTION('center_axis',(0.,0.,1.));
#202=DIRECTION('ref_axis',(1.,0.,0.));
#203=DIRECTION('center_axis',(0.,0.,-1.));
#204=DIRECTION('ref_axis',(-1.,0.,0.));
#205=DIRECTION('',(0.,0.,1.));
#206=DIRECTION('center_axis',(0.,0.,1.));
#207=DIRECTION('ref_axis',(1.,0.,0.));
#208=DIRECTION('center_axis',(0.,0.,-1.));
#209=DIRECTION('ref_axis',(-1.,0.,0.));
#210=DIRECTION('',(0.,0.,1.));
#211=DIRECTION('center_axis',(0.,0.,1.));
#212=DIRECTION('ref_axis',(1.,0.,0.));
#213=DIRECTION('center_axis',(0.,0.,1.));
#214=DIRECTION('ref_axis',(1.,0.,0.));
#215=DIRECTION('center_axis',(0.,0.,1.));
#216=DIRECTION('ref_axis',(1.,0.,0.));
#217=DIRECTION('center_axis',(0.,0.,-1.));
#218=DIRECTION('ref_axis',(-1.,0.,0.));
#219=DIRECTION('',(0.,0.,1.));
#220=DIRECTION('center_axis',(0.,0.,-1.));
#221=DIRECTION('ref_axis',(-1.,0.,0.));
#222=DIRECTION('center_axis',(0.,0.,-1.));
#223=DIRECTION('ref_axis',(-1.,0.,0.));
#224=DIRECTION('center_axis',(6.12323399573676E-17,0.,1.));
#225=DIRECTION('ref_axis',(1.,0.,0.));
#226=DIRECTION('center_axis',(1.22464679914735E-16,-1.,0.));
#227=DIRECTION('ref_axis',(-1.,-1.22464679914735E-16,0.));
#228=DIRECTION('center_axis',(0.,0.,-1.));
#229=DIRECTION('ref_axis',(-1.,0.,0.));
#230=DIRECTION('',(-0.5,6.12323399573676E-17,0.866025403784439));
#231=CARTESIAN_POINT('',(0.,0.,0.));
#232=CARTESIAN_POINT('Origin',(0.,0.,2.1));
#233=CARTESIAN_POINT('',(1.55,0.,2.1));
#234=CARTESIAN_POINT('Origin',(0.,0.,2.1));
#235=CARTESIAN_POINT('',(0.9,0.,2.1));
#236=CARTESIAN_POINT('Origin',(0.,0.,2.1));
#237=CARTESIAN_POINT('Origin',(0.,0.,0.));
#238=CARTESIAN_POINT('',(1.325,0.,-7.9));
#239=CARTESIAN_POINT('Origin',(0.,0.,-7.9));
#240=CARTESIAN_POINT('',(1.325,0.,0.));
#241=CARTESIAN_POINT('',(1.325,-1.62265700887024E-16,0.));
#242=CARTESIAN_POINT('Origin',(0.,0.,0.));
#243=CARTESIAN_POINT('Origin',(0.,0.,-7.9));
#244=CARTESIAN_POINT('Origin',(0.,0.,0.));
#245=CARTESIAN_POINT('',(1.75,0.,0.));
#246=CARTESIAN_POINT('Origin',(0.,0.,0.));
#247=CARTESIAN_POINT('Origin',(0.,0.,2.1));
#248=CARTESIAN_POINT('',(1.75,0.,1.75358983848622));
#249=CARTESIAN_POINT('',(1.75,-2.14313189850787E-16,2.1));
#250=CARTESIAN_POINT('Origin',(0.,0.,1.75358983848622));
#251=CARTESIAN_POINT('Origin',(0.,0.,5.1));
#252=CARTESIAN_POINT('',(0.9,0.,5.1));
#253=CARTESIAN_POINT('',(0.9,-1.10218211923262E-16,5.1));
#254=CARTESIAN_POINT('Origin',(0.,0.,5.1));
#255=CARTESIAN_POINT('Origin',(0.,0.,5.1));
#256=CARTESIAN_POINT('',(1.15,0.,5.1));
#257=CARTESIAN_POINT('Origin',(0.,0.,5.1));
#258=CARTESIAN_POINT('Origin',(0.,0.,7.2));
#259=CARTESIAN_POINT('',(1.15,-1.40834381901946E-16,6.05));
#260=CARTESIAN_POINT('',(1.15,-1.40834381901946E-16,7.2));
#261=CARTESIAN_POINT('',(-1.15,0.,6.05));
#262=CARTESIAN_POINT('Origin',(0.,0.,6.05));
#263=CARTESIAN_POINT('Origin',(0.,0.,6.05));
#264=CARTESIAN_POINT('Origin',(0.,0.,6.05));
#265=CARTESIAN_POINT('',(-7.04171909509728E-17,-8.62361875030568E-33,7.2));
#266=CARTESIAN_POINT('Origin',(0.,0.,6.05));
#267=CARTESIAN_POINT('Origin',(0.,0.,2.1));
#268=CARTESIAN_POINT('',(1.55,-1.89820253867839E-16,2.1));
#269=UNCERTAINTY_MEASURE_WITH_UNIT(LENGTH_MEASURE(0.01),#273,
'DISTANCE_ACCURACY_VALUE',
'Maximum model space distance between geometric entities at asserted c
onnectivities');
#270=UNCERTAINTY_MEASURE_WITH_UNIT(LENGTH_MEASURE(0.01),#273,
'DISTANCE_ACCURACY_VALUE',
'Maximum model space distance between geometric entities at asserted c
onnectivities');
#271=(
GEOMETRIC_REPRESENTATION_CONTEXT(3)
GLOBAL_UNCERTAINTY_ASSIGNED_CONTEXT((#269))
GLOBAL_UNIT_ASSIGNED_CONTEXT((#273,#275,#276))
REPRESENTATION_CONTEXT('','3D')
);
#272=(
GEOMETRIC_REPRESENTATION_CONTEXT(3)
GLOBAL_UNCERTAINTY_ASSIGNED_CONTEXT((#270))
GLOBAL_UNIT_ASSIGNED_CONTEXT((#273,#275,#276))
REPRESENTATION_CONTEXT('','3D')
);
#273=(
LENGTH_UNIT()
NAMED_UNIT(*)
SI_UNIT(.MILLI.,.METRE.)
);
#274=(
LENGTH_UNIT()
NAMED_UNIT(*)
SI_UNIT(.CENTI.,.METRE.)
);
#275=(
NAMED_UNIT(*)
PLANE_ANGLE_UNIT()
SI_UNIT($,.RADIAN.)
);
#276=(
NAMED_UNIT(*)
SI_UNIT($,.STERADIAN.)
SOLID_ANGLE_UNIT()
);
#277=SHAPE_DEFINITION_REPRESENTATION(#278,#279);
#278=PRODUCT_DEFINITION_SHAPE('',$,#281);
#279=SHAPE_REPRESENTATION('',(#160),#271);
#280=PRODUCT_DEFINITION_CONTEXT('part definition',#285,'design');
#281=PRODUCT_DEFINITION('10106052_Batt GND Contact-recenter',
'10106052_Batt GND Contact-recenter',#282,#280);
#282=PRODUCT_DEFINITION_FORMATION('C',$,#287);
#283=PRODUCT_RELATED_PRODUCT_CATEGORY(
'10106052_Batt GND Contact-recenter',
'10106052_Batt GND Contact-recenter',(#287));
#284=APPLICATION_PROTOCOL_DEFINITION('international standard',
'automotive_design',2009,#285);
#285=APPLICATION_CONTEXT(
'Core Data for Automotive Mechanical Design Process');
#286=PRODUCT_CONTEXT('part definition',#285,'mechanical');
#287=PRODUCT('10106052_Batt GND Contact-recenter',
'10106052_Batt GND Contact-recenter','10106052_Batt GND Contact',(#286));
#288=PRESENTATION_STYLE_ASSIGNMENT((#289));
#289=SURFACE_STYLE_USAGE(.BOTH.,#292);
#290=SURFACE_STYLE_RENDERING_WITH_PROPERTIES($,#296,(#291));
#291=SURFACE_STYLE_TRANSPARENT(0.);
#292=SURFACE_SIDE_STYLE('',(#293,#290));
#293=SURFACE_STYLE_FILL_AREA(#294);
#294=FILL_AREA_STYLE('',(#295));
#295=FILL_AREA_STYLE_COLOUR('',#296);
#296=COLOUR_RGB('',0.752941176470588,0.752941176470588,0.752941176470588);
ENDSEC;
END-ISO-10303-21;
