ISO-10303-21;
HEADER;
/* Generated by software containing ST-Developer
 * from STEP Tools, Inc. (www.steptools.com) 
 */

FILE_DESCRIPTION(
/* description */ (''),
/* implementation_level */ '2;1');

FILE_NAME(
/* name */ 
'C:\\Users\\huesof\\Downloads\\medtronic-pb560-ventilator-system-file-
set-2\\Electronic PCBAs\\GR106769_CPU_PCBA\\3D_Model\\GR106769B00\\cap
ot 3 capteurs P phase 2 - recenter.stp',
/* time_stamp */ '2020-04-19T12:58:57-04:00',
/* author */ ('huesof'),
/* organization */ (''),
/* preprocessor_version */ 'ST-DEVELOPER v18',
/* originating_system */ 'Autodesk Inventor 2020',
/* authorisation */ '');

FILE_SCHEMA (('AUTOMOTIVE_DESIGN { 1 0 10303 214 3 1 1 }'));
ENDSEC;

DATA;
#10=MECHANICAL_DESIGN_GEOMETRIC_PRESENTATION_REPRESENTATION('',(#17,#18),
#1522);
#11=GEOMETRICALLY_BOUNDED_WIREFRAME_SHAPE_REPRESENTATION('',(#12),#1521);
#12=GEOMETRIC_CURVE_SET('Sketch1',(#16));
#13=SHAPE_REPRESENTATION_RELATIONSHIP('SRR','None',#1529,#15);
#14=SHAPE_REPRESENTATION_RELATIONSHIP('SRR','None',#1529,#11);
#15=ADVANCED_BREP_SHAPE_REPRESENTATION('',(#19),#1521);
#16=POLYLINE('',(#1517,#1518));
#17=STYLED_ITEM('',(#1538),#19);
#18=STYLED_ITEM('',(#1539),#16);
#19=MANIFOLD_SOLID_BREP('Solid1',#946);
#20=CYLINDRICAL_SURFACE('',#997,1.75);
#21=CYLINDRICAL_SURFACE('',#1000,1.75);
#22=CYLINDRICAL_SURFACE('',#1003,1.75);
#23=CIRCLE('',#983,1.75);
#24=CIRCLE('',#984,1.75);
#25=CIRCLE('',#985,1.75);
#26=CIRCLE('',#989,1.75);
#27=CIRCLE('',#990,1.75);
#28=CIRCLE('',#991,1.75);
#29=FACE_OUTER_BOUND('',#75,.T.);
#30=FACE_OUTER_BOUND('',#76,.T.);
#31=FACE_OUTER_BOUND('',#77,.T.);
#32=FACE_OUTER_BOUND('',#78,.T.);
#33=FACE_OUTER_BOUND('',#79,.T.);
#34=FACE_OUTER_BOUND('',#80,.T.);
#35=FACE_OUTER_BOUND('',#81,.T.);
#36=FACE_OUTER_BOUND('',#82,.T.);
#37=FACE_OUTER_BOUND('',#83,.T.);
#38=FACE_OUTER_BOUND('',#84,.T.);
#39=FACE_OUTER_BOUND('',#85,.T.);
#40=FACE_OUTER_BOUND('',#86,.T.);
#41=FACE_OUTER_BOUND('',#87,.T.);
#42=FACE_OUTER_BOUND('',#88,.T.);
#43=FACE_OUTER_BOUND('',#89,.T.);
#44=FACE_OUTER_BOUND('',#90,.T.);
#45=FACE_OUTER_BOUND('',#91,.T.);
#46=FACE_OUTER_BOUND('',#92,.T.);
#47=FACE_OUTER_BOUND('',#93,.T.);
#48=FACE_OUTER_BOUND('',#94,.T.);
#49=FACE_OUTER_BOUND('',#95,.T.);
#50=FACE_OUTER_BOUND('',#96,.T.);
#51=FACE_OUTER_BOUND('',#97,.T.);
#52=FACE_OUTER_BOUND('',#98,.T.);
#53=FACE_OUTER_BOUND('',#99,.T.);
#54=FACE_OUTER_BOUND('',#100,.T.);
#55=FACE_OUTER_BOUND('',#101,.T.);
#56=FACE_OUTER_BOUND('',#102,.T.);
#57=FACE_OUTER_BOUND('',#103,.T.);
#58=FACE_OUTER_BOUND('',#104,.T.);
#59=FACE_OUTER_BOUND('',#105,.T.);
#60=FACE_OUTER_BOUND('',#106,.T.);
#61=FACE_OUTER_BOUND('',#107,.T.);
#62=FACE_OUTER_BOUND('',#108,.T.);
#63=FACE_OUTER_BOUND('',#109,.T.);
#64=FACE_OUTER_BOUND('',#110,.T.);
#65=FACE_OUTER_BOUND('',#111,.T.);
#66=FACE_OUTER_BOUND('',#112,.T.);
#67=FACE_OUTER_BOUND('',#113,.T.);
#68=FACE_OUTER_BOUND('',#114,.T.);
#69=FACE_OUTER_BOUND('',#115,.T.);
#70=FACE_OUTER_BOUND('',#116,.T.);
#71=FACE_OUTER_BOUND('',#117,.T.);
#72=FACE_OUTER_BOUND('',#118,.T.);
#73=FACE_OUTER_BOUND('',#119,.T.);
#74=FACE_OUTER_BOUND('',#120,.T.);
#75=EDGE_LOOP('',(#593,#594,#595,#596));
#76=EDGE_LOOP('',(#597,#598,#599,#600));
#77=EDGE_LOOP('',(#601,#602,#603,#604));
#78=EDGE_LOOP('',(#605,#606,#607,#608));
#79=EDGE_LOOP('',(#609,#610,#611,#612));
#80=EDGE_LOOP('',(#613,#614,#615,#616));
#81=EDGE_LOOP('',(#617,#618,#619,#620));
#82=EDGE_LOOP('',(#621,#622,#623,#624));
#83=EDGE_LOOP('',(#625,#626,#627,#628));
#84=EDGE_LOOP('',(#629,#630,#631,#632,#633,#634,#635,#636,#637,#638,#639,
#640));
#85=EDGE_LOOP('',(#641,#642,#643,#644));
#86=EDGE_LOOP('',(#645,#646,#647,#648,#649,#650,#651,#652,#653,#654,#655,
#656,#657,#658,#659,#660,#661,#662,#663,#664));
#87=EDGE_LOOP('',(#665,#666,#667,#668));
#88=EDGE_LOOP('',(#669,#670,#671,#672,#673,#674,#675,#676,#677,#678,#679,
#680));
#89=EDGE_LOOP('',(#681,#682,#683,#684));
#90=EDGE_LOOP('',(#685,#686,#687,#688));
#91=EDGE_LOOP('',(#689,#690,#691,#692,#693,#694,#695,#696,#697,#698,#699,
#700,#701,#702,#703,#704,#705,#706,#707,#708,#709,#710,#711,#712,#713,#714,
#715,#716,#717,#718,#719,#720));
#92=EDGE_LOOP('',(#721,#722,#723,#724));
#93=EDGE_LOOP('',(#725,#726,#727,#728));
#94=EDGE_LOOP('',(#729,#730,#731,#732,#733,#734,#735,#736,#737,#738,#739,
#740,#741,#742,#743,#744,#745,#746,#747,#748,#749,#750,#751,#752));
#95=EDGE_LOOP('',(#753,#754,#755,#756));
#96=EDGE_LOOP('',(#757,#758,#759,#760));
#97=EDGE_LOOP('',(#761,#762,#763,#764));
#98=EDGE_LOOP('',(#765,#766,#767,#768));
#99=EDGE_LOOP('',(#769,#770,#771,#772));
#100=EDGE_LOOP('',(#773,#774,#775,#776));
#101=EDGE_LOOP('',(#777,#778,#779,#780));
#102=EDGE_LOOP('',(#781,#782,#783,#784));
#103=EDGE_LOOP('',(#785,#786,#787,#788));
#104=EDGE_LOOP('',(#789,#790,#791,#792));
#105=EDGE_LOOP('',(#793,#794,#795,#796));
#106=EDGE_LOOP('',(#797,#798,#799,#800));
#107=EDGE_LOOP('',(#801,#802,#803,#804));
#108=EDGE_LOOP('',(#805,#806,#807,#808));
#109=EDGE_LOOP('',(#809,#810,#811,#812));
#110=EDGE_LOOP('',(#813,#814,#815,#816));
#111=EDGE_LOOP('',(#817,#818,#819,#820));
#112=EDGE_LOOP('',(#821,#822,#823,#824));
#113=EDGE_LOOP('',(#825,#826,#827,#828));
#114=EDGE_LOOP('',(#829,#830,#831,#832));
#115=EDGE_LOOP('',(#833,#834,#835,#836));
#116=EDGE_LOOP('',(#837,#838,#839,#840));
#117=EDGE_LOOP('',(#841,#842,#843,#844));
#118=EDGE_LOOP('',(#845,#846,#847,#848));
#119=EDGE_LOOP('',(#849,#850,#851,#852));
#120=EDGE_LOOP('',(#853,#854,#855,#856));
#121=LINE('',#1254,#247);
#122=LINE('',#1256,#248);
#123=LINE('',#1258,#249);
#124=LINE('',#1259,#250);
#125=LINE('',#1263,#251);
#126=LINE('',#1265,#252);
#127=LINE('',#1267,#253);
#128=LINE('',#1268,#254);
#129=LINE('',#1272,#255);
#130=LINE('',#1274,#256);
#131=LINE('',#1276,#257);
#132=LINE('',#1277,#258);
#133=LINE('',#1281,#259);
#134=LINE('',#1283,#260);
#135=LINE('',#1285,#261);
#136=LINE('',#1286,#262);
#137=LINE('',#1290,#263);
#138=LINE('',#1292,#264);
#139=LINE('',#1294,#265);
#140=LINE('',#1295,#266);
#141=LINE('',#1299,#267);
#142=LINE('',#1301,#268);
#143=LINE('',#1303,#269);
#144=LINE('',#1304,#270);
#145=LINE('',#1308,#271);
#146=LINE('',#1310,#272);
#147=LINE('',#1312,#273);
#148=LINE('',#1313,#274);
#149=LINE('',#1317,#275);
#150=LINE('',#1319,#276);
#151=LINE('',#1321,#277);
#152=LINE('',#1322,#278);
#153=LINE('',#1326,#279);
#154=LINE('',#1328,#280);
#155=LINE('',#1330,#281);
#156=LINE('',#1331,#282);
#157=LINE('',#1335,#283);
#158=LINE('',#1337,#284);
#159=LINE('',#1339,#285);
#160=LINE('',#1341,#286);
#161=LINE('',#1343,#287);
#162=LINE('',#1345,#288);
#163=LINE('',#1347,#289);
#164=LINE('',#1349,#290);
#165=LINE('',#1351,#291);
#166=LINE('',#1353,#292);
#167=LINE('',#1355,#293);
#168=LINE('',#1356,#294);
#169=LINE('',#1358,#295);
#170=LINE('',#1359,#296);
#171=LINE('',#1362,#297);
#172=LINE('',#1364,#298);
#173=LINE('',#1365,#299);
#174=LINE('',#1367,#300);
#175=LINE('',#1369,#301);
#176=LINE('',#1370,#302);
#177=LINE('',#1371,#303);
#178=LINE('',#1373,#304);
#179=LINE('',#1375,#305);
#180=LINE('',#1377,#306);
#181=LINE('',#1379,#307);
#182=LINE('',#1381,#308);
#183=LINE('',#1383,#309);
#184=LINE('',#1384,#310);
#185=LINE('',#1386,#311);
#186=LINE('',#1389,#312);
#187=LINE('',#1391,#313);
#188=LINE('',#1392,#314);
#189=LINE('',#1394,#315);
#190=LINE('',#1396,#316);
#191=LINE('',#1397,#317);
#192=LINE('',#1401,#318);
#193=LINE('',#1402,#319);
#194=LINE('',#1403,#320);
#195=LINE('',#1406,#321);
#196=LINE('',#1408,#322);
#197=LINE('',#1409,#323);
#198=LINE('',#1414,#324);
#199=LINE('',#1416,#325);
#200=LINE('',#1419,#326);
#201=LINE('',#1421,#327);
#202=LINE('',#1424,#328);
#203=LINE('',#1426,#329);
#204=LINE('',#1428,#330);
#205=LINE('',#1429,#331);
#206=LINE('',#1430,#332);
#207=LINE('',#1432,#333);
#208=LINE('',#1433,#334);
#209=LINE('',#1434,#335);
#210=LINE('',#1436,#336);
#211=LINE('',#1437,#337);
#212=LINE('',#1438,#338);
#213=LINE('',#1440,#339);
#214=LINE('',#1442,#340);
#215=LINE('',#1443,#341);
#216=LINE('',#1444,#342);
#217=LINE('',#1447,#343);
#218=LINE('',#1450,#344);
#219=LINE('',#1453,#345);
#220=LINE('',#1455,#346);
#221=LINE('',#1457,#347);
#222=LINE('',#1458,#348);
#223=LINE('',#1459,#349);
#224=LINE('',#1461,#350);
#225=LINE('',#1463,#351);
#226=LINE('',#1464,#352);
#227=LINE('',#1466,#353);
#228=LINE('',#1469,#354);
#229=LINE('',#1471,#355);
#230=LINE('',#1474,#356);
#231=LINE('',#1477,#357);
#232=LINE('',#1480,#358);
#233=LINE('',#1483,#359);
#234=LINE('',#1484,#360);
#235=LINE('',#1488,#361);
#236=LINE('',#1489,#362);
#237=LINE('',#1493,#363);
#238=LINE('',#1494,#364);
#239=LINE('',#1498,#365);
#240=LINE('',#1500,#366);
#241=LINE('',#1503,#367);
#242=LINE('',#1505,#368);
#243=LINE('',#1508,#369);
#244=LINE('',#1510,#370);
#245=LINE('',#1513,#371);
#246=LINE('',#1515,#372);
#247=VECTOR('',#1022,0.500000000000025);
#248=VECTOR('',#1023,3.45);
#249=VECTOR('',#1024,0.500000000000025);
#250=VECTOR('',#1025,3.45);
#251=VECTOR('',#1028,0.500000000000025);
#252=VECTOR('',#1029,47.9);
#253=VECTOR('',#1030,0.500000000000025);
#254=VECTOR('',#1031,47.9);
#255=VECTOR('',#1034,0.500000000000025);
#256=VECTOR('',#1035,3.45);
#257=VECTOR('',#1036,0.500000000000025);
#258=VECTOR('',#1037,3.45);
#259=VECTOR('',#1040,0.500000000000025);
#260=VECTOR('',#1041,2.6842311190536);
#261=VECTOR('',#1042,0.500000000000025);
#262=VECTOR('',#1043,2.68423111905359);
#263=VECTOR('',#1046,0.500000000000025);
#264=VECTOR('',#1047,3.45);
#265=VECTOR('',#1048,0.500000000000007);
#266=VECTOR('',#1049,3.45);
#267=VECTOR('',#1052,0.500000000000025);
#268=VECTOR('',#1053,3.45);
#269=VECTOR('',#1054,0.500000000000007);
#270=VECTOR('',#1055,3.45);
#271=VECTOR('',#1058,0.500000000000025);
#272=VECTOR('',#1059,3.71576888094641);
#273=VECTOR('',#1060,0.500000000000007);
#274=VECTOR('',#1061,3.71576888094641);
#275=VECTOR('',#1064,15.5);
#276=VECTOR('',#1065,0.500000000000007);
#277=VECTOR('',#1066,15.5);
#278=VECTOR('',#1067,0.500000000000025);
#279=VECTOR('',#1070,15.5);
#280=VECTOR('',#1071,0.500000000000007);
#281=VECTOR('',#1072,15.5);
#282=VECTOR('',#1073,0.500000000000007);
#283=VECTOR('',#1076,0.100000000000002);
#284=VECTOR('',#1077,19.9);
#285=VECTOR('',#1078,0.100000000000011);
#286=VECTOR('',#1079,0.500000000000025);
#287=VECTOR('',#1080,56.8);
#288=VECTOR('',#1081,0.500000000000007);
#289=VECTOR('',#1082,0.0999999999999979);
#290=VECTOR('',#1083,19.9);
#291=VECTOR('',#1084,0.100000000000002);
#292=VECTOR('',#1085,0.500000000000007);
#293=VECTOR('',#1086,56.8);
#294=VECTOR('',#1087,0.500000000000025);
#295=VECTOR('',#1090,13.5);
#296=VECTOR('',#1091,13.5);
#297=VECTOR('',#1094,2.);
#298=VECTOR('',#1095,1.);
#299=VECTOR('',#1096,2.);
#300=VECTOR('',#1097,2.);
#301=VECTOR('',#1098,0.999999999999996);
#302=VECTOR('',#1099,2.);
#303=VECTOR('',#1100,13.5);
#304=VECTOR('',#1101,13.5);
#305=VECTOR('',#1102,0.499999999999998);
#306=VECTOR('',#1103,14.);
#307=VECTOR('',#1104,58.);
#308=VECTOR('',#1105,14.);
#309=VECTOR('',#1106,0.500000000000003);
#310=VECTOR('',#1107,13.5);
#311=VECTOR('',#1110,13.5);
#312=VECTOR('',#1113,2.);
#313=VECTOR('',#1114,0.999999999999996);
#314=VECTOR('',#1115,2.);
#315=VECTOR('',#1116,2.);
#316=VECTOR('',#1117,1.);
#317=VECTOR('',#1118,2.);
#318=VECTOR('',#1121,14.);
#319=VECTOR('',#1122,19.9);
#320=VECTOR('',#1123,19.9);
#321=VECTOR('',#1126,19.9);
#322=VECTOR('',#1127,14.);
#323=VECTOR('',#1128,19.9);
#324=VECTOR('',#1133,3.3);
#325=VECTOR('',#1134,3.2999999999998);
#326=VECTOR('',#1137,3.3);
#327=VECTOR('',#1138,3.3);
#328=VECTOR('',#1141,3.3);
#329=VECTOR('',#1142,2.);
#330=VECTOR('',#1143,1.);
#331=VECTOR('',#1144,2.);
#332=VECTOR('',#1145,13.5);
#333=VECTOR('',#1146,13.5);
#334=VECTOR('',#1147,0.499999999999998);
#335=VECTOR('',#1148,58.);
#336=VECTOR('',#1149,0.499999999999998);
#337=VECTOR('',#1150,13.5);
#338=VECTOR('',#1151,13.5);
#339=VECTOR('',#1152,2.);
#340=VECTOR('',#1153,1.);
#341=VECTOR('',#1154,2.);
#342=VECTOR('',#1155,3.2999999999996);
#343=VECTOR('',#1160,13.5);
#344=VECTOR('',#1163,3.3);
#345=VECTOR('',#1166,3.3);
#346=VECTOR('',#1167,2.);
#347=VECTOR('',#1168,1.);
#348=VECTOR('',#1169,2.);
#349=VECTOR('',#1170,13.5);
#350=VECTOR('',#1171,2.);
#351=VECTOR('',#1172,1.);
#352=VECTOR('',#1173,2.);
#353=VECTOR('',#1174,3.3);
#354=VECTOR('',#1177,3.3);
#355=VECTOR('',#1178,3.3);
#356=VECTOR('',#1181,3.3);
#357=VECTOR('',#1186,19.9);
#358=VECTOR('',#1191,19.9);
#359=VECTOR('',#1196,0.500000000000007);
#360=VECTOR('',#1197,0.500000000000007);
#361=VECTOR('',#1204,0.500000000000007);
#362=VECTOR('',#1205,0.500000000000007);
#363=VECTOR('',#1212,0.500000000000007);
#364=VECTOR('',#1213,0.500000000000007);
#365=VECTOR('',#1220,0.500000000000025);
#366=VECTOR('',#1223,0.500000000000025);
#367=VECTOR('',#1228,0.500000000000025);
#368=VECTOR('',#1231,0.500000000000025);
#369=VECTOR('',#1236,0.500000000000025);
#370=VECTOR('',#1239,0.500000000000025);
#371=VECTOR('',#1244,0.500000000000025);
#372=VECTOR('',#1247,0.500000000000025);
#373=VERTEX_POINT('',#1252);
#374=VERTEX_POINT('',#1253);
#375=VERTEX_POINT('',#1255);
#376=VERTEX_POINT('',#1257);
#377=VERTEX_POINT('',#1261);
#378=VERTEX_POINT('',#1262);
#379=VERTEX_POINT('',#1264);
#380=VERTEX_POINT('',#1266);
#381=VERTEX_POINT('',#1270);
#382=VERTEX_POINT('',#1271);
#383=VERTEX_POINT('',#1273);
#384=VERTEX_POINT('',#1275);
#385=VERTEX_POINT('',#1279);
#386=VERTEX_POINT('',#1280);
#387=VERTEX_POINT('',#1282);
#388=VERTEX_POINT('',#1284);
#389=VERTEX_POINT('',#1288);
#390=VERTEX_POINT('',#1289);
#391=VERTEX_POINT('',#1291);
#392=VERTEX_POINT('',#1293);
#393=VERTEX_POINT('',#1297);
#394=VERTEX_POINT('',#1298);
#395=VERTEX_POINT('',#1300);
#396=VERTEX_POINT('',#1302);
#397=VERTEX_POINT('',#1306);
#398=VERTEX_POINT('',#1307);
#399=VERTEX_POINT('',#1309);
#400=VERTEX_POINT('',#1311);
#401=VERTEX_POINT('',#1315);
#402=VERTEX_POINT('',#1316);
#403=VERTEX_POINT('',#1318);
#404=VERTEX_POINT('',#1320);
#405=VERTEX_POINT('',#1324);
#406=VERTEX_POINT('',#1325);
#407=VERTEX_POINT('',#1327);
#408=VERTEX_POINT('',#1329);
#409=VERTEX_POINT('',#1333);
#410=VERTEX_POINT('',#1334);
#411=VERTEX_POINT('',#1336);
#412=VERTEX_POINT('',#1338);
#413=VERTEX_POINT('',#1340);
#414=VERTEX_POINT('',#1342);
#415=VERTEX_POINT('',#1344);
#416=VERTEX_POINT('',#1346);
#417=VERTEX_POINT('',#1348);
#418=VERTEX_POINT('',#1350);
#419=VERTEX_POINT('',#1352);
#420=VERTEX_POINT('',#1354);
#421=VERTEX_POINT('',#1361);
#422=VERTEX_POINT('',#1363);
#423=VERTEX_POINT('',#1366);
#424=VERTEX_POINT('',#1368);
#425=VERTEX_POINT('',#1372);
#426=VERTEX_POINT('',#1374);
#427=VERTEX_POINT('',#1376);
#428=VERTEX_POINT('',#1378);
#429=VERTEX_POINT('',#1380);
#430=VERTEX_POINT('',#1382);
#431=VERTEX_POINT('',#1388);
#432=VERTEX_POINT('',#1390);
#433=VERTEX_POINT('',#1393);
#434=VERTEX_POINT('',#1395);
#435=VERTEX_POINT('',#1399);
#436=VERTEX_POINT('',#1400);
#437=VERTEX_POINT('',#1405);
#438=VERTEX_POINT('',#1407);
#439=VERTEX_POINT('',#1411);
#440=VERTEX_POINT('',#1412);
#441=VERTEX_POINT('',#1415);
#442=VERTEX_POINT('',#1417);
#443=VERTEX_POINT('',#1420);
#444=VERTEX_POINT('',#1422);
#445=VERTEX_POINT('',#1425);
#446=VERTEX_POINT('',#1427);
#447=VERTEX_POINT('',#1431);
#448=VERTEX_POINT('',#1435);
#449=VERTEX_POINT('',#1439);
#450=VERTEX_POINT('',#1441);
#451=VERTEX_POINT('',#1449);
#452=VERTEX_POINT('',#1451);
#453=VERTEX_POINT('',#1454);
#454=VERTEX_POINT('',#1456);
#455=VERTEX_POINT('',#1460);
#456=VERTEX_POINT('',#1462);
#457=VERTEX_POINT('',#1465);
#458=VERTEX_POINT('',#1467);
#459=VERTEX_POINT('',#1470);
#460=VERTEX_POINT('',#1472);
#461=EDGE_CURVE('',#373,#374,#121,.T.);
#462=EDGE_CURVE('',#375,#373,#122,.T.);
#463=EDGE_CURVE('',#376,#375,#123,.T.);
#464=EDGE_CURVE('',#374,#376,#124,.T.);
#465=EDGE_CURVE('',#377,#378,#125,.T.);
#466=EDGE_CURVE('',#379,#377,#126,.T.);
#467=EDGE_CURVE('',#380,#379,#127,.T.);
#468=EDGE_CURVE('',#378,#380,#128,.T.);
#469=EDGE_CURVE('',#381,#382,#129,.T.);
#470=EDGE_CURVE('',#383,#381,#130,.T.);
#471=EDGE_CURVE('',#384,#383,#131,.T.);
#472=EDGE_CURVE('',#382,#384,#132,.T.);
#473=EDGE_CURVE('',#385,#386,#133,.T.);
#474=EDGE_CURVE('',#387,#385,#134,.T.);
#475=EDGE_CURVE('',#387,#388,#135,.T.);
#476=EDGE_CURVE('',#386,#388,#136,.T.);
#477=EDGE_CURVE('',#389,#390,#137,.T.);
#478=EDGE_CURVE('',#391,#389,#138,.T.);
#479=EDGE_CURVE('',#392,#391,#139,.T.);
#480=EDGE_CURVE('',#390,#392,#140,.T.);
#481=EDGE_CURVE('',#393,#394,#141,.T.);
#482=EDGE_CURVE('',#395,#393,#142,.T.);
#483=EDGE_CURVE('',#396,#395,#143,.T.);
#484=EDGE_CURVE('',#394,#396,#144,.T.);
#485=EDGE_CURVE('',#397,#398,#145,.T.);
#486=EDGE_CURVE('',#399,#397,#146,.T.);
#487=EDGE_CURVE('',#399,#400,#147,.T.);
#488=EDGE_CURVE('',#398,#400,#148,.T.);
#489=EDGE_CURVE('',#401,#402,#149,.T.);
#490=EDGE_CURVE('',#401,#403,#150,.T.);
#491=EDGE_CURVE('',#404,#403,#151,.T.);
#492=EDGE_CURVE('',#404,#402,#152,.T.);
#493=EDGE_CURVE('',#405,#406,#153,.T.);
#494=EDGE_CURVE('',#405,#407,#154,.T.);
#495=EDGE_CURVE('',#408,#407,#155,.T.);
#496=EDGE_CURVE('',#408,#406,#156,.T.);
#497=EDGE_CURVE('',#409,#410,#157,.T.);
#498=EDGE_CURVE('',#409,#411,#158,.T.);
#499=EDGE_CURVE('',#412,#411,#159,.T.);
#500=EDGE_CURVE('',#412,#413,#160,.T.);
#501=EDGE_CURVE('',#413,#414,#161,.T.);
#502=EDGE_CURVE('',#414,#415,#162,.T.);
#503=EDGE_CURVE('',#416,#415,#163,.T.);
#504=EDGE_CURVE('',#416,#417,#164,.T.);
#505=EDGE_CURVE('',#418,#417,#165,.T.);
#506=EDGE_CURVE('',#418,#419,#166,.T.);
#507=EDGE_CURVE('',#419,#420,#167,.T.);
#508=EDGE_CURVE('',#420,#410,#168,.T.);
#509=EDGE_CURVE('',#415,#391,#169,.T.);
#510=EDGE_CURVE('',#414,#392,#170,.T.);
#511=EDGE_CURVE('',#421,#389,#171,.T.);
#512=EDGE_CURVE('',#422,#421,#172,.T.);
#513=EDGE_CURVE('',#422,#379,#173,.T.);
#514=EDGE_CURVE('',#423,#377,#174,.T.);
#515=EDGE_CURVE('',#424,#423,#175,.T.);
#516=EDGE_CURVE('',#424,#374,#176,.T.);
#517=EDGE_CURVE('',#412,#376,#177,.T.);
#518=EDGE_CURVE('',#411,#425,#178,.T.);
#519=EDGE_CURVE('',#425,#426,#179,.T.);
#520=EDGE_CURVE('',#427,#426,#180,.T.);
#521=EDGE_CURVE('',#428,#427,#181,.T.);
#522=EDGE_CURVE('',#428,#429,#182,.T.);
#523=EDGE_CURVE('',#429,#430,#183,.T.);
#524=EDGE_CURVE('',#416,#430,#184,.T.);
#525=EDGE_CURVE('',#413,#375,#185,.T.);
#526=EDGE_CURVE('',#431,#373,#186,.T.);
#527=EDGE_CURVE('',#432,#431,#187,.T.);
#528=EDGE_CURVE('',#432,#378,#188,.T.);
#529=EDGE_CURVE('',#433,#380,#189,.T.);
#530=EDGE_CURVE('',#434,#433,#190,.T.);
#531=EDGE_CURVE('',#434,#390,#191,.T.);
#532=EDGE_CURVE('',#435,#436,#192,.T.);
#533=EDGE_CURVE('',#436,#429,#193,.T.);
#534=EDGE_CURVE('',#435,#428,#194,.T.);
#535=EDGE_CURVE('',#426,#437,#195,.T.);
#536=EDGE_CURVE('',#438,#437,#196,.T.);
#537=EDGE_CURVE('',#427,#438,#197,.T.);
#538=EDGE_CURVE('',#439,#440,#23,.T.);
#539=EDGE_CURVE('',#401,#439,#198,.T.);
#540=EDGE_CURVE('',#441,#402,#199,.T.);
#541=EDGE_CURVE('',#442,#441,#24,.T.);
#542=EDGE_CURVE('',#405,#442,#200,.T.);
#543=EDGE_CURVE('',#443,#406,#201,.T.);
#544=EDGE_CURVE('',#444,#443,#25,.T.);
#545=EDGE_CURVE('',#399,#444,#202,.T.);
#546=EDGE_CURVE('',#445,#397,#203,.T.);
#547=EDGE_CURVE('',#446,#445,#204,.T.);
#548=EDGE_CURVE('',#446,#394,#205,.T.);
#549=EDGE_CURVE('',#418,#396,#206,.T.);
#550=EDGE_CURVE('',#417,#447,#207,.T.);
#551=EDGE_CURVE('',#447,#436,#208,.T.);
#552=EDGE_CURVE('',#438,#435,#209,.T.);
#553=EDGE_CURVE('',#437,#448,#210,.T.);
#554=EDGE_CURVE('',#409,#448,#211,.T.);
#555=EDGE_CURVE('',#410,#383,#212,.T.);
#556=EDGE_CURVE('',#449,#381,#213,.T.);
#557=EDGE_CURVE('',#450,#449,#214,.T.);
#558=EDGE_CURVE('',#450,#386,#215,.T.);
#559=EDGE_CURVE('',#440,#388,#216,.T.);
#560=EDGE_CURVE('',#419,#395,#217,.T.);
#561=EDGE_CURVE('',#403,#451,#218,.T.);
#562=EDGE_CURVE('',#451,#452,#26,.T.);
#563=EDGE_CURVE('',#452,#387,#219,.T.);
#564=EDGE_CURVE('',#453,#385,#220,.T.);
#565=EDGE_CURVE('',#454,#453,#221,.T.);
#566=EDGE_CURVE('',#454,#382,#222,.T.);
#567=EDGE_CURVE('',#420,#384,#223,.T.);
#568=EDGE_CURVE('',#455,#393,#224,.T.);
#569=EDGE_CURVE('',#456,#455,#225,.T.);
#570=EDGE_CURVE('',#456,#398,#226,.T.);
#571=EDGE_CURVE('',#400,#457,#227,.T.);
#572=EDGE_CURVE('',#457,#458,#27,.T.);
#573=EDGE_CURVE('',#458,#408,#228,.T.);
#574=EDGE_CURVE('',#407,#459,#229,.T.);
#575=EDGE_CURVE('',#459,#460,#28,.T.);
#576=EDGE_CURVE('',#460,#404,#230,.T.);
#577=EDGE_CURVE('',#430,#447,#231,.T.);
#578=EDGE_CURVE('',#448,#425,#232,.T.);
#579=EDGE_CURVE('',#457,#444,#233,.T.);
#580=EDGE_CURVE('',#458,#443,#234,.T.);
#581=EDGE_CURVE('',#459,#442,#235,.T.);
#582=EDGE_CURVE('',#460,#441,#236,.T.);
#583=EDGE_CURVE('',#451,#439,#237,.T.);
#584=EDGE_CURVE('',#452,#440,#238,.T.);
#585=EDGE_CURVE('',#455,#446,#239,.T.);
#586=EDGE_CURVE('',#445,#456,#240,.T.);
#587=EDGE_CURVE('',#421,#434,#241,.T.);
#588=EDGE_CURVE('',#433,#422,#242,.T.);
#589=EDGE_CURVE('',#449,#454,#243,.T.);
#590=EDGE_CURVE('',#453,#450,#244,.T.);
#591=EDGE_CURVE('',#431,#424,#245,.T.);
#592=EDGE_CURVE('',#423,#432,#246,.T.);
#593=ORIENTED_EDGE('',*,*,#461,.F.);
#594=ORIENTED_EDGE('',*,*,#462,.F.);
#595=ORIENTED_EDGE('',*,*,#463,.F.);
#596=ORIENTED_EDGE('',*,*,#464,.F.);
#597=ORIENTED_EDGE('',*,*,#465,.F.);
#598=ORIENTED_EDGE('',*,*,#466,.F.);
#599=ORIENTED_EDGE('',*,*,#467,.F.);
#600=ORIENTED_EDGE('',*,*,#468,.F.);
#601=ORIENTED_EDGE('',*,*,#469,.F.);
#602=ORIENTED_EDGE('',*,*,#470,.F.);
#603=ORIENTED_EDGE('',*,*,#471,.F.);
#604=ORIENTED_EDGE('',*,*,#472,.F.);
#605=ORIENTED_EDGE('',*,*,#473,.F.);
#606=ORIENTED_EDGE('',*,*,#474,.F.);
#607=ORIENTED_EDGE('',*,*,#475,.T.);
#608=ORIENTED_EDGE('',*,*,#476,.F.);
#609=ORIENTED_EDGE('',*,*,#477,.F.);
#610=ORIENTED_EDGE('',*,*,#478,.F.);
#611=ORIENTED_EDGE('',*,*,#479,.F.);
#612=ORIENTED_EDGE('',*,*,#480,.F.);
#613=ORIENTED_EDGE('',*,*,#481,.F.);
#614=ORIENTED_EDGE('',*,*,#482,.F.);
#615=ORIENTED_EDGE('',*,*,#483,.F.);
#616=ORIENTED_EDGE('',*,*,#484,.F.);
#617=ORIENTED_EDGE('',*,*,#485,.F.);
#618=ORIENTED_EDGE('',*,*,#486,.F.);
#619=ORIENTED_EDGE('',*,*,#487,.T.);
#620=ORIENTED_EDGE('',*,*,#488,.F.);
#621=ORIENTED_EDGE('',*,*,#489,.F.);
#622=ORIENTED_EDGE('',*,*,#490,.T.);
#623=ORIENTED_EDGE('',*,*,#491,.F.);
#624=ORIENTED_EDGE('',*,*,#492,.T.);
#625=ORIENTED_EDGE('',*,*,#493,.F.);
#626=ORIENTED_EDGE('',*,*,#494,.T.);
#627=ORIENTED_EDGE('',*,*,#495,.F.);
#628=ORIENTED_EDGE('',*,*,#496,.T.);
#629=ORIENTED_EDGE('',*,*,#497,.F.);
#630=ORIENTED_EDGE('',*,*,#498,.T.);
#631=ORIENTED_EDGE('',*,*,#499,.F.);
#632=ORIENTED_EDGE('',*,*,#500,.T.);
#633=ORIENTED_EDGE('',*,*,#501,.T.);
#634=ORIENTED_EDGE('',*,*,#502,.T.);
#635=ORIENTED_EDGE('',*,*,#503,.F.);
#636=ORIENTED_EDGE('',*,*,#504,.T.);
#637=ORIENTED_EDGE('',*,*,#505,.F.);
#638=ORIENTED_EDGE('',*,*,#506,.T.);
#639=ORIENTED_EDGE('',*,*,#507,.T.);
#640=ORIENTED_EDGE('',*,*,#508,.T.);
#641=ORIENTED_EDGE('',*,*,#479,.T.);
#642=ORIENTED_EDGE('',*,*,#509,.F.);
#643=ORIENTED_EDGE('',*,*,#502,.F.);
#644=ORIENTED_EDGE('',*,*,#510,.T.);
#645=ORIENTED_EDGE('',*,*,#478,.T.);
#646=ORIENTED_EDGE('',*,*,#511,.F.);
#647=ORIENTED_EDGE('',*,*,#512,.F.);
#648=ORIENTED_EDGE('',*,*,#513,.T.);
#649=ORIENTED_EDGE('',*,*,#466,.T.);
#650=ORIENTED_EDGE('',*,*,#514,.F.);
#651=ORIENTED_EDGE('',*,*,#515,.F.);
#652=ORIENTED_EDGE('',*,*,#516,.T.);
#653=ORIENTED_EDGE('',*,*,#464,.T.);
#654=ORIENTED_EDGE('',*,*,#517,.F.);
#655=ORIENTED_EDGE('',*,*,#499,.T.);
#656=ORIENTED_EDGE('',*,*,#518,.T.);
#657=ORIENTED_EDGE('',*,*,#519,.T.);
#658=ORIENTED_EDGE('',*,*,#520,.F.);
#659=ORIENTED_EDGE('',*,*,#521,.F.);
#660=ORIENTED_EDGE('',*,*,#522,.T.);
#661=ORIENTED_EDGE('',*,*,#523,.T.);
#662=ORIENTED_EDGE('',*,*,#524,.F.);
#663=ORIENTED_EDGE('',*,*,#503,.T.);
#664=ORIENTED_EDGE('',*,*,#509,.T.);
#665=ORIENTED_EDGE('',*,*,#463,.T.);
#666=ORIENTED_EDGE('',*,*,#525,.F.);
#667=ORIENTED_EDGE('',*,*,#500,.F.);
#668=ORIENTED_EDGE('',*,*,#517,.T.);
#669=ORIENTED_EDGE('',*,*,#462,.T.);
#670=ORIENTED_EDGE('',*,*,#526,.F.);
#671=ORIENTED_EDGE('',*,*,#527,.F.);
#672=ORIENTED_EDGE('',*,*,#528,.T.);
#673=ORIENTED_EDGE('',*,*,#468,.T.);
#674=ORIENTED_EDGE('',*,*,#529,.F.);
#675=ORIENTED_EDGE('',*,*,#530,.F.);
#676=ORIENTED_EDGE('',*,*,#531,.T.);
#677=ORIENTED_EDGE('',*,*,#480,.T.);
#678=ORIENTED_EDGE('',*,*,#510,.F.);
#679=ORIENTED_EDGE('',*,*,#501,.F.);
#680=ORIENTED_EDGE('',*,*,#525,.T.);
#681=ORIENTED_EDGE('',*,*,#532,.T.);
#682=ORIENTED_EDGE('',*,*,#533,.T.);
#683=ORIENTED_EDGE('',*,*,#522,.F.);
#684=ORIENTED_EDGE('',*,*,#534,.F.);
#685=ORIENTED_EDGE('',*,*,#520,.T.);
#686=ORIENTED_EDGE('',*,*,#535,.T.);
#687=ORIENTED_EDGE('',*,*,#536,.F.);
#688=ORIENTED_EDGE('',*,*,#537,.F.);
#689=ORIENTED_EDGE('',*,*,#538,.F.);
#690=ORIENTED_EDGE('',*,*,#539,.F.);
#691=ORIENTED_EDGE('',*,*,#489,.T.);
#692=ORIENTED_EDGE('',*,*,#540,.F.);
#693=ORIENTED_EDGE('',*,*,#541,.F.);
#694=ORIENTED_EDGE('',*,*,#542,.F.);
#695=ORIENTED_EDGE('',*,*,#493,.T.);
#696=ORIENTED_EDGE('',*,*,#543,.F.);
#697=ORIENTED_EDGE('',*,*,#544,.F.);
#698=ORIENTED_EDGE('',*,*,#545,.F.);
#699=ORIENTED_EDGE('',*,*,#486,.T.);
#700=ORIENTED_EDGE('',*,*,#546,.F.);
#701=ORIENTED_EDGE('',*,*,#547,.F.);
#702=ORIENTED_EDGE('',*,*,#548,.T.);
#703=ORIENTED_EDGE('',*,*,#484,.T.);
#704=ORIENTED_EDGE('',*,*,#549,.F.);
#705=ORIENTED_EDGE('',*,*,#505,.T.);
#706=ORIENTED_EDGE('',*,*,#550,.T.);
#707=ORIENTED_EDGE('',*,*,#551,.T.);
#708=ORIENTED_EDGE('',*,*,#532,.F.);
#709=ORIENTED_EDGE('',*,*,#552,.F.);
#710=ORIENTED_EDGE('',*,*,#536,.T.);
#711=ORIENTED_EDGE('',*,*,#553,.T.);
#712=ORIENTED_EDGE('',*,*,#554,.F.);
#713=ORIENTED_EDGE('',*,*,#497,.T.);
#714=ORIENTED_EDGE('',*,*,#555,.T.);
#715=ORIENTED_EDGE('',*,*,#470,.T.);
#716=ORIENTED_EDGE('',*,*,#556,.F.);
#717=ORIENTED_EDGE('',*,*,#557,.F.);
#718=ORIENTED_EDGE('',*,*,#558,.T.);
#719=ORIENTED_EDGE('',*,*,#476,.T.);
#720=ORIENTED_EDGE('',*,*,#559,.F.);
#721=ORIENTED_EDGE('',*,*,#534,.T.);
#722=ORIENTED_EDGE('',*,*,#521,.T.);
#723=ORIENTED_EDGE('',*,*,#537,.T.);
#724=ORIENTED_EDGE('',*,*,#552,.T.);
#725=ORIENTED_EDGE('',*,*,#483,.T.);
#726=ORIENTED_EDGE('',*,*,#560,.F.);
#727=ORIENTED_EDGE('',*,*,#506,.F.);
#728=ORIENTED_EDGE('',*,*,#549,.T.);
#729=ORIENTED_EDGE('',*,*,#491,.T.);
#730=ORIENTED_EDGE('',*,*,#561,.T.);
#731=ORIENTED_EDGE('',*,*,#562,.T.);
#732=ORIENTED_EDGE('',*,*,#563,.T.);
#733=ORIENTED_EDGE('',*,*,#474,.T.);
#734=ORIENTED_EDGE('',*,*,#564,.F.);
#735=ORIENTED_EDGE('',*,*,#565,.F.);
#736=ORIENTED_EDGE('',*,*,#566,.T.);
#737=ORIENTED_EDGE('',*,*,#472,.T.);
#738=ORIENTED_EDGE('',*,*,#567,.F.);
#739=ORIENTED_EDGE('',*,*,#507,.F.);
#740=ORIENTED_EDGE('',*,*,#560,.T.);
#741=ORIENTED_EDGE('',*,*,#482,.T.);
#742=ORIENTED_EDGE('',*,*,#568,.F.);
#743=ORIENTED_EDGE('',*,*,#569,.F.);
#744=ORIENTED_EDGE('',*,*,#570,.T.);
#745=ORIENTED_EDGE('',*,*,#488,.T.);
#746=ORIENTED_EDGE('',*,*,#571,.T.);
#747=ORIENTED_EDGE('',*,*,#572,.T.);
#748=ORIENTED_EDGE('',*,*,#573,.T.);
#749=ORIENTED_EDGE('',*,*,#495,.T.);
#750=ORIENTED_EDGE('',*,*,#574,.T.);
#751=ORIENTED_EDGE('',*,*,#575,.T.);
#752=ORIENTED_EDGE('',*,*,#576,.T.);
#753=ORIENTED_EDGE('',*,*,#471,.T.);
#754=ORIENTED_EDGE('',*,*,#555,.F.);
#755=ORIENTED_EDGE('',*,*,#508,.F.);
#756=ORIENTED_EDGE('',*,*,#567,.T.);
#757=ORIENTED_EDGE('',*,*,#577,.T.);
#758=ORIENTED_EDGE('',*,*,#550,.F.);
#759=ORIENTED_EDGE('',*,*,#504,.F.);
#760=ORIENTED_EDGE('',*,*,#524,.T.);
#761=ORIENTED_EDGE('',*,*,#533,.F.);
#762=ORIENTED_EDGE('',*,*,#551,.F.);
#763=ORIENTED_EDGE('',*,*,#577,.F.);
#764=ORIENTED_EDGE('',*,*,#523,.F.);
#765=ORIENTED_EDGE('',*,*,#578,.T.);
#766=ORIENTED_EDGE('',*,*,#518,.F.);
#767=ORIENTED_EDGE('',*,*,#498,.F.);
#768=ORIENTED_EDGE('',*,*,#554,.T.);
#769=ORIENTED_EDGE('',*,*,#519,.F.);
#770=ORIENTED_EDGE('',*,*,#578,.F.);
#771=ORIENTED_EDGE('',*,*,#553,.F.);
#772=ORIENTED_EDGE('',*,*,#535,.F.);
#773=ORIENTED_EDGE('',*,*,#579,.T.);
#774=ORIENTED_EDGE('',*,*,#544,.T.);
#775=ORIENTED_EDGE('',*,*,#580,.F.);
#776=ORIENTED_EDGE('',*,*,#572,.F.);
#777=ORIENTED_EDGE('',*,*,#487,.F.);
#778=ORIENTED_EDGE('',*,*,#545,.T.);
#779=ORIENTED_EDGE('',*,*,#579,.F.);
#780=ORIENTED_EDGE('',*,*,#571,.F.);
#781=ORIENTED_EDGE('',*,*,#580,.T.);
#782=ORIENTED_EDGE('',*,*,#543,.T.);
#783=ORIENTED_EDGE('',*,*,#496,.F.);
#784=ORIENTED_EDGE('',*,*,#573,.F.);
#785=ORIENTED_EDGE('',*,*,#581,.T.);
#786=ORIENTED_EDGE('',*,*,#541,.T.);
#787=ORIENTED_EDGE('',*,*,#582,.F.);
#788=ORIENTED_EDGE('',*,*,#575,.F.);
#789=ORIENTED_EDGE('',*,*,#494,.F.);
#790=ORIENTED_EDGE('',*,*,#542,.T.);
#791=ORIENTED_EDGE('',*,*,#581,.F.);
#792=ORIENTED_EDGE('',*,*,#574,.F.);
#793=ORIENTED_EDGE('',*,*,#582,.T.);
#794=ORIENTED_EDGE('',*,*,#540,.T.);
#795=ORIENTED_EDGE('',*,*,#492,.F.);
#796=ORIENTED_EDGE('',*,*,#576,.F.);
#797=ORIENTED_EDGE('',*,*,#583,.T.);
#798=ORIENTED_EDGE('',*,*,#538,.T.);
#799=ORIENTED_EDGE('',*,*,#584,.F.);
#800=ORIENTED_EDGE('',*,*,#562,.F.);
#801=ORIENTED_EDGE('',*,*,#490,.F.);
#802=ORIENTED_EDGE('',*,*,#539,.T.);
#803=ORIENTED_EDGE('',*,*,#583,.F.);
#804=ORIENTED_EDGE('',*,*,#561,.F.);
#805=ORIENTED_EDGE('',*,*,#584,.T.);
#806=ORIENTED_EDGE('',*,*,#559,.T.);
#807=ORIENTED_EDGE('',*,*,#475,.F.);
#808=ORIENTED_EDGE('',*,*,#563,.F.);
#809=ORIENTED_EDGE('',*,*,#481,.T.);
#810=ORIENTED_EDGE('',*,*,#548,.F.);
#811=ORIENTED_EDGE('',*,*,#585,.F.);
#812=ORIENTED_EDGE('',*,*,#568,.T.);
#813=ORIENTED_EDGE('',*,*,#485,.T.);
#814=ORIENTED_EDGE('',*,*,#570,.F.);
#815=ORIENTED_EDGE('',*,*,#586,.F.);
#816=ORIENTED_EDGE('',*,*,#546,.T.);
#817=ORIENTED_EDGE('',*,*,#585,.T.);
#818=ORIENTED_EDGE('',*,*,#547,.T.);
#819=ORIENTED_EDGE('',*,*,#586,.T.);
#820=ORIENTED_EDGE('',*,*,#569,.T.);
#821=ORIENTED_EDGE('',*,*,#477,.T.);
#822=ORIENTED_EDGE('',*,*,#531,.F.);
#823=ORIENTED_EDGE('',*,*,#587,.F.);
#824=ORIENTED_EDGE('',*,*,#511,.T.);
#825=ORIENTED_EDGE('',*,*,#467,.T.);
#826=ORIENTED_EDGE('',*,*,#513,.F.);
#827=ORIENTED_EDGE('',*,*,#588,.F.);
#828=ORIENTED_EDGE('',*,*,#529,.T.);
#829=ORIENTED_EDGE('',*,*,#587,.T.);
#830=ORIENTED_EDGE('',*,*,#530,.T.);
#831=ORIENTED_EDGE('',*,*,#588,.T.);
#832=ORIENTED_EDGE('',*,*,#512,.T.);
#833=ORIENTED_EDGE('',*,*,#469,.T.);
#834=ORIENTED_EDGE('',*,*,#566,.F.);
#835=ORIENTED_EDGE('',*,*,#589,.F.);
#836=ORIENTED_EDGE('',*,*,#556,.T.);
#837=ORIENTED_EDGE('',*,*,#473,.T.);
#838=ORIENTED_EDGE('',*,*,#558,.F.);
#839=ORIENTED_EDGE('',*,*,#590,.F.);
#840=ORIENTED_EDGE('',*,*,#564,.T.);
#841=ORIENTED_EDGE('',*,*,#557,.T.);
#842=ORIENTED_EDGE('',*,*,#589,.T.);
#843=ORIENTED_EDGE('',*,*,#565,.T.);
#844=ORIENTED_EDGE('',*,*,#590,.T.);
#845=ORIENTED_EDGE('',*,*,#461,.T.);
#846=ORIENTED_EDGE('',*,*,#516,.F.);
#847=ORIENTED_EDGE('',*,*,#591,.F.);
#848=ORIENTED_EDGE('',*,*,#526,.T.);
#849=ORIENTED_EDGE('',*,*,#465,.T.);
#850=ORIENTED_EDGE('',*,*,#528,.F.);
#851=ORIENTED_EDGE('',*,*,#592,.F.);
#852=ORIENTED_EDGE('',*,*,#514,.T.);
#853=ORIENTED_EDGE('',*,*,#527,.T.);
#854=ORIENTED_EDGE('',*,*,#591,.T.);
#855=ORIENTED_EDGE('',*,*,#515,.T.);
#856=ORIENTED_EDGE('',*,*,#592,.T.);
#857=PLANE('',#966);
#858=PLANE('',#967);
#859=PLANE('',#968);
#860=PLANE('',#969);
#861=PLANE('',#970);
#862=PLANE('',#971);
#863=PLANE('',#972);
#864=PLANE('',#973);
#865=PLANE('',#974);
#866=PLANE('',#975);
#867=PLANE('',#976);
#868=PLANE('',#977);
#869=PLANE('',#978);
#870=PLANE('',#979);
#871=PLANE('',#980);
#872=PLANE('',#981);
#873=PLANE('',#982);
#874=PLANE('',#986);
#875=PLANE('',#987);
#876=PLANE('',#988);
#877=PLANE('',#992);
#878=PLANE('',#993);
#879=PLANE('',#994);
#880=PLANE('',#995);
#881=PLANE('',#996);
#882=PLANE('',#998);
#883=PLANE('',#999);
#884=PLANE('',#1001);
#885=PLANE('',#1002);
#886=PLANE('',#1004);
#887=PLANE('',#1005);
#888=PLANE('',#1006);
#889=PLANE('',#1007);
#890=PLANE('',#1008);
#891=PLANE('',#1009);
#892=PLANE('',#1010);
#893=PLANE('',#1011);
#894=PLANE('',#1012);
#895=PLANE('',#1013);
#896=PLANE('',#1014);
#897=PLANE('',#1015);
#898=PLANE('',#1016);
#899=PLANE('',#1017);
#900=ADVANCED_FACE('',(#29),#857,.F.);
#901=ADVANCED_FACE('',(#30),#858,.F.);
#902=ADVANCED_FACE('',(#31),#859,.F.);
#903=ADVANCED_FACE('',(#32),#860,.F.);
#904=ADVANCED_FACE('',(#33),#861,.F.);
#905=ADVANCED_FACE('',(#34),#862,.F.);
#906=ADVANCED_FACE('',(#35),#863,.F.);
#907=ADVANCED_FACE('',(#36),#864,.F.);
#908=ADVANCED_FACE('',(#37),#865,.F.);
#909=ADVANCED_FACE('',(#38),#866,.T.);
#910=ADVANCED_FACE('',(#39),#867,.F.);
#911=ADVANCED_FACE('',(#40),#868,.F.);
#912=ADVANCED_FACE('',(#41),#869,.F.);
#913=ADVANCED_FACE('',(#42),#870,.F.);
#914=ADVANCED_FACE('',(#43),#871,.F.);
#915=ADVANCED_FACE('',(#44),#872,.F.);
#916=ADVANCED_FACE('',(#45),#873,.F.);
#917=ADVANCED_FACE('',(#46),#874,.F.);
#918=ADVANCED_FACE('',(#47),#875,.F.);
#919=ADVANCED_FACE('',(#48),#876,.F.);
#920=ADVANCED_FACE('',(#49),#877,.F.);
#921=ADVANCED_FACE('',(#50),#878,.F.);
#922=ADVANCED_FACE('',(#51),#879,.T.);
#923=ADVANCED_FACE('',(#52),#880,.F.);
#924=ADVANCED_FACE('',(#53),#881,.F.);
#925=ADVANCED_FACE('',(#54),#20,.F.);
#926=ADVANCED_FACE('',(#55),#882,.F.);
#927=ADVANCED_FACE('',(#56),#883,.F.);
#928=ADVANCED_FACE('',(#57),#21,.F.);
#929=ADVANCED_FACE('',(#58),#884,.F.);
#930=ADVANCED_FACE('',(#59),#885,.F.);
#931=ADVANCED_FACE('',(#60),#22,.F.);
#932=ADVANCED_FACE('',(#61),#886,.F.);
#933=ADVANCED_FACE('',(#62),#887,.F.);
#934=ADVANCED_FACE('',(#63),#888,.F.);
#935=ADVANCED_FACE('',(#64),#889,.F.);
#936=ADVANCED_FACE('',(#65),#890,.F.);
#937=ADVANCED_FACE('',(#66),#891,.F.);
#938=ADVANCED_FACE('',(#67),#892,.F.);
#939=ADVANCED_FACE('',(#68),#893,.F.);
#940=ADVANCED_FACE('',(#69),#894,.F.);
#941=ADVANCED_FACE('',(#70),#895,.F.);
#942=ADVANCED_FACE('',(#71),#896,.F.);
#943=ADVANCED_FACE('',(#72),#897,.F.);
#944=ADVANCED_FACE('',(#73),#898,.F.);
#945=ADVANCED_FACE('',(#74),#899,.F.);
#946=CLOSED_SHELL('',(#900,#901,#902,#903,#904,#905,#906,#907,#908,#909,
#910,#911,#912,#913,#914,#915,#916,#917,#918,#919,#920,#921,#922,#923,#924,
#925,#926,#927,#928,#929,#930,#931,#932,#933,#934,#935,#936,#937,#938,#939,
#940,#941,#942,#943,#944,#945));
#947=DERIVED_UNIT_ELEMENT(#949,1.);
#948=DERIVED_UNIT_ELEMENT(#1524,3.);
#949=(
MASS_UNIT()
NAMED_UNIT(*)
SI_UNIT($,.GRAM.)
);
#950=DERIVED_UNIT((#947,#948));
#951=MEASURE_REPRESENTATION_ITEM('density measure',
POSITIVE_RATIO_MEASURE(2.8),#950);
#952=PROPERTY_DEFINITION_REPRESENTATION(#957,#954);
#953=PROPERTY_DEFINITION_REPRESENTATION(#958,#955);
#954=REPRESENTATION('material name',(#956),#1521);
#955=REPRESENTATION('density',(#951),#1521);
#956=DESCRIPTIVE_REPRESENTATION_ITEM('airox|Aluminium',
'airox|Aluminium');
#957=PROPERTY_DEFINITION('material property','material name',#1531);
#958=PROPERTY_DEFINITION('material property','density of part',#1531);
#959=DATE_TIME_ROLE('creation_date');
#960=APPLIED_DATE_AND_TIME_ASSIGNMENT(#961,#959,(#1531));
#961=DATE_AND_TIME(#962,#963);
#962=CALENDAR_DATE(2006,24,3);
#963=LOCAL_TIME(14,18,37.,#964);
#964=COORDINATED_UNIVERSAL_TIME_OFFSET(0,0,.BEHIND.);
#965=AXIS2_PLACEMENT_3D('placement',#1250,#1018,#1019);
#966=AXIS2_PLACEMENT_3D('',#1251,#1020,#1021);
#967=AXIS2_PLACEMENT_3D('',#1260,#1026,#1027);
#968=AXIS2_PLACEMENT_3D('',#1269,#1032,#1033);
#969=AXIS2_PLACEMENT_3D('',#1278,#1038,#1039);
#970=AXIS2_PLACEMENT_3D('',#1287,#1044,#1045);
#971=AXIS2_PLACEMENT_3D('',#1296,#1050,#1051);
#972=AXIS2_PLACEMENT_3D('',#1305,#1056,#1057);
#973=AXIS2_PLACEMENT_3D('',#1314,#1062,#1063);
#974=AXIS2_PLACEMENT_3D('',#1323,#1068,#1069);
#975=AXIS2_PLACEMENT_3D('',#1332,#1074,#1075);
#976=AXIS2_PLACEMENT_3D('',#1357,#1088,#1089);
#977=AXIS2_PLACEMENT_3D('',#1360,#1092,#1093);
#978=AXIS2_PLACEMENT_3D('',#1385,#1108,#1109);
#979=AXIS2_PLACEMENT_3D('',#1387,#1111,#1112);
#980=AXIS2_PLACEMENT_3D('',#1398,#1119,#1120);
#981=AXIS2_PLACEMENT_3D('',#1404,#1124,#1125);
#982=AXIS2_PLACEMENT_3D('',#1410,#1129,#1130);
#983=AXIS2_PLACEMENT_3D('',#1413,#1131,#1132);
#984=AXIS2_PLACEMENT_3D('',#1418,#1135,#1136);
#985=AXIS2_PLACEMENT_3D('',#1423,#1139,#1140);
#986=AXIS2_PLACEMENT_3D('',#1445,#1156,#1157);
#987=AXIS2_PLACEMENT_3D('',#1446,#1158,#1159);
#988=AXIS2_PLACEMENT_3D('',#1448,#1161,#1162);
#989=AXIS2_PLACEMENT_3D('',#1452,#1164,#1165);
#990=AXIS2_PLACEMENT_3D('',#1468,#1175,#1176);
#991=AXIS2_PLACEMENT_3D('',#1473,#1179,#1180);
#992=AXIS2_PLACEMENT_3D('',#1475,#1182,#1183);
#993=AXIS2_PLACEMENT_3D('',#1476,#1184,#1185);
#994=AXIS2_PLACEMENT_3D('',#1478,#1187,#1188);
#995=AXIS2_PLACEMENT_3D('',#1479,#1189,#1190);
#996=AXIS2_PLACEMENT_3D('',#1481,#1192,#1193);
#997=AXIS2_PLACEMENT_3D('',#1482,#1194,#1195);
#998=AXIS2_PLACEMENT_3D('',#1485,#1198,#1199);
#999=AXIS2_PLACEMENT_3D('',#1486,#1200,#1201);
#1000=AXIS2_PLACEMENT_3D('',#1487,#1202,#1203);
#1001=AXIS2_PLACEMENT_3D('',#1490,#1206,#1207);
#1002=AXIS2_PLACEMENT_3D('',#1491,#1208,#1209);
#1003=AXIS2_PLACEMENT_3D('',#1492,#1210,#1211);
#1004=AXIS2_PLACEMENT_3D('',#1495,#1214,#1215);
#1005=AXIS2_PLACEMENT_3D('',#1496,#1216,#1217);
#1006=AXIS2_PLACEMENT_3D('',#1497,#1218,#1219);
#1007=AXIS2_PLACEMENT_3D('',#1499,#1221,#1222);
#1008=AXIS2_PLACEMENT_3D('',#1501,#1224,#1225);
#1009=AXIS2_PLACEMENT_3D('',#1502,#1226,#1227);
#1010=AXIS2_PLACEMENT_3D('',#1504,#1229,#1230);
#1011=AXIS2_PLACEMENT_3D('',#1506,#1232,#1233);
#1012=AXIS2_PLACEMENT_3D('',#1507,#1234,#1235);
#1013=AXIS2_PLACEMENT_3D('',#1509,#1237,#1238);
#1014=AXIS2_PLACEMENT_3D('',#1511,#1240,#1241);
#1015=AXIS2_PLACEMENT_3D('',#1512,#1242,#1243);
#1016=AXIS2_PLACEMENT_3D('',#1514,#1245,#1246);
#1017=AXIS2_PLACEMENT_3D('',#1516,#1248,#1249);
#1018=DIRECTION('axis',(0.,0.,1.));
#1019=DIRECTION('refdir',(1.,0.,0.));
#1020=DIRECTION('center_axis',(0.,0.,1.));
#1021=DIRECTION('ref_axis',(1.,0.,0.));
#1022=DIRECTION('',(-1.,0.,0.));
#1023=DIRECTION('',(0.,1.,0.));
#1024=DIRECTION('',(1.,0.,0.));
#1025=DIRECTION('',(0.,-1.,0.));
#1026=DIRECTION('center_axis',(0.,0.,1.));
#1027=DIRECTION('ref_axis',(1.,0.,0.));
#1028=DIRECTION('',(1.,0.,0.));
#1029=DIRECTION('',(0.,-1.,0.));
#1030=DIRECTION('',(-1.,0.,0.));
#1031=DIRECTION('',(-3.70846939331994E-16,1.,0.));
#1032=DIRECTION('center_axis',(0.,0.,1.));
#1033=DIRECTION('ref_axis',(1.,0.,0.));
#1034=DIRECTION('',(-1.,0.,0.));
#1035=DIRECTION('',(0.,1.,0.));
#1036=DIRECTION('',(1.,0.,0.));
#1037=DIRECTION('',(0.,-1.,0.));
#1038=DIRECTION('center_axis',(0.,0.,1.));
#1039=DIRECTION('ref_axis',(1.,0.,0.));
#1040=DIRECTION('',(1.,0.,0.));
#1041=DIRECTION('',(0.,-1.,0.));
#1042=DIRECTION('',(1.,0.,0.));
#1043=DIRECTION('',(0.,1.,0.));
#1044=DIRECTION('center_axis',(0.,0.,1.));
#1045=DIRECTION('ref_axis',(1.,0.,0.));
#1046=DIRECTION('',(1.,0.,0.));
#1047=DIRECTION('',(0.,-1.,0.));
#1048=DIRECTION('',(-1.,0.,0.));
#1049=DIRECTION('',(0.,1.,0.));
#1050=DIRECTION('center_axis',(0.,0.,1.));
#1051=DIRECTION('ref_axis',(1.,0.,0.));
#1052=DIRECTION('',(1.,0.,0.));
#1053=DIRECTION('',(0.,-1.,0.));
#1054=DIRECTION('',(-1.,0.,0.));
#1055=DIRECTION('',(0.,1.,0.));
#1056=DIRECTION('center_axis',(0.,0.,1.));
#1057=DIRECTION('ref_axis',(1.,0.,0.));
#1058=DIRECTION('',(-1.,0.,0.));
#1059=DIRECTION('',(0.,1.,0.));
#1060=DIRECTION('',(-1.,0.,0.));
#1061=DIRECTION('',(0.,-1.,0.));
#1062=DIRECTION('center_axis',(0.,0.,1.));
#1063=DIRECTION('ref_axis',(1.,0.,0.));
#1064=DIRECTION('',(0.,1.,0.));
#1065=DIRECTION('',(-1.,0.,0.));
#1066=DIRECTION('',(0.,-1.,0.));
#1067=DIRECTION('',(1.,0.,0.));
#1068=DIRECTION('center_axis',(0.,0.,1.));
#1069=DIRECTION('ref_axis',(1.,0.,0.));
#1070=DIRECTION('',(0.,1.,0.));
#1071=DIRECTION('',(-1.,0.,0.));
#1072=DIRECTION('',(0.,-1.,0.));
#1073=DIRECTION('',(1.,0.,0.));
#1074=DIRECTION('center_axis',(0.,0.,-1.));
#1075=DIRECTION('ref_axis',(-1.,0.,0.));
#1076=DIRECTION('',(0.,1.,0.));
#1077=DIRECTION('',(-1.,0.,0.));
#1078=DIRECTION('',(0.,-1.,0.));
#1079=DIRECTION('',(1.,0.,0.));
#1080=DIRECTION('',(-3.127388801761E-16,1.,0.));
#1081=DIRECTION('',(-1.,0.,0.));
#1082=DIRECTION('',(0.,-1.,0.));
#1083=DIRECTION('',(1.,4.4632081391966E-16,0.));
#1084=DIRECTION('',(0.,1.,0.));
#1085=DIRECTION('',(-1.,0.,0.));
#1086=DIRECTION('',(0.,-1.,0.));
#1087=DIRECTION('',(1.,0.,0.));
#1088=DIRECTION('center_axis',(0.,-1.,0.));
#1089=DIRECTION('ref_axis',(0.,0.,-1.));
#1090=DIRECTION('',(0.,0.,-1.));
#1091=DIRECTION('',(0.,0.,-1.));
#1092=DIRECTION('center_axis',(1.,0.,0.));
#1093=DIRECTION('ref_axis',(0.,0.,-1.));
#1094=DIRECTION('',(0.,0.,1.));
#1095=DIRECTION('',(0.,1.,0.));
#1096=DIRECTION('',(0.,0.,1.));
#1097=DIRECTION('',(0.,0.,1.));
#1098=DIRECTION('',(0.,1.,0.));
#1099=DIRECTION('',(0.,0.,1.));
#1100=DIRECTION('',(0.,0.,-1.));
#1101=DIRECTION('',(0.,0.,-1.));
#1102=DIRECTION('',(-3.55271367880051E-14,-1.,0.));
#1103=DIRECTION('',(0.,0.,-1.));
#1104=DIRECTION('',(0.,-1.,0.));
#1105=DIRECTION('',(0.,0.,-1.));
#1106=DIRECTION('',(0.,-1.,0.));
#1107=DIRECTION('',(0.,0.,-1.));
#1108=DIRECTION('center_axis',(0.,1.,0.));
#1109=DIRECTION('ref_axis',(0.,0.,1.));
#1110=DIRECTION('',(0.,0.,-1.));
#1111=DIRECTION('center_axis',(-1.,-2.44327250137578E-16,0.));
#1112=DIRECTION('ref_axis',(0.,0.,1.));
#1113=DIRECTION('',(0.,0.,1.));
#1114=DIRECTION('',(0.,-1.,0.));
#1115=DIRECTION('',(0.,0.,1.));
#1116=DIRECTION('',(0.,0.,1.));
#1117=DIRECTION('',(0.,-1.,0.));
#1118=DIRECTION('',(0.,0.,1.));
#1119=DIRECTION('center_axis',(3.48688135874735E-16,-1.,0.));
#1120=DIRECTION('ref_axis',(0.,0.,-1.));
#1121=DIRECTION('',(0.,0.,-1.));
#1122=DIRECTION('',(-1.,-2.2316040695983E-16,0.));
#1123=DIRECTION('',(-1.,-2.2316040695983E-16,0.));
#1124=DIRECTION('center_axis',(-3.48688135874735E-16,1.,0.));
#1125=DIRECTION('ref_axis',(0.,0.,1.));
#1126=DIRECTION('',(1.,0.,0.));
#1127=DIRECTION('',(0.,0.,-1.));
#1128=DIRECTION('',(1.,4.4632081391966E-16,0.));
#1129=DIRECTION('center_axis',(-1.,0.,0.));
#1130=DIRECTION('ref_axis',(0.,0.,1.));
#1131=DIRECTION('center_axis',(1.,0.,0.));
#1132=DIRECTION('ref_axis',(0.,0.,-1.));
#1133=DIRECTION('',(0.,2.69144975666705E-15,1.));
#1134=DIRECTION('',(0.,2.10269512239626E-15,-1.));
#1135=DIRECTION('center_axis',(1.,0.,0.));
#1136=DIRECTION('ref_axis',(0.,0.,-1.));
#1137=DIRECTION('',(0.,2.18680292729198E-15,1.));
#1138=DIRECTION('',(0.,2.01858731750028E-15,-1.));
#1139=DIRECTION('center_axis',(1.,0.,0.));
#1140=DIRECTION('ref_axis',(0.,0.,-1.));
#1141=DIRECTION('',(0.,2.69144975666705E-15,1.));
#1142=DIRECTION('',(0.,0.,1.));
#1143=DIRECTION('',(0.,-1.,0.));
#1144=DIRECTION('',(0.,0.,1.));
#1145=DIRECTION('',(0.,0.,-1.));
#1146=DIRECTION('',(0.,0.,-1.));
#1147=DIRECTION('',(0.,1.,0.));
#1148=DIRECTION('',(0.,1.,0.));
#1149=DIRECTION('',(0.,1.,0.));
#1150=DIRECTION('',(0.,0.,-1.));
#1151=DIRECTION('',(0.,0.,-1.));
#1152=DIRECTION('',(0.,0.,1.));
#1153=DIRECTION('',(0.,-1.,0.));
#1154=DIRECTION('',(0.,0.,1.));
#1155=DIRECTION('',(0.,2.01858731750053E-15,-1.));
#1156=DIRECTION('center_axis',(0.,0.,-1.));
#1157=DIRECTION('ref_axis',(-1.,0.,0.));
#1158=DIRECTION('center_axis',(0.,-1.,0.));
#1159=DIRECTION('ref_axis',(0.,0.,-1.));
#1160=DIRECTION('',(0.,0.,-1.));
#1161=DIRECTION('center_axis',(1.,0.,0.));
#1162=DIRECTION('ref_axis',(0.,0.,-1.));
#1163=DIRECTION('',(0.,2.69144975666704E-15,1.));
#1164=DIRECTION('center_axis',(1.,0.,0.));
#1165=DIRECTION('ref_axis',(0.,0.,-1.));
#1166=DIRECTION('',(0.,2.01858731750028E-15,-1.));
#1167=DIRECTION('',(0.,0.,1.));
#1168=DIRECTION('',(0.,1.,0.));
#1169=DIRECTION('',(0.,0.,1.));
#1170=DIRECTION('',(0.,0.,-1.));
#1171=DIRECTION('',(0.,0.,1.));
#1172=DIRECTION('',(0.,1.,0.));
#1173=DIRECTION('',(0.,0.,1.));
#1174=DIRECTION('',(0.,2.69144975666705E-15,1.));
#1175=DIRECTION('center_axis',(1.,0.,0.));
#1176=DIRECTION('ref_axis',(0.,0.,-1.));
#1177=DIRECTION('',(0.,2.01858731750029E-15,-1.));
#1178=DIRECTION('',(0.,2.18680292729198E-15,1.));
#1179=DIRECTION('center_axis',(1.,0.,0.));
#1180=DIRECTION('ref_axis',(0.,0.,-1.));
#1181=DIRECTION('',(0.,2.10269512239613E-15,-1.));
#1182=DIRECTION('center_axis',(0.,1.,0.));
#1183=DIRECTION('ref_axis',(0.,0.,1.));
#1184=DIRECTION('center_axis',(-3.48688135874735E-16,1.,0.));
#1185=DIRECTION('ref_axis',(0.,0.,1.));
#1186=DIRECTION('',(1.,4.4632081391966E-16,0.));
#1187=DIRECTION('center_axis',(0.,0.,-1.));
#1188=DIRECTION('ref_axis',(-1.,0.,0.));
#1189=DIRECTION('center_axis',(0.,-1.,0.));
#1190=DIRECTION('ref_axis',(0.,0.,-1.));
#1191=DIRECTION('',(-1.,0.,0.));
#1192=DIRECTION('center_axis',(0.,0.,1.));
#1193=DIRECTION('ref_axis',(1.,0.,0.));
#1194=DIRECTION('center_axis',(1.,0.,0.));
#1195=DIRECTION('ref_axis',(0.,1.22464679914735E-16,1.));
#1196=DIRECTION('',(1.,0.,0.));
#1197=DIRECTION('',(1.,0.,0.));
#1198=DIRECTION('center_axis',(0.,1.,-2.10269512239613E-15));
#1199=DIRECTION('ref_axis',(0.,2.10269512239613E-15,1.));
#1200=DIRECTION('center_axis',(0.,-1.,-2.10269512239613E-15));
#1201=DIRECTION('ref_axis',(0.,2.10269512239613E-15,-1.));
#1202=DIRECTION('center_axis',(1.,0.,0.));
#1203=DIRECTION('ref_axis',(0.,1.22464679914735E-16,1.));
#1204=DIRECTION('',(1.,0.,0.));
#1205=DIRECTION('',(1.,0.,0.));
#1206=DIRECTION('center_axis',(0.,1.,-2.10269512239613E-15));
#1207=DIRECTION('ref_axis',(0.,2.10269512239613E-15,1.));
#1208=DIRECTION('center_axis',(0.,-1.,-2.10269512239613E-15));
#1209=DIRECTION('ref_axis',(0.,2.10269512239613E-15,-1.));
#1210=DIRECTION('center_axis',(1.,0.,0.));
#1211=DIRECTION('ref_axis',(0.,1.22464679914735E-16,1.));
#1212=DIRECTION('',(1.,0.,0.));
#1213=DIRECTION('',(1.,0.,0.));
#1214=DIRECTION('center_axis',(0.,1.,-2.10269512239613E-15));
#1215=DIRECTION('ref_axis',(0.,2.10269512239613E-15,1.));
#1216=DIRECTION('center_axis',(0.,-1.,-2.10269512239613E-15));
#1217=DIRECTION('ref_axis',(0.,2.10269512239613E-15,-1.));
#1218=DIRECTION('center_axis',(0.,-1.,0.));
#1219=DIRECTION('ref_axis',(0.,0.,-1.));
#1220=DIRECTION('',(1.,0.,0.));
#1221=DIRECTION('center_axis',(0.,1.,0.));
#1222=DIRECTION('ref_axis',(0.,0.,1.));
#1223=DIRECTION('',(-1.,0.,0.));
#1224=DIRECTION('center_axis',(0.,0.,1.));
#1225=DIRECTION('ref_axis',(1.,0.,0.));
#1226=DIRECTION('center_axis',(0.,-1.,0.));
#1227=DIRECTION('ref_axis',(0.,0.,-1.));
#1228=DIRECTION('',(1.,0.,0.));
#1229=DIRECTION('center_axis',(0.,1.,0.));
#1230=DIRECTION('ref_axis',(0.,0.,1.));
#1231=DIRECTION('',(-1.,0.,0.));
#1232=DIRECTION('center_axis',(0.,0.,1.));
#1233=DIRECTION('ref_axis',(1.,0.,0.));
#1234=DIRECTION('center_axis',(0.,1.,0.));
#1235=DIRECTION('ref_axis',(0.,0.,1.));
#1236=DIRECTION('',(-1.,0.,0.));
#1237=DIRECTION('center_axis',(0.,-1.,0.));
#1238=DIRECTION('ref_axis',(0.,0.,-1.));
#1239=DIRECTION('',(1.,0.,0.));
#1240=DIRECTION('center_axis',(0.,0.,1.));
#1241=DIRECTION('ref_axis',(1.,0.,0.));
#1242=DIRECTION('center_axis',(0.,1.,0.));
#1243=DIRECTION('ref_axis',(0.,0.,1.));
#1244=DIRECTION('',(-1.,0.,0.));
#1245=DIRECTION('center_axis',(0.,-1.,0.));
#1246=DIRECTION('ref_axis',(0.,0.,-1.));
#1247=DIRECTION('',(1.,0.,0.));
#1248=DIRECTION('center_axis',(0.,0.,1.));
#1249=DIRECTION('ref_axis',(1.,0.,0.));
#1250=CARTESIAN_POINT('',(0.,0.,0.));
#1251=CARTESIAN_POINT('Origin',(-9.67971890957269,28.3998238558921,0.));
#1252=CARTESIAN_POINT('',(-9.17971890957267,-24.9501761441079,0.));
#1253=CARTESIAN_POINT('',(-9.67971890957269,-24.9501761441079,0.));
#1254=CARTESIAN_POINT('',(-9.17971890957267,-24.9501761441079,0.));
#1255=CARTESIAN_POINT('',(-9.17971890957267,-28.4001761441079,0.));
#1256=CARTESIAN_POINT('',(-9.17971890957267,-28.4001761441079,0.));
#1257=CARTESIAN_POINT('',(-9.67971890957269,-28.4001761441079,0.));
#1258=CARTESIAN_POINT('',(-9.67971890957269,-28.4001761441079,0.));
#1259=CARTESIAN_POINT('',(-9.67971890957269,-24.9501761441079,0.));
#1260=CARTESIAN_POINT('Origin',(-9.67971890957269,28.3998238558921,0.));
#1261=CARTESIAN_POINT('',(-9.67971890957269,-23.9501761441079,0.));
#1262=CARTESIAN_POINT('',(-9.17971890957267,-23.9501761441079,0.));
#1263=CARTESIAN_POINT('',(-9.67971890957269,-23.9501761441079,0.));
#1264=CARTESIAN_POINT('',(-9.67971890957269,23.9498238558921,0.));
#1265=CARTESIAN_POINT('',(-9.67971890957269,23.9498238558921,0.));
#1266=CARTESIAN_POINT('',(-9.17971890957267,23.9498238558921,0.));
#1267=CARTESIAN_POINT('',(-9.17971890957267,23.9498238558921,0.));
#1268=CARTESIAN_POINT('',(-9.17971890957267,-23.9501761441079,0.));
#1269=CARTESIAN_POINT('Origin',(9.72028109042734,28.3998238558921,0.));
#1270=CARTESIAN_POINT('',(10.2202810904274,-24.9501761441079,0.));
#1271=CARTESIAN_POINT('',(9.72028109042734,-24.9501761441079,0.));
#1272=CARTESIAN_POINT('',(10.2202810904274,-24.9501761441079,0.));
#1273=CARTESIAN_POINT('',(10.2202810904274,-28.4001761441079,0.));
#1274=CARTESIAN_POINT('',(10.2202810904274,-28.4001761441079,0.));
#1275=CARTESIAN_POINT('',(9.72028109042734,-28.4001761441079,0.));
#1276=CARTESIAN_POINT('',(9.72028109042734,-28.4001761441079,0.));
#1277=CARTESIAN_POINT('',(9.72028109042734,-24.9501761441079,0.));
#1278=CARTESIAN_POINT('Origin',(9.72028109042734,28.3998238558921,0.));
#1279=CARTESIAN_POINT('',(9.72028109042734,-23.9501761441079,0.));
#1280=CARTESIAN_POINT('',(10.2202810904274,-23.9501761441079,0.));
#1281=CARTESIAN_POINT('',(9.72028109042734,-23.9501761441079,0.));
#1282=CARTESIAN_POINT('',(9.72028109042734,-21.2659450250543,-3.9802910316647E-13));
#1283=CARTESIAN_POINT('',(9.72028109042734,-21.2659450250543,0.));
#1284=CARTESIAN_POINT('',(10.2202810904274,-21.2659450250543,0.));
#1285=CARTESIAN_POINT('',(9.72028109042734,-21.2659450250543,0.));
#1286=CARTESIAN_POINT('',(10.2202810904274,-23.9501761441079,0.));
#1287=CARTESIAN_POINT('Origin',(-9.67971890957269,28.3998238558921,0.));
#1288=CARTESIAN_POINT('',(-9.67971890957269,24.9498238558921,0.));
#1289=CARTESIAN_POINT('',(-9.17971890957267,24.9498238558921,0.));
#1290=CARTESIAN_POINT('',(-9.67971890957269,24.9498238558921,0.));
#1291=CARTESIAN_POINT('',(-9.67971890957269,28.3998238558921,0.));
#1292=CARTESIAN_POINT('',(-9.67971890957269,28.3998238558921,0.));
#1293=CARTESIAN_POINT('',(-9.17971890957268,28.3998238558921,0.));
#1294=CARTESIAN_POINT('',(-9.17971890957268,28.3998238558921,0.));
#1295=CARTESIAN_POINT('',(-9.17971890957268,24.9498238558921,0.));
#1296=CARTESIAN_POINT('Origin',(9.72028109042734,28.3998238558921,0.));
#1297=CARTESIAN_POINT('',(9.72028109042734,24.9498238558921,0.));
#1298=CARTESIAN_POINT('',(10.2202810904274,24.9498238558921,0.));
#1299=CARTESIAN_POINT('',(9.72028109042734,24.9498238558921,0.));
#1300=CARTESIAN_POINT('',(9.72028109042734,28.3998238558921,0.));
#1301=CARTESIAN_POINT('',(9.72028109042734,28.3998238558921,0.));
#1302=CARTESIAN_POINT('',(10.2202810904273,28.3998238558921,0.));
#1303=CARTESIAN_POINT('',(10.2202810904273,28.3998238558921,0.));
#1304=CARTESIAN_POINT('',(10.2202810904273,24.9498238558921,0.));
#1305=CARTESIAN_POINT('Origin',(9.72028109042734,28.3998238558921,0.));
#1306=CARTESIAN_POINT('',(10.2202810904274,23.9498238558921,0.));
#1307=CARTESIAN_POINT('',(9.72028109042734,23.9498238558921,0.));
#1308=CARTESIAN_POINT('',(10.2202810904274,23.9498238558921,0.));
#1309=CARTESIAN_POINT('',(10.2202810904273,20.2340549749457,-4.28626379701573E-16));
#1310=CARTESIAN_POINT('',(10.2202810904273,20.2340549749457,0.));
#1311=CARTESIAN_POINT('',(9.72028109042734,20.2340549749457,-4.28626379701573E-16));
#1312=CARTESIAN_POINT('',(10.2202810904273,20.2340549749457,0.));
#1313=CARTESIAN_POINT('',(9.72028109042734,23.9498238558921,0.));
#1314=CARTESIAN_POINT('Origin',(9.72028109042734,28.3998238558921,0.));
#1315=CARTESIAN_POINT('',(10.2202810904273,-17.7659450250543,-3.98457729546171E-13));
#1316=CARTESIAN_POINT('',(10.2202810904274,-2.26594502505433,0.));
#1317=CARTESIAN_POINT('',(10.2202810904274,-17.7659450250543,0.));
#1318=CARTESIAN_POINT('',(9.72028109042734,-17.7659450250543,-3.98457729546171E-13));
#1319=CARTESIAN_POINT('',(10.2202810904273,-17.7659450250543,0.));
#1320=CARTESIAN_POINT('',(9.72028109042734,-2.26594502505432,-1.99014551583235E-13));
#1321=CARTESIAN_POINT('',(9.72028109042734,-2.26594502505432,0.));
#1322=CARTESIAN_POINT('',(9.72028109042734,-2.26594502505432,0.));
#1323=CARTESIAN_POINT('Origin',(9.72028109042734,28.3998238558921,0.));
#1324=CARTESIAN_POINT('',(10.2202810904273,1.23405497494567,-1.99443177962936E-13));
#1325=CARTESIAN_POINT('',(10.2202810904273,16.7340549749457,0.));
#1326=CARTESIAN_POINT('',(10.2202810904273,1.23405497494567,0.));
#1327=CARTESIAN_POINT('',(9.72028109042734,1.23405497494567,-1.99443177962936E-13));
#1328=CARTESIAN_POINT('',(10.2202810904273,1.23405497494567,0.));
#1329=CARTESIAN_POINT('',(9.72028109042734,16.7340549749457,0.));
#1330=CARTESIAN_POINT('',(9.72028109042734,16.7340549749457,0.));
#1331=CARTESIAN_POINT('',(9.72028109042734,16.7340549749457,0.));
#1332=CARTESIAN_POINT('Origin',(10.2202810904273,28.9998238558921,13.5));
#1333=CARTESIAN_POINT('',(10.2202810904273,-28.5001761441079,13.5));
#1334=CARTESIAN_POINT('',(10.2202810904274,-28.4001761441079,13.5));
#1335=CARTESIAN_POINT('',(10.2202810904273,-28.5001761441079,13.5));
#1336=CARTESIAN_POINT('',(-9.67971890957267,-28.5001761441079,13.5));
#1337=CARTESIAN_POINT('',(10.2202810904273,-28.5001761441079,13.5));
#1338=CARTESIAN_POINT('',(-9.67971890957269,-28.4001761441079,13.5));
#1339=CARTESIAN_POINT('',(-9.67971890957269,-28.4001761441079,13.5));
#1340=CARTESIAN_POINT('',(-9.17971890957267,-28.4001761441079,13.5));
#1341=CARTESIAN_POINT('',(-9.67971890957269,-28.4001761441079,13.5));
#1342=CARTESIAN_POINT('',(-9.17971890957268,28.3998238558921,13.5));
#1343=CARTESIAN_POINT('',(-9.17971890957267,-28.4001761441079,13.5));
#1344=CARTESIAN_POINT('',(-9.67971890957269,28.3998238558921,13.5));
#1345=CARTESIAN_POINT('',(-9.17971890957268,28.3998238558921,13.5));
#1346=CARTESIAN_POINT('',(-9.67971890957269,28.4998238558921,13.5));
#1347=CARTESIAN_POINT('',(-9.67971890957269,28.4998238558921,13.5));
#1348=CARTESIAN_POINT('',(10.2202810904273,28.4998238558921,13.5));
#1349=CARTESIAN_POINT('',(-9.67971890957269,28.4998238558921,13.5));
#1350=CARTESIAN_POINT('',(10.2202810904273,28.3998238558921,13.5));
#1351=CARTESIAN_POINT('',(10.2202810904273,28.3998238558921,13.5));
#1352=CARTESIAN_POINT('',(9.72028109042734,28.3998238558921,13.5));
#1353=CARTESIAN_POINT('',(10.2202810904273,28.3998238558921,13.5));
#1354=CARTESIAN_POINT('',(9.72028109042734,-28.4001761441079,13.5));
#1355=CARTESIAN_POINT('',(9.72028109042734,28.3998238558921,13.5));
#1356=CARTESIAN_POINT('',(9.72028109042734,-28.4001761441079,13.5));
#1357=CARTESIAN_POINT('Origin',(-9.17971890957268,28.3998238558921,13.5));
#1358=CARTESIAN_POINT('',(-9.67971890957269,28.3998238558921,13.5));
#1359=CARTESIAN_POINT('',(-9.17971890957268,28.3998238558921,13.5));
#1360=CARTESIAN_POINT('Origin',(-9.67971890957269,28.3998238558921,13.5));
#1361=CARTESIAN_POINT('',(-9.67971890957269,24.9498238558921,-2.));
#1362=CARTESIAN_POINT('',(-9.67971890957269,24.9498238558921,-2.));
#1363=CARTESIAN_POINT('',(-9.67971890957269,23.9498238558921,-2.));
#1364=CARTESIAN_POINT('',(-9.67971890957269,23.9498238558921,-2.));
#1365=CARTESIAN_POINT('',(-9.67971890957269,23.9498238558921,-2.));
#1366=CARTESIAN_POINT('',(-9.67971890957269,-23.9501761441079,-2.));
#1367=CARTESIAN_POINT('',(-9.67971890957269,-23.9501761441079,-2.));
#1368=CARTESIAN_POINT('',(-9.67971890957269,-24.9501761441079,-2.));
#1369=CARTESIAN_POINT('',(-9.67971890957269,-24.9501761441079,-2.));
#1370=CARTESIAN_POINT('',(-9.67971890957269,-24.9501761441079,-2.));
#1371=CARTESIAN_POINT('',(-9.67971890957269,-28.4001761441079,13.5));
#1372=CARTESIAN_POINT('',(-9.67971890957267,-28.5001761441079,0.));
#1373=CARTESIAN_POINT('',(-9.67971890957267,-28.5001761441079,13.5));
#1374=CARTESIAN_POINT('',(-9.67971890957269,-29.0001761441079,0.));
#1375=CARTESIAN_POINT('',(-9.67971890957267,-28.5001761441079,0.));
#1376=CARTESIAN_POINT('',(-9.67971890957269,-29.0001761441079,14.));
#1377=CARTESIAN_POINT('',(-9.67971890957269,-29.0001761441079,14.));
#1378=CARTESIAN_POINT('',(-9.67971890957269,28.9998238558921,14.));
#1379=CARTESIAN_POINT('',(-9.67971890957269,28.9998238558921,14.));
#1380=CARTESIAN_POINT('',(-9.67971890957269,28.9998238558921,0.));
#1381=CARTESIAN_POINT('',(-9.67971890957269,28.9998238558921,14.));
#1382=CARTESIAN_POINT('',(-9.67971890957269,28.4998238558921,0.));
#1383=CARTESIAN_POINT('',(-9.67971890957269,28.9998238558921,0.));
#1384=CARTESIAN_POINT('',(-9.67971890957269,28.4998238558921,13.5));
#1385=CARTESIAN_POINT('Origin',(-9.17971890957267,-28.4001761441079,13.5));
#1386=CARTESIAN_POINT('',(-9.17971890957267,-28.4001761441079,13.5));
#1387=CARTESIAN_POINT('Origin',(-9.17971890957268,28.3998238558921,13.5));
#1388=CARTESIAN_POINT('',(-9.17971890957267,-24.9501761441079,-2.));
#1389=CARTESIAN_POINT('',(-9.17971890957267,-24.9501761441079,-2.));
#1390=CARTESIAN_POINT('',(-9.17971890957267,-23.9501761441079,-2.));
#1391=CARTESIAN_POINT('',(-9.17971890957267,-23.9501761441079,-2.));
#1392=CARTESIAN_POINT('',(-9.17971890957267,-23.9501761441079,-2.));
#1393=CARTESIAN_POINT('',(-9.17971890957267,23.9498238558921,-2.));
#1394=CARTESIAN_POINT('',(-9.17971890957267,23.9498238558921,-2.));
#1395=CARTESIAN_POINT('',(-9.17971890957267,24.9498238558921,-2.));
#1396=CARTESIAN_POINT('',(-9.17971890957267,24.9498238558921,-2.));
#1397=CARTESIAN_POINT('',(-9.17971890957267,24.9498238558921,-2.));
#1398=CARTESIAN_POINT('Origin',(-9.67971890957269,28.9998238558921,14.));
#1399=CARTESIAN_POINT('',(10.2202810904273,28.9998238558921,14.));
#1400=CARTESIAN_POINT('',(10.2202810904273,28.9998238558921,0.));
#1401=CARTESIAN_POINT('',(10.2202810904273,28.9998238558921,14.));
#1402=CARTESIAN_POINT('',(10.2202810904273,28.9998238558921,0.));
#1403=CARTESIAN_POINT('',(10.2202810904273,28.9998238558921,14.));
#1404=CARTESIAN_POINT('Origin',(-9.67971890957269,-29.0001761441079,14.));
#1405=CARTESIAN_POINT('',(10.2202810904273,-29.0001761441079,0.));
#1406=CARTESIAN_POINT('',(-9.67971890957269,-29.0001761441079,0.));
#1407=CARTESIAN_POINT('',(10.2202810904273,-29.0001761441079,14.));
#1408=CARTESIAN_POINT('',(10.2202810904273,-29.0001761441079,14.));
#1409=CARTESIAN_POINT('',(-9.67971890957269,-29.0001761441079,14.));
#1410=CARTESIAN_POINT('Origin',(10.2202810904273,28.9998238558921,14.));
#1411=CARTESIAN_POINT('',(10.2202810904273,-17.7659450250543,3.2999999999996));
#1412=CARTESIAN_POINT('',(10.2202810904273,-21.2659450250543,3.2999999999996));
#1413=CARTESIAN_POINT('Origin',(10.2202810904273,-19.5159450250543,3.2999999999996));
#1414=CARTESIAN_POINT('',(10.2202810904273,-17.7659450250543,-3.98457729546171E-13));
#1415=CARTESIAN_POINT('',(10.2202810904273,-2.26594502505433,3.2999999999998));
#1416=CARTESIAN_POINT('',(10.2202810904273,-2.26594502505433,3.2999999999998));
#1417=CARTESIAN_POINT('',(10.2202810904273,1.23405497494568,3.2999999999998));
#1418=CARTESIAN_POINT('Origin',(10.2202810904273,-0.515945025054325,3.2999999999998));
#1419=CARTESIAN_POINT('',(10.2202810904273,1.23405497494567,-1.99443177962936E-13));
#1420=CARTESIAN_POINT('',(10.2202810904273,16.7340549749457,3.3));
#1421=CARTESIAN_POINT('',(10.2202810904273,16.7340549749457,3.3));
#1422=CARTESIAN_POINT('',(10.2202810904273,20.2340549749457,3.3));
#1423=CARTESIAN_POINT('Origin',(10.2202810904273,18.4840549749457,3.3));
#1424=CARTESIAN_POINT('',(10.2202810904273,20.2340549749457,-4.28626379701573E-16));
#1425=CARTESIAN_POINT('',(10.2202810904274,23.9498238558921,-2.));
#1426=CARTESIAN_POINT('',(10.2202810904274,23.9498238558921,-2.));
#1427=CARTESIAN_POINT('',(10.2202810904274,24.9498238558921,-2.));
#1428=CARTESIAN_POINT('',(10.2202810904274,24.9498238558921,-2.));
#1429=CARTESIAN_POINT('',(10.2202810904274,24.9498238558921,-2.));
#1430=CARTESIAN_POINT('',(10.2202810904273,28.3998238558921,13.5));
#1431=CARTESIAN_POINT('',(10.2202810904273,28.4998238558921,0.));
#1432=CARTESIAN_POINT('',(10.2202810904273,28.4998238558921,13.5));
#1433=CARTESIAN_POINT('',(10.2202810904273,28.4998238558921,0.));
#1434=CARTESIAN_POINT('',(10.2202810904273,-29.0001761441079,14.));
#1435=CARTESIAN_POINT('',(10.2202810904273,-28.5001761441079,0.));
#1436=CARTESIAN_POINT('',(10.2202810904273,-29.0001761441079,0.));
#1437=CARTESIAN_POINT('',(10.2202810904273,-28.5001761441079,13.5));
#1438=CARTESIAN_POINT('',(10.2202810904274,-28.4001761441079,13.5));
#1439=CARTESIAN_POINT('',(10.2202810904274,-24.9501761441079,-2.));
#1440=CARTESIAN_POINT('',(10.2202810904274,-24.9501761441079,-2.));
#1441=CARTESIAN_POINT('',(10.2202810904274,-23.9501761441079,-2.));
#1442=CARTESIAN_POINT('',(10.2202810904274,-23.9501761441079,-2.));
#1443=CARTESIAN_POINT('',(10.2202810904274,-23.9501761441079,-2.));
#1444=CARTESIAN_POINT('',(10.2202810904273,-21.2659450250543,3.2999999999996));
#1445=CARTESIAN_POINT('Origin',(10.2202810904273,28.9998238558921,14.));
#1446=CARTESIAN_POINT('Origin',(10.2202810904273,28.3998238558921,13.5));
#1447=CARTESIAN_POINT('',(9.72028109042734,28.3998238558921,13.5));
#1448=CARTESIAN_POINT('Origin',(9.72028109042734,28.3998238558921,13.5));
#1449=CARTESIAN_POINT('',(9.72028109042734,-17.7659450250543,3.2999999999996));
#1450=CARTESIAN_POINT('',(9.72028109042734,-17.7659450250543,-3.98986399474666E-13));
#1451=CARTESIAN_POINT('',(9.72028109042734,-21.2659450250543,3.2999999999996));
#1452=CARTESIAN_POINT('Origin',(9.72028109042734,-19.5159450250543,3.2999999999996));
#1453=CARTESIAN_POINT('',(9.72028109042734,-21.2659450250543,3.2999999999996));
#1454=CARTESIAN_POINT('',(9.72028109042734,-23.9501761441079,-2.));
#1455=CARTESIAN_POINT('',(9.72028109042734,-23.9501761441079,-2.));
#1456=CARTESIAN_POINT('',(9.72028109042734,-24.9501761441079,-2.));
#1457=CARTESIAN_POINT('',(9.72028109042734,-24.9501761441079,-2.));
#1458=CARTESIAN_POINT('',(9.72028109042734,-24.9501761441079,-2.));
#1459=CARTESIAN_POINT('',(9.72028109042734,-28.4001761441079,13.5));
#1460=CARTESIAN_POINT('',(9.72028109042734,24.9498238558921,-2.));
#1461=CARTESIAN_POINT('',(9.72028109042734,24.9498238558921,-2.));
#1462=CARTESIAN_POINT('',(9.72028109042734,23.9498238558921,-2.));
#1463=CARTESIAN_POINT('',(9.72028109042734,23.9498238558921,-2.));
#1464=CARTESIAN_POINT('',(9.72028109042734,23.9498238558921,-2.));
#1465=CARTESIAN_POINT('',(9.72028109042734,20.2340549749457,3.3));
#1466=CARTESIAN_POINT('',(9.72028109042734,20.2340549749457,0.));
#1467=CARTESIAN_POINT('',(9.72028109042734,16.7340549749457,3.3));
#1468=CARTESIAN_POINT('Origin',(9.72028109042734,18.4840549749457,3.3));
#1469=CARTESIAN_POINT('',(9.72028109042734,16.7340549749457,3.3));
#1470=CARTESIAN_POINT('',(9.72028109042734,1.23405497494568,3.2999999999998));
#1471=CARTESIAN_POINT('',(9.72028109042734,1.23405497494567,-1.99493199737333E-13));
#1472=CARTESIAN_POINT('',(9.72028109042734,-2.26594502505433,3.2999999999998));
#1473=CARTESIAN_POINT('Origin',(9.72028109042734,-0.515945025054325,3.2999999999998));
#1474=CARTESIAN_POINT('',(9.72028109042734,-2.26594502505433,3.2999999999998));
#1475=CARTESIAN_POINT('Origin',(10.2202810904274,-28.4001761441079,13.5));
#1476=CARTESIAN_POINT('Origin',(-9.67971890957269,28.4998238558921,13.5));
#1477=CARTESIAN_POINT('',(-9.67971890957269,28.4998238558921,0.));
#1478=CARTESIAN_POINT('Origin',(10.2202810904273,28.9998238558921,0.));
#1479=CARTESIAN_POINT('Origin',(-9.67971890957267,-28.5001761441079,13.5));
#1480=CARTESIAN_POINT('',(10.2202810904273,-28.5001761441079,0.));
#1481=CARTESIAN_POINT('Origin',(-9.67971890957269,-29.0001761441079,0.));
#1482=CARTESIAN_POINT('Origin',(-0.279718909572644,18.4840549749457,3.3));
#1483=CARTESIAN_POINT('',(9.72028109042734,20.2340549749457,3.3));
#1484=CARTESIAN_POINT('',(9.72028109042734,16.7340549749457,3.3));
#1485=CARTESIAN_POINT('Origin',(-0.279718909572644,20.2340549749457,-4.28626379701573E-16));
#1486=CARTESIAN_POINT('Origin',(-0.279718909572644,16.7340549749457,0.));
#1487=CARTESIAN_POINT('Origin',(-0.279718909572644,-0.515945025054325,3.2999999999998));
#1488=CARTESIAN_POINT('',(9.72028109042734,1.23405497494568,3.2999999999998));
#1489=CARTESIAN_POINT('',(9.72028109042734,-2.26594502505433,3.2999999999998));
#1490=CARTESIAN_POINT('Origin',(-0.279718909572644,1.23405497494567,-1.99443177962936E-13));
#1491=CARTESIAN_POINT('Origin',(-0.279718909572644,-2.26594502505432,-1.99014551583235E-13));
#1492=CARTESIAN_POINT('Origin',(-0.279718909572644,-19.5159450250543,3.2999999999996));
#1493=CARTESIAN_POINT('',(9.72028109042734,-17.7659450250543,3.2999999999996));
#1494=CARTESIAN_POINT('',(9.72028109042734,-21.2659450250543,3.2999999999996));
#1495=CARTESIAN_POINT('Origin',(-0.279718909572644,-17.7659450250543,-3.98457729546171E-13));
#1496=CARTESIAN_POINT('Origin',(-0.279718909572644,-21.2659450250543,-3.9802910316647E-13));
#1497=CARTESIAN_POINT('Origin',(10.2202810904274,24.9498238558921,-2.));
#1498=CARTESIAN_POINT('',(9.72028109042734,24.9498238558921,-2.));
#1499=CARTESIAN_POINT('Origin',(10.2202810904274,23.9498238558921,-2.));
#1500=CARTESIAN_POINT('',(10.2202810904274,23.9498238558921,-2.));
#1501=CARTESIAN_POINT('Origin',(9.72028109042734,24.9498238558921,-2.));
#1502=CARTESIAN_POINT('Origin',(-9.17971890957267,24.9498238558921,-2.));
#1503=CARTESIAN_POINT('',(-9.67971890957269,24.9498238558921,-2.));
#1504=CARTESIAN_POINT('Origin',(-9.17971890957267,23.9498238558921,-2.));
#1505=CARTESIAN_POINT('',(-9.17971890957267,23.9498238558921,-2.));
#1506=CARTESIAN_POINT('Origin',(-9.67971890957269,24.9498238558921,-2.));
#1507=CARTESIAN_POINT('Origin',(10.2202810904274,-24.9501761441079,-2.));
#1508=CARTESIAN_POINT('',(10.2202810904274,-24.9501761441079,-2.));
#1509=CARTESIAN_POINT('Origin',(10.2202810904274,-23.9501761441079,-2.));
#1510=CARTESIAN_POINT('',(9.72028109042734,-23.9501761441079,-2.));
#1511=CARTESIAN_POINT('Origin',(10.2202810904274,-23.9501761441079,-2.));
#1512=CARTESIAN_POINT('Origin',(-9.17971890957267,-24.9501761441079,-2.));
#1513=CARTESIAN_POINT('',(-9.17971890957267,-24.9501761441079,-2.));
#1514=CARTESIAN_POINT('Origin',(-9.17971890957267,-23.9501761441079,-2.));
#1515=CARTESIAN_POINT('',(-9.67971890957269,-23.9501761441079,-2.));
#1516=CARTESIAN_POINT('Origin',(-9.17971890957267,-23.9501761441079,-2.));
#1517=CARTESIAN_POINT('polyline point',(91.7422810904273,-26.9131761441079,
0.));
#1518=CARTESIAN_POINT('polyline point',(111.642281090427,-26.9131761441079,
0.));
#1519=UNCERTAINTY_MEASURE_WITH_UNIT(LENGTH_MEASURE(0.01),#1523,
'DISTANCE_ACCURACY_VALUE',
'Maximum model space distance between geometric entities at asserted c
onnectivities');
#1520=UNCERTAINTY_MEASURE_WITH_UNIT(LENGTH_MEASURE(0.01),#1523,
'DISTANCE_ACCURACY_VALUE',
'Maximum model space distance between geometric entities at asserted c
onnectivities');
#1521=(
GEOMETRIC_REPRESENTATION_CONTEXT(3)
GLOBAL_UNCERTAINTY_ASSIGNED_CONTEXT((#1519))
GLOBAL_UNIT_ASSIGNED_CONTEXT((#1523,#1525,#1526))
REPRESENTATION_CONTEXT('','3D')
);
#1522=(
GEOMETRIC_REPRESENTATION_CONTEXT(3)
GLOBAL_UNCERTAINTY_ASSIGNED_CONTEXT((#1520))
GLOBAL_UNIT_ASSIGNED_CONTEXT((#1523,#1525,#1526))
REPRESENTATION_CONTEXT('','3D')
);
#1523=(
LENGTH_UNIT()
NAMED_UNIT(*)
SI_UNIT(.MILLI.,.METRE.)
);
#1524=(
LENGTH_UNIT()
NAMED_UNIT(*)
SI_UNIT(.CENTI.,.METRE.)
);
#1525=(
NAMED_UNIT(*)
PLANE_ANGLE_UNIT()
SI_UNIT($,.RADIAN.)
);
#1526=(
NAMED_UNIT(*)
SI_UNIT($,.STERADIAN.)
SOLID_ANGLE_UNIT()
);
#1527=SHAPE_DEFINITION_REPRESENTATION(#1528,#1529);
#1528=PRODUCT_DEFINITION_SHAPE('',$,#1531);
#1529=SHAPE_REPRESENTATION('',(#965),#1521);
#1530=PRODUCT_DEFINITION_CONTEXT('part definition',#1535,'design');
#1531=PRODUCT_DEFINITION('capot 3 capteurs P phase 2 - recenter',
'capot 3 capteurs P phase 2 - recenter',#1532,#1530);
#1532=PRODUCT_DEFINITION_FORMATION('',$,#1537);
#1533=PRODUCT_RELATED_PRODUCT_CATEGORY(
'capot 3 capteurs P phase 2 - recenter',
'capot 3 capteurs P phase 2 - recenter',(#1537));
#1534=APPLICATION_PROTOCOL_DEFINITION('international standard',
'automotive_design',2009,#1535);
#1535=APPLICATION_CONTEXT(
'Core Data for Automotive Mechanical Design Process');
#1536=PRODUCT_CONTEXT('part definition',#1535,'mechanical');
#1537=PRODUCT('capot 3 capteurs P phase 2 - recenter',
'capot 3 capteurs P phase 2 - recenter',$,(#1536));
#1538=PRESENTATION_STYLE_ASSIGNMENT((#1540));
#1539=PRESENTATION_STYLE_ASSIGNMENT((#1541));
#1540=SURFACE_STYLE_USAGE(.BOTH.,#1544);
#1541=SURFACE_STYLE_USAGE(.BOTH.,#1545);
#1542=SURFACE_STYLE_RENDERING_WITH_PROPERTIES($,#1552,(#1543));
#1543=SURFACE_STYLE_TRANSPARENT(0.);
#1544=SURFACE_SIDE_STYLE('',(#1546,#1542));
#1545=SURFACE_SIDE_STYLE('',(#1547));
#1546=SURFACE_STYLE_FILL_AREA(#1548);
#1547=SURFACE_STYLE_FILL_AREA(#1549);
#1548=FILL_AREA_STYLE('',(#1550));
#1549=FILL_AREA_STYLE('',(#1551));
#1550=FILL_AREA_STYLE_COLOUR('',#1552);
#1551=FILL_AREA_STYLE_COLOUR('',#1553);
#1552=COLOUR_RGB('',0.752941176470588,0.752941176470588,0.752941176470588);
#1553=COLOUR_RGB('',1.,1.,0.);
ENDSEC;
END-ISO-10303-21;
