ISO-10303-21;
HEADER;
/* Generated by software containing ST-Developer
 * from STEP Tools, Inc. (www.steptools.com) 
 */

FILE_DESCRIPTION(
/* description */ (''),
/* implementation_level */ '2;1');

FILE_NAME(
/* name */ 
'C:\\Users\\huesof\\Downloads\\medtronic-pb560-ventilator-system-file-
set-2\\Electronic PCBAs\\10005011_Power Management_PCBA\\3842800_POWER
 SUPPLY BOARD - TANTALUM LESS_PCBA\\PCBA\\3842800F00_3D_Model\\connect
eur 12-30V-recenter.stp',
/* time_stamp */ '2020-04-15T20:36:41-04:00',
/* author */ ('huesof'),
/* organization */ (''),
/* preprocessor_version */ 'ST-DEVELOPER v18',
/* originating_system */ 'Autodesk Inventor 2020',
/* authorisation */ '');

FILE_SCHEMA (('AUTOMOTIVE_DESIGN { 1 0 10303 214 3 1 1 }'));
ENDSEC;

DATA;
#10=MECHANICAL_DESIGN_GEOMETRIC_PRESENTATION_REPRESENTATION('',(#13),#457);
#11=SHAPE_REPRESENTATION_RELATIONSHIP('SRR','None',#464,#12);
#12=ADVANCED_BREP_SHAPE_REPRESENTATION('',(#14),#456);
#13=STYLED_ITEM('',(#473),#14);
#14=MANIFOLD_SOLID_BREP('Solid1',#258);
#15=CYLINDRICAL_SURFACE('',#291,5.5);
#16=CYLINDRICAL_SURFACE('',#294,0.349999999999999);
#17=CYLINDRICAL_SURFACE('',#297,0.349999999999999);
#18=CYLINDRICAL_SURFACE('',#300,0.35);
#19=CYLINDRICAL_SURFACE('',#303,0.35);
#20=FACE_BOUND('',#54,.T.);
#21=FACE_BOUND('',#55,.T.);
#22=FACE_BOUND('',#56,.T.);
#23=FACE_BOUND('',#57,.T.);
#24=FACE_BOUND('',#59,.T.);
#25=CIRCLE('',#279,0.349999999999999);
#26=CIRCLE('',#280,0.35);
#27=CIRCLE('',#281,0.35);
#28=CIRCLE('',#282,0.349999999999999);
#29=CIRCLE('',#284,5.5);
#30=CIRCLE('',#285,5.5);
#31=CIRCLE('',#292,5.5);
#32=CIRCLE('',#295,0.349999999999999);
#33=CIRCLE('',#298,0.349999999999999);
#34=CIRCLE('',#301,0.35);
#35=CIRCLE('',#304,0.35);
#36=FACE_OUTER_BOUND('',#53,.T.);
#37=FACE_OUTER_BOUND('',#58,.T.);
#38=FACE_OUTER_BOUND('',#60,.T.);
#39=FACE_OUTER_BOUND('',#61,.T.);
#40=FACE_OUTER_BOUND('',#62,.T.);
#41=FACE_OUTER_BOUND('',#63,.T.);
#42=FACE_OUTER_BOUND('',#64,.T.);
#43=FACE_OUTER_BOUND('',#65,.T.);
#44=FACE_OUTER_BOUND('',#66,.T.);
#45=FACE_OUTER_BOUND('',#67,.T.);
#46=FACE_OUTER_BOUND('',#68,.T.);
#47=FACE_OUTER_BOUND('',#69,.T.);
#48=FACE_OUTER_BOUND('',#70,.T.);
#49=FACE_OUTER_BOUND('',#71,.T.);
#50=FACE_OUTER_BOUND('',#72,.T.);
#51=FACE_OUTER_BOUND('',#73,.T.);
#52=FACE_OUTER_BOUND('',#74,.T.);
#53=EDGE_LOOP('',(#167,#168,#169,#170));
#54=EDGE_LOOP('',(#171));
#55=EDGE_LOOP('',(#172));
#56=EDGE_LOOP('',(#173));
#57=EDGE_LOOP('',(#174));
#58=EDGE_LOOP('',(#175,#176,#177,#178));
#59=EDGE_LOOP('',(#179,#180));
#60=EDGE_LOOP('',(#181,#182,#183,#184));
#61=EDGE_LOOP('',(#185,#186,#187,#188,#189));
#62=EDGE_LOOP('',(#190,#191,#192,#193,#194));
#63=EDGE_LOOP('',(#195,#196,#197,#198));
#64=EDGE_LOOP('',(#199,#200,#201,#202));
#65=EDGE_LOOP('',(#203,#204,#205,#206,#207));
#66=EDGE_LOOP('',(#208));
#67=EDGE_LOOP('',(#209,#210,#211,#212));
#68=EDGE_LOOP('',(#213));
#69=EDGE_LOOP('',(#214,#215,#216,#217));
#70=EDGE_LOOP('',(#218));
#71=EDGE_LOOP('',(#219,#220,#221,#222));
#72=EDGE_LOOP('',(#223));
#73=EDGE_LOOP('',(#224,#225,#226,#227));
#74=EDGE_LOOP('',(#228));
#75=LINE('',#388,#95);
#76=LINE('',#390,#96);
#77=LINE('',#392,#97);
#78=LINE('',#393,#98);
#79=LINE('',#404,#99);
#80=LINE('',#406,#100);
#81=LINE('',#407,#101);
#82=LINE('',#414,#102);
#83=LINE('',#416,#103);
#84=LINE('',#417,#104);
#85=LINE('',#420,#105);
#86=LINE('',#421,#106);
#87=LINE('',#424,#107);
#88=LINE('',#425,#108);
#89=LINE('',#427,#109);
#90=LINE('',#431,#110);
#91=LINE('',#436,#111);
#92=LINE('',#441,#112);
#93=LINE('',#446,#113);
#94=LINE('',#451,#114);
#95=VECTOR('',#310,12.6);
#96=VECTOR('',#311,13.2);
#97=VECTOR('',#312,12.6);
#98=VECTOR('',#313,13.2);
#99=VECTOR('',#324,14.);
#100=VECTOR('',#325,12.6);
#101=VECTOR('',#326,14.);
#102=VECTOR('',#333,7.99999999999998);
#103=VECTOR('',#334,12.6);
#104=VECTOR('',#335,7.99999999999998);
#105=VECTOR('',#338,7.2);
#106=VECTOR('',#339,8.48528137423859);
#107=VECTOR('',#342,8.48528137423859);
#108=VECTOR('',#343,7.2);
#109=VECTOR('',#346,12.6);
#110=VECTOR('',#351,5.5);
#111=VECTOR('',#358,0.349999999999999);
#112=VECTOR('',#365,0.349999999999999);
#113=VECTOR('',#372,0.35);
#114=VECTOR('',#379,0.35);
#115=VERTEX_POINT('',#386);
#116=VERTEX_POINT('',#387);
#117=VERTEX_POINT('',#389);
#118=VERTEX_POINT('',#391);
#119=VERTEX_POINT('',#394);
#120=VERTEX_POINT('',#396);
#121=VERTEX_POINT('',#398);
#122=VERTEX_POINT('',#400);
#123=VERTEX_POINT('',#403);
#124=VERTEX_POINT('',#405);
#125=VERTEX_POINT('',#408);
#126=VERTEX_POINT('',#409);
#127=VERTEX_POINT('',#413);
#128=VERTEX_POINT('',#415);
#129=VERTEX_POINT('',#419);
#130=VERTEX_POINT('',#423);
#131=VERTEX_POINT('',#430);
#132=VERTEX_POINT('',#435);
#133=VERTEX_POINT('',#440);
#134=VERTEX_POINT('',#445);
#135=VERTEX_POINT('',#450);
#136=EDGE_CURVE('',#115,#116,#75,.T.);
#137=EDGE_CURVE('',#117,#115,#76,.T.);
#138=EDGE_CURVE('',#118,#117,#77,.T.);
#139=EDGE_CURVE('',#116,#118,#78,.T.);
#140=EDGE_CURVE('',#119,#119,#25,.T.);
#141=EDGE_CURVE('',#120,#120,#26,.T.);
#142=EDGE_CURVE('',#121,#121,#27,.T.);
#143=EDGE_CURVE('',#122,#122,#28,.T.);
#144=EDGE_CURVE('',#123,#117,#79,.T.);
#145=EDGE_CURVE('',#124,#123,#80,.T.);
#146=EDGE_CURVE('',#124,#118,#81,.T.);
#147=EDGE_CURVE('',#125,#126,#29,.F.);
#148=EDGE_CURVE('',#126,#125,#30,.F.);
#149=EDGE_CURVE('',#127,#116,#82,.T.);
#150=EDGE_CURVE('',#127,#128,#83,.T.);
#151=EDGE_CURVE('',#128,#115,#84,.T.);
#152=EDGE_CURVE('',#129,#124,#85,.T.);
#153=EDGE_CURVE('',#129,#127,#86,.F.);
#154=EDGE_CURVE('',#128,#130,#87,.F.);
#155=EDGE_CURVE('',#123,#130,#88,.T.);
#156=EDGE_CURVE('',#130,#129,#89,.T.);
#157=EDGE_CURVE('',#126,#131,#90,.T.);
#158=EDGE_CURVE('',#131,#131,#31,.T.);
#159=EDGE_CURVE('',#122,#132,#91,.T.);
#160=EDGE_CURVE('',#132,#132,#32,.T.);
#161=EDGE_CURVE('',#119,#133,#92,.T.);
#162=EDGE_CURVE('',#133,#133,#33,.T.);
#163=EDGE_CURVE('',#121,#134,#93,.T.);
#164=EDGE_CURVE('',#134,#134,#34,.T.);
#165=EDGE_CURVE('',#120,#135,#94,.T.);
#166=EDGE_CURVE('',#135,#135,#35,.T.);
#167=ORIENTED_EDGE('',*,*,#136,.F.);
#168=ORIENTED_EDGE('',*,*,#137,.F.);
#169=ORIENTED_EDGE('',*,*,#138,.F.);
#170=ORIENTED_EDGE('',*,*,#139,.F.);
#171=ORIENTED_EDGE('',*,*,#140,.F.);
#172=ORIENTED_EDGE('',*,*,#141,.F.);
#173=ORIENTED_EDGE('',*,*,#142,.F.);
#174=ORIENTED_EDGE('',*,*,#143,.F.);
#175=ORIENTED_EDGE('',*,*,#138,.T.);
#176=ORIENTED_EDGE('',*,*,#144,.F.);
#177=ORIENTED_EDGE('',*,*,#145,.F.);
#178=ORIENTED_EDGE('',*,*,#146,.T.);
#179=ORIENTED_EDGE('',*,*,#147,.F.);
#180=ORIENTED_EDGE('',*,*,#148,.F.);
#181=ORIENTED_EDGE('',*,*,#149,.F.);
#182=ORIENTED_EDGE('',*,*,#150,.T.);
#183=ORIENTED_EDGE('',*,*,#151,.T.);
#184=ORIENTED_EDGE('',*,*,#136,.T.);
#185=ORIENTED_EDGE('',*,*,#152,.F.);
#186=ORIENTED_EDGE('',*,*,#153,.T.);
#187=ORIENTED_EDGE('',*,*,#149,.T.);
#188=ORIENTED_EDGE('',*,*,#139,.T.);
#189=ORIENTED_EDGE('',*,*,#146,.F.);
#190=ORIENTED_EDGE('',*,*,#151,.F.);
#191=ORIENTED_EDGE('',*,*,#154,.T.);
#192=ORIENTED_EDGE('',*,*,#155,.F.);
#193=ORIENTED_EDGE('',*,*,#144,.T.);
#194=ORIENTED_EDGE('',*,*,#137,.T.);
#195=ORIENTED_EDGE('',*,*,#155,.T.);
#196=ORIENTED_EDGE('',*,*,#156,.T.);
#197=ORIENTED_EDGE('',*,*,#152,.T.);
#198=ORIENTED_EDGE('',*,*,#145,.T.);
#199=ORIENTED_EDGE('',*,*,#154,.F.);
#200=ORIENTED_EDGE('',*,*,#150,.F.);
#201=ORIENTED_EDGE('',*,*,#153,.F.);
#202=ORIENTED_EDGE('',*,*,#156,.F.);
#203=ORIENTED_EDGE('',*,*,#147,.T.);
#204=ORIENTED_EDGE('',*,*,#157,.T.);
#205=ORIENTED_EDGE('',*,*,#158,.F.);
#206=ORIENTED_EDGE('',*,*,#157,.F.);
#207=ORIENTED_EDGE('',*,*,#148,.T.);
#208=ORIENTED_EDGE('',*,*,#158,.T.);
#209=ORIENTED_EDGE('',*,*,#143,.T.);
#210=ORIENTED_EDGE('',*,*,#159,.T.);
#211=ORIENTED_EDGE('',*,*,#160,.F.);
#212=ORIENTED_EDGE('',*,*,#159,.F.);
#213=ORIENTED_EDGE('',*,*,#160,.T.);
#214=ORIENTED_EDGE('',*,*,#140,.T.);
#215=ORIENTED_EDGE('',*,*,#161,.T.);
#216=ORIENTED_EDGE('',*,*,#162,.F.);
#217=ORIENTED_EDGE('',*,*,#161,.F.);
#218=ORIENTED_EDGE('',*,*,#162,.T.);
#219=ORIENTED_EDGE('',*,*,#142,.T.);
#220=ORIENTED_EDGE('',*,*,#163,.T.);
#221=ORIENTED_EDGE('',*,*,#164,.F.);
#222=ORIENTED_EDGE('',*,*,#163,.F.);
#223=ORIENTED_EDGE('',*,*,#164,.T.);
#224=ORIENTED_EDGE('',*,*,#141,.T.);
#225=ORIENTED_EDGE('',*,*,#165,.T.);
#226=ORIENTED_EDGE('',*,*,#166,.F.);
#227=ORIENTED_EDGE('',*,*,#165,.F.);
#228=ORIENTED_EDGE('',*,*,#166,.T.);
#229=PLANE('',#278);
#230=PLANE('',#283);
#231=PLANE('',#286);
#232=PLANE('',#287);
#233=PLANE('',#288);
#234=PLANE('',#289);
#235=PLANE('',#290);
#236=PLANE('',#293);
#237=PLANE('',#296);
#238=PLANE('',#299);
#239=PLANE('',#302);
#240=PLANE('',#305);
#241=ADVANCED_FACE('',(#36,#20,#21,#22,#23),#229,.T.);
#242=ADVANCED_FACE('',(#37,#24),#230,.F.);
#243=ADVANCED_FACE('',(#38),#231,.F.);
#244=ADVANCED_FACE('',(#39),#232,.F.);
#245=ADVANCED_FACE('',(#40),#233,.F.);
#246=ADVANCED_FACE('',(#41),#234,.F.);
#247=ADVANCED_FACE('',(#42),#235,.F.);
#248=ADVANCED_FACE('',(#43),#15,.T.);
#249=ADVANCED_FACE('',(#44),#236,.T.);
#250=ADVANCED_FACE('',(#45),#16,.T.);
#251=ADVANCED_FACE('',(#46),#237,.T.);
#252=ADVANCED_FACE('',(#47),#17,.T.);
#253=ADVANCED_FACE('',(#48),#238,.T.);
#254=ADVANCED_FACE('',(#49),#18,.T.);
#255=ADVANCED_FACE('',(#50),#239,.T.);
#256=ADVANCED_FACE('',(#51),#19,.T.);
#257=ADVANCED_FACE('',(#52),#240,.T.);
#258=CLOSED_SHELL('',(#241,#242,#243,#244,#245,#246,#247,#248,#249,#250,
#251,#252,#253,#254,#255,#256,#257));
#259=DERIVED_UNIT_ELEMENT(#261,1.);
#260=DERIVED_UNIT_ELEMENT(#459,3.);
#261=(
MASS_UNIT()
NAMED_UNIT(*)
SI_UNIT($,.GRAM.)
);
#262=DERIVED_UNIT((#259,#260));
#263=MEASURE_REPRESENTATION_ITEM('density measure',
POSITIVE_RATIO_MEASURE(1.06),#262);
#264=PROPERTY_DEFINITION_REPRESENTATION(#269,#266);
#265=PROPERTY_DEFINITION_REPRESENTATION(#270,#267);
#266=REPRESENTATION('material name',(#268),#456);
#267=REPRESENTATION('density',(#263),#456);
#268=DESCRIPTIVE_REPRESENTATION_ITEM('ABS Plastic','ABS Plastic');
#269=PROPERTY_DEFINITION('material property','material name',#466);
#270=PROPERTY_DEFINITION('material property','density of part',#466);
#271=DATE_TIME_ROLE('creation_date');
#272=APPLIED_DATE_AND_TIME_ASSIGNMENT(#273,#271,(#466));
#273=DATE_AND_TIME(#274,#275);
#274=CALENDAR_DATE(2006,14,2);
#275=LOCAL_TIME(13,31,51.,#276);
#276=COORDINATED_UNIVERSAL_TIME_OFFSET(0,0,.BEHIND.);
#277=AXIS2_PLACEMENT_3D('placement',#384,#306,#307);
#278=AXIS2_PLACEMENT_3D('',#385,#308,#309);
#279=AXIS2_PLACEMENT_3D('',#395,#314,#315);
#280=AXIS2_PLACEMENT_3D('',#397,#316,#317);
#281=AXIS2_PLACEMENT_3D('',#399,#318,#319);
#282=AXIS2_PLACEMENT_3D('',#401,#320,#321);
#283=AXIS2_PLACEMENT_3D('',#402,#322,#323);
#284=AXIS2_PLACEMENT_3D('',#410,#327,#328);
#285=AXIS2_PLACEMENT_3D('',#411,#329,#330);
#286=AXIS2_PLACEMENT_3D('',#412,#331,#332);
#287=AXIS2_PLACEMENT_3D('',#418,#336,#337);
#288=AXIS2_PLACEMENT_3D('',#422,#340,#341);
#289=AXIS2_PLACEMENT_3D('',#426,#344,#345);
#290=AXIS2_PLACEMENT_3D('',#428,#347,#348);
#291=AXIS2_PLACEMENT_3D('',#429,#349,#350);
#292=AXIS2_PLACEMENT_3D('',#432,#352,#353);
#293=AXIS2_PLACEMENT_3D('',#433,#354,#355);
#294=AXIS2_PLACEMENT_3D('',#434,#356,#357);
#295=AXIS2_PLACEMENT_3D('',#437,#359,#360);
#296=AXIS2_PLACEMENT_3D('',#438,#361,#362);
#297=AXIS2_PLACEMENT_3D('',#439,#363,#364);
#298=AXIS2_PLACEMENT_3D('',#442,#366,#367);
#299=AXIS2_PLACEMENT_3D('',#443,#368,#369);
#300=AXIS2_PLACEMENT_3D('',#444,#370,#371);
#301=AXIS2_PLACEMENT_3D('',#447,#373,#374);
#302=AXIS2_PLACEMENT_3D('',#448,#375,#376);
#303=AXIS2_PLACEMENT_3D('',#449,#377,#378);
#304=AXIS2_PLACEMENT_3D('',#452,#380,#381);
#305=AXIS2_PLACEMENT_3D('',#453,#382,#383);
#306=DIRECTION('axis',(0.,0.,1.));
#307=DIRECTION('refdir',(1.,0.,0.));
#308=DIRECTION('center_axis',(-1.37676466347366E-16,2.22044604925031E-16,
-1.));
#309=DIRECTION('ref_axis',(1.37676466347366E-16,1.,2.22044604925031E-16));
#310=DIRECTION('',(-5.86950078289443E-32,-1.,-2.22044604925031E-16));
#311=DIRECTION('',(-1.,1.37676466347366E-16,1.37676466347366E-16));
#312=DIRECTION('',(-3.85494105772623E-17,1.,2.22044604925031E-16));
#313=DIRECTION('',(1.,-1.37676466347366E-16,-1.37676466347366E-16));
#314=DIRECTION('center_axis',(-1.37676466347366E-16,2.22044604925031E-16,
-1.));
#315=DIRECTION('ref_axis',(1.37676466347366E-16,1.,2.22044604925031E-16));
#316=DIRECTION('center_axis',(-1.37676466347366E-16,2.22044604925031E-16,
-1.));
#317=DIRECTION('ref_axis',(1.37676466347366E-16,1.,2.22044604925031E-16));
#318=DIRECTION('center_axis',(-1.37676466347366E-16,2.22044604925031E-16,
-1.));
#319=DIRECTION('ref_axis',(1.37676466347366E-16,1.,2.22044604925031E-16));
#320=DIRECTION('center_axis',(-1.37676466347366E-16,2.22044604925031E-16,
-1.));
#321=DIRECTION('ref_axis',(1.37676466347366E-16,1.,2.22044604925031E-16));
#322=DIRECTION('center_axis',(-1.,2.46519032881566E-32,1.37676466347366E-16));
#323=DIRECTION('ref_axis',(-4.93038065763132E-32,-1.,-2.22044604925031E-16));
#324=DIRECTION('',(-1.37676466347366E-16,2.22044604925031E-16,-1.));
#325=DIRECTION('',(-3.85494105772623E-17,1.,2.22044604925031E-16));
#326=DIRECTION('',(-1.37676466347366E-16,2.22044604925031E-16,-1.));
#327=DIRECTION('center_axis',(-1.,2.46519032881566E-32,1.37676466347366E-16));
#328=DIRECTION('ref_axis',(-6.72324635131544E-32,-1.,-2.22044604925031E-16));
#329=DIRECTION('center_axis',(-1.,2.46519032881566E-32,1.37676466347366E-16));
#330=DIRECTION('ref_axis',(-6.72324635131544E-32,-1.,-2.22044604925031E-16));
#331=DIRECTION('center_axis',(1.,-2.46519032881566E-32,-1.37676466347366E-16));
#332=DIRECTION('ref_axis',(4.93038065763132E-32,1.,2.22044604925031E-16));
#333=DIRECTION('',(-1.37676466347366E-16,2.22044604925031E-16,-1.));
#334=DIRECTION('',(5.86950078289443E-32,1.,2.22044604925031E-16));
#335=DIRECTION('',(-1.37676466347366E-16,2.22044604925031E-16,-1.));
#336=DIRECTION('center_axis',(1.37676466347366E-16,1.,2.22044604925031E-16));
#337=DIRECTION('ref_axis',(-1.,1.37676466347366E-16,1.37676466347366E-16));
#338=DIRECTION('',(1.,-1.37676466347366E-16,-1.37676466347366E-16));
#339=DIRECTION('',(0.707106781186546,-2.54361208832401E-16,0.707106781186549));
#340=DIRECTION('center_axis',(-1.37676466347366E-16,-1.,-2.22044604925031E-16));
#341=DIRECTION('ref_axis',(1.,-1.37676466347366E-16,-1.37676466347366E-16));
#342=DIRECTION('',(-0.707106781186546,2.54361208832401E-16,-0.707106781186549));
#343=DIRECTION('',(-1.,1.37676466347366E-16,1.37676466347366E-16));
#344=DIRECTION('center_axis',(-1.37676466347366E-16,2.22044604925031E-16,
-1.));
#345=DIRECTION('ref_axis',(1.37676466347366E-16,1.,2.22044604925031E-16));
#346=DIRECTION('',(3.85494105772623E-17,-1.,-2.22044604925031E-16));
#347=DIRECTION('center_axis',(0.707106781186549,1.57009245868377E-16,-0.707106781186546));
#348=DIRECTION('ref_axis',(4.93038065763132E-32,1.,2.22044604925031E-16));
#349=DIRECTION('center_axis',(-1.,2.46519032881566E-32,1.37676466347366E-16));
#350=DIRECTION('ref_axis',(-6.72324635131544E-32,-1.,-2.22044604925031E-16));
#351=DIRECTION('',(1.,-2.46519032881566E-32,-1.37676466347366E-16));
#352=DIRECTION('center_axis',(1.,-2.46519032881566E-32,-1.37676466347366E-16));
#353=DIRECTION('ref_axis',(6.72324635131544E-32,1.,2.22044604925031E-16));
#354=DIRECTION('center_axis',(1.,-2.46519032881566E-32,-1.37676466347366E-16));
#355=DIRECTION('ref_axis',(4.93038065763132E-32,1.,2.22044604925031E-16));
#356=DIRECTION('center_axis',(1.37676466347366E-16,-2.22044604925031E-16,
1.));
#357=DIRECTION('ref_axis',(-1.37676466347366E-16,-1.,-2.22044604925031E-16));
#358=DIRECTION('',(-1.37676466347366E-16,2.22044604925031E-16,-1.));
#359=DIRECTION('center_axis',(-1.37676466347366E-16,2.22044604925031E-16,
-1.));
#360=DIRECTION('ref_axis',(1.37676466347366E-16,1.,2.22044604925031E-16));
#361=DIRECTION('center_axis',(-1.37676466347366E-16,2.22044604925031E-16,
-1.));
#362=DIRECTION('ref_axis',(1.37676466347366E-16,1.,2.22044604925031E-16));
#363=DIRECTION('center_axis',(1.37676466347366E-16,-2.22044604925031E-16,
1.));
#364=DIRECTION('ref_axis',(-1.37676466347366E-16,-1.,-2.22044604925031E-16));
#365=DIRECTION('',(-1.37676466347366E-16,2.22044604925031E-16,-1.));
#366=DIRECTION('center_axis',(-1.37676466347366E-16,2.22044604925031E-16,
-1.));
#367=DIRECTION('ref_axis',(1.37676466347366E-16,1.,2.22044604925031E-16));
#368=DIRECTION('center_axis',(-1.37676466347366E-16,2.22044604925031E-16,
-1.));
#369=DIRECTION('ref_axis',(1.37676466347366E-16,1.,2.22044604925031E-16));
#370=DIRECTION('center_axis',(1.37676466347366E-16,-2.22044604925031E-16,
1.));
#371=DIRECTION('ref_axis',(-1.37676466347366E-16,-1.,-2.22044604925031E-16));
#372=DIRECTION('',(-1.37676466347366E-16,2.22044604925031E-16,-1.));
#373=DIRECTION('center_axis',(-1.37676466347366E-16,2.22044604925031E-16,
-1.));
#374=DIRECTION('ref_axis',(1.37676466347366E-16,1.,2.22044604925031E-16));
#375=DIRECTION('center_axis',(-1.37676466347366E-16,2.22044604925031E-16,
-1.));
#376=DIRECTION('ref_axis',(1.37676466347366E-16,1.,2.22044604925031E-16));
#377=DIRECTION('center_axis',(1.37676466347366E-16,-2.22044604925031E-16,
1.));
#378=DIRECTION('ref_axis',(-1.37676466347366E-16,-1.,-2.22044604925031E-16));
#379=DIRECTION('',(-1.37676466347366E-16,2.22044604925031E-16,-1.));
#380=DIRECTION('center_axis',(-1.37676466347366E-16,2.22044604925031E-16,
-1.));
#381=DIRECTION('ref_axis',(1.37676466347366E-16,1.,2.22044604925031E-16));
#382=DIRECTION('center_axis',(-1.37676466347366E-16,2.22044604925031E-16,
-1.));
#383=DIRECTION('ref_axis',(1.37676466347366E-16,1.,2.22044604925031E-16));
#384=CARTESIAN_POINT('',(0.,0.,0.));
#385=CARTESIAN_POINT('Origin',(-6.6,6.3,2.22044604925031E-15));
#386=CARTESIAN_POINT('',(-6.6,6.3,2.22044604925031E-15));
#387=CARTESIAN_POINT('',(-6.6,-6.3,0.));
#388=CARTESIAN_POINT('',(-6.6,6.3,2.22044604925031E-15));
#389=CARTESIAN_POINT('',(6.6,6.3,0.));
#390=CARTESIAN_POINT('',(6.6,6.3,0.));
#391=CARTESIAN_POINT('',(6.6,-6.3,-2.22044604925031E-15));
#392=CARTESIAN_POINT('',(6.6,-6.3,-2.22044604925031E-15));
#393=CARTESIAN_POINT('',(-6.6,-6.3,0.));
#394=CARTESIAN_POINT('',(3.83,4.16,0.));
#395=CARTESIAN_POINT('Origin',(3.83,3.81,0.));
#396=CARTESIAN_POINT('',(-3.79,4.16000000000001,2.22044604925031E-15));
#397=CARTESIAN_POINT('Origin',(-3.79,3.81,2.22044604925031E-15));
#398=CARTESIAN_POINT('',(-3.79,-3.46,0.));
#399=CARTESIAN_POINT('Origin',(-3.79,-3.81,0.));
#400=CARTESIAN_POINT('',(3.83,-3.46,0.));
#401=CARTESIAN_POINT('Origin',(3.83,-3.81,0.));
#402=CARTESIAN_POINT('Origin',(6.6,-6.3,14.));
#403=CARTESIAN_POINT('',(6.6,6.3,14.));
#404=CARTESIAN_POINT('',(6.6,6.3,14.));
#405=CARTESIAN_POINT('',(6.6,-6.3,14.));
#406=CARTESIAN_POINT('',(6.6,-6.3,14.));
#407=CARTESIAN_POINT('',(6.6,-6.3,14.));
#408=CARTESIAN_POINT('',(6.6,-5.5,8.));
#409=CARTESIAN_POINT('',(6.6,5.5,8.));
#410=CARTESIAN_POINT('Origin',(6.6,0.,8.));
#411=CARTESIAN_POINT('Origin',(6.6,0.,8.));
#412=CARTESIAN_POINT('Origin',(-6.6,-6.3,14.));
#413=CARTESIAN_POINT('',(-6.6,-6.3,7.99999999999998));
#414=CARTESIAN_POINT('',(-6.6,-6.3,7.99999999999998));
#415=CARTESIAN_POINT('',(-6.6,6.3,7.99999999999998));
#416=CARTESIAN_POINT('',(-6.6,-6.3,7.99999999999998));
#417=CARTESIAN_POINT('',(-6.6,6.3,7.99999999999998));
#418=CARTESIAN_POINT('Origin',(-6.6,-6.3,14.));
#419=CARTESIAN_POINT('',(-0.599999999999997,-6.3,14.));
#420=CARTESIAN_POINT('',(-0.599999999999997,-6.3,14.));
#421=CARTESIAN_POINT('',(-6.6,-6.3,7.99999999999998));
#422=CARTESIAN_POINT('Origin',(-6.6,6.3,14.));
#423=CARTESIAN_POINT('',(-0.599999999999997,6.3,14.));
#424=CARTESIAN_POINT('',(-0.599999999999997,6.3,14.));
#425=CARTESIAN_POINT('',(6.6,6.3,14.));
#426=CARTESIAN_POINT('Origin',(-6.6,6.3,14.));
#427=CARTESIAN_POINT('',(-0.599999999999996,6.3,14.));
#428=CARTESIAN_POINT('Origin',(-0.599999999999996,6.3,14.));
#429=CARTESIAN_POINT('Origin',(20.2,-1.11022302462516E-15,8.));
#430=CARTESIAN_POINT('',(20.2,5.5,8.));
#431=CARTESIAN_POINT('',(20.2,5.5,8.));
#432=CARTESIAN_POINT('Origin',(20.2,-1.11022302462516E-15,8.));
#433=CARTESIAN_POINT('Origin',(20.2,-1.11022302462516E-15,8.));
#434=CARTESIAN_POINT('Origin',(3.83,-3.81,-3.));
#435=CARTESIAN_POINT('',(3.83,-3.46,-3.));
#436=CARTESIAN_POINT('',(3.83,-3.46,-3.));
#437=CARTESIAN_POINT('Origin',(3.83,-3.81,-3.));
#438=CARTESIAN_POINT('Origin',(3.83,-3.81,-3.));
#439=CARTESIAN_POINT('Origin',(3.83,3.81,-3.));
#440=CARTESIAN_POINT('',(3.83,4.16,-3.));
#441=CARTESIAN_POINT('',(3.83,4.16,-3.));
#442=CARTESIAN_POINT('Origin',(3.83,3.81,-3.));
#443=CARTESIAN_POINT('Origin',(3.83,3.81,-3.));
#444=CARTESIAN_POINT('Origin',(-3.79,-3.81,-3.));
#445=CARTESIAN_POINT('',(-3.79,-3.46,-3.));
#446=CARTESIAN_POINT('',(-3.79,-3.46,-3.));
#447=CARTESIAN_POINT('Origin',(-3.79,-3.81,-3.));
#448=CARTESIAN_POINT('Origin',(-3.79,-3.81,-3.));
#449=CARTESIAN_POINT('Origin',(-3.79,3.81,-3.));
#450=CARTESIAN_POINT('',(-3.79,4.16000000000001,-3.));
#451=CARTESIAN_POINT('',(-3.79,4.16,-3.));
#452=CARTESIAN_POINT('Origin',(-3.79,3.81,-3.));
#453=CARTESIAN_POINT('Origin',(-3.79,3.81,-3.));
#454=UNCERTAINTY_MEASURE_WITH_UNIT(LENGTH_MEASURE(0.01),#458,
'DISTANCE_ACCURACY_VALUE',
'Maximum model space distance between geometric entities at asserted c
onnectivities');
#455=UNCERTAINTY_MEASURE_WITH_UNIT(LENGTH_MEASURE(0.01),#458,
'DISTANCE_ACCURACY_VALUE',
'Maximum model space distance between geometric entities at asserted c
onnectivities');
#456=(
GEOMETRIC_REPRESENTATION_CONTEXT(3)
GLOBAL_UNCERTAINTY_ASSIGNED_CONTEXT((#454))
GLOBAL_UNIT_ASSIGNED_CONTEXT((#458,#460,#461))
REPRESENTATION_CONTEXT('','3D')
);
#457=(
GEOMETRIC_REPRESENTATION_CONTEXT(3)
GLOBAL_UNCERTAINTY_ASSIGNED_CONTEXT((#455))
GLOBAL_UNIT_ASSIGNED_CONTEXT((#458,#460,#461))
REPRESENTATION_CONTEXT('','3D')
);
#458=(
LENGTH_UNIT()
NAMED_UNIT(*)
SI_UNIT(.MILLI.,.METRE.)
);
#459=(
LENGTH_UNIT()
NAMED_UNIT(*)
SI_UNIT(.CENTI.,.METRE.)
);
#460=(
NAMED_UNIT(*)
PLANE_ANGLE_UNIT()
SI_UNIT($,.RADIAN.)
);
#461=(
NAMED_UNIT(*)
SI_UNIT($,.STERADIAN.)
SOLID_ANGLE_UNIT()
);
#462=SHAPE_DEFINITION_REPRESENTATION(#463,#464);
#463=PRODUCT_DEFINITION_SHAPE('',$,#466);
#464=SHAPE_REPRESENTATION('',(#277),#456);
#465=PRODUCT_DEFINITION_CONTEXT('part definition',#470,'design');
#466=PRODUCT_DEFINITION('connecteur 12-30V-recenter',
'connecteur 12-30V-recenter',#467,#465);
#467=PRODUCT_DEFINITION_FORMATION('',$,#472);
#468=PRODUCT_RELATED_PRODUCT_CATEGORY('connecteur 12-30V-recenter',
'connecteur 12-30V-recenter',(#472));
#469=APPLICATION_PROTOCOL_DEFINITION('international standard',
'automotive_design',2009,#470);
#470=APPLICATION_CONTEXT(
'Core Data for Automotive Mechanical Design Process');
#471=PRODUCT_CONTEXT('part definition',#470,'mechanical');
#472=PRODUCT('connecteur 12-30V-recenter','connecteur 12-30V-recenter',
$,(#471));
#473=PRESENTATION_STYLE_ASSIGNMENT((#474));
#474=SURFACE_STYLE_USAGE(.BOTH.,#477);
#475=SURFACE_STYLE_RENDERING_WITH_PROPERTIES($,#481,(#476));
#476=SURFACE_STYLE_TRANSPARENT(0.);
#477=SURFACE_SIDE_STYLE('',(#478,#475));
#478=SURFACE_STYLE_FILL_AREA(#479);
#479=FILL_AREA_STYLE('',(#480));
#480=FILL_AREA_STYLE_COLOUR('',#481);
#481=COLOUR_RGB('',0.92156862745098,0.92156862745098,0.92156862745098);
ENDSEC;
END-ISO-10303-21;
