ISO-10303-21;
HEADER;
/* Generated by software containing ST-Developer
 * from STEP Tools, Inc. (www.steptools.com) 
 */

FILE_DESCRIPTION(
/* description */ (''),
/* implementation_level */ '2;1');

FILE_NAME(
/* name */ 
'C:\\Users\\huesof\\Downloads\\medtronic-pb560-ventilator-system-file-
set-2\\Electronic PCBAs\\GR106769_CPU_PCBA\\3D_Model\\GR106769B00\\fer
rite-ard.stp',
/* time_stamp */ '2020-04-19T14:58:38-04:00',
/* author */ ('huesof'),
/* organization */ (''),
/* preprocessor_version */ 'ST-DEVELOPER v18',
/* originating_system */ 'Autodesk Inventor 2020',
/* authorisation */ '');

FILE_SCHEMA (('AUTOMOTIVE_DESIGN { 1 0 10303 214 3 1 1 }'));
ENDSEC;

DATA;
#10=MECHANICAL_DESIGN_GEOMETRIC_PRESENTATION_REPRESENTATION('',(#23,#24),
#827);
#11=ITEM_DEFINED_TRANSFORMATION($,$,#513,#555);
#12=ITEM_DEFINED_TRANSFORMATION($,$,#548,#556);
#13=(
REPRESENTATION_RELATIONSHIP($,$,#844,#843)
REPRESENTATION_RELATIONSHIP_WITH_TRANSFORMATION(#11)
SHAPE_REPRESENTATION_RELATIONSHIP()
);
#14=(
REPRESENTATION_RELATIONSHIP($,$,#845,#843)
REPRESENTATION_RELATIONSHIP_WITH_TRANSFORMATION(#12)
SHAPE_REPRESENTATION_RELATIONSHIP()
);
#15=CONTEXT_DEPENDENT_SHAPE_REPRESENTATION(#13,#841);
#16=CONTEXT_DEPENDENT_SHAPE_REPRESENTATION(#14,#842);
#17=NEXT_ASSEMBLY_USAGE_OCCURRENCE('feritte nappe afficheur:1',
'feritte nappe afficheur:1','feritte nappe afficheur:1',#847,#848,
'feritte nappe afficheur:1');
#18=NEXT_ASSEMBLY_USAGE_OCCURRENCE('double face:1','double face:1',
'double face:1',#847,#849,'double face:1');
#19=SHAPE_REPRESENTATION_RELATIONSHIP('SRR','None',#844,#21);
#20=SHAPE_REPRESENTATION_RELATIONSHIP('SRR','None',#845,#22);
#21=ADVANCED_BREP_SHAPE_REPRESENTATION('',(#25),#825);
#22=ADVANCED_BREP_SHAPE_REPRESENTATION('',(#26),#826);
#23=STYLED_ITEM('',(#476),#25);
#24=STYLED_ITEM('',(#477),#26);
#25=MANIFOLD_SOLID_BREP('Solid1',#451);
#26=MANIFOLD_SOLID_BREP('Solid1',#452);
#27=FACE_BOUND('',#78,.T.);
#28=FACE_BOUND('',#80,.T.);
#29=PLANE('',#517);
#30=PLANE('',#521);
#31=PLANE('',#525);
#32=PLANE('',#529);
#33=PLANE('',#530);
#34=PLANE('',#535);
#35=PLANE('',#541);
#36=PLANE('',#543);
#37=PLANE('',#545);
#38=PLANE('',#547);
#39=PLANE('',#549);
#40=PLANE('',#550);
#41=PLANE('',#551);
#42=PLANE('',#552);
#43=PLANE('',#553);
#44=PLANE('',#554);
#45=FACE_OUTER_BOUND('',#69,.T.);
#46=FACE_OUTER_BOUND('',#70,.T.);
#47=FACE_OUTER_BOUND('',#71,.T.);
#48=FACE_OUTER_BOUND('',#72,.T.);
#49=FACE_OUTER_BOUND('',#73,.T.);
#50=FACE_OUTER_BOUND('',#74,.T.);
#51=FACE_OUTER_BOUND('',#75,.T.);
#52=FACE_OUTER_BOUND('',#76,.T.);
#53=FACE_OUTER_BOUND('',#77,.T.);
#54=FACE_OUTER_BOUND('',#79,.T.);
#55=FACE_OUTER_BOUND('',#81,.T.);
#56=FACE_OUTER_BOUND('',#82,.T.);
#57=FACE_OUTER_BOUND('',#83,.T.);
#58=FACE_OUTER_BOUND('',#84,.T.);
#59=FACE_OUTER_BOUND('',#85,.T.);
#60=FACE_OUTER_BOUND('',#86,.T.);
#61=FACE_OUTER_BOUND('',#87,.T.);
#62=FACE_OUTER_BOUND('',#88,.T.);
#63=FACE_OUTER_BOUND('',#89,.T.);
#64=FACE_OUTER_BOUND('',#90,.T.);
#65=FACE_OUTER_BOUND('',#91,.T.);
#66=FACE_OUTER_BOUND('',#92,.T.);
#67=FACE_OUTER_BOUND('',#93,.T.);
#68=FACE_OUTER_BOUND('',#94,.T.);
#69=EDGE_LOOP('',(#299,#300,#301,#302));
#70=EDGE_LOOP('',(#303,#304,#305,#306));
#71=EDGE_LOOP('',(#307,#308,#309,#310));
#72=EDGE_LOOP('',(#311,#312,#313,#314));
#73=EDGE_LOOP('',(#315,#316,#317,#318));
#74=EDGE_LOOP('',(#319,#320,#321,#322));
#75=EDGE_LOOP('',(#323,#324,#325,#326));
#76=EDGE_LOOP('',(#327,#328,#329,#330));
#77=EDGE_LOOP('',(#331,#332,#333,#334,#335,#336,#337,#338));
#78=EDGE_LOOP('',(#339,#340,#341,#342,#343,#344,#345,#346));
#79=EDGE_LOOP('',(#347,#348,#349,#350,#351,#352,#353,#354));
#80=EDGE_LOOP('',(#355,#356,#357,#358,#359,#360,#361,#362));
#81=EDGE_LOOP('',(#363,#364,#365,#366));
#82=EDGE_LOOP('',(#367,#368,#369,#370));
#83=EDGE_LOOP('',(#371,#372,#373,#374));
#84=EDGE_LOOP('',(#375,#376,#377,#378));
#85=EDGE_LOOP('',(#379,#380,#381,#382));
#86=EDGE_LOOP('',(#383,#384,#385,#386));
#87=EDGE_LOOP('',(#387,#388,#389,#390));
#88=EDGE_LOOP('',(#391,#392,#393,#394));
#89=EDGE_LOOP('',(#395,#396,#397,#398));
#90=EDGE_LOOP('',(#399,#400,#401,#402));
#91=EDGE_LOOP('',(#403,#404,#405,#406));
#92=EDGE_LOOP('',(#407,#408,#409,#410));
#93=EDGE_LOOP('',(#411,#412,#413,#414));
#94=EDGE_LOOP('',(#415,#416,#417,#418));
#95=LINE('',#698,#139);
#96=LINE('',#701,#140);
#97=LINE('',#704,#141);
#98=LINE('',#706,#142);
#99=LINE('',#707,#143);
#100=LINE('',#712,#144);
#101=LINE('',#716,#145);
#102=LINE('',#718,#146);
#103=LINE('',#719,#147);
#104=LINE('',#724,#148);
#105=LINE('',#728,#149);
#106=LINE('',#730,#150);
#107=LINE('',#731,#151);
#108=LINE('',#736,#152);
#109=LINE('',#739,#153);
#110=LINE('',#740,#154);
#111=LINE('',#744,#155);
#112=LINE('',#748,#156);
#113=LINE('',#752,#157);
#114=LINE('',#756,#158);
#115=LINE('',#763,#159);
#116=LINE('',#767,#160);
#117=LINE('',#771,#161);
#118=LINE('',#774,#162);
#119=LINE('',#776,#163);
#120=LINE('',#777,#164);
#121=LINE('',#779,#165);
#122=LINE('',#781,#166);
#123=LINE('',#783,#167);
#124=LINE('',#785,#168);
#125=LINE('',#787,#169);
#126=LINE('',#789,#170);
#127=LINE('',#795,#171);
#128=LINE('',#797,#172);
#129=LINE('',#799,#173);
#130=LINE('',#800,#174);
#131=LINE('',#803,#175);
#132=LINE('',#805,#176);
#133=LINE('',#806,#177);
#134=LINE('',#809,#178);
#135=LINE('',#811,#179);
#136=LINE('',#812,#180);
#137=LINE('',#814,#181);
#138=LINE('',#815,#182);
#139=VECTOR('',#565,8.00000000000001);
#140=VECTOR('',#568,8.00000000000001);
#141=VECTOR('',#571,15.0000000000001);
#142=VECTOR('',#572,8.00000000000001);
#143=VECTOR('',#573,15.0000000000001);
#144=VECTOR('',#578,8.00000000000001);
#145=VECTOR('',#583,1.99999999999998);
#146=VECTOR('',#584,8.00000000000001);
#147=VECTOR('',#585,1.99999999999998);
#148=VECTOR('',#590,8.00000000000001);
#149=VECTOR('',#595,15.0000000000001);
#150=VECTOR('',#596,8.00000000000001);
#151=VECTOR('',#597,15.0000000000001);
#152=VECTOR('',#602,8.00000000000001);
#153=VECTOR('',#607,1.99999999999998);
#154=VECTOR('',#608,1.99999999999998);
#155=VECTOR('',#611,0.199999999999994);
#156=VECTOR('',#614,13.2000000000001);
#157=VECTOR('',#617,0.199999999999994);
#158=VECTOR('',#620,13.2000000000001);
#159=VECTOR('',#627,0.199999999999994);
#160=VECTOR('',#630,13.2000000000001);
#161=VECTOR('',#633,0.199999999999994);
#162=VECTOR('',#636,13.2000000000001);
#163=VECTOR('',#639,8.00000000000001);
#164=VECTOR('',#640,8.00000000000001);
#165=VECTOR('',#643,8.00000000000001);
#166=VECTOR('',#646,8.00000000000001);
#167=VECTOR('',#649,8.00000000000006);
#168=VECTOR('',#652,8.00000000000001);
#169=VECTOR('',#655,8.00000000000001);
#170=VECTOR('',#658,8.00000000000001);
#171=VECTOR('',#665,15.);
#172=VECTOR('',#666,8.00000000000001);
#173=VECTOR('',#667,15.);
#174=VECTOR('',#668,8.00000000000001);
#175=VECTOR('',#671,0.999999999999999);
#176=VECTOR('',#672,8.00000000000001);
#177=VECTOR('',#673,0.999999999999999);
#178=VECTOR('',#676,15.);
#179=VECTOR('',#677,8.00000000000001);
#180=VECTOR('',#678,15.);
#181=VECTOR('',#681,1.);
#182=VECTOR('',#682,1.);
#183=CIRCLE('',#515,1.50000000000001);
#184=CIRCLE('',#516,1.50000000000001);
#185=CIRCLE('',#519,1.50000000000001);
#186=CIRCLE('',#520,1.50000000000001);
#187=CIRCLE('',#523,1.5);
#188=CIRCLE('',#524,1.5);
#189=CIRCLE('',#527,1.50000000000001);
#190=CIRCLE('',#528,1.50000000000001);
#191=CIRCLE('',#531,0.400000000000001);
#192=CIRCLE('',#532,0.400000000000001);
#193=CIRCLE('',#533,0.400000000000001);
#194=CIRCLE('',#534,0.400000000000001);
#195=CIRCLE('',#536,0.400000000000001);
#196=CIRCLE('',#537,0.400000000000001);
#197=CIRCLE('',#538,0.400000000000001);
#198=CIRCLE('',#539,0.400000000000001);
#199=VERTEX_POINT('',#694);
#200=VERTEX_POINT('',#695);
#201=VERTEX_POINT('',#697);
#202=VERTEX_POINT('',#699);
#203=VERTEX_POINT('',#703);
#204=VERTEX_POINT('',#705);
#205=VERTEX_POINT('',#709);
#206=VERTEX_POINT('',#711);
#207=VERTEX_POINT('',#715);
#208=VERTEX_POINT('',#717);
#209=VERTEX_POINT('',#721);
#210=VERTEX_POINT('',#723);
#211=VERTEX_POINT('',#727);
#212=VERTEX_POINT('',#729);
#213=VERTEX_POINT('',#733);
#214=VERTEX_POINT('',#735);
#215=VERTEX_POINT('',#742);
#216=VERTEX_POINT('',#743);
#217=VERTEX_POINT('',#745);
#218=VERTEX_POINT('',#747);
#219=VERTEX_POINT('',#749);
#220=VERTEX_POINT('',#751);
#221=VERTEX_POINT('',#753);
#222=VERTEX_POINT('',#755);
#223=VERTEX_POINT('',#759);
#224=VERTEX_POINT('',#760);
#225=VERTEX_POINT('',#762);
#226=VERTEX_POINT('',#764);
#227=VERTEX_POINT('',#766);
#228=VERTEX_POINT('',#768);
#229=VERTEX_POINT('',#770);
#230=VERTEX_POINT('',#772);
#231=VERTEX_POINT('',#793);
#232=VERTEX_POINT('',#794);
#233=VERTEX_POINT('',#796);
#234=VERTEX_POINT('',#798);
#235=VERTEX_POINT('',#802);
#236=VERTEX_POINT('',#804);
#237=VERTEX_POINT('',#808);
#238=VERTEX_POINT('',#810);
#239=EDGE_CURVE('',#199,#200,#183,.T.);
#240=EDGE_CURVE('',#201,#200,#95,.T.);
#241=EDGE_CURVE('',#202,#201,#184,.T.);
#242=EDGE_CURVE('',#202,#199,#96,.T.);
#243=EDGE_CURVE('',#200,#203,#97,.T.);
#244=EDGE_CURVE('',#204,#203,#98,.T.);
#245=EDGE_CURVE('',#201,#204,#99,.T.);
#246=EDGE_CURVE('',#203,#205,#185,.T.);
#247=EDGE_CURVE('',#206,#205,#100,.T.);
#248=EDGE_CURVE('',#204,#206,#186,.T.);
#249=EDGE_CURVE('',#205,#207,#101,.T.);
#250=EDGE_CURVE('',#208,#207,#102,.T.);
#251=EDGE_CURVE('',#206,#208,#103,.T.);
#252=EDGE_CURVE('',#207,#209,#187,.T.);
#253=EDGE_CURVE('',#210,#209,#104,.T.);
#254=EDGE_CURVE('',#208,#210,#188,.T.);
#255=EDGE_CURVE('',#209,#211,#105,.T.);
#256=EDGE_CURVE('',#212,#211,#106,.T.);
#257=EDGE_CURVE('',#210,#212,#107,.T.);
#258=EDGE_CURVE('',#211,#213,#189,.T.);
#259=EDGE_CURVE('',#214,#213,#108,.T.);
#260=EDGE_CURVE('',#212,#214,#190,.T.);
#261=EDGE_CURVE('',#213,#199,#109,.T.);
#262=EDGE_CURVE('',#214,#202,#110,.T.);
#263=EDGE_CURVE('',#215,#216,#111,.T.);
#264=EDGE_CURVE('',#217,#215,#191,.T.);
#265=EDGE_CURVE('',#218,#217,#112,.T.);
#266=EDGE_CURVE('',#219,#218,#192,.T.);
#267=EDGE_CURVE('',#220,#219,#113,.T.);
#268=EDGE_CURVE('',#221,#220,#193,.T.);
#269=EDGE_CURVE('',#222,#221,#114,.T.);
#270=EDGE_CURVE('',#216,#222,#194,.T.);
#271=EDGE_CURVE('',#223,#224,#195,.T.);
#272=EDGE_CURVE('',#224,#225,#115,.T.);
#273=EDGE_CURVE('',#225,#226,#196,.T.);
#274=EDGE_CURVE('',#226,#227,#116,.T.);
#275=EDGE_CURVE('',#227,#228,#197,.T.);
#276=EDGE_CURVE('',#228,#229,#117,.T.);
#277=EDGE_CURVE('',#229,#230,#198,.T.);
#278=EDGE_CURVE('',#230,#223,#118,.T.);
#279=EDGE_CURVE('',#224,#215,#119,.T.);
#280=EDGE_CURVE('',#223,#217,#120,.T.);
#281=EDGE_CURVE('',#230,#218,#121,.T.);
#282=EDGE_CURVE('',#229,#219,#122,.T.);
#283=EDGE_CURVE('',#228,#220,#123,.T.);
#284=EDGE_CURVE('',#227,#221,#124,.T.);
#285=EDGE_CURVE('',#226,#222,#125,.T.);
#286=EDGE_CURVE('',#225,#216,#126,.T.);
#287=EDGE_CURVE('',#231,#232,#127,.T.);
#288=EDGE_CURVE('',#233,#231,#128,.T.);
#289=EDGE_CURVE('',#233,#234,#129,.T.);
#290=EDGE_CURVE('',#234,#232,#130,.T.);
#291=EDGE_CURVE('',#235,#231,#131,.T.);
#292=EDGE_CURVE('',#236,#235,#132,.T.);
#293=EDGE_CURVE('',#236,#233,#133,.T.);
#294=EDGE_CURVE('',#237,#235,#134,.T.);
#295=EDGE_CURVE('',#238,#237,#135,.T.);
#296=EDGE_CURVE('',#238,#236,#136,.T.);
#297=EDGE_CURVE('',#232,#237,#137,.T.);
#298=EDGE_CURVE('',#234,#238,#138,.T.);
#299=ORIENTED_EDGE('',*,*,#239,.T.);
#300=ORIENTED_EDGE('',*,*,#240,.F.);
#301=ORIENTED_EDGE('',*,*,#241,.F.);
#302=ORIENTED_EDGE('',*,*,#242,.T.);
#303=ORIENTED_EDGE('',*,*,#243,.T.);
#304=ORIENTED_EDGE('',*,*,#244,.F.);
#305=ORIENTED_EDGE('',*,*,#245,.F.);
#306=ORIENTED_EDGE('',*,*,#240,.T.);
#307=ORIENTED_EDGE('',*,*,#246,.T.);
#308=ORIENTED_EDGE('',*,*,#247,.F.);
#309=ORIENTED_EDGE('',*,*,#248,.F.);
#310=ORIENTED_EDGE('',*,*,#244,.T.);
#311=ORIENTED_EDGE('',*,*,#249,.T.);
#312=ORIENTED_EDGE('',*,*,#250,.F.);
#313=ORIENTED_EDGE('',*,*,#251,.F.);
#314=ORIENTED_EDGE('',*,*,#247,.T.);
#315=ORIENTED_EDGE('',*,*,#252,.T.);
#316=ORIENTED_EDGE('',*,*,#253,.F.);
#317=ORIENTED_EDGE('',*,*,#254,.F.);
#318=ORIENTED_EDGE('',*,*,#250,.T.);
#319=ORIENTED_EDGE('',*,*,#255,.T.);
#320=ORIENTED_EDGE('',*,*,#256,.F.);
#321=ORIENTED_EDGE('',*,*,#257,.F.);
#322=ORIENTED_EDGE('',*,*,#253,.T.);
#323=ORIENTED_EDGE('',*,*,#258,.T.);
#324=ORIENTED_EDGE('',*,*,#259,.F.);
#325=ORIENTED_EDGE('',*,*,#260,.F.);
#326=ORIENTED_EDGE('',*,*,#256,.T.);
#327=ORIENTED_EDGE('',*,*,#261,.T.);
#328=ORIENTED_EDGE('',*,*,#242,.F.);
#329=ORIENTED_EDGE('',*,*,#262,.F.);
#330=ORIENTED_EDGE('',*,*,#259,.T.);
#331=ORIENTED_EDGE('',*,*,#241,.T.);
#332=ORIENTED_EDGE('',*,*,#245,.T.);
#333=ORIENTED_EDGE('',*,*,#248,.T.);
#334=ORIENTED_EDGE('',*,*,#251,.T.);
#335=ORIENTED_EDGE('',*,*,#254,.T.);
#336=ORIENTED_EDGE('',*,*,#257,.T.);
#337=ORIENTED_EDGE('',*,*,#260,.T.);
#338=ORIENTED_EDGE('',*,*,#262,.T.);
#339=ORIENTED_EDGE('',*,*,#263,.F.);
#340=ORIENTED_EDGE('',*,*,#264,.F.);
#341=ORIENTED_EDGE('',*,*,#265,.F.);
#342=ORIENTED_EDGE('',*,*,#266,.F.);
#343=ORIENTED_EDGE('',*,*,#267,.F.);
#344=ORIENTED_EDGE('',*,*,#268,.F.);
#345=ORIENTED_EDGE('',*,*,#269,.F.);
#346=ORIENTED_EDGE('',*,*,#270,.F.);
#347=ORIENTED_EDGE('',*,*,#239,.F.);
#348=ORIENTED_EDGE('',*,*,#261,.F.);
#349=ORIENTED_EDGE('',*,*,#258,.F.);
#350=ORIENTED_EDGE('',*,*,#255,.F.);
#351=ORIENTED_EDGE('',*,*,#252,.F.);
#352=ORIENTED_EDGE('',*,*,#249,.F.);
#353=ORIENTED_EDGE('',*,*,#246,.F.);
#354=ORIENTED_EDGE('',*,*,#243,.F.);
#355=ORIENTED_EDGE('',*,*,#271,.T.);
#356=ORIENTED_EDGE('',*,*,#272,.T.);
#357=ORIENTED_EDGE('',*,*,#273,.T.);
#358=ORIENTED_EDGE('',*,*,#274,.T.);
#359=ORIENTED_EDGE('',*,*,#275,.T.);
#360=ORIENTED_EDGE('',*,*,#276,.T.);
#361=ORIENTED_EDGE('',*,*,#277,.T.);
#362=ORIENTED_EDGE('',*,*,#278,.T.);
#363=ORIENTED_EDGE('',*,*,#264,.T.);
#364=ORIENTED_EDGE('',*,*,#279,.F.);
#365=ORIENTED_EDGE('',*,*,#271,.F.);
#366=ORIENTED_EDGE('',*,*,#280,.T.);
#367=ORIENTED_EDGE('',*,*,#265,.T.);
#368=ORIENTED_EDGE('',*,*,#280,.F.);
#369=ORIENTED_EDGE('',*,*,#278,.F.);
#370=ORIENTED_EDGE('',*,*,#281,.T.);
#371=ORIENTED_EDGE('',*,*,#266,.T.);
#372=ORIENTED_EDGE('',*,*,#281,.F.);
#373=ORIENTED_EDGE('',*,*,#277,.F.);
#374=ORIENTED_EDGE('',*,*,#282,.T.);
#375=ORIENTED_EDGE('',*,*,#267,.T.);
#376=ORIENTED_EDGE('',*,*,#282,.F.);
#377=ORIENTED_EDGE('',*,*,#276,.F.);
#378=ORIENTED_EDGE('',*,*,#283,.T.);
#379=ORIENTED_EDGE('',*,*,#268,.T.);
#380=ORIENTED_EDGE('',*,*,#283,.F.);
#381=ORIENTED_EDGE('',*,*,#275,.F.);
#382=ORIENTED_EDGE('',*,*,#284,.T.);
#383=ORIENTED_EDGE('',*,*,#269,.T.);
#384=ORIENTED_EDGE('',*,*,#284,.F.);
#385=ORIENTED_EDGE('',*,*,#274,.F.);
#386=ORIENTED_EDGE('',*,*,#285,.T.);
#387=ORIENTED_EDGE('',*,*,#270,.T.);
#388=ORIENTED_EDGE('',*,*,#285,.F.);
#389=ORIENTED_EDGE('',*,*,#273,.F.);
#390=ORIENTED_EDGE('',*,*,#286,.T.);
#391=ORIENTED_EDGE('',*,*,#263,.T.);
#392=ORIENTED_EDGE('',*,*,#286,.F.);
#393=ORIENTED_EDGE('',*,*,#272,.F.);
#394=ORIENTED_EDGE('',*,*,#279,.T.);
#395=ORIENTED_EDGE('',*,*,#287,.F.);
#396=ORIENTED_EDGE('',*,*,#288,.F.);
#397=ORIENTED_EDGE('',*,*,#289,.T.);
#398=ORIENTED_EDGE('',*,*,#290,.T.);
#399=ORIENTED_EDGE('',*,*,#291,.F.);
#400=ORIENTED_EDGE('',*,*,#292,.F.);
#401=ORIENTED_EDGE('',*,*,#293,.T.);
#402=ORIENTED_EDGE('',*,*,#288,.T.);
#403=ORIENTED_EDGE('',*,*,#294,.F.);
#404=ORIENTED_EDGE('',*,*,#295,.F.);
#405=ORIENTED_EDGE('',*,*,#296,.T.);
#406=ORIENTED_EDGE('',*,*,#292,.T.);
#407=ORIENTED_EDGE('',*,*,#297,.F.);
#408=ORIENTED_EDGE('',*,*,#290,.F.);
#409=ORIENTED_EDGE('',*,*,#298,.T.);
#410=ORIENTED_EDGE('',*,*,#295,.T.);
#411=ORIENTED_EDGE('',*,*,#289,.F.);
#412=ORIENTED_EDGE('',*,*,#293,.F.);
#413=ORIENTED_EDGE('',*,*,#296,.F.);
#414=ORIENTED_EDGE('',*,*,#298,.F.);
#415=ORIENTED_EDGE('',*,*,#287,.T.);
#416=ORIENTED_EDGE('',*,*,#297,.T.);
#417=ORIENTED_EDGE('',*,*,#294,.T.);
#418=ORIENTED_EDGE('',*,*,#291,.T.);
#419=CYLINDRICAL_SURFACE('',#514,1.50000000000001);
#420=CYLINDRICAL_SURFACE('',#518,1.50000000000001);
#421=CYLINDRICAL_SURFACE('',#522,1.5);
#422=CYLINDRICAL_SURFACE('',#526,1.50000000000001);
#423=CYLINDRICAL_SURFACE('',#540,0.400000000000001);
#424=CYLINDRICAL_SURFACE('',#542,0.400000000000001);
#425=CYLINDRICAL_SURFACE('',#544,0.400000000000001);
#426=CYLINDRICAL_SURFACE('',#546,0.400000000000001);
#427=ADVANCED_FACE('',(#45),#419,.T.);
#428=ADVANCED_FACE('',(#46),#29,.F.);
#429=ADVANCED_FACE('',(#47),#420,.T.);
#430=ADVANCED_FACE('',(#48),#30,.F.);
#431=ADVANCED_FACE('',(#49),#421,.T.);
#432=ADVANCED_FACE('',(#50),#31,.F.);
#433=ADVANCED_FACE('',(#51),#422,.T.);
#434=ADVANCED_FACE('',(#52),#32,.F.);
#435=ADVANCED_FACE('',(#53,#27),#33,.F.);
#436=ADVANCED_FACE('',(#54,#28),#34,.T.);
#437=ADVANCED_FACE('',(#55),#423,.F.);
#438=ADVANCED_FACE('',(#56),#35,.F.);
#439=ADVANCED_FACE('',(#57),#424,.F.);
#440=ADVANCED_FACE('',(#58),#36,.F.);
#441=ADVANCED_FACE('',(#59),#425,.F.);
#442=ADVANCED_FACE('',(#60),#37,.F.);
#443=ADVANCED_FACE('',(#61),#426,.F.);
#444=ADVANCED_FACE('',(#62),#38,.F.);
#445=ADVANCED_FACE('',(#63),#39,.T.);
#446=ADVANCED_FACE('',(#64),#40,.T.);
#447=ADVANCED_FACE('',(#65),#41,.T.);
#448=ADVANCED_FACE('',(#66),#42,.T.);
#449=ADVANCED_FACE('',(#67),#43,.F.);
#450=ADVANCED_FACE('',(#68),#44,.T.);
#451=CLOSED_SHELL('',(#427,#428,#429,#430,#431,#432,#433,#434,#435,#436,
#437,#438,#439,#440,#441,#442,#443,#444));
#452=CLOSED_SHELL('',(#445,#446,#447,#448,#449,#450));
#453=DERIVED_UNIT_ELEMENT(#457,1.);
#454=DERIVED_UNIT_ELEMENT(#831,3.);
#455=DERIVED_UNIT_ELEMENT(#457,1.);
#456=DERIVED_UNIT_ELEMENT(#831,3.);
#457=(
MASS_UNIT()
NAMED_UNIT(*)
SI_UNIT($,.GRAM.)
);
#458=DERIVED_UNIT((#453,#454));
#459=DERIVED_UNIT((#455,#456));
#460=MEASURE_REPRESENTATION_ITEM('density measure',
POSITIVE_RATIO_MEASURE(1.),#458);
#461=MEASURE_REPRESENTATION_ITEM('density measure',
POSITIVE_RATIO_MEASURE(1.),#459);
#462=PROPERTY_DEFINITION_REPRESENTATION(#472,#466);
#463=PROPERTY_DEFINITION_REPRESENTATION(#473,#467);
#464=PROPERTY_DEFINITION_REPRESENTATION(#474,#468);
#465=PROPERTY_DEFINITION_REPRESENTATION(#475,#469);
#466=REPRESENTATION('material name',(#470),#825);
#467=REPRESENTATION('density',(#460),#825);
#468=REPRESENTATION('material name',(#471),#826);
#469=REPRESENTATION('density',(#461),#826);
#470=DESCRIPTIVE_REPRESENTATION_ITEM('Generic','Generic');
#471=DESCRIPTIVE_REPRESENTATION_ITEM('Generic','Generic');
#472=PROPERTY_DEFINITION('material property','material name',#848);
#473=PROPERTY_DEFINITION('material property','density of part',#848);
#474=PROPERTY_DEFINITION('material property','material name',#849);
#475=PROPERTY_DEFINITION('material property','density of part',#849);
#476=PRESENTATION_STYLE_ASSIGNMENT((#478));
#477=PRESENTATION_STYLE_ASSIGNMENT((#479));
#478=SURFACE_STYLE_USAGE(.BOTH.,#484);
#479=SURFACE_STYLE_USAGE(.BOTH.,#485);
#480=SURFACE_STYLE_RENDERING_WITH_PROPERTIES($,#492,(#482));
#481=SURFACE_STYLE_RENDERING_WITH_PROPERTIES($,#493,(#483));
#482=SURFACE_STYLE_TRANSPARENT(0.);
#483=SURFACE_STYLE_TRANSPARENT(0.);
#484=SURFACE_SIDE_STYLE('',(#486,#480));
#485=SURFACE_SIDE_STYLE('',(#487,#481));
#486=SURFACE_STYLE_FILL_AREA(#488);
#487=SURFACE_STYLE_FILL_AREA(#489);
#488=FILL_AREA_STYLE('',(#490));
#489=FILL_AREA_STYLE('',(#491));
#490=FILL_AREA_STYLE_COLOUR('',#492);
#491=FILL_AREA_STYLE_COLOUR('',#493);
#492=COLOUR_RGB('',0.752941176470588,0.752941176470588,0.752941176470588);
#493=COLOUR_RGB('',0.752941176470588,0.752941176470588,0.752941176470588);
#494=DATE_TIME_ROLE('creation_date');
#495=DATE_TIME_ROLE('creation_date');
#496=DATE_TIME_ROLE('creation_date');
#497=APPLIED_DATE_AND_TIME_ASSIGNMENT(#500,#494,(#847));
#498=APPLIED_DATE_AND_TIME_ASSIGNMENT(#501,#495,(#848));
#499=APPLIED_DATE_AND_TIME_ASSIGNMENT(#502,#496,(#849));
#500=DATE_AND_TIME(#503,#506);
#501=DATE_AND_TIME(#504,#507);
#502=DATE_AND_TIME(#505,#508);
#503=CALENDAR_DATE(2020,19,4);
#504=CALENDAR_DATE(2007,16,1);
#505=CALENDAR_DATE(2007,16,1);
#506=LOCAL_TIME(18,57,17.,#509);
#507=LOCAL_TIME(8,55,19.,#510);
#508=LOCAL_TIME(9,42,44.,#511);
#509=COORDINATED_UNIVERSAL_TIME_OFFSET(0,0,.BEHIND.);
#510=COORDINATED_UNIVERSAL_TIME_OFFSET(0,0,.BEHIND.);
#511=COORDINATED_UNIVERSAL_TIME_OFFSET(0,0,.BEHIND.);
#512=AXIS2_PLACEMENT_3D('placement',#691,#557,#558);
#513=AXIS2_PLACEMENT_3D('placement',#692,#559,#560);
#514=AXIS2_PLACEMENT_3D('',#693,#561,#562);
#515=AXIS2_PLACEMENT_3D('',#696,#563,#564);
#516=AXIS2_PLACEMENT_3D('',#700,#566,#567);
#517=AXIS2_PLACEMENT_3D('',#702,#569,#570);
#518=AXIS2_PLACEMENT_3D('',#708,#574,#575);
#519=AXIS2_PLACEMENT_3D('',#710,#576,#577);
#520=AXIS2_PLACEMENT_3D('',#713,#579,#580);
#521=AXIS2_PLACEMENT_3D('',#714,#581,#582);
#522=AXIS2_PLACEMENT_3D('',#720,#586,#587);
#523=AXIS2_PLACEMENT_3D('',#722,#588,#589);
#524=AXIS2_PLACEMENT_3D('',#725,#591,#592);
#525=AXIS2_PLACEMENT_3D('',#726,#593,#594);
#526=AXIS2_PLACEMENT_3D('',#732,#598,#599);
#527=AXIS2_PLACEMENT_3D('',#734,#600,#601);
#528=AXIS2_PLACEMENT_3D('',#737,#603,#604);
#529=AXIS2_PLACEMENT_3D('',#738,#605,#606);
#530=AXIS2_PLACEMENT_3D('',#741,#609,#610);
#531=AXIS2_PLACEMENT_3D('',#746,#612,#613);
#532=AXIS2_PLACEMENT_3D('',#750,#615,#616);
#533=AXIS2_PLACEMENT_3D('',#754,#618,#619);
#534=AXIS2_PLACEMENT_3D('',#757,#621,#622);
#535=AXIS2_PLACEMENT_3D('',#758,#623,#624);
#536=AXIS2_PLACEMENT_3D('',#761,#625,#626);
#537=AXIS2_PLACEMENT_3D('',#765,#628,#629);
#538=AXIS2_PLACEMENT_3D('',#769,#631,#632);
#539=AXIS2_PLACEMENT_3D('',#773,#634,#635);
#540=AXIS2_PLACEMENT_3D('',#775,#637,#638);
#541=AXIS2_PLACEMENT_3D('',#778,#641,#642);
#542=AXIS2_PLACEMENT_3D('',#780,#644,#645);
#543=AXIS2_PLACEMENT_3D('',#782,#647,#648);
#544=AXIS2_PLACEMENT_3D('',#784,#650,#651);
#545=AXIS2_PLACEMENT_3D('',#786,#653,#654);
#546=AXIS2_PLACEMENT_3D('',#788,#656,#657);
#547=AXIS2_PLACEMENT_3D('',#790,#659,#660);
#548=AXIS2_PLACEMENT_3D('placement',#791,#661,#662);
#549=AXIS2_PLACEMENT_3D('',#792,#663,#664);
#550=AXIS2_PLACEMENT_3D('',#801,#669,#670);
#551=AXIS2_PLACEMENT_3D('',#807,#674,#675);
#552=AXIS2_PLACEMENT_3D('',#813,#679,#680);
#553=AXIS2_PLACEMENT_3D('',#816,#683,#684);
#554=AXIS2_PLACEMENT_3D('',#817,#685,#686);
#555=AXIS2_PLACEMENT_3D('',#818,#687,#688);
#556=AXIS2_PLACEMENT_3D('',#819,#689,#690);
#557=DIRECTION('axis',(0.,0.,1.));
#558=DIRECTION('refdir',(1.,0.,0.));
#559=DIRECTION('axis',(0.,0.,1.));
#560=DIRECTION('refdir',(1.,0.,0.));
#561=DIRECTION('center_axis',(-3.2230033507073E-17,3.63425051126248E-17,
-1.));
#562=DIRECTION('ref_axis',(-1.,-7.77156117237608E-16,-3.22300335070731E-17));
#563=DIRECTION('center_axis',(3.2230033507073E-17,-3.63425051126248E-17,
1.));
#564=DIRECTION('ref_axis',(-1.,-7.77156117237608E-16,-3.22300335070731E-17));
#565=DIRECTION('',(0.,0.,-1.));
#566=DIRECTION('center_axis',(3.2230033507073E-17,-3.63425051126248E-17,
1.));
#567=DIRECTION('ref_axis',(-1.,-7.77156117237608E-16,-3.22300335070731E-17));
#568=DIRECTION('',(0.,6.93889390390722E-17,-1.));
#569=DIRECTION('center_axis',(-7.7715611723761E-16,-1.,3.63425051126248E-17));
#570=DIRECTION('ref_axis',(0.,-3.63425051126248E-17,-1.));
#571=DIRECTION('',(-1.,-7.40148683083431E-16,-3.22300335070731E-17));
#572=DIRECTION('',(-3.46944695195361E-17,0.,-1.));
#573=DIRECTION('',(-1.,-7.40148683083432E-16,0.));
#574=DIRECTION('center_axis',(-3.2230033507073E-17,3.63425051126248E-17,
-1.));
#575=DIRECTION('ref_axis',(-1.,-7.77156117237608E-16,-3.22300335070731E-17));
#576=DIRECTION('center_axis',(3.2230033507073E-17,-3.63425051126248E-17,
1.));
#577=DIRECTION('ref_axis',(-1.,-7.77156117237608E-16,-3.22300335070731E-17));
#578=DIRECTION('',(-3.2230033507073E-17,6.93889390390722E-17,-1.));
#579=DIRECTION('center_axis',(3.2230033507073E-17,-3.63425051126248E-17,
1.));
#580=DIRECTION('ref_axis',(-1.,-7.77156117237608E-16,-3.22300335070731E-17));
#581=DIRECTION('center_axis',(1.,8.32667268468875E-17,3.22300335070731E-17));
#582=DIRECTION('ref_axis',(3.22300335070731E-17,0.,-1.));
#583=DIRECTION('',(-1.47104550762834E-15,-1.,3.63425051126202E-17));
#584=DIRECTION('',(-3.2230033507073E-17,0.,-1.));
#585=DIRECTION('',(-1.47104550762834E-15,-1.,0.));
#586=DIRECTION('center_axis',(-3.2230033507073E-17,3.63425051126248E-17,
-1.));
#587=DIRECTION('ref_axis',(-1.,-7.77156117237608E-16,-3.22300335070731E-17));
#588=DIRECTION('center_axis',(3.2230033507073E-17,-3.63425051126248E-17,
1.));
#589=DIRECTION('ref_axis',(-1.,-7.77156117237608E-16,-3.22300335070731E-17));
#590=DIRECTION('',(0.,3.63425051126248E-17,-1.));
#591=DIRECTION('center_axis',(3.2230033507073E-17,-3.63425051126248E-17,
1.));
#592=DIRECTION('ref_axis',(-1.,-7.77156117237608E-16,-3.22300335070731E-17));
#593=DIRECTION('center_axis',(7.7715611723761E-16,1.,-3.63425051126248E-17));
#594=DIRECTION('ref_axis',(0.,3.63425051126248E-17,1.));
#595=DIRECTION('',(1.,7.77156117237608E-16,3.22300335070731E-17));
#596=DIRECTION('',(0.,3.63425051126247E-17,-1.));
#597=DIRECTION('',(1.,7.77156117237608E-16,0.));
#598=DIRECTION('center_axis',(-3.2230033507073E-17,3.63425051126248E-17,
-1.));
#599=DIRECTION('ref_axis',(-1.,-7.77156117237608E-16,-3.22300335070731E-17));
#600=DIRECTION('center_axis',(3.2230033507073E-17,-3.63425051126248E-17,
1.));
#601=DIRECTION('ref_axis',(1.,7.77156117237608E-16,3.22300335070731E-17));
#602=DIRECTION('',(0.,3.46944695195361E-17,-1.));
#603=DIRECTION('center_axis',(3.2230033507073E-17,-3.63425051126248E-17,
1.));
#604=DIRECTION('ref_axis',(1.,7.77156117237608E-16,3.22300335070731E-17));
#605=DIRECTION('center_axis',(-1.,-7.77156117237608E-16,-3.22300335070731E-17));
#606=DIRECTION('ref_axis',(-3.22300335070731E-17,0.,1.));
#607=DIRECTION('',(0.,1.,-3.63425051126248E-17));
#608=DIRECTION('',(0.,1.,0.));
#609=DIRECTION('center_axis',(-3.2230033507073E-17,3.63425051126248E-17,
-1.));
#610=DIRECTION('ref_axis',(-1.,0.,3.2230033507073E-17));
#611=DIRECTION('',(0.,-1.,0.));
#612=DIRECTION('center_axis',(3.2230033507073E-17,-3.63425051126248E-17,
1.));
#613=DIRECTION('ref_axis',(1.,7.77156117237608E-16,3.22300335070731E-17));
#614=DIRECTION('',(-1.,-7.99024146510522E-16,0.));
#615=DIRECTION('center_axis',(3.2230033507073E-17,-3.63425051126248E-17,
1.));
#616=DIRECTION('ref_axis',(-1.,-7.77156117237608E-16,-3.22300335070731E-17));
#617=DIRECTION('',(0.,1.,0.));
#618=DIRECTION('center_axis',(3.2230033507073E-17,-3.63425051126248E-17,
1.));
#619=DIRECTION('ref_axis',(1.,7.77156117237608E-16,3.22300335070731E-17));
#620=DIRECTION('',(1.,7.77997195286561E-16,0.));
#621=DIRECTION('center_axis',(3.2230033507073E-17,-3.63425051126248E-17,
1.));
#622=DIRECTION('ref_axis',(1.,7.77156117237608E-16,3.22300335070731E-17));
#623=DIRECTION('center_axis',(-3.2230033507073E-17,3.63425051126248E-17,
-1.));
#624=DIRECTION('ref_axis',(-1.,0.,3.2230033507073E-17));
#625=DIRECTION('center_axis',(3.2230033507073E-17,-3.63425051126248E-17,
1.));
#626=DIRECTION('ref_axis',(1.,7.77156117237608E-16,3.22300335070731E-17));
#627=DIRECTION('',(0.,-1.,3.63425051126248E-17));
#628=DIRECTION('center_axis',(3.2230033507073E-17,-3.63425051126248E-17,
1.));
#629=DIRECTION('ref_axis',(1.,7.77156117237608E-16,3.22300335070731E-17));
#630=DIRECTION('',(1.,7.77997195286561E-16,3.22300335070731E-17));
#631=DIRECTION('center_axis',(3.2230033507073E-17,-3.63425051126248E-17,
1.));
#632=DIRECTION('ref_axis',(1.,7.77156117237608E-16,3.22300335070731E-17));
#633=DIRECTION('',(0.,1.,-3.63425051126248E-17));
#634=DIRECTION('center_axis',(3.2230033507073E-17,-3.63425051126248E-17,
1.));
#635=DIRECTION('ref_axis',(-1.,-7.77156117237608E-16,-3.22300335070731E-17));
#636=DIRECTION('',(-1.,-7.99024146510522E-16,-3.22300335070731E-17));
#637=DIRECTION('center_axis',(3.2230033507073E-17,-3.63425051126248E-17,
1.));
#638=DIRECTION('ref_axis',(1.,7.77156117237608E-16,3.22300335070731E-17));
#639=DIRECTION('',(6.93889390390722E-17,-6.93889390390722E-17,1.));
#640=DIRECTION('',(3.46944695195361E-17,-6.93889390390722E-17,1.));
#641=DIRECTION('center_axis',(7.44301505950171E-16,1.,-3.63425051126248E-17));
#642=DIRECTION('ref_axis',(0.,3.63425051126248E-17,1.));
#643=DIRECTION('',(0.,-6.93889390390722E-17,1.));
#644=DIRECTION('center_axis',(3.2230033507073E-17,-3.63425051126248E-17,
1.));
#645=DIRECTION('ref_axis',(1.,7.77156117237608E-16,3.22300335070731E-17));
#646=DIRECTION('',(0.,-6.93889390390722E-17,1.));
#647=DIRECTION('center_axis',(1.,7.77156117237608E-16,3.22300335070731E-17));
#648=DIRECTION('ref_axis',(3.22300335070731E-17,0.,-1.));
#649=DIRECTION('',(0.,-6.93889390390717E-17,1.));
#650=DIRECTION('center_axis',(3.2230033507073E-17,-3.63425051126248E-17,
1.));
#651=DIRECTION('ref_axis',(1.,7.77156117237608E-16,3.22300335070731E-17));
#652=DIRECTION('',(0.,-6.93889390390722E-17,1.));
#653=DIRECTION('center_axis',(-7.7715611723761E-16,-1.,3.63425051126248E-17));
#654=DIRECTION('ref_axis',(0.,-3.63425051126248E-17,-1.));
#655=DIRECTION('',(6.93889390390722E-17,-6.93889390390722E-17,1.));
#656=DIRECTION('center_axis',(3.2230033507073E-17,-3.63425051126248E-17,
1.));
#657=DIRECTION('ref_axis',(1.,7.77156117237608E-16,3.22300335070731E-17));
#658=DIRECTION('',(6.93889390390722E-17,-6.93889390390722E-17,1.));
#659=DIRECTION('center_axis',(-1.,-7.77156117237608E-16,-3.22300335070731E-17));
#660=DIRECTION('ref_axis',(-3.22300335070731E-17,0.,1.));
#661=DIRECTION('axis',(0.,0.,1.));
#662=DIRECTION('refdir',(1.,0.,0.));
#663=DIRECTION('center_axis',(1.,-2.31296463463575E-16,0.));
#664=DIRECTION('ref_axis',(0.,0.,-1.));
#665=DIRECTION('',(2.22044604925032E-16,1.,0.));
#666=DIRECTION('',(0.,0.,1.));
#667=DIRECTION('',(2.22044604925032E-16,1.,0.));
#668=DIRECTION('',(0.,0.,1.));
#669=DIRECTION('center_axis',(-3.46944695195362E-15,-1.,0.));
#670=DIRECTION('ref_axis',(0.,0.,-1.));
#671=DIRECTION('',(1.,-4.44089209850063E-15,0.));
#672=DIRECTION('',(0.,0.,1.));
#673=DIRECTION('',(1.,-2.22044604925031E-15,0.));
#674=DIRECTION('center_axis',(-1.,0.,0.));
#675=DIRECTION('ref_axis',(0.,0.,1.));
#676=DIRECTION('',(0.,-1.,0.));
#677=DIRECTION('',(0.,0.,1.));
#678=DIRECTION('',(0.,-1.,0.));
#679=DIRECTION('center_axis',(-3.46944695195361E-15,1.,0.));
#680=DIRECTION('ref_axis',(0.,0.,1.));
#681=DIRECTION('',(-1.,-4.44089209850061E-15,0.));
#682=DIRECTION('',(-1.,0.,0.));
#683=DIRECTION('center_axis',(0.,0.,1.));
#684=DIRECTION('ref_axis',(1.,0.,0.));
#685=DIRECTION('center_axis',(0.,0.,1.));
#686=DIRECTION('ref_axis',(1.,0.,0.));
#687=DIRECTION('',(1.,1.25333771139324E-16,6.40973559616377E-33));
#688=DIRECTION('',(-1.25333771139324E-16,1.,2.35922392732846E-16));
#689=DIRECTION('',(-1.,-1.38777878078144E-16,0.));
#690=DIRECTION('',(0.,0.,1.));
#691=CARTESIAN_POINT('',(0.,0.,0.));
#692=CARTESIAN_POINT('',(0.,0.,0.));
#693=CARTESIAN_POINT('Origin',(16.5,3.50000000000001,8.00000000000001));
#694=CARTESIAN_POINT('',(18.0000000000001,3.50000000000001,0.));
#695=CARTESIAN_POINT('',(16.5000000000001,5.00000000000001,0.));
#696=CARTESIAN_POINT('Origin',(16.5000000000001,3.50000000000001,0.));
#697=CARTESIAN_POINT('',(16.5,5.00000000000001,8.00000000000001));
#698=CARTESIAN_POINT('',(16.5,5.00000000000001,8.00000000000001));
#699=CARTESIAN_POINT('',(18.,3.5,8.00000000000001));
#700=CARTESIAN_POINT('Origin',(16.5,3.50000000000001,8.00000000000001));
#701=CARTESIAN_POINT('',(18.,3.5,8.00000000000001));
#702=CARTESIAN_POINT('Origin',(1.50000000000002,5.,8.00000000000001));
#703=CARTESIAN_POINT('',(1.50000000000002,5.,0.));
#704=CARTESIAN_POINT('',(16.5000000000001,5.00000000000001,4.834505026061E-16));
#705=CARTESIAN_POINT('',(1.50000000000002,5.,8.00000000000001));
#706=CARTESIAN_POINT('',(1.50000000000002,5.,8.00000000000001));
#707=CARTESIAN_POINT('',(16.5000000000001,5.00000000000001,8.00000000000001));
#708=CARTESIAN_POINT('Origin',(1.50000000000001,3.5,8.00000000000001));
#709=CARTESIAN_POINT('',(0.,3.49999999999999,0.));
#710=CARTESIAN_POINT('Origin',(1.5,3.5,0.));
#711=CARTESIAN_POINT('',(6.93889390390723E-15,3.49999999999999,8.00000000000001));
#712=CARTESIAN_POINT('',(6.93889390390723E-15,3.49999999999999,8.00000000000001));
#713=CARTESIAN_POINT('Origin',(1.50000000000001,3.5,8.00000000000001));
#714=CARTESIAN_POINT('Origin',(6.93889390390723E-15,1.50000000000001,7.99999999999995));
#715=CARTESIAN_POINT('',(3.46944695195361E-15,1.50000000000001,-5.55111512312578E-14));
#716=CARTESIAN_POINT('',(6.41153796721025E-15,3.49999999999999,-5.55838362414831E-14));
#717=CARTESIAN_POINT('',(6.93889390390723E-15,1.50000000000001,7.99999999999995));
#718=CARTESIAN_POINT('',(6.93889390390723E-15,1.50000000000001,7.99999999999995));
#719=CARTESIAN_POINT('',(9.88098491916387E-15,3.49999999999999,7.99999999999995));
#720=CARTESIAN_POINT('Origin',(1.50000000000001,1.5,7.99999999999995));
#721=CARTESIAN_POINT('',(1.50000000000002,2.16840434497101E-16,0.));
#722=CARTESIAN_POINT('Origin',(1.5,1.5,-5.55111512312578E-14));
#723=CARTESIAN_POINT('',(1.50000000000002,0.,8.00000000000001));
#724=CARTESIAN_POINT('',(1.50000000000002,0.,8.00000000000001));
#725=CARTESIAN_POINT('Origin',(1.50000000000001,1.5,7.99999999999995));
#726=CARTESIAN_POINT('Origin',(1.50000000000002,0.,8.00000000000001));
#727=CARTESIAN_POINT('',(16.5,1.23599047663348E-14,0.));
#728=CARTESIAN_POINT('',(1.50000000000002,2.16840434497101E-16,0.));
#729=CARTESIAN_POINT('',(16.5,1.23599047663348E-14,8.00000000000001));
#730=CARTESIAN_POINT('',(16.5,1.23599047663348E-14,8.00000000000001));
#731=CARTESIAN_POINT('',(1.50000000000002,0.,8.00000000000001));
#732=CARTESIAN_POINT('Origin',(16.5,1.50000000000001,8.00000000000001));
#733=CARTESIAN_POINT('',(18.,1.50000000000003,0.));
#734=CARTESIAN_POINT('Origin',(16.5,1.50000000000001,0.));
#735=CARTESIAN_POINT('',(18.,1.50000000000002,8.00000000000001));
#736=CARTESIAN_POINT('',(18.,1.50000000000002,8.00000000000001));
#737=CARTESIAN_POINT('Origin',(16.5,1.50000000000001,8.00000000000001));
#738=CARTESIAN_POINT('Origin',(18.,1.50000000000002,8.00000000000001));
#739=CARTESIAN_POINT('',(18.,1.50000000000003,0.));
#740=CARTESIAN_POINT('',(18.,1.50000000000002,8.00000000000001));
#741=CARTESIAN_POINT('Origin',(16.5,3.50000000000001,8.00000000000001));
#742=CARTESIAN_POINT('',(2.00000000000001,2.69537572254338,8.00000000000001));
#743=CARTESIAN_POINT('',(2.00000000000001,2.49537572254338,8.00000000000001));
#744=CARTESIAN_POINT('',(2.00000000000001,2.69537572254338,8.00000000000001));
#745=CARTESIAN_POINT('',(2.40000000000001,3.09537572254338,8.00000000000001));
#746=CARTESIAN_POINT('Origin',(2.40000000000001,2.69537572254338,8.00000000000001));
#747=CARTESIAN_POINT('',(15.6,3.09537572254339,8.00000000000001));
#748=CARTESIAN_POINT('',(15.6000000000001,3.09537572254339,8.00000000000001));
#749=CARTESIAN_POINT('',(16.,2.69537572254339,8.00000000000001));
#750=CARTESIAN_POINT('Origin',(15.6000000000001,2.69537572254339,8.00000000000001));
#751=CARTESIAN_POINT('',(16.,2.4953757225434,8.00000000000001));
#752=CARTESIAN_POINT('',(16.,2.4953757225434,8.00000000000001));
#753=CARTESIAN_POINT('',(15.6,2.09537572254339,7.99999999999995));
#754=CARTESIAN_POINT('Origin',(15.6000000000001,2.49537572254339,8.00000000000001));
#755=CARTESIAN_POINT('',(2.40000000000001,2.09537572254338,8.00000000000001));
#756=CARTESIAN_POINT('',(2.40000000000001,2.09537572254338,8.00000000000001));
#757=CARTESIAN_POINT('Origin',(2.40000000000001,2.49537572254338,8.00000000000001));
#758=CARTESIAN_POINT('Origin',(16.5000000000001,3.50000000000001,0.));
#759=CARTESIAN_POINT('',(2.40000000000001,3.09537572254338,0.));
#760=CARTESIAN_POINT('',(2.00000000000001,2.69537572254338,0.));
#761=CARTESIAN_POINT('Origin',(2.40000000000001,2.69537572254338,0.));
#762=CARTESIAN_POINT('',(2.00000000000001,2.49537572254338,0.));
#763=CARTESIAN_POINT('',(2.00000000000001,2.69537572254338,0.));
#764=CARTESIAN_POINT('',(2.40000000000001,2.09537572254338,0.));
#765=CARTESIAN_POINT('Origin',(2.40000000000001,2.49537572254338,0.));
#766=CARTESIAN_POINT('',(15.6,2.09537572254339,-5.55111512312578E-14));
#767=CARTESIAN_POINT('',(2.40000000000001,2.09537572254338,0.));
#768=CARTESIAN_POINT('',(16.0000000000001,2.4953757225434,-5.55111512312578E-14));
#769=CARTESIAN_POINT('Origin',(15.6000000000001,2.49537572254339,-5.55111512312578E-14));
#770=CARTESIAN_POINT('',(16.0000000000001,2.69537572254339,0.));
#771=CARTESIAN_POINT('',(16.0000000000001,2.4953757225434,7.26850102252473E-18));
#772=CARTESIAN_POINT('',(15.6,3.09537572254339,0.));
#773=CARTESIAN_POINT('Origin',(15.6000000000001,2.69537572254339,0.));
#774=CARTESIAN_POINT('',(15.6000000000001,3.09537572254339,4.25436442293368E-16));
#775=CARTESIAN_POINT('Origin',(2.40000000000001,2.69537572254338,0.));
#776=CARTESIAN_POINT('',(2.00000000000001,2.69537572254338,0.));
#777=CARTESIAN_POINT('',(2.40000000000001,3.09537572254338,0.));
#778=CARTESIAN_POINT('Origin',(2.40000000000001,3.09537572254338,0.));
#779=CARTESIAN_POINT('',(15.6,3.09537572254339,0.));
#780=CARTESIAN_POINT('Origin',(15.6000000000001,2.69537572254339,0.));
#781=CARTESIAN_POINT('',(16.0000000000001,2.69537572254339,0.));
#782=CARTESIAN_POINT('Origin',(16.0000000000001,2.69537572254339,0.));
#783=CARTESIAN_POINT('',(16.0000000000001,2.4953757225434,-5.55111512312578E-14));
#784=CARTESIAN_POINT('Origin',(15.6000000000001,2.49537572254339,-5.55111512312578E-14));
#785=CARTESIAN_POINT('',(15.6,2.09537572254339,-5.55111512312578E-14));
#786=CARTESIAN_POINT('Origin',(2.40000000000001,2.09537572254338,0.));
#787=CARTESIAN_POINT('',(2.40000000000001,2.09537572254338,0.));
#788=CARTESIAN_POINT('Origin',(2.40000000000001,2.49537572254338,0.));
#789=CARTESIAN_POINT('',(2.00000000000001,2.49537572254338,0.));
#790=CARTESIAN_POINT('Origin',(2.00000000000001,2.69537572254338,0.));
#791=CARTESIAN_POINT('',(0.,0.,0.));
#792=CARTESIAN_POINT('Origin',(2.5,10.3070500330657,-8.00000000000001));
#793=CARTESIAN_POINT('',(2.5,10.3070500330657,0.));
#794=CARTESIAN_POINT('',(2.5,25.3070500330657,0.));
#795=CARTESIAN_POINT('',(2.5,10.3070500330657,0.));
#796=CARTESIAN_POINT('',(2.5,10.3070500330657,-8.00000000000001));
#797=CARTESIAN_POINT('',(2.5,10.3070500330657,-8.00000000000001));
#798=CARTESIAN_POINT('',(2.5,25.3070500330657,-8.00000000000001));
#799=CARTESIAN_POINT('',(2.5,10.3070500330657,-8.00000000000001));
#800=CARTESIAN_POINT('',(2.5,25.3070500330657,-8.00000000000001));
#801=CARTESIAN_POINT('Origin',(2.5,10.3070500330657,-8.00000000000001));
#802=CARTESIAN_POINT('',(1.5,10.3070500330657,0.));
#803=CARTESIAN_POINT('',(1.5,10.3070500330657,0.));
#804=CARTESIAN_POINT('',(1.5,10.3070500330657,-8.00000000000001));
#805=CARTESIAN_POINT('',(1.5,10.3070500330657,-8.00000000000001));
#806=CARTESIAN_POINT('',(1.5,10.3070500330657,-8.00000000000001));
#807=CARTESIAN_POINT('Origin',(1.5,25.3070500330657,-8.00000000000001));
#808=CARTESIAN_POINT('',(1.5,25.3070500330657,0.));
#809=CARTESIAN_POINT('',(1.5,25.3070500330657,0.));
#810=CARTESIAN_POINT('',(1.5,25.3070500330657,-8.00000000000001));
#811=CARTESIAN_POINT('',(1.5,25.3070500330657,-8.00000000000001));
#812=CARTESIAN_POINT('',(1.5,25.3070500330657,-8.00000000000001));
#813=CARTESIAN_POINT('Origin',(2.5,25.3070500330657,-8.00000000000001));
#814=CARTESIAN_POINT('',(2.5,25.3070500330657,0.));
#815=CARTESIAN_POINT('',(2.5,25.3070500330657,-8.00000000000001));
#816=CARTESIAN_POINT('Origin',(2.5,10.3070500330657,-8.00000000000001));
#817=CARTESIAN_POINT('Origin',(2.5,10.3070500330657,0.));
#818=CARTESIAN_POINT('',(-0.361033051945926,-0.361777759998447,-0.0787401515470036));
#819=CARTESIAN_POINT('',(-0.361033051945926,-0.708512013268749,-0.177165348397398));
#820=UNCERTAINTY_MEASURE_WITH_UNIT(LENGTH_MEASURE(0.000393700787401575),
#829,'DISTANCE_ACCURACY_VALUE',
'Maximum model space distance between geometric entities at asserted c
onnectivities');
#821=UNCERTAINTY_MEASURE_WITH_UNIT(LENGTH_MEASURE(0.01),#830,
'DISTANCE_ACCURACY_VALUE',
'Maximum model space distance between geometric entities at asserted c
onnectivities');
#822=UNCERTAINTY_MEASURE_WITH_UNIT(LENGTH_MEASURE(0.01),#830,
'DISTANCE_ACCURACY_VALUE',
'Maximum model space distance between geometric entities at asserted c
onnectivities');
#823=UNCERTAINTY_MEASURE_WITH_UNIT(LENGTH_MEASURE(0.000393700787401575),
#829,'DISTANCE_ACCURACY_VALUE',
'Maximum model space distance between geometric entities at asserted c
onnectivities');
#824=(
GEOMETRIC_REPRESENTATION_CONTEXT(3)
GLOBAL_UNCERTAINTY_ASSIGNED_CONTEXT((#820))
GLOBAL_UNIT_ASSIGNED_CONTEXT((#829,#833,#834))
REPRESENTATION_CONTEXT('','3D')
);
#825=(
GEOMETRIC_REPRESENTATION_CONTEXT(3)
GLOBAL_UNCERTAINTY_ASSIGNED_CONTEXT((#821))
GLOBAL_UNIT_ASSIGNED_CONTEXT((#830,#833,#834))
REPRESENTATION_CONTEXT('','3D')
);
#826=(
GEOMETRIC_REPRESENTATION_CONTEXT(3)
GLOBAL_UNCERTAINTY_ASSIGNED_CONTEXT((#822))
GLOBAL_UNIT_ASSIGNED_CONTEXT((#830,#833,#834))
REPRESENTATION_CONTEXT('','3D')
);
#827=(
GEOMETRIC_REPRESENTATION_CONTEXT(3)
GLOBAL_UNCERTAINTY_ASSIGNED_CONTEXT((#823))
GLOBAL_UNIT_ASSIGNED_CONTEXT((#829,#833,#834))
REPRESENTATION_CONTEXT('','3D')
);
#828=DIMENSIONAL_EXPONENTS(1.,0.,0.,0.,0.,0.,0.);
#829=(
CONVERSION_BASED_UNIT('inch',#832)
LENGTH_UNIT()
NAMED_UNIT(#828)
);
#830=(
LENGTH_UNIT()
NAMED_UNIT(*)
SI_UNIT(.MILLI.,.METRE.)
);
#831=(
LENGTH_UNIT()
NAMED_UNIT(*)
SI_UNIT(.CENTI.,.METRE.)
);
#832=LENGTH_MEASURE_WITH_UNIT(LENGTH_MEASURE(25.4),#830);
#833=(
NAMED_UNIT(*)
PLANE_ANGLE_UNIT()
SI_UNIT($,.RADIAN.)
);
#834=(
NAMED_UNIT(*)
SI_UNIT($,.STERADIAN.)
SOLID_ANGLE_UNIT()
);
#835=SHAPE_DEFINITION_REPRESENTATION(#838,#843);
#836=SHAPE_DEFINITION_REPRESENTATION(#839,#844);
#837=SHAPE_DEFINITION_REPRESENTATION(#840,#845);
#838=PRODUCT_DEFINITION_SHAPE('',$,#847);
#839=PRODUCT_DEFINITION_SHAPE('',$,#848);
#840=PRODUCT_DEFINITION_SHAPE('',$,#849);
#841=PRODUCT_DEFINITION_SHAPE($,$,#17);
#842=PRODUCT_DEFINITION_SHAPE($,$,#18);
#843=SHAPE_REPRESENTATION('',(#512,#555,#556),#824);
#844=SHAPE_REPRESENTATION('',(#513),#825);
#845=SHAPE_REPRESENTATION('',(#548),#826);
#846=PRODUCT_DEFINITION_CONTEXT('part definition',#857,'design');
#847=PRODUCT_DEFINITION('ferrite-ard','ferrite-ard',#850,#846);
#848=PRODUCT_DEFINITION('feritte nappe afficheur',
'feritte nappe afficheur',#851,#846);
#849=PRODUCT_DEFINITION('double face','double face',#852,#846);
#850=PRODUCT_DEFINITION_FORMATION('',$,#859);
#851=PRODUCT_DEFINITION_FORMATION('',$,#860);
#852=PRODUCT_DEFINITION_FORMATION('',$,#861);
#853=PRODUCT_RELATED_PRODUCT_CATEGORY('ferrite-ard','ferrite-ard',(#859));
#854=PRODUCT_RELATED_PRODUCT_CATEGORY('feritte nappe afficheur',
'feritte nappe afficheur',(#860));
#855=PRODUCT_RELATED_PRODUCT_CATEGORY('double face','double face',(#861));
#856=APPLICATION_PROTOCOL_DEFINITION('international standard',
'automotive_design',2009,#857);
#857=APPLICATION_CONTEXT(
'Core Data for Automotive Mechanical Design Process');
#858=PRODUCT_CONTEXT('part definition',#857,'mechanical');
#859=PRODUCT('ferrite-ard','ferrite-ard',$,(#858));
#860=PRODUCT('feritte nappe afficheur','feritte nappe afficheur',$,(#858));
#861=PRODUCT('double face','double face',$,(#858));
ENDSEC;
END-ISO-10303-21;
