ISO-10303-21;
HEADER;
FILE_DESCRIPTION(('FreeCAD Model'),'2;1');
FILE_NAME(
'/home/huba/pCloudDrive/_Engineering projects/026 - Electronic 
parts/GF1L0C_P06QF00_0000_cp.step','2020-04-16T13:49:24',('kicad StepUp'
    ),('ksu MCAD'),'Open CASCADE STEP processor 7.4','FreeCAD','Unknown'
  );
FILE_SCHEMA(('AUTOMOTIVE_DESIGN { 1 0 10303 214 1 1 1 1 }'));
ENDSEC;
DATA;
#1 = APPLICATION_PROTOCOL_DEFINITION('international standard',
  'automotive_design',2000,#2);
#2 = APPLICATION_CONTEXT(
  'core data for automotive mechanical design processes');
#3 = SHAPE_DEFINITION_REPRESENTATION(#4,#10);
#4 = PRODUCT_DEFINITION_SHAPE('','',#5);
#5 = PRODUCT_DEFINITION('design','',#6,#9);
#6 = PRODUCT_DEFINITION_FORMATION('','',#7);
#7 = PRODUCT('GF1L0C_P06QF00_0000_cp','GF1L0C_P06QF00_0000_cp','',(#8));
#8 = PRODUCT_CONTEXT('',#2,'mechanical');
#9 = PRODUCT_DEFINITION_CONTEXT('part definition',#2,'design');
#10 = SHAPE_REPRESENTATION('',(#11,#15,#280,#540,#964,#1017,#1070,#1123,
    #1176,#1229,#1282,#1335,#1388,#1441),#1494);
#11 = AXIS2_PLACEMENT_3D('',#12,#13,#14);
#12 = CARTESIAN_POINT('',(0.,0.,0.));
#13 = DIRECTION('',(0.,0.,1.));
#14 = DIRECTION('',(1.,0.,-0.));
#15 = MANIFOLD_SOLID_BREP('',#16);
#16 = CLOSED_SHELL('',(#17,#65,#124,#149,#175,#216,#233,#250,#267));
#17 = ADVANCED_FACE('',(#18),#60,.F.);
#18 = FACE_BOUND('',#19,.F.);
#19 = EDGE_LOOP('',(#20,#30,#38,#46,#54));
#20 = ORIENTED_EDGE('',*,*,#21,.T.);
#21 = EDGE_CURVE('',#22,#24,#26,.T.);
#22 = VERTEX_POINT('',#23);
#23 = CARTESIAN_POINT('',(-6.1,-6.3,8.5));
#24 = VERTEX_POINT('',#25);
#25 = CARTESIAN_POINT('',(-1.6,-6.299999999998,13.));
#26 = LINE('',#27,#28);
#27 = CARTESIAN_POINT('',(-2.35,-6.3,12.25));
#28 = VECTOR('',#29,1.);
#29 = DIRECTION('',(0.707106781187,8.E-17,0.707106781187));
#30 = ORIENTED_EDGE('',*,*,#31,.T.);
#31 = EDGE_CURVE('',#24,#32,#34,.T.);
#32 = VERTEX_POINT('',#33);
#33 = CARTESIAN_POINT('',(6.6,-6.299999999998,13.));
#34 = LINE('',#35,#36);
#35 = CARTESIAN_POINT('',(-6.6,-6.299999999998,13.));
#36 = VECTOR('',#37,1.);
#37 = DIRECTION('',(1.,-4.4E-16,2.8E-16));
#38 = ORIENTED_EDGE('',*,*,#39,.T.);
#39 = EDGE_CURVE('',#32,#40,#42,.T.);
#40 = VERTEX_POINT('',#41);
#41 = CARTESIAN_POINT('',(6.6,-6.3,2.E-15));
#42 = LINE('',#43,#44);
#43 = CARTESIAN_POINT('',(6.6,-6.3,13.));
#44 = VECTOR('',#45,1.);
#45 = DIRECTION('',(0.,0.,-1.));
#46 = ORIENTED_EDGE('',*,*,#47,.F.);
#47 = EDGE_CURVE('',#48,#40,#50,.T.);
#48 = VERTEX_POINT('',#49);
#49 = CARTESIAN_POINT('',(-6.1,-6.3,8.E-15));
#50 = LINE('',#51,#52);
#51 = CARTESIAN_POINT('',(-6.6,-6.3,9.7E-16));
#52 = VECTOR('',#53,1.);
#53 = DIRECTION('',(1.,-4.4E-16,2.8E-16));
#54 = ORIENTED_EDGE('',*,*,#55,.F.);
#55 = EDGE_CURVE('',#22,#48,#56,.T.);
#56 = LINE('',#57,#58);
#57 = CARTESIAN_POINT('',(-6.1,-6.3,8.));
#58 = VECTOR('',#59,1.);
#59 = DIRECTION('',(7.8E-16,-3.3E-16,-1.));
#60 = PLANE('',#61);
#61 = AXIS2_PLACEMENT_3D('',#62,#63,#64);
#62 = CARTESIAN_POINT('',(-6.6,-6.3,13.));
#63 = DIRECTION('',(4.4E-16,1.,-2.2E-16));
#64 = DIRECTION('',(4.4E-16,-2.2E-16,-1.));
#65 = ADVANCED_FACE('',(#66),#119,.T.);
#66 = FACE_BOUND('',#67,.T.);
#67 = EDGE_LOOP('',(#68,#69,#78,#87,#95,#104,#112));
#68 = ORIENTED_EDGE('',*,*,#21,.T.);
#69 = ORIENTED_EDGE('',*,*,#70,.T.);
#70 = EDGE_CURVE('',#24,#71,#73,.T.);
#71 = VERTEX_POINT('',#72);
#72 = CARTESIAN_POINT('',(-0.6,0.,14.));
#73 = ELLIPSE('',#74,28.772174926453,20.344999999981);
#74 = AXIS2_PLACEMENT_3D('',#75,#76,#77);
#75 = CARTESIAN_POINT('',(-20.94499999998,7.945E-14,-6.344999999981));
#76 = DIRECTION('',(-0.707106781187,-4.930380657631E-32,0.707106781187)
  );
#77 = DIRECTION('',(-0.707106781187,6.3E-16,-0.707106781187));
#78 = ORIENTED_EDGE('',*,*,#79,.T.);
#79 = EDGE_CURVE('',#71,#80,#82,.T.);
#80 = VERTEX_POINT('',#81);
#81 = CARTESIAN_POINT('',(-1.6,6.299999999999,13.));
#82 = ELLIPSE('',#83,28.772174926453,20.344999999981);
#83 = AXIS2_PLACEMENT_3D('',#84,#85,#86);
#84 = CARTESIAN_POINT('',(-20.94499999998,7.945E-14,-6.344999999981));
#85 = DIRECTION('',(-0.707106781187,-4.930380657631E-32,0.707106781187)
  );
#86 = DIRECTION('',(-0.707106781187,6.3E-16,-0.707106781187));
#87 = ORIENTED_EDGE('',*,*,#88,.T.);
#88 = EDGE_CURVE('',#80,#89,#91,.T.);
#89 = VERTEX_POINT('',#90);
#90 = CARTESIAN_POINT('',(-6.1,6.3,8.5));
#91 = LINE('',#92,#93);
#92 = CARTESIAN_POINT('',(-5.6,6.3,9.));
#93 = VECTOR('',#94,1.);
#94 = DIRECTION('',(-0.707106781187,-8.E-17,-0.707106781187));
#95 = ORIENTED_EDGE('',*,*,#96,.F.);
#96 = EDGE_CURVE('',#97,#89,#99,.T.);
#97 = VERTEX_POINT('',#98);
#98 = CARTESIAN_POINT('',(-6.6,5.8,8.));
#99 = ELLIPSE('',#100,0.707106781187,0.5);
#100 = AXIS2_PLACEMENT_3D('',#101,#102,#103);
#101 = CARTESIAN_POINT('',(-6.1,5.8,8.5));
#102 = DIRECTION('',(0.707106781187,0.,-0.707106781187));
#103 = DIRECTION('',(0.707106781187,4.7E-16,0.707106781187));
#104 = ORIENTED_EDGE('',*,*,#105,.F.);
#105 = EDGE_CURVE('',#106,#97,#108,.T.);
#106 = VERTEX_POINT('',#107);
#107 = CARTESIAN_POINT('',(-6.6,-5.8,8.));
#108 = LINE('',#109,#110);
#109 = CARTESIAN_POINT('',(-6.6,-5.E+03,8.));
#110 = VECTOR('',#111,1.);
#111 = DIRECTION('',(0.,1.,0.));
#112 = ORIENTED_EDGE('',*,*,#113,.F.);
#113 = EDGE_CURVE('',#22,#106,#114,.T.);
#114 = ELLIPSE('',#115,0.707106781187,0.5);
#115 = AXIS2_PLACEMENT_3D('',#116,#117,#118);
#116 = CARTESIAN_POINT('',(-6.1,-5.8,8.5));
#117 = DIRECTION('',(0.707106781187,0.,-0.707106781187));
#118 = DIRECTION('',(-0.707106781187,-4.7E-16,-0.707106781187));
#119 = PLANE('',#120);
#120 = AXIS2_PLACEMENT_3D('',#121,#122,#123);
#121 = CARTESIAN_POINT('',(-0.6,-5.E+03,14.));
#122 = DIRECTION('',(-0.707106781187,0.,0.707106781187));
#123 = DIRECTION('',(-0.707106781187,3.1E-16,-0.707106781187));
#124 = ADVANCED_FACE('',(#125),#144,.T.);
#125 = FACE_BOUND('',#126,.T.);
#126 = EDGE_LOOP('',(#127,#128,#136,#143));
#127 = ORIENTED_EDGE('',*,*,#113,.T.);
#128 = ORIENTED_EDGE('',*,*,#129,.T.);
#129 = EDGE_CURVE('',#106,#130,#132,.T.);
#130 = VERTEX_POINT('',#131);
#131 = CARTESIAN_POINT('',(-6.6,-5.8,3.E-15));
#132 = LINE('',#133,#134);
#133 = CARTESIAN_POINT('',(-6.6,-5.8,8.));
#134 = VECTOR('',#135,1.);
#135 = DIRECTION('',(7.8E-16,-3.3E-16,-1.));
#136 = ORIENTED_EDGE('',*,*,#137,.F.);
#137 = EDGE_CURVE('',#48,#130,#138,.T.);
#138 = CIRCLE('',#139,0.5);
#139 = AXIS2_PLACEMENT_3D('',#140,#141,#142);
#140 = CARTESIAN_POINT('',(-6.1,-5.8,2.66E-15));
#141 = DIRECTION('',(7.8E-16,-3.3E-16,-1.));
#142 = DIRECTION('',(-1.,0.,-7.8E-16));
#143 = ORIENTED_EDGE('',*,*,#55,.F.);
#144 = CYLINDRICAL_SURFACE('',#145,0.5);
#145 = AXIS2_PLACEMENT_3D('',#146,#147,#148);
#146 = CARTESIAN_POINT('',(-6.1,-5.8,8.));
#147 = DIRECTION('',(7.8E-16,-3.3E-16,-1.));
#148 = DIRECTION('',(-6.7E-16,-1.,3.3E-16));
#149 = ADVANCED_FACE('',(#150),#170,.T.);
#150 = FACE_BOUND('',#151,.F.);
#151 = EDGE_LOOP('',(#152,#153,#161,#168,#169));
#152 = ORIENTED_EDGE('',*,*,#79,.T.);
#153 = ORIENTED_EDGE('',*,*,#154,.T.);
#154 = EDGE_CURVE('',#80,#155,#157,.T.);
#155 = VERTEX_POINT('',#156);
#156 = CARTESIAN_POINT('',(6.6,6.299999999999,13.));
#157 = LINE('',#158,#159);
#158 = CARTESIAN_POINT('',(-6.6,6.299999999999,13.));
#159 = VECTOR('',#160,1.);
#160 = DIRECTION('',(1.,-4.4E-16,2.8E-16));
#161 = ORIENTED_EDGE('',*,*,#162,.T.);
#162 = EDGE_CURVE('',#155,#32,#163,.T.);
#163 = CIRCLE('',#164,20.344999999981);
#164 = AXIS2_PLACEMENT_3D('',#165,#166,#167);
#165 = CARTESIAN_POINT('',(6.6,6.78E-14,-6.344999999981));
#166 = DIRECTION('',(1.,0.,0.));
#167 = DIRECTION('',(0.,1.,0.));
#168 = ORIENTED_EDGE('',*,*,#31,.F.);
#169 = ORIENTED_EDGE('',*,*,#70,.T.);
#170 = CYLINDRICAL_SURFACE('',#171,20.344999999981);
#171 = AXIS2_PLACEMENT_3D('',#172,#173,#174);
#172 = CARTESIAN_POINT('',(-6.6,7.232E-14,-6.344999999981));
#173 = DIRECTION('',(-1.,2.2E-16,-4.4E-16));
#174 = DIRECTION('',(2.2E-16,1.,-4.4E-16));
#175 = ADVANCED_FACE('',(#176),#211,.F.);
#176 = FACE_BOUND('',#177,.F.);
#177 = EDGE_LOOP('',(#178,#179,#187,#195,#204,#210));
#178 = ORIENTED_EDGE('',*,*,#47,.T.);
#179 = ORIENTED_EDGE('',*,*,#180,.T.);
#180 = EDGE_CURVE('',#40,#181,#183,.T.);
#181 = VERTEX_POINT('',#182);
#182 = CARTESIAN_POINT('',(6.6,6.3,2.E-15));
#183 = LINE('',#184,#185);
#184 = CARTESIAN_POINT('',(6.6,-6.3,2.E-15));
#185 = VECTOR('',#186,1.);
#186 = DIRECTION('',(0.,1.,0.));
#187 = ORIENTED_EDGE('',*,*,#188,.F.);
#188 = EDGE_CURVE('',#189,#181,#191,.T.);
#189 = VERTEX_POINT('',#190);
#190 = CARTESIAN_POINT('',(-6.1,6.3,-7.E-15));
#191 = LINE('',#192,#193);
#192 = CARTESIAN_POINT('',(-6.6,6.3,-4.63E-15));
#193 = VECTOR('',#194,1.);
#194 = DIRECTION('',(1.,-4.4E-16,2.8E-16));
#195 = ORIENTED_EDGE('',*,*,#196,.F.);
#196 = EDGE_CURVE('',#197,#189,#199,.T.);
#197 = VERTEX_POINT('',#198);
#198 = CARTESIAN_POINT('',(-6.6,5.8,-1.E-15));
#199 = CIRCLE('',#200,0.5);
#200 = AXIS2_PLACEMENT_3D('',#201,#202,#203);
#201 = CARTESIAN_POINT('',(-6.1,5.8,-4.08E-15));
#202 = DIRECTION('',(7.8E-16,-3.3E-16,-1.));
#203 = DIRECTION('',(1.,0.,7.8E-16));
#204 = ORIENTED_EDGE('',*,*,#205,.F.);
#205 = EDGE_CURVE('',#130,#197,#206,.T.);
#206 = LINE('',#207,#208);
#207 = CARTESIAN_POINT('',(-6.6,-6.3,-2.E-15));
#208 = VECTOR('',#209,1.);
#209 = DIRECTION('',(0.,1.,0.));
#210 = ORIENTED_EDGE('',*,*,#137,.F.);
#211 = PLANE('',#212);
#212 = AXIS2_PLACEMENT_3D('',#213,#214,#215);
#213 = CARTESIAN_POINT('',(-6.6,-6.3,9.7E-16));
#214 = DIRECTION('',(-2.8E-16,4.4E-16,1.));
#215 = DIRECTION('',(2.2E-16,1.,-4.4E-16));
#216 = ADVANCED_FACE('',(#217),#228,.T.);
#217 = FACE_BOUND('',#218,.T.);
#218 = EDGE_LOOP('',(#219,#220,#221,#227));
#219 = ORIENTED_EDGE('',*,*,#39,.T.);
#220 = ORIENTED_EDGE('',*,*,#180,.T.);
#221 = ORIENTED_EDGE('',*,*,#222,.T.);
#222 = EDGE_CURVE('',#181,#155,#223,.T.);
#223 = LINE('',#224,#225);
#224 = CARTESIAN_POINT('',(6.6,6.3,2.E-15));
#225 = VECTOR('',#226,1.);
#226 = DIRECTION('',(0.,0.,1.));
#227 = ORIENTED_EDGE('',*,*,#162,.T.);
#228 = PLANE('',#229);
#229 = AXIS2_PLACEMENT_3D('',#230,#231,#232);
#230 = CARTESIAN_POINT('',(6.6,8.41E-15,6.670988235747));
#231 = DIRECTION('',(1.,-2.2E-16,2.2E-16));
#232 = DIRECTION('',(-2.2E-16,0.,1.));
#233 = ADVANCED_FACE('',(#234),#245,.F.);
#234 = FACE_BOUND('',#235,.F.);
#235 = EDGE_LOOP('',(#236,#237,#238,#239));
#236 = ORIENTED_EDGE('',*,*,#105,.F.);
#237 = ORIENTED_EDGE('',*,*,#129,.T.);
#238 = ORIENTED_EDGE('',*,*,#205,.T.);
#239 = ORIENTED_EDGE('',*,*,#240,.T.);
#240 = EDGE_CURVE('',#197,#97,#241,.T.);
#241 = LINE('',#242,#243);
#242 = CARTESIAN_POINT('',(-6.6,5.8,-7.38E-15));
#243 = VECTOR('',#244,1.);
#244 = DIRECTION('',(-7.8E-16,3.3E-16,1.));
#245 = PLANE('',#246);
#246 = AXIS2_PLACEMENT_3D('',#247,#248,#249);
#247 = CARTESIAN_POINT('',(-6.6,1.441E-14,6.670988235747));
#248 = DIRECTION('',(1.,-2.2E-16,2.2E-16));
#249 = DIRECTION('',(-2.2E-16,0.,1.));
#250 = ADVANCED_FACE('',(#251),#262,.T.);
#251 = FACE_BOUND('',#252,.F.);
#252 = EDGE_LOOP('',(#253,#254,#260,#261));
#253 = ORIENTED_EDGE('',*,*,#196,.T.);
#254 = ORIENTED_EDGE('',*,*,#255,.T.);
#255 = EDGE_CURVE('',#189,#89,#256,.T.);
#256 = LINE('',#257,#258);
#257 = CARTESIAN_POINT('',(-6.1,6.3,-7.16E-15));
#258 = VECTOR('',#259,1.);
#259 = DIRECTION('',(-7.8E-16,3.3E-16,1.));
#260 = ORIENTED_EDGE('',*,*,#96,.F.);
#261 = ORIENTED_EDGE('',*,*,#240,.F.);
#262 = CYLINDRICAL_SURFACE('',#263,0.5);
#263 = AXIS2_PLACEMENT_3D('',#264,#265,#266);
#264 = CARTESIAN_POINT('',(-6.1,5.8,-6.99E-15));
#265 = DIRECTION('',(-7.8E-16,3.3E-16,1.));
#266 = DIRECTION('',(-1.,2.2E-16,-7.8E-16));
#267 = ADVANCED_FACE('',(#268),#275,.F.);
#268 = FACE_BOUND('',#269,.F.);
#269 = EDGE_LOOP('',(#270,#271,#272,#273,#274));
#270 = ORIENTED_EDGE('',*,*,#88,.T.);
#271 = ORIENTED_EDGE('',*,*,#255,.F.);
#272 = ORIENTED_EDGE('',*,*,#188,.T.);
#273 = ORIENTED_EDGE('',*,*,#222,.T.);
#274 = ORIENTED_EDGE('',*,*,#154,.F.);
#275 = PLANE('',#276);
#276 = AXIS2_PLACEMENT_3D('',#277,#278,#279);
#277 = CARTESIAN_POINT('',(-6.6,6.3,-4.63E-15));
#278 = DIRECTION('',(-4.4E-16,-1.,2.2E-16));
#279 = DIRECTION('',(-4.4E-16,2.2E-16,1.));
#280 = MANIFOLD_SOLID_BREP('',#281);
#281 = CLOSED_SHELL('',(#282,#315,#359,#379,#421,#453,#494,#511,#528));
#282 = ADVANCED_FACE('',(#283),#310,.T.);
#283 = FACE_BOUND('',#284,.F.);
#284 = EDGE_LOOP('',(#285,#295,#302,#303));
#285 = ORIENTED_EDGE('',*,*,#286,.T.);
#286 = EDGE_CURVE('',#287,#289,#291,.T.);
#287 = VERTEX_POINT('',#288);
#288 = CARTESIAN_POINT('',(6.6,5.5,8.));
#289 = VERTEX_POINT('',#290);
#290 = CARTESIAN_POINT('',(20.,5.5,8.));
#291 = LINE('',#292,#293);
#292 = CARTESIAN_POINT('',(6.6,5.5,8.));
#293 = VECTOR('',#294,1.);
#294 = DIRECTION('',(1.,1.1E-16,-2.2E-16));
#295 = ORIENTED_EDGE('',*,*,#296,.T.);
#296 = EDGE_CURVE('',#289,#289,#297,.T.);
#297 = CIRCLE('',#298,5.5);
#298 = AXIS2_PLACEMENT_3D('',#299,#300,#301);
#299 = CARTESIAN_POINT('',(20.,1.69E-15,8.));
#300 = DIRECTION('',(1.,3.3E-16,-4.E-17));
#301 = DIRECTION('',(-3.3E-16,1.,0.));
#302 = ORIENTED_EDGE('',*,*,#286,.F.);
#303 = ORIENTED_EDGE('',*,*,#304,.F.);
#304 = EDGE_CURVE('',#287,#287,#305,.T.);
#305 = CIRCLE('',#306,5.5);
#306 = AXIS2_PLACEMENT_3D('',#307,#308,#309);
#307 = CARTESIAN_POINT('',(6.6,-1.E-15,8.));
#308 = DIRECTION('',(1.,0.,0.));
#309 = DIRECTION('',(0.,1.,0.));
#310 = CYLINDRICAL_SURFACE('',#311,5.5);
#311 = AXIS2_PLACEMENT_3D('',#312,#313,#314);
#312 = CARTESIAN_POINT('',(6.6,-2.78E-15,8.));
#313 = DIRECTION('',(-1.,-3.3E-16,1.1E-16));
#314 = DIRECTION('',(-3.3E-16,1.,1.1E-16));
#315 = ADVANCED_FACE('',(#316),#354,.T.);
#316 = FACE_BOUND('',#317,.T.);
#317 = EDGE_LOOP('',(#318,#319,#328,#337,#346,#353));
#318 = ORIENTED_EDGE('',*,*,#296,.T.);
#319 = ORIENTED_EDGE('',*,*,#320,.T.);
#320 = EDGE_CURVE('',#289,#321,#323,.T.);
#321 = VERTEX_POINT('',#322);
#322 = CARTESIAN_POINT('',(20.2,5.3,8.));
#323 = CIRCLE('',#324,0.2);
#324 = AXIS2_PLACEMENT_3D('',#325,#326,#327);
#325 = CARTESIAN_POINT('',(20.,5.3,8.));
#326 = DIRECTION('',(-4.E-17,0.,-1.));
#327 = DIRECTION('',(-3.3E-16,1.,1.32E-32));
#328 = ORIENTED_EDGE('',*,*,#329,.F.);
#329 = EDGE_CURVE('',#330,#321,#332,.T.);
#330 = VERTEX_POINT('',#331);
#331 = CARTESIAN_POINT('',(20.2,-1.,13.204805471869));
#332 = CIRCLE('',#333,5.3);
#333 = AXIS2_PLACEMENT_3D('',#334,#335,#336);
#334 = CARTESIAN_POINT('',(20.2,1.75E-15,8.));
#335 = DIRECTION('',(1.,3.3E-16,-4.E-17));
#336 = DIRECTION('',(-3.3E-16,1.,0.));
#337 = ORIENTED_EDGE('',*,*,#338,.F.);
#338 = EDGE_CURVE('',#339,#330,#341,.T.);
#339 = VERTEX_POINT('',#340);
#340 = CARTESIAN_POINT('',(20.2,1.,13.204805471869));
#341 = CIRCLE('',#342,5.3);
#342 = AXIS2_PLACEMENT_3D('',#343,#344,#345);
#343 = CARTESIAN_POINT('',(20.2,1.75E-15,8.));
#344 = DIRECTION('',(1.,3.3E-16,-4.E-17));
#345 = DIRECTION('',(-3.3E-16,1.,0.));
#346 = ORIENTED_EDGE('',*,*,#347,.F.);
#347 = EDGE_CURVE('',#321,#339,#348,.T.);
#348 = CIRCLE('',#349,5.3);
#349 = AXIS2_PLACEMENT_3D('',#350,#351,#352);
#350 = CARTESIAN_POINT('',(20.2,1.75E-15,8.));
#351 = DIRECTION('',(1.,3.3E-16,-4.E-17));
#352 = DIRECTION('',(-3.3E-16,1.,0.));
#353 = ORIENTED_EDGE('',*,*,#320,.F.);
#354 = TOROIDAL_SURFACE('',#355,5.3,0.2);
#355 = AXIS2_PLACEMENT_3D('',#356,#357,#358);
#356 = CARTESIAN_POINT('',(20.,1.69E-15,8.));
#357 = DIRECTION('',(1.,3.3E-16,-4.E-17));
#358 = DIRECTION('',(-3.3E-16,1.,0.));
#359 = ADVANCED_FACE('',(#360,#363),#374,.F.);
#360 = FACE_BOUND('',#361,.F.);
#361 = EDGE_LOOP('',(#362));
#362 = ORIENTED_EDGE('',*,*,#304,.T.);
#363 = FACE_BOUND('',#364,.F.);
#364 = EDGE_LOOP('',(#365));
#365 = ORIENTED_EDGE('',*,*,#366,.F.);
#366 = EDGE_CURVE('',#367,#367,#369,.T.);
#367 = VERTEX_POINT('',#368);
#368 = CARTESIAN_POINT('',(6.6,4.75,8.));
#369 = CIRCLE('',#370,4.75);
#370 = AXIS2_PLACEMENT_3D('',#371,#372,#373);
#371 = CARTESIAN_POINT('',(6.6,-1.E-15,8.));
#372 = DIRECTION('',(1.,0.,0.));
#373 = DIRECTION('',(0.,1.,0.));
#374 = PLANE('',#375);
#375 = AXIS2_PLACEMENT_3D('',#376,#377,#378);
#376 = CARTESIAN_POINT('',(6.6,-9.9E-16,8.));
#377 = DIRECTION('',(1.,0.,1.9E-16));
#378 = DIRECTION('',(-1.9E-16,0.,1.));
#379 = ADVANCED_FACE('',(#380),#416,.T.);
#380 = FACE_BOUND('',#381,.T.);
#381 = EDGE_LOOP('',(#382,#383,#384,#392,#401,#410));
#382 = ORIENTED_EDGE('',*,*,#329,.T.);
#383 = ORIENTED_EDGE('',*,*,#347,.T.);
#384 = ORIENTED_EDGE('',*,*,#385,.T.);
#385 = EDGE_CURVE('',#339,#386,#388,.T.);
#386 = VERTEX_POINT('',#387);
#387 = CARTESIAN_POINT('',(20.2,1.,12.643543905252));
#388 = LINE('',#389,#390);
#389 = CARTESIAN_POINT('',(20.2,1.,13.204805471869));
#390 = VECTOR('',#391,1.);
#391 = DIRECTION('',(0.,0.,-1.));
#392 = ORIENTED_EDGE('',*,*,#393,.F.);
#393 = EDGE_CURVE('',#394,#386,#396,.T.);
#394 = VERTEX_POINT('',#395);
#395 = CARTESIAN_POINT('',(20.2,4.75,8.));
#396 = CIRCLE('',#397,4.75);
#397 = AXIS2_PLACEMENT_3D('',#398,#399,#400);
#398 = CARTESIAN_POINT('',(20.2,1.E-15,8.));
#399 = DIRECTION('',(1.,0.,0.));
#400 = DIRECTION('',(0.,1.,0.));
#401 = ORIENTED_EDGE('',*,*,#402,.F.);
#402 = EDGE_CURVE('',#403,#394,#405,.T.);
#403 = VERTEX_POINT('',#404);
#404 = CARTESIAN_POINT('',(20.2,-1.,12.643543905252));
#405 = CIRCLE('',#406,4.75);
#406 = AXIS2_PLACEMENT_3D('',#407,#408,#409);
#407 = CARTESIAN_POINT('',(20.2,1.E-15,8.));
#408 = DIRECTION('',(1.,0.,0.));
#409 = DIRECTION('',(0.,1.,0.));
#410 = ORIENTED_EDGE('',*,*,#411,.F.);
#411 = EDGE_CURVE('',#330,#403,#412,.T.);
#412 = LINE('',#413,#414);
#413 = CARTESIAN_POINT('',(20.2,-1.,13.204805471869));
#414 = VECTOR('',#415,1.);
#415 = DIRECTION('',(0.,0.,-1.));
#416 = PLANE('',#417);
#417 = AXIS2_PLACEMENT_3D('',#418,#419,#420);
#418 = CARTESIAN_POINT('',(20.2,1.01E-15,8.));
#419 = DIRECTION('',(1.,0.,1.9E-16));
#420 = DIRECTION('',(-1.9E-16,0.,1.));
#421 = ADVANCED_FACE('',(#422),#448,.F.);
#422 = FACE_BOUND('',#423,.F.);
#423 = EDGE_LOOP('',(#424,#432,#441,#447));
#424 = ORIENTED_EDGE('',*,*,#425,.T.);
#425 = EDGE_CURVE('',#339,#426,#428,.T.);
#426 = VERTEX_POINT('',#427);
#427 = CARTESIAN_POINT('',(17.2,1.,13.204805471869));
#428 = LINE('',#429,#430);
#429 = CARTESIAN_POINT('',(20.2,1.,13.204805471869));
#430 = VECTOR('',#431,1.);
#431 = DIRECTION('',(-1.,-1.1E-16,2.2E-16));
#432 = ORIENTED_EDGE('',*,*,#433,.T.);
#433 = EDGE_CURVE('',#426,#434,#436,.T.);
#434 = VERTEX_POINT('',#435);
#435 = CARTESIAN_POINT('',(17.2,-1.,13.204805471869));
#436 = CIRCLE('',#437,5.3);
#437 = AXIS2_PLACEMENT_3D('',#438,#439,#440);
#438 = CARTESIAN_POINT('',(17.2,-5.6E-15,8.));
#439 = DIRECTION('',(1.,0.,0.));
#440 = DIRECTION('',(0.,1.,0.));
#441 = ORIENTED_EDGE('',*,*,#442,.F.);
#442 = EDGE_CURVE('',#330,#434,#443,.T.);
#443 = LINE('',#444,#445);
#444 = CARTESIAN_POINT('',(20.2,-1.,13.204805471869));
#445 = VECTOR('',#446,1.);
#446 = DIRECTION('',(-1.,-1.1E-16,2.2E-16));
#447 = ORIENTED_EDGE('',*,*,#338,.F.);
#448 = CYLINDRICAL_SURFACE('',#449,5.3);
#449 = AXIS2_PLACEMENT_3D('',#450,#451,#452);
#450 = CARTESIAN_POINT('',(20.2,-4.38E-15,8.));
#451 = DIRECTION('',(1.,3.3E-16,-1.1E-16));
#452 = DIRECTION('',(-3.3E-16,1.,1.1E-16));
#453 = ADVANCED_FACE('',(#454),#489,.F.);
#454 = FACE_BOUND('',#455,.T.);
#455 = EDGE_LOOP('',(#456,#457,#463,#464,#472,#481,#487,#488));
#456 = ORIENTED_EDGE('',*,*,#366,.F.);
#457 = ORIENTED_EDGE('',*,*,#458,.T.);
#458 = EDGE_CURVE('',#367,#394,#459,.T.);
#459 = LINE('',#460,#461);
#460 = CARTESIAN_POINT('',(6.6,4.75,8.));
#461 = VECTOR('',#462,1.);
#462 = DIRECTION('',(1.,1.1E-16,-2.2E-16));
#463 = ORIENTED_EDGE('',*,*,#393,.T.);
#464 = ORIENTED_EDGE('',*,*,#465,.T.);
#465 = EDGE_CURVE('',#386,#466,#468,.T.);
#466 = VERTEX_POINT('',#467);
#467 = CARTESIAN_POINT('',(17.2,1.,12.643543905252));
#468 = LINE('',#469,#470);
#469 = CARTESIAN_POINT('',(20.2,1.,12.643543905252));
#470 = VECTOR('',#471,1.);
#471 = DIRECTION('',(-1.,-1.1E-16,2.2E-16));
#472 = ORIENTED_EDGE('',*,*,#473,.T.);
#473 = EDGE_CURVE('',#466,#474,#476,.T.);
#474 = VERTEX_POINT('',#475);
#475 = CARTESIAN_POINT('',(17.2,-1.,12.643543905252));
#476 = CIRCLE('',#477,4.75);
#477 = AXIS2_PLACEMENT_3D('',#478,#479,#480);
#478 = CARTESIAN_POINT('',(17.2,-5.6E-15,8.));
#479 = DIRECTION('',(1.,0.,0.));
#480 = DIRECTION('',(0.,1.,0.));
#481 = ORIENTED_EDGE('',*,*,#482,.F.);
#482 = EDGE_CURVE('',#403,#474,#483,.T.);
#483 = LINE('',#484,#485);
#484 = CARTESIAN_POINT('',(20.2,-1.,12.643543905252));
#485 = VECTOR('',#486,1.);
#486 = DIRECTION('',(-1.,-1.1E-16,2.2E-16));
#487 = ORIENTED_EDGE('',*,*,#402,.T.);
#488 = ORIENTED_EDGE('',*,*,#458,.F.);
#489 = CYLINDRICAL_SURFACE('',#490,4.75);
#490 = AXIS2_PLACEMENT_3D('',#491,#492,#493);
#491 = CARTESIAN_POINT('',(6.6,-2.78E-15,8.));
#492 = DIRECTION('',(-1.,-3.3E-16,1.1E-16));
#493 = DIRECTION('',(-3.3E-16,1.,1.1E-16));
#494 = ADVANCED_FACE('',(#495),#506,.F.);
#495 = FACE_BOUND('',#496,.F.);
#496 = EDGE_LOOP('',(#497,#498,#504,#505));
#497 = ORIENTED_EDGE('',*,*,#442,.T.);
#498 = ORIENTED_EDGE('',*,*,#499,.T.);
#499 = EDGE_CURVE('',#434,#474,#500,.T.);
#500 = LINE('',#501,#502);
#501 = CARTESIAN_POINT('',(17.2,-1.,13.204805471869));
#502 = VECTOR('',#503,1.);
#503 = DIRECTION('',(0.,0.,-1.));
#504 = ORIENTED_EDGE('',*,*,#482,.F.);
#505 = ORIENTED_EDGE('',*,*,#411,.F.);
#506 = PLANE('',#507);
#507 = AXIS2_PLACEMENT_3D('',#508,#509,#510);
#508 = CARTESIAN_POINT('',(20.2,-1.,13.204805471869));
#509 = DIRECTION('',(1.1E-16,-1.,-2.2E-16));
#510 = DIRECTION('',(-1.1E-16,2.2E-16,-1.));
#511 = ADVANCED_FACE('',(#512),#523,.T.);
#512 = FACE_BOUND('',#513,.T.);
#513 = EDGE_LOOP('',(#514,#515,#521,#522));
#514 = ORIENTED_EDGE('',*,*,#425,.T.);
#515 = ORIENTED_EDGE('',*,*,#516,.T.);
#516 = EDGE_CURVE('',#426,#466,#517,.T.);
#517 = LINE('',#518,#519);
#518 = CARTESIAN_POINT('',(17.2,1.,13.204805471869));
#519 = VECTOR('',#520,1.);
#520 = DIRECTION('',(0.,0.,-1.));
#521 = ORIENTED_EDGE('',*,*,#465,.F.);
#522 = ORIENTED_EDGE('',*,*,#385,.F.);
#523 = PLANE('',#524);
#524 = AXIS2_PLACEMENT_3D('',#525,#526,#527);
#525 = CARTESIAN_POINT('',(20.2,1.,13.204805471869));
#526 = DIRECTION('',(1.1E-16,-1.,-2.2E-16));
#527 = DIRECTION('',(-1.1E-16,2.2E-16,-1.));
#528 = ADVANCED_FACE('',(#529),#535,.T.);
#529 = FACE_BOUND('',#530,.T.);
#530 = EDGE_LOOP('',(#531,#532,#533,#534));
#531 = ORIENTED_EDGE('',*,*,#433,.T.);
#532 = ORIENTED_EDGE('',*,*,#499,.T.);
#533 = ORIENTED_EDGE('',*,*,#473,.F.);
#534 = ORIENTED_EDGE('',*,*,#516,.F.);
#535 = PLANE('',#536);
#536 = AXIS2_PLACEMENT_3D('',#537,#538,#539);
#537 = CARTESIAN_POINT('',(17.2,-3.29E-15,12.970729407569));
#538 = DIRECTION('',(1.,0.,0.));
#539 = DIRECTION('',(0.,0.,1.));
#540 = MANIFOLD_SOLID_BREP('',#541);
#541 = CLOSED_SHELL('',(#542,#584,#615,#646,#664,#748,#760,#785,#810,
    #835,#860,#885,#910,#919,#928,#937,#946,#955));
#542 = ADVANCED_FACE('',(#543),#579,.T.);
#543 = FACE_BOUND('',#544,.F.);
#544 = EDGE_LOOP('',(#545,#555,#564,#572));
#545 = ORIENTED_EDGE('',*,*,#546,.T.);
#546 = EDGE_CURVE('',#547,#549,#551,.T.);
#547 = VERTEX_POINT('',#548);
#548 = CARTESIAN_POINT('',(6.6,3.249999999998,9.299038105681));
#549 = VERTEX_POINT('',#550);
#550 = CARTESIAN_POINT('',(20.2,3.249999999998,9.299038105681));
#551 = LINE('',#552,#553);
#552 = CARTESIAN_POINT('',(6.6,3.249999999998,9.299038105681));
#553 = VECTOR('',#554,1.);
#554 = DIRECTION('',(1.,1.1E-16,-2.2E-16));
#555 = ORIENTED_EDGE('',*,*,#556,.T.);
#556 = EDGE_CURVE('',#549,#557,#559,.T.);
#557 = VERTEX_POINT('',#558);
#558 = CARTESIAN_POINT('',(20.2,-3.249999999998,9.299038105681));
#559 = CIRCLE('',#560,3.5);
#560 = AXIS2_PLACEMENT_3D('',#561,#562,#563);
#561 = CARTESIAN_POINT('',(20.2,1.E-15,8.));
#562 = DIRECTION('',(1.,0.,0.));
#563 = DIRECTION('',(0.,1.,0.));
#564 = ORIENTED_EDGE('',*,*,#565,.F.);
#565 = EDGE_CURVE('',#566,#557,#568,.T.);
#566 = VERTEX_POINT('',#567);
#567 = CARTESIAN_POINT('',(6.6,-3.249999999998,9.299038105681));
#568 = LINE('',#569,#570);
#569 = CARTESIAN_POINT('',(6.6,-3.249999999998,9.299038105681));
#570 = VECTOR('',#571,1.);
#571 = DIRECTION('',(1.,1.1E-16,-2.2E-16));
#572 = ORIENTED_EDGE('',*,*,#573,.F.);
#573 = EDGE_CURVE('',#547,#566,#574,.T.);
#574 = CIRCLE('',#575,3.5);
#575 = AXIS2_PLACEMENT_3D('',#576,#577,#578);
#576 = CARTESIAN_POINT('',(6.6,-1.E-15,8.));
#577 = DIRECTION('',(1.,0.,0.));
#578 = DIRECTION('',(0.,1.,0.));
#579 = CYLINDRICAL_SURFACE('',#580,3.5);
#580 = AXIS2_PLACEMENT_3D('',#581,#582,#583);
#581 = CARTESIAN_POINT('',(6.6,-2.78E-15,8.));
#582 = DIRECTION('',(-1.,-3.3E-16,1.1E-16));
#583 = DIRECTION('',(-3.3E-16,1.,1.1E-16));
#584 = ADVANCED_FACE('',(#585),#610,.T.);
#585 = FACE_BOUND('',#586,.T.);
#586 = EDGE_LOOP('',(#587,#588,#596,#604));
#587 = ORIENTED_EDGE('',*,*,#546,.T.);
#588 = ORIENTED_EDGE('',*,*,#589,.T.);
#589 = EDGE_CURVE('',#549,#590,#592,.T.);
#590 = VERTEX_POINT('',#591);
#591 = CARTESIAN_POINT('',(20.2,3.249999999999,6.700961894323));
#592 = LINE('',#593,#594);
#593 = CARTESIAN_POINT('',(20.2,3.249999999998,9.299038105681));
#594 = VECTOR('',#595,1.);
#595 = DIRECTION('',(0.,0.,-1.));
#596 = ORIENTED_EDGE('',*,*,#597,.F.);
#597 = EDGE_CURVE('',#598,#590,#600,.T.);
#598 = VERTEX_POINT('',#599);
#599 = CARTESIAN_POINT('',(6.6,3.249999999999,6.700961894323));
#600 = LINE('',#601,#602);
#601 = CARTESIAN_POINT('',(6.6,3.249999999999,6.700961894323));
#602 = VECTOR('',#603,1.);
#603 = DIRECTION('',(1.,1.1E-16,-2.2E-16));
#604 = ORIENTED_EDGE('',*,*,#605,.F.);
#605 = EDGE_CURVE('',#547,#598,#606,.T.);
#606 = LINE('',#607,#608);
#607 = CARTESIAN_POINT('',(6.6,3.249999999998,9.299038105681));
#608 = VECTOR('',#609,1.);
#609 = DIRECTION('',(0.,0.,-1.));
#610 = PLANE('',#611);
#611 = AXIS2_PLACEMENT_3D('',#612,#613,#614);
#612 = CARTESIAN_POINT('',(6.6,3.249999999998,9.299038105681));
#613 = DIRECTION('',(-1.1E-16,1.,2.2E-16));
#614 = DIRECTION('',(-1.1E-16,2.2E-16,-1.));
#615 = ADVANCED_FACE('',(#616),#641,.F.);
#616 = FACE_BOUND('',#617,.F.);
#617 = EDGE_LOOP('',(#618,#619,#627,#635));
#618 = ORIENTED_EDGE('',*,*,#565,.T.);
#619 = ORIENTED_EDGE('',*,*,#620,.T.);
#620 = EDGE_CURVE('',#557,#621,#623,.T.);
#621 = VERTEX_POINT('',#622);
#622 = CARTESIAN_POINT('',(20.2,-3.249999999999,6.700961894322));
#623 = LINE('',#624,#625);
#624 = CARTESIAN_POINT('',(20.2,-3.249999999998,9.299038105681));
#625 = VECTOR('',#626,1.);
#626 = DIRECTION('',(0.,0.,-1.));
#627 = ORIENTED_EDGE('',*,*,#628,.F.);
#628 = EDGE_CURVE('',#629,#621,#631,.T.);
#629 = VERTEX_POINT('',#630);
#630 = CARTESIAN_POINT('',(6.6,-3.249999999999,6.700961894322));
#631 = LINE('',#632,#633);
#632 = CARTESIAN_POINT('',(6.6,-3.249999999999,6.700961894322));
#633 = VECTOR('',#634,1.);
#634 = DIRECTION('',(1.,1.1E-16,-2.2E-16));
#635 = ORIENTED_EDGE('',*,*,#636,.F.);
#636 = EDGE_CURVE('',#566,#629,#637,.T.);
#637 = LINE('',#638,#639);
#638 = CARTESIAN_POINT('',(6.6,-3.249999999998,9.299038105681));
#639 = VECTOR('',#640,1.);
#640 = DIRECTION('',(0.,0.,-1.));
#641 = PLANE('',#642);
#642 = AXIS2_PLACEMENT_3D('',#643,#644,#645);
#643 = CARTESIAN_POINT('',(6.6,-3.249999999998,9.299038105681));
#644 = DIRECTION('',(-1.1E-16,1.,2.2E-16));
#645 = DIRECTION('',(-1.1E-16,2.2E-16,-1.));
#646 = ADVANCED_FACE('',(#647),#659,.F.);
#647 = FACE_BOUND('',#648,.F.);
#648 = EDGE_LOOP('',(#649,#650,#651,#658));
#649 = ORIENTED_EDGE('',*,*,#573,.T.);
#650 = ORIENTED_EDGE('',*,*,#636,.T.);
#651 = ORIENTED_EDGE('',*,*,#652,.T.);
#652 = EDGE_CURVE('',#629,#598,#653,.T.);
#653 = CIRCLE('',#654,3.5);
#654 = AXIS2_PLACEMENT_3D('',#655,#656,#657);
#655 = CARTESIAN_POINT('',(6.6,-1.E-15,8.));
#656 = DIRECTION('',(1.,0.,0.));
#657 = DIRECTION('',(0.,1.,0.));
#658 = ORIENTED_EDGE('',*,*,#605,.F.);
#659 = PLANE('',#660);
#660 = AXIS2_PLACEMENT_3D('',#661,#662,#663);
#661 = CARTESIAN_POINT('',(6.6,-6.47E-15,8.));
#662 = DIRECTION('',(1.,0.,0.));
#663 = DIRECTION('',(0.,0.,1.));
#664 = ADVANCED_FACE('',(#665,#677,#688,#699,#710,#721,#732),#743,.T.);
#665 = FACE_BOUND('',#666,.T.);
#666 = EDGE_LOOP('',(#667,#668,#669,#676));
#667 = ORIENTED_EDGE('',*,*,#556,.T.);
#668 = ORIENTED_EDGE('',*,*,#620,.T.);
#669 = ORIENTED_EDGE('',*,*,#670,.T.);
#670 = EDGE_CURVE('',#621,#590,#671,.T.);
#671 = CIRCLE('',#672,3.5);
#672 = AXIS2_PLACEMENT_3D('',#673,#674,#675);
#673 = CARTESIAN_POINT('',(20.2,1.E-15,8.));
#674 = DIRECTION('',(1.,0.,0.));
#675 = DIRECTION('',(0.,1.,0.));
#676 = ORIENTED_EDGE('',*,*,#589,.F.);
#677 = FACE_BOUND('',#678,.T.);
#678 = EDGE_LOOP('',(#679));
#679 = ORIENTED_EDGE('',*,*,#680,.F.);
#680 = EDGE_CURVE('',#681,#681,#683,.T.);
#681 = VERTEX_POINT('',#682);
#682 = CARTESIAN_POINT('',(20.2,0.75,5.834936490539));
#683 = CIRCLE('',#684,0.5);
#684 = AXIS2_PLACEMENT_3D('',#685,#686,#687);
#685 = CARTESIAN_POINT('',(20.2,1.,6.267949192431));
#686 = DIRECTION('',(1.,8.660254037844E-16,-5.E-16));
#687 = DIRECTION('',(-4.930380657631E-32,-0.5,-0.866025403784));
#688 = FACE_BOUND('',#689,.T.);
#689 = EDGE_LOOP('',(#690));
#690 = ORIENTED_EDGE('',*,*,#691,.F.);
#691 = EDGE_CURVE('',#692,#692,#694,.T.);
#692 = VERTEX_POINT('',#693);
#693 = CARTESIAN_POINT('',(20.2,2.25,7.566987298108));
#694 = CIRCLE('',#695,0.5);
#695 = AXIS2_PLACEMENT_3D('',#696,#697,#698);
#696 = CARTESIAN_POINT('',(20.2,2.,8.));
#697 = DIRECTION('',(1.,-0.,0.));
#698 = DIRECTION('',(0.,0.5,-0.866025403784));
#699 = FACE_BOUND('',#700,.T.);
#700 = EDGE_LOOP('',(#701));
#701 = ORIENTED_EDGE('',*,*,#702,.F.);
#702 = EDGE_CURVE('',#703,#703,#705,.T.);
#703 = VERTEX_POINT('',#704);
#704 = CARTESIAN_POINT('',(20.2,1.5,9.732050807569));
#705 = CIRCLE('',#706,0.5);
#706 = AXIS2_PLACEMENT_3D('',#707,#708,#709);
#707 = CARTESIAN_POINT('',(20.2,1.,9.732050807569));
#708 = DIRECTION('',(1.,0.,0.));
#709 = DIRECTION('',(0.,1.,0.));
#710 = FACE_BOUND('',#711,.T.);
#711 = EDGE_LOOP('',(#712));
#712 = ORIENTED_EDGE('',*,*,#713,.F.);
#713 = EDGE_CURVE('',#714,#714,#716,.T.);
#714 = VERTEX_POINT('',#715);
#715 = CARTESIAN_POINT('',(20.2,-1.5,6.267949192431));
#716 = CIRCLE('',#717,0.5);
#717 = AXIS2_PLACEMENT_3D('',#718,#719,#720);
#718 = CARTESIAN_POINT('',(20.2,-1.,6.267949192431));
#719 = DIRECTION('',(1.,0.,-1.E-15));
#720 = DIRECTION('',(0.,-1.,0.));
#721 = FACE_BOUND('',#722,.T.);
#722 = EDGE_LOOP('',(#723));
#723 = ORIENTED_EDGE('',*,*,#724,.F.);
#724 = EDGE_CURVE('',#725,#725,#727,.T.);
#725 = VERTEX_POINT('',#726);
#726 = CARTESIAN_POINT('',(20.2,-2.25,8.433012701892));
#727 = CIRCLE('',#728,0.5);
#728 = AXIS2_PLACEMENT_3D('',#729,#730,#731);
#729 = CARTESIAN_POINT('',(20.2,-2.,8.));
#730 = DIRECTION('',(1.,5.E-16,-8.660254037844E-16));
#731 = DIRECTION('',(1.E-15,-0.5,0.866025403784));
#732 = FACE_BOUND('',#733,.T.);
#733 = EDGE_LOOP('',(#734));
#734 = ORIENTED_EDGE('',*,*,#735,.F.);
#735 = EDGE_CURVE('',#736,#736,#738,.T.);
#736 = VERTEX_POINT('',#737);
#737 = CARTESIAN_POINT('',(20.2,-0.75,10.165063509461));
#738 = CIRCLE('',#739,0.5);
#739 = AXIS2_PLACEMENT_3D('',#740,#741,#742);
#740 = CARTESIAN_POINT('',(20.2,-1.,9.732050807569));
#741 = DIRECTION('',(1.,0.,-0.));
#742 = DIRECTION('',(0.,0.5,0.866025403784));
#743 = PLANE('',#744);
#744 = AXIS2_PLACEMENT_3D('',#745,#746,#747);
#745 = CARTESIAN_POINT('',(20.2,-4.47E-15,8.));
#746 = DIRECTION('',(1.,0.,0.));
#747 = DIRECTION('',(0.,0.,1.));
#748 = ADVANCED_FACE('',(#749),#755,.T.);
#749 = FACE_BOUND('',#750,.F.);
#750 = EDGE_LOOP('',(#751,#752,#753,#754));
#751 = ORIENTED_EDGE('',*,*,#628,.T.);
#752 = ORIENTED_EDGE('',*,*,#670,.T.);
#753 = ORIENTED_EDGE('',*,*,#597,.F.);
#754 = ORIENTED_EDGE('',*,*,#652,.F.);
#755 = CYLINDRICAL_SURFACE('',#756,3.5);
#756 = AXIS2_PLACEMENT_3D('',#757,#758,#759);
#757 = CARTESIAN_POINT('',(6.6,-2.78E-15,8.));
#758 = DIRECTION('',(-1.,-3.3E-16,1.1E-16));
#759 = DIRECTION('',(-3.3E-16,1.,1.1E-16));
#760 = ADVANCED_FACE('',(#761),#780,.F.);
#761 = FACE_BOUND('',#762,.F.);
#762 = EDGE_LOOP('',(#763,#771,#778,#779));
#763 = ORIENTED_EDGE('',*,*,#764,.T.);
#764 = EDGE_CURVE('',#681,#765,#767,.T.);
#765 = VERTEX_POINT('',#766);
#766 = CARTESIAN_POINT('',(10.2,0.75,5.834936490539));
#767 = LINE('',#768,#769);
#768 = CARTESIAN_POINT('',(20.2,0.75,5.834936490539));
#769 = VECTOR('',#770,1.);
#770 = DIRECTION('',(-1.,-6.204998149519E-16,4.852627944163E-16));
#771 = ORIENTED_EDGE('',*,*,#772,.T.);
#772 = EDGE_CURVE('',#765,#765,#773,.T.);
#773 = CIRCLE('',#774,0.5);
#774 = AXIS2_PLACEMENT_3D('',#775,#776,#777);
#775 = CARTESIAN_POINT('',(10.2,1.,6.267949192431));
#776 = DIRECTION('',(1.,8.660254037844E-16,-5.E-16));
#777 = DIRECTION('',(-4.930380657631E-32,-0.5,-0.866025403784));
#778 = ORIENTED_EDGE('',*,*,#764,.F.);
#779 = ORIENTED_EDGE('',*,*,#680,.F.);
#780 = CYLINDRICAL_SURFACE('',#781,0.5);
#781 = AXIS2_PLACEMENT_3D('',#782,#783,#784);
#782 = CARTESIAN_POINT('',(20.2,1.,6.267949192431));
#783 = DIRECTION('',(1.,6.057626093682E-16,-7.307883832489E-16));
#784 = DIRECTION('',(-3.3E-16,-0.5,-0.866025403784));
#785 = ADVANCED_FACE('',(#786),#805,.F.);
#786 = FACE_BOUND('',#787,.F.);
#787 = EDGE_LOOP('',(#788,#796,#803,#804));
#788 = ORIENTED_EDGE('',*,*,#789,.T.);
#789 = EDGE_CURVE('',#692,#790,#792,.T.);
#790 = VERTEX_POINT('',#791);
#791 = CARTESIAN_POINT('',(10.2,2.25,7.566987298108));
#792 = LINE('',#793,#794);
#793 = CARTESIAN_POINT('',(20.2,2.25,7.566987298108));
#794 = VECTOR('',#795,1.);
#795 = DIRECTION('',(-1.,1.355255888326E-16,2.052627944163E-16));
#796 = ORIENTED_EDGE('',*,*,#797,.T.);
#797 = EDGE_CURVE('',#790,#790,#798,.T.);
#798 = CIRCLE('',#799,0.5);
#799 = AXIS2_PLACEMENT_3D('',#800,#801,#802);
#800 = CARTESIAN_POINT('',(10.2,2.,8.));
#801 = DIRECTION('',(1.,-0.,0.));
#802 = DIRECTION('',(0.,0.5,-0.866025403784));
#803 = ORIENTED_EDGE('',*,*,#789,.F.);
#804 = ORIENTED_EDGE('',*,*,#691,.F.);
#805 = CYLINDRICAL_SURFACE('',#806,0.5);
#806 = AXIS2_PLACEMENT_3D('',#807,#808,#809);
#807 = CARTESIAN_POINT('',(20.2,2.,8.));
#808 = DIRECTION('',(1.,6.973720558371E-17,-3.407883832489E-16));
#809 = DIRECTION('',(-3.3E-16,0.5,-0.866025403784));
#810 = ADVANCED_FACE('',(#811),#830,.F.);
#811 = FACE_BOUND('',#812,.F.);
#812 = EDGE_LOOP('',(#813,#821,#828,#829));
#813 = ORIENTED_EDGE('',*,*,#814,.T.);
#814 = EDGE_CURVE('',#703,#815,#817,.T.);
#815 = VERTEX_POINT('',#816);
#816 = CARTESIAN_POINT('',(10.2,1.5,9.732050807569));
#817 = LINE('',#818,#819);
#818 = CARTESIAN_POINT('',(20.2,1.5,9.732050807569));
#819 = VECTOR('',#820,1.);
#820 = DIRECTION('',(-1.,-1.1E-16,2.2E-16));
#821 = ORIENTED_EDGE('',*,*,#822,.T.);
#822 = EDGE_CURVE('',#815,#815,#823,.T.);
#823 = CIRCLE('',#824,0.5);
#824 = AXIS2_PLACEMENT_3D('',#825,#826,#827);
#825 = CARTESIAN_POINT('',(10.2,1.,9.732050807569));
#826 = DIRECTION('',(1.,0.,0.));
#827 = DIRECTION('',(0.,1.,0.));
#828 = ORIENTED_EDGE('',*,*,#814,.F.);
#829 = ORIENTED_EDGE('',*,*,#702,.F.);
#830 = CYLINDRICAL_SURFACE('',#831,0.5);
#831 = AXIS2_PLACEMENT_3D('',#832,#833,#834);
#832 = CARTESIAN_POINT('',(20.2,1.,9.732050807569));
#833 = DIRECTION('',(1.,3.3E-16,-1.1E-16));
#834 = DIRECTION('',(-3.3E-16,1.,1.1E-16));
#835 = ADVANCED_FACE('',(#836),#855,.F.);
#836 = FACE_BOUND('',#837,.F.);
#837 = EDGE_LOOP('',(#838,#846,#853,#854));
#838 = ORIENTED_EDGE('',*,*,#839,.T.);
#839 = EDGE_CURVE('',#714,#840,#842,.T.);
#840 = VERTEX_POINT('',#841);
#841 = CARTESIAN_POINT('',(10.2,-1.5,6.267949192431));
#842 = LINE('',#843,#844);
#843 = CARTESIAN_POINT('',(20.2,-1.5,6.267949192431));
#844 = VECTOR('',#845,1.);
#845 = DIRECTION('',(-1.,1.1E-16,7.8E-16));
#846 = ORIENTED_EDGE('',*,*,#847,.T.);
#847 = EDGE_CURVE('',#840,#840,#848,.T.);
#848 = CIRCLE('',#849,0.5);
#849 = AXIS2_PLACEMENT_3D('',#850,#851,#852);
#850 = CARTESIAN_POINT('',(10.2,-1.,6.267949192431));
#851 = DIRECTION('',(1.,0.,-1.E-15));
#852 = DIRECTION('',(0.,-1.,0.));
#853 = ORIENTED_EDGE('',*,*,#839,.F.);
#854 = ORIENTED_EDGE('',*,*,#713,.F.);
#855 = CYLINDRICAL_SURFACE('',#856,0.5);
#856 = AXIS2_PLACEMENT_3D('',#857,#858,#859);
#857 = CARTESIAN_POINT('',(20.2,-1.,6.267949192431));
#858 = DIRECTION('',(1.,-3.3E-16,-8.9E-16));
#859 = DIRECTION('',(-3.3E-16,-1.,-1.1E-16));
#860 = ADVANCED_FACE('',(#861),#880,.F.);
#861 = FACE_BOUND('',#862,.F.);
#862 = EDGE_LOOP('',(#863,#871,#878,#879));
#863 = ORIENTED_EDGE('',*,*,#864,.T.);
#864 = EDGE_CURVE('',#725,#865,#867,.T.);
#865 = VERTEX_POINT('',#866);
#866 = CARTESIAN_POINT('',(10.2,-2.25,8.433012701892));
#867 = LINE('',#868,#869);
#868 = CARTESIAN_POINT('',(20.2,-2.25,8.433012701892));
#869 = VECTOR('',#870,1.);
#870 = DIRECTION('',(-1.,-6.355255888326E-16,6.607626093682E-16));
#871 = ORIENTED_EDGE('',*,*,#872,.T.);
#872 = EDGE_CURVE('',#865,#865,#873,.T.);
#873 = CIRCLE('',#874,0.5);
#874 = AXIS2_PLACEMENT_3D('',#875,#876,#877);
#875 = CARTESIAN_POINT('',(10.2,-2.,8.));
#876 = DIRECTION('',(1.,5.E-16,-8.660254037844E-16));
#877 = DIRECTION('',(1.E-15,-0.5,0.866025403784));
#878 = ORIENTED_EDGE('',*,*,#864,.F.);
#879 = ORIENTED_EDGE('',*,*,#724,.F.);
#880 = CYLINDRICAL_SURFACE('',#881,0.5);
#881 = AXIS2_PLACEMENT_3D('',#882,#883,#884);
#882 = CARTESIAN_POINT('',(20.2,-2.,8.));
#883 = DIRECTION('',(1.,4.302627944163E-16,-5.252370205356E-16));
#884 = DIRECTION('',(6.7E-16,-0.5,0.866025403784));
#885 = ADVANCED_FACE('',(#886),#905,.F.);
#886 = FACE_BOUND('',#887,.F.);
#887 = EDGE_LOOP('',(#888,#896,#903,#904));
#888 = ORIENTED_EDGE('',*,*,#889,.T.);
#889 = EDGE_CURVE('',#736,#890,#892,.T.);
#890 = VERTEX_POINT('',#891);
#891 = CARTESIAN_POINT('',(10.2,-0.75,10.165063509461));
#892 = LINE('',#893,#894);
#893 = CARTESIAN_POINT('',(20.2,-0.75,10.165063509461));
#894 = VECTOR('',#895,1.);
#895 = DIRECTION('',(-1.,-2.455255888326E-16,1.473720558371E-17));
#896 = ORIENTED_EDGE('',*,*,#897,.T.);
#897 = EDGE_CURVE('',#890,#890,#898,.T.);
#898 = CIRCLE('',#899,0.5);
#899 = AXIS2_PLACEMENT_3D('',#900,#901,#902);
#900 = CARTESIAN_POINT('',(10.2,-1.,9.732050807569));
#901 = DIRECTION('',(1.,0.,-0.));
#902 = DIRECTION('',(0.,0.5,0.866025403784));
#903 = ORIENTED_EDGE('',*,*,#889,.F.);
#904 = ORIENTED_EDGE('',*,*,#735,.F.);
#905 = CYLINDRICAL_SURFACE('',#906,0.5);
#906 = AXIS2_PLACEMENT_3D('',#907,#908,#909);
#907 = CARTESIAN_POINT('',(20.2,-1.,9.732050807569));
#908 = DIRECTION('',(1.,2.602627944163E-16,2.307883832489E-16));
#909 = DIRECTION('',(-3.3E-16,0.5,0.866025403784));
#910 = ADVANCED_FACE('',(#911),#914,.T.);
#911 = FACE_BOUND('',#912,.T.);
#912 = EDGE_LOOP('',(#913));
#913 = ORIENTED_EDGE('',*,*,#772,.T.);
#914 = PLANE('',#915);
#915 = AXIS2_PLACEMENT_3D('',#916,#917,#918);
#916 = CARTESIAN_POINT('',(10.2,1.,6.267949192431));
#917 = DIRECTION('',(1.,8.660254037844E-16,-5.E-16));
#918 = DIRECTION('',(-1.E-15,0.866025403784,-0.5));
#919 = ADVANCED_FACE('',(#920),#923,.T.);
#920 = FACE_BOUND('',#921,.T.);
#921 = EDGE_LOOP('',(#922));
#922 = ORIENTED_EDGE('',*,*,#797,.T.);
#923 = PLANE('',#924);
#924 = AXIS2_PLACEMENT_3D('',#925,#926,#927);
#925 = CARTESIAN_POINT('',(10.2,2.,8.));
#926 = DIRECTION('',(1.,0.,0.));
#927 = DIRECTION('',(0.,0.866025403784,0.5));
#928 = ADVANCED_FACE('',(#929),#932,.T.);
#929 = FACE_BOUND('',#930,.T.);
#930 = EDGE_LOOP('',(#931));
#931 = ORIENTED_EDGE('',*,*,#822,.T.);
#932 = PLANE('',#933);
#933 = AXIS2_PLACEMENT_3D('',#934,#935,#936);
#934 = CARTESIAN_POINT('',(10.2,1.,9.732050807569));
#935 = DIRECTION('',(1.,0.,0.));
#936 = DIRECTION('',(0.,0.,1.));
#937 = ADVANCED_FACE('',(#938),#941,.T.);
#938 = FACE_BOUND('',#939,.T.);
#939 = EDGE_LOOP('',(#940));
#940 = ORIENTED_EDGE('',*,*,#847,.T.);
#941 = PLANE('',#942);
#942 = AXIS2_PLACEMENT_3D('',#943,#944,#945);
#943 = CARTESIAN_POINT('',(10.2,-1.,6.267949192431));
#944 = DIRECTION('',(1.,0.,-1.E-15));
#945 = DIRECTION('',(-1.E-15,0.,-1.));
#946 = ADVANCED_FACE('',(#947),#950,.T.);
#947 = FACE_BOUND('',#948,.T.);
#948 = EDGE_LOOP('',(#949));
#949 = ORIENTED_EDGE('',*,*,#872,.T.);
#950 = PLANE('',#951);
#951 = AXIS2_PLACEMENT_3D('',#952,#953,#954);
#952 = CARTESIAN_POINT('',(10.2,-2.,8.));
#953 = DIRECTION('',(1.,5.E-16,-8.660254037844E-16));
#954 = DIRECTION('',(9.860761315263E-32,-0.866025403784,-0.5));
#955 = ADVANCED_FACE('',(#956),#959,.T.);
#956 = FACE_BOUND('',#957,.T.);
#957 = EDGE_LOOP('',(#958));
#958 = ORIENTED_EDGE('',*,*,#897,.T.);
#959 = PLANE('',#960);
#960 = AXIS2_PLACEMENT_3D('',#961,#962,#963);
#961 = CARTESIAN_POINT('',(10.2,-1.,9.732050807569));
#962 = DIRECTION('',(1.,0.,0.));
#963 = DIRECTION('',(0.,-0.866025403784,0.5));
#964 = MANIFOLD_SOLID_BREP('',#965);
#965 = CLOSED_SHELL('',(#966,#999,#1008));
#966 = ADVANCED_FACE('',(#967),#994,.T.);
#967 = FACE_BOUND('',#968,.T.);
#968 = EDGE_LOOP('',(#969,#979,#986,#987));
#969 = ORIENTED_EDGE('',*,*,#970,.T.);
#970 = EDGE_CURVE('',#971,#973,#975,.T.);
#971 = VERTEX_POINT('',#972);
#972 = CARTESIAN_POINT('',(4.21,3.81,0.));
#973 = VERTEX_POINT('',#974);
#974 = CARTESIAN_POINT('',(4.21,3.81,-3.));
#975 = LINE('',#976,#977);
#976 = CARTESIAN_POINT('',(4.21,3.81,0.));
#977 = VECTOR('',#978,1.);
#978 = DIRECTION('',(-0.,-0.,-1.));
#979 = ORIENTED_EDGE('',*,*,#980,.T.);
#980 = EDGE_CURVE('',#973,#973,#981,.T.);
#981 = CIRCLE('',#982,0.4);
#982 = AXIS2_PLACEMENT_3D('',#983,#984,#985);
#983 = CARTESIAN_POINT('',(3.81,3.81,-3.));
#984 = DIRECTION('',(0.,0.,1.));
#985 = DIRECTION('',(1.,0.,0.));
#986 = ORIENTED_EDGE('',*,*,#970,.F.);
#987 = ORIENTED_EDGE('',*,*,#988,.F.);
#988 = EDGE_CURVE('',#971,#971,#989,.T.);
#989 = CIRCLE('',#990,0.4);
#990 = AXIS2_PLACEMENT_3D('',#991,#992,#993);
#991 = CARTESIAN_POINT('',(3.81,3.81,0.));
#992 = DIRECTION('',(0.,0.,1.));
#993 = DIRECTION('',(1.,0.,0.));
#994 = CYLINDRICAL_SURFACE('',#995,0.4);
#995 = AXIS2_PLACEMENT_3D('',#996,#997,#998);
#996 = CARTESIAN_POINT('',(3.81,3.81,0.));
#997 = DIRECTION('',(0.,0.,1.));
#998 = DIRECTION('',(1.,0.,0.));
#999 = ADVANCED_FACE('',(#1000),#1003,.T.);
#1000 = FACE_BOUND('',#1001,.T.);
#1001 = EDGE_LOOP('',(#1002));
#1002 = ORIENTED_EDGE('',*,*,#988,.T.);
#1003 = PLANE('',#1004);
#1004 = AXIS2_PLACEMENT_3D('',#1005,#1006,#1007);
#1005 = CARTESIAN_POINT('',(3.81,3.81,0.));
#1006 = DIRECTION('',(0.,0.,1.));
#1007 = DIRECTION('',(1.,0.,0.));
#1008 = ADVANCED_FACE('',(#1009),#1012,.F.);
#1009 = FACE_BOUND('',#1010,.F.);
#1010 = EDGE_LOOP('',(#1011));
#1011 = ORIENTED_EDGE('',*,*,#980,.T.);
#1012 = PLANE('',#1013);
#1013 = AXIS2_PLACEMENT_3D('',#1014,#1015,#1016);
#1014 = CARTESIAN_POINT('',(3.81,3.81,-3.));
#1015 = DIRECTION('',(0.,0.,1.));
#1016 = DIRECTION('',(1.,0.,0.));
#1017 = MANIFOLD_SOLID_BREP('',#1018);
#1018 = CLOSED_SHELL('',(#1019,#1052,#1061));
#1019 = ADVANCED_FACE('',(#1020),#1047,.T.);
#1020 = FACE_BOUND('',#1021,.T.);
#1021 = EDGE_LOOP('',(#1022,#1032,#1039,#1040));
#1022 = ORIENTED_EDGE('',*,*,#1023,.T.);
#1023 = EDGE_CURVE('',#1024,#1026,#1028,.T.);
#1024 = VERTEX_POINT('',#1025);
#1025 = CARTESIAN_POINT('',(-3.41,3.81,0.));
#1026 = VERTEX_POINT('',#1027);
#1027 = CARTESIAN_POINT('',(-3.41,3.81,-3.));
#1028 = LINE('',#1029,#1030);
#1029 = CARTESIAN_POINT('',(-3.41,3.81,0.));
#1030 = VECTOR('',#1031,1.);
#1031 = DIRECTION('',(-0.,-0.,-1.));
#1032 = ORIENTED_EDGE('',*,*,#1033,.T.);
#1033 = EDGE_CURVE('',#1026,#1026,#1034,.T.);
#1034 = CIRCLE('',#1035,0.4);
#1035 = AXIS2_PLACEMENT_3D('',#1036,#1037,#1038);
#1036 = CARTESIAN_POINT('',(-3.81,3.81,-3.));
#1037 = DIRECTION('',(0.,0.,1.));
#1038 = DIRECTION('',(1.,0.,0.));
#1039 = ORIENTED_EDGE('',*,*,#1023,.F.);
#1040 = ORIENTED_EDGE('',*,*,#1041,.F.);
#1041 = EDGE_CURVE('',#1024,#1024,#1042,.T.);
#1042 = CIRCLE('',#1043,0.4);
#1043 = AXIS2_PLACEMENT_3D('',#1044,#1045,#1046);
#1044 = CARTESIAN_POINT('',(-3.81,3.81,0.));
#1045 = DIRECTION('',(0.,0.,1.));
#1046 = DIRECTION('',(1.,0.,0.));
#1047 = CYLINDRICAL_SURFACE('',#1048,0.4);
#1048 = AXIS2_PLACEMENT_3D('',#1049,#1050,#1051);
#1049 = CARTESIAN_POINT('',(-3.81,3.81,0.));
#1050 = DIRECTION('',(0.,0.,1.));
#1051 = DIRECTION('',(1.,0.,0.));
#1052 = ADVANCED_FACE('',(#1053),#1056,.T.);
#1053 = FACE_BOUND('',#1054,.T.);
#1054 = EDGE_LOOP('',(#1055));
#1055 = ORIENTED_EDGE('',*,*,#1041,.T.);
#1056 = PLANE('',#1057);
#1057 = AXIS2_PLACEMENT_3D('',#1058,#1059,#1060);
#1058 = CARTESIAN_POINT('',(-3.81,3.81,0.));
#1059 = DIRECTION('',(0.,0.,1.));
#1060 = DIRECTION('',(1.,0.,0.));
#1061 = ADVANCED_FACE('',(#1062),#1065,.F.);
#1062 = FACE_BOUND('',#1063,.F.);
#1063 = EDGE_LOOP('',(#1064));
#1064 = ORIENTED_EDGE('',*,*,#1033,.T.);
#1065 = PLANE('',#1066);
#1066 = AXIS2_PLACEMENT_3D('',#1067,#1068,#1069);
#1067 = CARTESIAN_POINT('',(-3.81,3.81,-3.));
#1068 = DIRECTION('',(0.,0.,1.));
#1069 = DIRECTION('',(1.,0.,0.));
#1070 = MANIFOLD_SOLID_BREP('',#1071);
#1071 = CLOSED_SHELL('',(#1072,#1105,#1114));
#1072 = ADVANCED_FACE('',(#1073),#1100,.T.);
#1073 = FACE_BOUND('',#1074,.T.);
#1074 = EDGE_LOOP('',(#1075,#1085,#1092,#1093));
#1075 = ORIENTED_EDGE('',*,*,#1076,.T.);
#1076 = EDGE_CURVE('',#1077,#1079,#1081,.T.);
#1077 = VERTEX_POINT('',#1078);
#1078 = CARTESIAN_POINT('',(-3.41,-3.81,0.));
#1079 = VERTEX_POINT('',#1080);
#1080 = CARTESIAN_POINT('',(-3.41,-3.81,-3.));
#1081 = LINE('',#1082,#1083);
#1082 = CARTESIAN_POINT('',(-3.41,-3.81,0.));
#1083 = VECTOR('',#1084,1.);
#1084 = DIRECTION('',(-0.,-0.,-1.));
#1085 = ORIENTED_EDGE('',*,*,#1086,.T.);
#1086 = EDGE_CURVE('',#1079,#1079,#1087,.T.);
#1087 = CIRCLE('',#1088,0.4);
#1088 = AXIS2_PLACEMENT_3D('',#1089,#1090,#1091);
#1089 = CARTESIAN_POINT('',(-3.81,-3.81,-3.));
#1090 = DIRECTION('',(0.,0.,1.));
#1091 = DIRECTION('',(1.,0.,0.));
#1092 = ORIENTED_EDGE('',*,*,#1076,.F.);
#1093 = ORIENTED_EDGE('',*,*,#1094,.F.);
#1094 = EDGE_CURVE('',#1077,#1077,#1095,.T.);
#1095 = CIRCLE('',#1096,0.4);
#1096 = AXIS2_PLACEMENT_3D('',#1097,#1098,#1099);
#1097 = CARTESIAN_POINT('',(-3.81,-3.81,0.));
#1098 = DIRECTION('',(0.,0.,1.));
#1099 = DIRECTION('',(1.,0.,0.));
#1100 = CYLINDRICAL_SURFACE('',#1101,0.4);
#1101 = AXIS2_PLACEMENT_3D('',#1102,#1103,#1104);
#1102 = CARTESIAN_POINT('',(-3.81,-3.81,0.));
#1103 = DIRECTION('',(0.,0.,1.));
#1104 = DIRECTION('',(1.,0.,0.));
#1105 = ADVANCED_FACE('',(#1106),#1109,.T.);
#1106 = FACE_BOUND('',#1107,.T.);
#1107 = EDGE_LOOP('',(#1108));
#1108 = ORIENTED_EDGE('',*,*,#1094,.T.);
#1109 = PLANE('',#1110);
#1110 = AXIS2_PLACEMENT_3D('',#1111,#1112,#1113);
#1111 = CARTESIAN_POINT('',(-3.81,-3.81,0.));
#1112 = DIRECTION('',(0.,0.,1.));
#1113 = DIRECTION('',(1.,0.,0.));
#1114 = ADVANCED_FACE('',(#1115),#1118,.F.);
#1115 = FACE_BOUND('',#1116,.F.);
#1116 = EDGE_LOOP('',(#1117));
#1117 = ORIENTED_EDGE('',*,*,#1086,.T.);
#1118 = PLANE('',#1119);
#1119 = AXIS2_PLACEMENT_3D('',#1120,#1121,#1122);
#1120 = CARTESIAN_POINT('',(-3.81,-3.81,-3.));
#1121 = DIRECTION('',(0.,0.,1.));
#1122 = DIRECTION('',(1.,0.,0.));
#1123 = MANIFOLD_SOLID_BREP('',#1124);
#1124 = CLOSED_SHELL('',(#1125,#1158,#1167));
#1125 = ADVANCED_FACE('',(#1126),#1153,.T.);
#1126 = FACE_BOUND('',#1127,.T.);
#1127 = EDGE_LOOP('',(#1128,#1138,#1145,#1146));
#1128 = ORIENTED_EDGE('',*,*,#1129,.T.);
#1129 = EDGE_CURVE('',#1130,#1132,#1134,.T.);
#1130 = VERTEX_POINT('',#1131);
#1131 = CARTESIAN_POINT('',(4.21,-3.81,0.));
#1132 = VERTEX_POINT('',#1133);
#1133 = CARTESIAN_POINT('',(4.21,-3.81,-3.));
#1134 = LINE('',#1135,#1136);
#1135 = CARTESIAN_POINT('',(4.21,-3.81,0.));
#1136 = VECTOR('',#1137,1.);
#1137 = DIRECTION('',(-0.,-0.,-1.));
#1138 = ORIENTED_EDGE('',*,*,#1139,.T.);
#1139 = EDGE_CURVE('',#1132,#1132,#1140,.T.);
#1140 = CIRCLE('',#1141,0.4);
#1141 = AXIS2_PLACEMENT_3D('',#1142,#1143,#1144);
#1142 = CARTESIAN_POINT('',(3.81,-3.81,-3.));
#1143 = DIRECTION('',(0.,0.,1.));
#1144 = DIRECTION('',(1.,0.,0.));
#1145 = ORIENTED_EDGE('',*,*,#1129,.F.);
#1146 = ORIENTED_EDGE('',*,*,#1147,.F.);
#1147 = EDGE_CURVE('',#1130,#1130,#1148,.T.);
#1148 = CIRCLE('',#1149,0.4);
#1149 = AXIS2_PLACEMENT_3D('',#1150,#1151,#1152);
#1150 = CARTESIAN_POINT('',(3.81,-3.81,0.));
#1151 = DIRECTION('',(0.,0.,1.));
#1152 = DIRECTION('',(1.,0.,0.));
#1153 = CYLINDRICAL_SURFACE('',#1154,0.4);
#1154 = AXIS2_PLACEMENT_3D('',#1155,#1156,#1157);
#1155 = CARTESIAN_POINT('',(3.81,-3.81,0.));
#1156 = DIRECTION('',(0.,0.,1.));
#1157 = DIRECTION('',(1.,0.,0.));
#1158 = ADVANCED_FACE('',(#1159),#1162,.T.);
#1159 = FACE_BOUND('',#1160,.T.);
#1160 = EDGE_LOOP('',(#1161));
#1161 = ORIENTED_EDGE('',*,*,#1147,.T.);
#1162 = PLANE('',#1163);
#1163 = AXIS2_PLACEMENT_3D('',#1164,#1165,#1166);
#1164 = CARTESIAN_POINT('',(3.81,-3.81,0.));
#1165 = DIRECTION('',(0.,0.,1.));
#1166 = DIRECTION('',(1.,0.,0.));
#1167 = ADVANCED_FACE('',(#1168),#1171,.F.);
#1168 = FACE_BOUND('',#1169,.F.);
#1169 = EDGE_LOOP('',(#1170));
#1170 = ORIENTED_EDGE('',*,*,#1139,.T.);
#1171 = PLANE('',#1172);
#1172 = AXIS2_PLACEMENT_3D('',#1173,#1174,#1175);
#1173 = CARTESIAN_POINT('',(3.81,-3.81,-3.));
#1174 = DIRECTION('',(0.,0.,1.));
#1175 = DIRECTION('',(1.,0.,0.));
#1176 = MANIFOLD_SOLID_BREP('',#1177);
#1177 = CLOSED_SHELL('',(#1178,#1211,#1220));
#1178 = ADVANCED_FACE('',(#1179),#1206,.T.);
#1179 = FACE_BOUND('',#1180,.T.);
#1180 = EDGE_LOOP('',(#1181,#1191,#1198,#1199));
#1181 = ORIENTED_EDGE('',*,*,#1182,.T.);
#1182 = EDGE_CURVE('',#1183,#1185,#1187,.T.);
#1183 = VERTEX_POINT('',#1184);
#1184 = CARTESIAN_POINT('',(1.67,-1.27,0.));
#1185 = VERTEX_POINT('',#1186);
#1186 = CARTESIAN_POINT('',(1.67,-1.27,-3.));
#1187 = LINE('',#1188,#1189);
#1188 = CARTESIAN_POINT('',(1.67,-1.27,0.));
#1189 = VECTOR('',#1190,1.);
#1190 = DIRECTION('',(-0.,-0.,-1.));
#1191 = ORIENTED_EDGE('',*,*,#1192,.T.);
#1192 = EDGE_CURVE('',#1185,#1185,#1193,.T.);
#1193 = CIRCLE('',#1194,0.4);
#1194 = AXIS2_PLACEMENT_3D('',#1195,#1196,#1197);
#1195 = CARTESIAN_POINT('',(1.27,-1.27,-3.));
#1196 = DIRECTION('',(0.,0.,1.));
#1197 = DIRECTION('',(1.,0.,0.));
#1198 = ORIENTED_EDGE('',*,*,#1182,.F.);
#1199 = ORIENTED_EDGE('',*,*,#1200,.F.);
#1200 = EDGE_CURVE('',#1183,#1183,#1201,.T.);
#1201 = CIRCLE('',#1202,0.4);
#1202 = AXIS2_PLACEMENT_3D('',#1203,#1204,#1205);
#1203 = CARTESIAN_POINT('',(1.27,-1.27,0.));
#1204 = DIRECTION('',(0.,0.,1.));
#1205 = DIRECTION('',(1.,0.,0.));
#1206 = CYLINDRICAL_SURFACE('',#1207,0.4);
#1207 = AXIS2_PLACEMENT_3D('',#1208,#1209,#1210);
#1208 = CARTESIAN_POINT('',(1.27,-1.27,0.));
#1209 = DIRECTION('',(0.,0.,1.));
#1210 = DIRECTION('',(1.,0.,0.));
#1211 = ADVANCED_FACE('',(#1212),#1215,.T.);
#1212 = FACE_BOUND('',#1213,.T.);
#1213 = EDGE_LOOP('',(#1214));
#1214 = ORIENTED_EDGE('',*,*,#1200,.T.);
#1215 = PLANE('',#1216);
#1216 = AXIS2_PLACEMENT_3D('',#1217,#1218,#1219);
#1217 = CARTESIAN_POINT('',(1.27,-1.27,0.));
#1218 = DIRECTION('',(0.,0.,1.));
#1219 = DIRECTION('',(1.,0.,0.));
#1220 = ADVANCED_FACE('',(#1221),#1224,.F.);
#1221 = FACE_BOUND('',#1222,.F.);
#1222 = EDGE_LOOP('',(#1223));
#1223 = ORIENTED_EDGE('',*,*,#1192,.T.);
#1224 = PLANE('',#1225);
#1225 = AXIS2_PLACEMENT_3D('',#1226,#1227,#1228);
#1226 = CARTESIAN_POINT('',(1.27,-1.27,-3.));
#1227 = DIRECTION('',(0.,0.,1.));
#1228 = DIRECTION('',(1.,0.,0.));
#1229 = MANIFOLD_SOLID_BREP('',#1230);
#1230 = CLOSED_SHELL('',(#1231,#1264,#1273));
#1231 = ADVANCED_FACE('',(#1232),#1259,.T.);
#1232 = FACE_BOUND('',#1233,.T.);
#1233 = EDGE_LOOP('',(#1234,#1244,#1251,#1252));
#1234 = ORIENTED_EDGE('',*,*,#1235,.T.);
#1235 = EDGE_CURVE('',#1236,#1238,#1240,.T.);
#1236 = VERTEX_POINT('',#1237);
#1237 = CARTESIAN_POINT('',(-0.87,-1.27,0.));
#1238 = VERTEX_POINT('',#1239);
#1239 = CARTESIAN_POINT('',(-0.87,-1.27,-3.));
#1240 = LINE('',#1241,#1242);
#1241 = CARTESIAN_POINT('',(-0.87,-1.27,0.));
#1242 = VECTOR('',#1243,1.);
#1243 = DIRECTION('',(-0.,-0.,-1.));
#1244 = ORIENTED_EDGE('',*,*,#1245,.T.);
#1245 = EDGE_CURVE('',#1238,#1238,#1246,.T.);
#1246 = CIRCLE('',#1247,0.4);
#1247 = AXIS2_PLACEMENT_3D('',#1248,#1249,#1250);
#1248 = CARTESIAN_POINT('',(-1.27,-1.27,-3.));
#1249 = DIRECTION('',(0.,0.,1.));
#1250 = DIRECTION('',(1.,0.,0.));
#1251 = ORIENTED_EDGE('',*,*,#1235,.F.);
#1252 = ORIENTED_EDGE('',*,*,#1253,.F.);
#1253 = EDGE_CURVE('',#1236,#1236,#1254,.T.);
#1254 = CIRCLE('',#1255,0.4);
#1255 = AXIS2_PLACEMENT_3D('',#1256,#1257,#1258);
#1256 = CARTESIAN_POINT('',(-1.27,-1.27,0.));
#1257 = DIRECTION('',(0.,0.,1.));
#1258 = DIRECTION('',(1.,0.,0.));
#1259 = CYLINDRICAL_SURFACE('',#1260,0.4);
#1260 = AXIS2_PLACEMENT_3D('',#1261,#1262,#1263);
#1261 = CARTESIAN_POINT('',(-1.27,-1.27,0.));
#1262 = DIRECTION('',(0.,0.,1.));
#1263 = DIRECTION('',(1.,0.,0.));
#1264 = ADVANCED_FACE('',(#1265),#1268,.T.);
#1265 = FACE_BOUND('',#1266,.T.);
#1266 = EDGE_LOOP('',(#1267));
#1267 = ORIENTED_EDGE('',*,*,#1253,.T.);
#1268 = PLANE('',#1269);
#1269 = AXIS2_PLACEMENT_3D('',#1270,#1271,#1272);
#1270 = CARTESIAN_POINT('',(-1.27,-1.27,0.));
#1271 = DIRECTION('',(0.,0.,1.));
#1272 = DIRECTION('',(1.,0.,0.));
#1273 = ADVANCED_FACE('',(#1274),#1277,.F.);
#1274 = FACE_BOUND('',#1275,.F.);
#1275 = EDGE_LOOP('',(#1276));
#1276 = ORIENTED_EDGE('',*,*,#1245,.T.);
#1277 = PLANE('',#1278);
#1278 = AXIS2_PLACEMENT_3D('',#1279,#1280,#1281);
#1279 = CARTESIAN_POINT('',(-1.27,-1.27,-3.));
#1280 = DIRECTION('',(0.,0.,1.));
#1281 = DIRECTION('',(1.,0.,0.));
#1282 = MANIFOLD_SOLID_BREP('',#1283);
#1283 = CLOSED_SHELL('',(#1284,#1317,#1326));
#1284 = ADVANCED_FACE('',(#1285),#1312,.T.);
#1285 = FACE_BOUND('',#1286,.T.);
#1286 = EDGE_LOOP('',(#1287,#1297,#1304,#1305));
#1287 = ORIENTED_EDGE('',*,*,#1288,.T.);
#1288 = EDGE_CURVE('',#1289,#1291,#1293,.T.);
#1289 = VERTEX_POINT('',#1290);
#1290 = CARTESIAN_POINT('',(-3.41,-1.27,0.));
#1291 = VERTEX_POINT('',#1292);
#1292 = CARTESIAN_POINT('',(-3.41,-1.27,-3.));
#1293 = LINE('',#1294,#1295);
#1294 = CARTESIAN_POINT('',(-3.41,-1.27,0.));
#1295 = VECTOR('',#1296,1.);
#1296 = DIRECTION('',(-0.,-0.,-1.));
#1297 = ORIENTED_EDGE('',*,*,#1298,.T.);
#1298 = EDGE_CURVE('',#1291,#1291,#1299,.T.);
#1299 = CIRCLE('',#1300,0.4);
#1300 = AXIS2_PLACEMENT_3D('',#1301,#1302,#1303);
#1301 = CARTESIAN_POINT('',(-3.81,-1.27,-3.));
#1302 = DIRECTION('',(0.,0.,1.));
#1303 = DIRECTION('',(1.,0.,0.));
#1304 = ORIENTED_EDGE('',*,*,#1288,.F.);
#1305 = ORIENTED_EDGE('',*,*,#1306,.F.);
#1306 = EDGE_CURVE('',#1289,#1289,#1307,.T.);
#1307 = CIRCLE('',#1308,0.4);
#1308 = AXIS2_PLACEMENT_3D('',#1309,#1310,#1311);
#1309 = CARTESIAN_POINT('',(-3.81,-1.27,0.));
#1310 = DIRECTION('',(0.,0.,1.));
#1311 = DIRECTION('',(1.,0.,0.));
#1312 = CYLINDRICAL_SURFACE('',#1313,0.4);
#1313 = AXIS2_PLACEMENT_3D('',#1314,#1315,#1316);
#1314 = CARTESIAN_POINT('',(-3.81,-1.27,0.));
#1315 = DIRECTION('',(0.,0.,1.));
#1316 = DIRECTION('',(1.,0.,0.));
#1317 = ADVANCED_FACE('',(#1318),#1321,.T.);
#1318 = FACE_BOUND('',#1319,.T.);
#1319 = EDGE_LOOP('',(#1320));
#1320 = ORIENTED_EDGE('',*,*,#1306,.T.);
#1321 = PLANE('',#1322);
#1322 = AXIS2_PLACEMENT_3D('',#1323,#1324,#1325);
#1323 = CARTESIAN_POINT('',(-3.81,-1.27,0.));
#1324 = DIRECTION('',(0.,0.,1.));
#1325 = DIRECTION('',(1.,0.,0.));
#1326 = ADVANCED_FACE('',(#1327),#1330,.F.);
#1327 = FACE_BOUND('',#1328,.F.);
#1328 = EDGE_LOOP('',(#1329));
#1329 = ORIENTED_EDGE('',*,*,#1298,.T.);
#1330 = PLANE('',#1331);
#1331 = AXIS2_PLACEMENT_3D('',#1332,#1333,#1334);
#1332 = CARTESIAN_POINT('',(-3.81,-1.27,-3.));
#1333 = DIRECTION('',(0.,0.,1.));
#1334 = DIRECTION('',(1.,0.,0.));
#1335 = MANIFOLD_SOLID_BREP('',#1336);
#1336 = CLOSED_SHELL('',(#1337,#1370,#1379));
#1337 = ADVANCED_FACE('',(#1338),#1365,.T.);
#1338 = FACE_BOUND('',#1339,.T.);
#1339 = EDGE_LOOP('',(#1340,#1350,#1357,#1358));
#1340 = ORIENTED_EDGE('',*,*,#1341,.T.);
#1341 = EDGE_CURVE('',#1342,#1344,#1346,.T.);
#1342 = VERTEX_POINT('',#1343);
#1343 = CARTESIAN_POINT('',(1.67,1.27,0.));
#1344 = VERTEX_POINT('',#1345);
#1345 = CARTESIAN_POINT('',(1.67,1.27,-3.));
#1346 = LINE('',#1347,#1348);
#1347 = CARTESIAN_POINT('',(1.67,1.27,0.));
#1348 = VECTOR('',#1349,1.);
#1349 = DIRECTION('',(-0.,-0.,-1.));
#1350 = ORIENTED_EDGE('',*,*,#1351,.T.);
#1351 = EDGE_CURVE('',#1344,#1344,#1352,.T.);
#1352 = CIRCLE('',#1353,0.4);
#1353 = AXIS2_PLACEMENT_3D('',#1354,#1355,#1356);
#1354 = CARTESIAN_POINT('',(1.27,1.27,-3.));
#1355 = DIRECTION('',(0.,0.,1.));
#1356 = DIRECTION('',(1.,0.,0.));
#1357 = ORIENTED_EDGE('',*,*,#1341,.F.);
#1358 = ORIENTED_EDGE('',*,*,#1359,.F.);
#1359 = EDGE_CURVE('',#1342,#1342,#1360,.T.);
#1360 = CIRCLE('',#1361,0.4);
#1361 = AXIS2_PLACEMENT_3D('',#1362,#1363,#1364);
#1362 = CARTESIAN_POINT('',(1.27,1.27,0.));
#1363 = DIRECTION('',(0.,0.,1.));
#1364 = DIRECTION('',(1.,0.,0.));
#1365 = CYLINDRICAL_SURFACE('',#1366,0.4);
#1366 = AXIS2_PLACEMENT_3D('',#1367,#1368,#1369);
#1367 = CARTESIAN_POINT('',(1.27,1.27,0.));
#1368 = DIRECTION('',(0.,0.,1.));
#1369 = DIRECTION('',(1.,0.,0.));
#1370 = ADVANCED_FACE('',(#1371),#1374,.T.);
#1371 = FACE_BOUND('',#1372,.T.);
#1372 = EDGE_LOOP('',(#1373));
#1373 = ORIENTED_EDGE('',*,*,#1359,.T.);
#1374 = PLANE('',#1375);
#1375 = AXIS2_PLACEMENT_3D('',#1376,#1377,#1378);
#1376 = CARTESIAN_POINT('',(1.27,1.27,0.));
#1377 = DIRECTION('',(0.,0.,1.));
#1378 = DIRECTION('',(1.,0.,0.));
#1379 = ADVANCED_FACE('',(#1380),#1383,.F.);
#1380 = FACE_BOUND('',#1381,.F.);
#1381 = EDGE_LOOP('',(#1382));
#1382 = ORIENTED_EDGE('',*,*,#1351,.T.);
#1383 = PLANE('',#1384);
#1384 = AXIS2_PLACEMENT_3D('',#1385,#1386,#1387);
#1385 = CARTESIAN_POINT('',(1.27,1.27,-3.));
#1386 = DIRECTION('',(0.,0.,1.));
#1387 = DIRECTION('',(1.,0.,0.));
#1388 = MANIFOLD_SOLID_BREP('',#1389);
#1389 = CLOSED_SHELL('',(#1390,#1423,#1432));
#1390 = ADVANCED_FACE('',(#1391),#1418,.T.);
#1391 = FACE_BOUND('',#1392,.T.);
#1392 = EDGE_LOOP('',(#1393,#1403,#1410,#1411));
#1393 = ORIENTED_EDGE('',*,*,#1394,.T.);
#1394 = EDGE_CURVE('',#1395,#1397,#1399,.T.);
#1395 = VERTEX_POINT('',#1396);
#1396 = CARTESIAN_POINT('',(-0.87,1.27,0.));
#1397 = VERTEX_POINT('',#1398);
#1398 = CARTESIAN_POINT('',(-0.87,1.27,-3.));
#1399 = LINE('',#1400,#1401);
#1400 = CARTESIAN_POINT('',(-0.87,1.27,0.));
#1401 = VECTOR('',#1402,1.);
#1402 = DIRECTION('',(-0.,-0.,-1.));
#1403 = ORIENTED_EDGE('',*,*,#1404,.T.);
#1404 = EDGE_CURVE('',#1397,#1397,#1405,.T.);
#1405 = CIRCLE('',#1406,0.4);
#1406 = AXIS2_PLACEMENT_3D('',#1407,#1408,#1409);
#1407 = CARTESIAN_POINT('',(-1.27,1.27,-3.));
#1408 = DIRECTION('',(0.,0.,1.));
#1409 = DIRECTION('',(1.,0.,0.));
#1410 = ORIENTED_EDGE('',*,*,#1394,.F.);
#1411 = ORIENTED_EDGE('',*,*,#1412,.F.);
#1412 = EDGE_CURVE('',#1395,#1395,#1413,.T.);
#1413 = CIRCLE('',#1414,0.4);
#1414 = AXIS2_PLACEMENT_3D('',#1415,#1416,#1417);
#1415 = CARTESIAN_POINT('',(-1.27,1.27,0.));
#1416 = DIRECTION('',(0.,0.,1.));
#1417 = DIRECTION('',(1.,0.,0.));
#1418 = CYLINDRICAL_SURFACE('',#1419,0.4);
#1419 = AXIS2_PLACEMENT_3D('',#1420,#1421,#1422);
#1420 = CARTESIAN_POINT('',(-1.27,1.27,0.));
#1421 = DIRECTION('',(0.,0.,1.));
#1422 = DIRECTION('',(1.,0.,0.));
#1423 = ADVANCED_FACE('',(#1424),#1427,.T.);
#1424 = FACE_BOUND('',#1425,.T.);
#1425 = EDGE_LOOP('',(#1426));
#1426 = ORIENTED_EDGE('',*,*,#1412,.T.);
#1427 = PLANE('',#1428);
#1428 = AXIS2_PLACEMENT_3D('',#1429,#1430,#1431);
#1429 = CARTESIAN_POINT('',(-1.27,1.27,0.));
#1430 = DIRECTION('',(0.,0.,1.));
#1431 = DIRECTION('',(1.,0.,0.));
#1432 = ADVANCED_FACE('',(#1433),#1436,.F.);
#1433 = FACE_BOUND('',#1434,.F.);
#1434 = EDGE_LOOP('',(#1435));
#1435 = ORIENTED_EDGE('',*,*,#1404,.T.);
#1436 = PLANE('',#1437);
#1437 = AXIS2_PLACEMENT_3D('',#1438,#1439,#1440);
#1438 = CARTESIAN_POINT('',(-1.27,1.27,-3.));
#1439 = DIRECTION('',(0.,0.,1.));
#1440 = DIRECTION('',(1.,0.,0.));
#1441 = MANIFOLD_SOLID_BREP('',#1442);
#1442 = CLOSED_SHELL('',(#1443,#1476,#1485));
#1443 = ADVANCED_FACE('',(#1444),#1471,.T.);
#1444 = FACE_BOUND('',#1445,.T.);
#1445 = EDGE_LOOP('',(#1446,#1456,#1463,#1464));
#1446 = ORIENTED_EDGE('',*,*,#1447,.T.);
#1447 = EDGE_CURVE('',#1448,#1450,#1452,.T.);
#1448 = VERTEX_POINT('',#1449);
#1449 = CARTESIAN_POINT('',(-3.41,1.27,0.));
#1450 = VERTEX_POINT('',#1451);
#1451 = CARTESIAN_POINT('',(-3.41,1.27,-3.));
#1452 = LINE('',#1453,#1454);
#1453 = CARTESIAN_POINT('',(-3.41,1.27,0.));
#1454 = VECTOR('',#1455,1.);
#1455 = DIRECTION('',(-0.,-0.,-1.));
#1456 = ORIENTED_EDGE('',*,*,#1457,.T.);
#1457 = EDGE_CURVE('',#1450,#1450,#1458,.T.);
#1458 = CIRCLE('',#1459,0.4);
#1459 = AXIS2_PLACEMENT_3D('',#1460,#1461,#1462);
#1460 = CARTESIAN_POINT('',(-3.81,1.27,-3.));
#1461 = DIRECTION('',(0.,0.,1.));
#1462 = DIRECTION('',(1.,0.,0.));
#1463 = ORIENTED_EDGE('',*,*,#1447,.F.);
#1464 = ORIENTED_EDGE('',*,*,#1465,.F.);
#1465 = EDGE_CURVE('',#1448,#1448,#1466,.T.);
#1466 = CIRCLE('',#1467,0.4);
#1467 = AXIS2_PLACEMENT_3D('',#1468,#1469,#1470);
#1468 = CARTESIAN_POINT('',(-3.81,1.27,0.));
#1469 = DIRECTION('',(0.,0.,1.));
#1470 = DIRECTION('',(1.,0.,0.));
#1471 = CYLINDRICAL_SURFACE('',#1472,0.4);
#1472 = AXIS2_PLACEMENT_3D('',#1473,#1474,#1475);
#1473 = CARTESIAN_POINT('',(-3.81,1.27,0.));
#1474 = DIRECTION('',(0.,0.,1.));
#1475 = DIRECTION('',(1.,0.,0.));
#1476 = ADVANCED_FACE('',(#1477),#1480,.T.);
#1477 = FACE_BOUND('',#1478,.T.);
#1478 = EDGE_LOOP('',(#1479));
#1479 = ORIENTED_EDGE('',*,*,#1465,.T.);
#1480 = PLANE('',#1481);
#1481 = AXIS2_PLACEMENT_3D('',#1482,#1483,#1484);
#1482 = CARTESIAN_POINT('',(-3.81,1.27,0.));
#1483 = DIRECTION('',(0.,0.,1.));
#1484 = DIRECTION('',(1.,0.,0.));
#1485 = ADVANCED_FACE('',(#1486),#1489,.F.);
#1486 = FACE_BOUND('',#1487,.F.);
#1487 = EDGE_LOOP('',(#1488));
#1488 = ORIENTED_EDGE('',*,*,#1457,.T.);
#1489 = PLANE('',#1490);
#1490 = AXIS2_PLACEMENT_3D('',#1491,#1492,#1493);
#1491 = CARTESIAN_POINT('',(-3.81,1.27,-3.));
#1492 = DIRECTION('',(0.,0.,1.));
#1493 = DIRECTION('',(1.,0.,0.));
#1494 = ( GEOMETRIC_REPRESENTATION_CONTEXT(3) 
GLOBAL_UNCERTAINTY_ASSIGNED_CONTEXT((#1498)) 
GLOBAL_UNIT_ASSIGNED_CONTEXT((#1495,#1496,#1497)) REPRESENTATION_CONTEXT
('Context #1','3D Context with UNIT and UNCERTAINTY') );
#1495 = ( LENGTH_UNIT() NAMED_UNIT(*) SI_UNIT(.MILLI.,.METRE.) );
#1496 = ( NAMED_UNIT(*) PLANE_ANGLE_UNIT() SI_UNIT($,.RADIAN.) );
#1497 = ( NAMED_UNIT(*) SI_UNIT($,.STERADIAN.) SOLID_ANGLE_UNIT() );
#1498 = UNCERTAINTY_MEASURE_WITH_UNIT(LENGTH_MEASURE(1.E-06),#1495,
  'distance_accuracy_value','confusion accuracy');
#1499 = PRODUCT_RELATED_PRODUCT_CATEGORY('part',$,(#7));
#1500 = MECHANICAL_DESIGN_GEOMETRIC_PRESENTATION_REPRESENTATION('',(
    #1501,#1512,#1520,#1527,#1534,#1541,#1548,#1555,#1562,#1569,#1576,
    #1585,#1594,#1602,#1609,#1616,#1623,#1630,#1637,#1645,#1652,#1660,
    #1667,#1674,#1681,#1688,#1695,#1702,#1709,#1716,#1723,#1732,#1740,
    #1747,#1754,#1763,#1770,#1777,#1784,#1793,#1800,#1807,#1814,#1823,
    #1830,#1837,#1844,#1853,#1860,#1867,#1874,#1883,#1890,#1897,#1904,
    #1913,#1920,#1927,#1934,#1943,#1950,#1957,#1964,#1973,#1980,#1987,
    #1994,#2003,#2010,#2017),#1494);
#1501 = STYLED_ITEM('color',(#1502),#15);
#1502 = PRESENTATION_STYLE_ASSIGNMENT((#1503,#1509));
#1503 = SURFACE_STYLE_USAGE(.BOTH.,#1504);
#1504 = SURFACE_SIDE_STYLE('',(#1505));
#1505 = SURFACE_STYLE_FILL_AREA(#1506);
#1506 = FILL_AREA_STYLE('',(#1507));
#1507 = FILL_AREA_STYLE_COLOUR('',#1508);
#1508 = COLOUR_RGB('',0.800000011921,0.800000011921,0.800000011921);
#1509 = CURVE_STYLE('',#1510,POSITIVE_LENGTH_MEASURE(0.1),#1511);
#1510 = DRAUGHTING_PRE_DEFINED_CURVE_FONT('continuous');
#1511 = COLOUR_RGB('',9.803921729326E-02,9.803921729326E-02,
  9.803921729326E-02);
#1512 = OVER_RIDING_STYLED_ITEM('overriding color',(#1513),#17,#1501);
#1513 = PRESENTATION_STYLE_ASSIGNMENT((#1514));
#1514 = SURFACE_STYLE_USAGE(.BOTH.,#1515);
#1515 = SURFACE_SIDE_STYLE('',(#1516));
#1516 = SURFACE_STYLE_FILL_AREA(#1517);
#1517 = FILL_AREA_STYLE('',(#1518));
#1518 = FILL_AREA_STYLE_COLOUR('',#1519);
#1519 = COLOUR_RGB('',0.243137255311,0.243137255311,0.243137255311);
#1520 = OVER_RIDING_STYLED_ITEM('overriding color',(#1521),#65,#1501);
#1521 = PRESENTATION_STYLE_ASSIGNMENT((#1522));
#1522 = SURFACE_STYLE_USAGE(.BOTH.,#1523);
#1523 = SURFACE_SIDE_STYLE('',(#1524));
#1524 = SURFACE_STYLE_FILL_AREA(#1525);
#1525 = FILL_AREA_STYLE('',(#1526));
#1526 = FILL_AREA_STYLE_COLOUR('',#1519);
#1527 = OVER_RIDING_STYLED_ITEM('overriding color',(#1528),#124,#1501);
#1528 = PRESENTATION_STYLE_ASSIGNMENT((#1529));
#1529 = SURFACE_STYLE_USAGE(.BOTH.,#1530);
#1530 = SURFACE_SIDE_STYLE('',(#1531));
#1531 = SURFACE_STYLE_FILL_AREA(#1532);
#1532 = FILL_AREA_STYLE('',(#1533));
#1533 = FILL_AREA_STYLE_COLOUR('',#1519);
#1534 = OVER_RIDING_STYLED_ITEM('overriding color',(#1535),#149,#1501);
#1535 = PRESENTATION_STYLE_ASSIGNMENT((#1536));
#1536 = SURFACE_STYLE_USAGE(.BOTH.,#1537);
#1537 = SURFACE_SIDE_STYLE('',(#1538));
#1538 = SURFACE_STYLE_FILL_AREA(#1539);
#1539 = FILL_AREA_STYLE('',(#1540));
#1540 = FILL_AREA_STYLE_COLOUR('',#1519);
#1541 = OVER_RIDING_STYLED_ITEM('overriding color',(#1542),#175,#1501);
#1542 = PRESENTATION_STYLE_ASSIGNMENT((#1543));
#1543 = SURFACE_STYLE_USAGE(.BOTH.,#1544);
#1544 = SURFACE_SIDE_STYLE('',(#1545));
#1545 = SURFACE_STYLE_FILL_AREA(#1546);
#1546 = FILL_AREA_STYLE('',(#1547));
#1547 = FILL_AREA_STYLE_COLOUR('',#1519);
#1548 = OVER_RIDING_STYLED_ITEM('overriding color',(#1549),#216,#1501);
#1549 = PRESENTATION_STYLE_ASSIGNMENT((#1550));
#1550 = SURFACE_STYLE_USAGE(.BOTH.,#1551);
#1551 = SURFACE_SIDE_STYLE('',(#1552));
#1552 = SURFACE_STYLE_FILL_AREA(#1553);
#1553 = FILL_AREA_STYLE('',(#1554));
#1554 = FILL_AREA_STYLE_COLOUR('',#1519);
#1555 = OVER_RIDING_STYLED_ITEM('overriding color',(#1556),#233,#1501);
#1556 = PRESENTATION_STYLE_ASSIGNMENT((#1557));
#1557 = SURFACE_STYLE_USAGE(.BOTH.,#1558);
#1558 = SURFACE_SIDE_STYLE('',(#1559));
#1559 = SURFACE_STYLE_FILL_AREA(#1560);
#1560 = FILL_AREA_STYLE('',(#1561));
#1561 = FILL_AREA_STYLE_COLOUR('',#1519);
#1562 = OVER_RIDING_STYLED_ITEM('overriding color',(#1563),#250,#1501);
#1563 = PRESENTATION_STYLE_ASSIGNMENT((#1564));
#1564 = SURFACE_STYLE_USAGE(.BOTH.,#1565);
#1565 = SURFACE_SIDE_STYLE('',(#1566));
#1566 = SURFACE_STYLE_FILL_AREA(#1567);
#1567 = FILL_AREA_STYLE('',(#1568));
#1568 = FILL_AREA_STYLE_COLOUR('',#1519);
#1569 = OVER_RIDING_STYLED_ITEM('overriding color',(#1570),#267,#1501);
#1570 = PRESENTATION_STYLE_ASSIGNMENT((#1571));
#1571 = SURFACE_STYLE_USAGE(.BOTH.,#1572);
#1572 = SURFACE_SIDE_STYLE('',(#1573));
#1573 = SURFACE_STYLE_FILL_AREA(#1574);
#1574 = FILL_AREA_STYLE('',(#1575));
#1575 = FILL_AREA_STYLE_COLOUR('',#1519);
#1576 = STYLED_ITEM('color',(#1577),#280);
#1577 = PRESENTATION_STYLE_ASSIGNMENT((#1578,#1583));
#1578 = SURFACE_STYLE_USAGE(.BOTH.,#1579);
#1579 = SURFACE_SIDE_STYLE('',(#1580));
#1580 = SURFACE_STYLE_FILL_AREA(#1581);
#1581 = FILL_AREA_STYLE('',(#1582));
#1582 = FILL_AREA_STYLE_COLOUR('',#1508);
#1583 = CURVE_STYLE('',#1584,POSITIVE_LENGTH_MEASURE(0.1),#1511);
#1584 = DRAUGHTING_PRE_DEFINED_CURVE_FONT('continuous');
#1585 = STYLED_ITEM('color',(#1586),#540);
#1586 = PRESENTATION_STYLE_ASSIGNMENT((#1587,#1592));
#1587 = SURFACE_STYLE_USAGE(.BOTH.,#1588);
#1588 = SURFACE_SIDE_STYLE('',(#1589));
#1589 = SURFACE_STYLE_FILL_AREA(#1590);
#1590 = FILL_AREA_STYLE('',(#1591));
#1591 = FILL_AREA_STYLE_COLOUR('',#1508);
#1592 = CURVE_STYLE('',#1593,POSITIVE_LENGTH_MEASURE(0.1),#1511);
#1593 = DRAUGHTING_PRE_DEFINED_CURVE_FONT('continuous');
#1594 = OVER_RIDING_STYLED_ITEM('overriding color',(#1595),#542,#1585);
#1595 = PRESENTATION_STYLE_ASSIGNMENT((#1596));
#1596 = SURFACE_STYLE_USAGE(.BOTH.,#1597);
#1597 = SURFACE_SIDE_STYLE('',(#1598));
#1598 = SURFACE_STYLE_FILL_AREA(#1599);
#1599 = FILL_AREA_STYLE('',(#1600));
#1600 = FILL_AREA_STYLE_COLOUR('',#1601);
#1601 = COLOUR_RGB('',0.866666674614,0.858823537827,0.54509806633);
#1602 = OVER_RIDING_STYLED_ITEM('overriding color',(#1603),#584,#1585);
#1603 = PRESENTATION_STYLE_ASSIGNMENT((#1604));
#1604 = SURFACE_STYLE_USAGE(.BOTH.,#1605);
#1605 = SURFACE_SIDE_STYLE('',(#1606));
#1606 = SURFACE_STYLE_FILL_AREA(#1607);
#1607 = FILL_AREA_STYLE('',(#1608));
#1608 = FILL_AREA_STYLE_COLOUR('',#1601);
#1609 = OVER_RIDING_STYLED_ITEM('overriding color',(#1610),#615,#1585);
#1610 = PRESENTATION_STYLE_ASSIGNMENT((#1611));
#1611 = SURFACE_STYLE_USAGE(.BOTH.,#1612);
#1612 = SURFACE_SIDE_STYLE('',(#1613));
#1613 = SURFACE_STYLE_FILL_AREA(#1614);
#1614 = FILL_AREA_STYLE('',(#1615));
#1615 = FILL_AREA_STYLE_COLOUR('',#1601);
#1616 = OVER_RIDING_STYLED_ITEM('overriding color',(#1617),#646,#1585);
#1617 = PRESENTATION_STYLE_ASSIGNMENT((#1618));
#1618 = SURFACE_STYLE_USAGE(.BOTH.,#1619);
#1619 = SURFACE_SIDE_STYLE('',(#1620));
#1620 = SURFACE_STYLE_FILL_AREA(#1621);
#1621 = FILL_AREA_STYLE('',(#1622));
#1622 = FILL_AREA_STYLE_COLOUR('',#1601);
#1623 = OVER_RIDING_STYLED_ITEM('overriding color',(#1624),#664,#1585);
#1624 = PRESENTATION_STYLE_ASSIGNMENT((#1625));
#1625 = SURFACE_STYLE_USAGE(.BOTH.,#1626);
#1626 = SURFACE_SIDE_STYLE('',(#1627));
#1627 = SURFACE_STYLE_FILL_AREA(#1628);
#1628 = FILL_AREA_STYLE('',(#1629));
#1629 = FILL_AREA_STYLE_COLOUR('',#1601);
#1630 = OVER_RIDING_STYLED_ITEM('overriding color',(#1631),#748,#1585);
#1631 = PRESENTATION_STYLE_ASSIGNMENT((#1632));
#1632 = SURFACE_STYLE_USAGE(.BOTH.,#1633);
#1633 = SURFACE_SIDE_STYLE('',(#1634));
#1634 = SURFACE_STYLE_FILL_AREA(#1635);
#1635 = FILL_AREA_STYLE('',(#1636));
#1636 = FILL_AREA_STYLE_COLOUR('',#1601);
#1637 = OVER_RIDING_STYLED_ITEM('overriding color',(#1638),#760,#1585);
#1638 = PRESENTATION_STYLE_ASSIGNMENT((#1639));
#1639 = SURFACE_STYLE_USAGE(.BOTH.,#1640);
#1640 = SURFACE_SIDE_STYLE('',(#1641));
#1641 = SURFACE_STYLE_FILL_AREA(#1642);
#1642 = FILL_AREA_STYLE('',(#1643));
#1643 = FILL_AREA_STYLE_COLOUR('',#1644);
#1644 = COLOUR_RGB('',0.803921580315,0.807843148708,0.509803950787);
#1645 = OVER_RIDING_STYLED_ITEM('overriding color',(#1646),#785,#1585);
#1646 = PRESENTATION_STYLE_ASSIGNMENT((#1647));
#1647 = SURFACE_STYLE_USAGE(.BOTH.,#1648);
#1648 = SURFACE_SIDE_STYLE('',(#1649));
#1649 = SURFACE_STYLE_FILL_AREA(#1650);
#1650 = FILL_AREA_STYLE('',(#1651));
#1651 = FILL_AREA_STYLE_COLOUR('',#1644);
#1652 = OVER_RIDING_STYLED_ITEM('overriding color',(#1653),#810,#1585);
#1653 = PRESENTATION_STYLE_ASSIGNMENT((#1654));
#1654 = SURFACE_STYLE_USAGE(.BOTH.,#1655);
#1655 = SURFACE_SIDE_STYLE('',(#1656));
#1656 = SURFACE_STYLE_FILL_AREA(#1657);
#1657 = FILL_AREA_STYLE('',(#1658));
#1658 = FILL_AREA_STYLE_COLOUR('',#1659);
#1659 = COLOUR_RGB('',0.86274510622,0.815686285496,0.533333361149);
#1660 = OVER_RIDING_STYLED_ITEM('overriding color',(#1661),#835,#1585);
#1661 = PRESENTATION_STYLE_ASSIGNMENT((#1662));
#1662 = SURFACE_STYLE_USAGE(.BOTH.,#1663);
#1663 = SURFACE_SIDE_STYLE('',(#1664));
#1664 = SURFACE_STYLE_FILL_AREA(#1665);
#1665 = FILL_AREA_STYLE('',(#1666));
#1666 = FILL_AREA_STYLE_COLOUR('',#1644);
#1667 = OVER_RIDING_STYLED_ITEM('overriding color',(#1668),#860,#1585);
#1668 = PRESENTATION_STYLE_ASSIGNMENT((#1669));
#1669 = SURFACE_STYLE_USAGE(.BOTH.,#1670);
#1670 = SURFACE_SIDE_STYLE('',(#1671));
#1671 = SURFACE_STYLE_FILL_AREA(#1672);
#1672 = FILL_AREA_STYLE('',(#1673));
#1673 = FILL_AREA_STYLE_COLOUR('',#1644);
#1674 = OVER_RIDING_STYLED_ITEM('overriding color',(#1675),#885,#1585);
#1675 = PRESENTATION_STYLE_ASSIGNMENT((#1676));
#1676 = SURFACE_STYLE_USAGE(.BOTH.,#1677);
#1677 = SURFACE_SIDE_STYLE('',(#1678));
#1678 = SURFACE_STYLE_FILL_AREA(#1679);
#1679 = FILL_AREA_STYLE('',(#1680));
#1680 = FILL_AREA_STYLE_COLOUR('',#1644);
#1681 = OVER_RIDING_STYLED_ITEM('overriding color',(#1682),#910,#1585);
#1682 = PRESENTATION_STYLE_ASSIGNMENT((#1683));
#1683 = SURFACE_STYLE_USAGE(.BOTH.,#1684);
#1684 = SURFACE_SIDE_STYLE('',(#1685));
#1685 = SURFACE_STYLE_FILL_AREA(#1686);
#1686 = FILL_AREA_STYLE('',(#1687));
#1687 = FILL_AREA_STYLE_COLOUR('',#1644);
#1688 = OVER_RIDING_STYLED_ITEM('overriding color',(#1689),#919,#1585);
#1689 = PRESENTATION_STYLE_ASSIGNMENT((#1690));
#1690 = SURFACE_STYLE_USAGE(.BOTH.,#1691);
#1691 = SURFACE_SIDE_STYLE('',(#1692));
#1692 = SURFACE_STYLE_FILL_AREA(#1693);
#1693 = FILL_AREA_STYLE('',(#1694));
#1694 = FILL_AREA_STYLE_COLOUR('',#1644);
#1695 = OVER_RIDING_STYLED_ITEM('overriding color',(#1696),#928,#1585);
#1696 = PRESENTATION_STYLE_ASSIGNMENT((#1697));
#1697 = SURFACE_STYLE_USAGE(.BOTH.,#1698);
#1698 = SURFACE_SIDE_STYLE('',(#1699));
#1699 = SURFACE_STYLE_FILL_AREA(#1700);
#1700 = FILL_AREA_STYLE('',(#1701));
#1701 = FILL_AREA_STYLE_COLOUR('',#1659);
#1702 = OVER_RIDING_STYLED_ITEM('overriding color',(#1703),#937,#1585);
#1703 = PRESENTATION_STYLE_ASSIGNMENT((#1704));
#1704 = SURFACE_STYLE_USAGE(.BOTH.,#1705);
#1705 = SURFACE_SIDE_STYLE('',(#1706));
#1706 = SURFACE_STYLE_FILL_AREA(#1707);
#1707 = FILL_AREA_STYLE('',(#1708));
#1708 = FILL_AREA_STYLE_COLOUR('',#1644);
#1709 = OVER_RIDING_STYLED_ITEM('overriding color',(#1710),#946,#1585);
#1710 = PRESENTATION_STYLE_ASSIGNMENT((#1711));
#1711 = SURFACE_STYLE_USAGE(.BOTH.,#1712);
#1712 = SURFACE_SIDE_STYLE('',(#1713));
#1713 = SURFACE_STYLE_FILL_AREA(#1714);
#1714 = FILL_AREA_STYLE('',(#1715));
#1715 = FILL_AREA_STYLE_COLOUR('',#1644);
#1716 = OVER_RIDING_STYLED_ITEM('overriding color',(#1717),#955,#1585);
#1717 = PRESENTATION_STYLE_ASSIGNMENT((#1718));
#1718 = SURFACE_STYLE_USAGE(.BOTH.,#1719);
#1719 = SURFACE_SIDE_STYLE('',(#1720));
#1720 = SURFACE_STYLE_FILL_AREA(#1721);
#1721 = FILL_AREA_STYLE('',(#1722));
#1722 = FILL_AREA_STYLE_COLOUR('',#1644);
#1723 = STYLED_ITEM('color',(#1724),#964);
#1724 = PRESENTATION_STYLE_ASSIGNMENT((#1725,#1730));
#1725 = SURFACE_STYLE_USAGE(.BOTH.,#1726);
#1726 = SURFACE_SIDE_STYLE('',(#1727));
#1727 = SURFACE_STYLE_FILL_AREA(#1728);
#1728 = FILL_AREA_STYLE('',(#1729));
#1729 = FILL_AREA_STYLE_COLOUR('',#1508);
#1730 = CURVE_STYLE('',#1731,POSITIVE_LENGTH_MEASURE(0.1),#1511);
#1731 = DRAUGHTING_PRE_DEFINED_CURVE_FONT('continuous');
#1732 = OVER_RIDING_STYLED_ITEM('overriding color',(#1733),#966,#1723);
#1733 = PRESENTATION_STYLE_ASSIGNMENT((#1734));
#1734 = SURFACE_STYLE_USAGE(.BOTH.,#1735);
#1735 = SURFACE_SIDE_STYLE('',(#1736));
#1736 = SURFACE_STYLE_FILL_AREA(#1737);
#1737 = FILL_AREA_STYLE('',(#1738));
#1738 = FILL_AREA_STYLE_COLOUR('',#1739);
#1739 = COLOUR_RGB('',0.780392169952,0.568627476692,0.113725490868);
#1740 = OVER_RIDING_STYLED_ITEM('overriding color',(#1741),#999,#1723);
#1741 = PRESENTATION_STYLE_ASSIGNMENT((#1742));
#1742 = SURFACE_STYLE_USAGE(.BOTH.,#1743);
#1743 = SURFACE_SIDE_STYLE('',(#1744));
#1744 = SURFACE_STYLE_FILL_AREA(#1745);
#1745 = FILL_AREA_STYLE('',(#1746));
#1746 = FILL_AREA_STYLE_COLOUR('',#1739);
#1747 = OVER_RIDING_STYLED_ITEM('overriding color',(#1748),#1008,#1723);
#1748 = PRESENTATION_STYLE_ASSIGNMENT((#1749));
#1749 = SURFACE_STYLE_USAGE(.BOTH.,#1750);
#1750 = SURFACE_SIDE_STYLE('',(#1751));
#1751 = SURFACE_STYLE_FILL_AREA(#1752);
#1752 = FILL_AREA_STYLE('',(#1753));
#1753 = FILL_AREA_STYLE_COLOUR('',#1739);
#1754 = STYLED_ITEM('color',(#1755),#1017);
#1755 = PRESENTATION_STYLE_ASSIGNMENT((#1756,#1761));
#1756 = SURFACE_STYLE_USAGE(.BOTH.,#1757);
#1757 = SURFACE_SIDE_STYLE('',(#1758));
#1758 = SURFACE_STYLE_FILL_AREA(#1759);
#1759 = FILL_AREA_STYLE('',(#1760));
#1760 = FILL_AREA_STYLE_COLOUR('',#1508);
#1761 = CURVE_STYLE('',#1762,POSITIVE_LENGTH_MEASURE(0.1),#1511);
#1762 = DRAUGHTING_PRE_DEFINED_CURVE_FONT('continuous');
#1763 = OVER_RIDING_STYLED_ITEM('overriding color',(#1764),#1019,#1754);
#1764 = PRESENTATION_STYLE_ASSIGNMENT((#1765));
#1765 = SURFACE_STYLE_USAGE(.BOTH.,#1766);
#1766 = SURFACE_SIDE_STYLE('',(#1767));
#1767 = SURFACE_STYLE_FILL_AREA(#1768);
#1768 = FILL_AREA_STYLE('',(#1769));
#1769 = FILL_AREA_STYLE_COLOUR('',#1739);
#1770 = OVER_RIDING_STYLED_ITEM('overriding color',(#1771),#1052,#1754);
#1771 = PRESENTATION_STYLE_ASSIGNMENT((#1772));
#1772 = SURFACE_STYLE_USAGE(.BOTH.,#1773);
#1773 = SURFACE_SIDE_STYLE('',(#1774));
#1774 = SURFACE_STYLE_FILL_AREA(#1775);
#1775 = FILL_AREA_STYLE('',(#1776));
#1776 = FILL_AREA_STYLE_COLOUR('',#1739);
#1777 = OVER_RIDING_STYLED_ITEM('overriding color',(#1778),#1061,#1754);
#1778 = PRESENTATION_STYLE_ASSIGNMENT((#1779));
#1779 = SURFACE_STYLE_USAGE(.BOTH.,#1780);
#1780 = SURFACE_SIDE_STYLE('',(#1781));
#1781 = SURFACE_STYLE_FILL_AREA(#1782);
#1782 = FILL_AREA_STYLE('',(#1783));
#1783 = FILL_AREA_STYLE_COLOUR('',#1739);
#1784 = STYLED_ITEM('color',(#1785),#1070);
#1785 = PRESENTATION_STYLE_ASSIGNMENT((#1786,#1791));
#1786 = SURFACE_STYLE_USAGE(.BOTH.,#1787);
#1787 = SURFACE_SIDE_STYLE('',(#1788));
#1788 = SURFACE_STYLE_FILL_AREA(#1789);
#1789 = FILL_AREA_STYLE('',(#1790));
#1790 = FILL_AREA_STYLE_COLOUR('',#1508);
#1791 = CURVE_STYLE('',#1792,POSITIVE_LENGTH_MEASURE(0.1),#1511);
#1792 = DRAUGHTING_PRE_DEFINED_CURVE_FONT('continuous');
#1793 = OVER_RIDING_STYLED_ITEM('overriding color',(#1794),#1072,#1784);
#1794 = PRESENTATION_STYLE_ASSIGNMENT((#1795));
#1795 = SURFACE_STYLE_USAGE(.BOTH.,#1796);
#1796 = SURFACE_SIDE_STYLE('',(#1797));
#1797 = SURFACE_STYLE_FILL_AREA(#1798);
#1798 = FILL_AREA_STYLE('',(#1799));
#1799 = FILL_AREA_STYLE_COLOUR('',#1739);
#1800 = OVER_RIDING_STYLED_ITEM('overriding color',(#1801),#1105,#1784);
#1801 = PRESENTATION_STYLE_ASSIGNMENT((#1802));
#1802 = SURFACE_STYLE_USAGE(.BOTH.,#1803);
#1803 = SURFACE_SIDE_STYLE('',(#1804));
#1804 = SURFACE_STYLE_FILL_AREA(#1805);
#1805 = FILL_AREA_STYLE('',(#1806));
#1806 = FILL_AREA_STYLE_COLOUR('',#1739);
#1807 = OVER_RIDING_STYLED_ITEM('overriding color',(#1808),#1114,#1784);
#1808 = PRESENTATION_STYLE_ASSIGNMENT((#1809));
#1809 = SURFACE_STYLE_USAGE(.BOTH.,#1810);
#1810 = SURFACE_SIDE_STYLE('',(#1811));
#1811 = SURFACE_STYLE_FILL_AREA(#1812);
#1812 = FILL_AREA_STYLE('',(#1813));
#1813 = FILL_AREA_STYLE_COLOUR('',#1739);
#1814 = STYLED_ITEM('color',(#1815),#1123);
#1815 = PRESENTATION_STYLE_ASSIGNMENT((#1816,#1821));
#1816 = SURFACE_STYLE_USAGE(.BOTH.,#1817);
#1817 = SURFACE_SIDE_STYLE('',(#1818));
#1818 = SURFACE_STYLE_FILL_AREA(#1819);
#1819 = FILL_AREA_STYLE('',(#1820));
#1820 = FILL_AREA_STYLE_COLOUR('',#1508);
#1821 = CURVE_STYLE('',#1822,POSITIVE_LENGTH_MEASURE(0.1),#1511);
#1822 = DRAUGHTING_PRE_DEFINED_CURVE_FONT('continuous');
#1823 = OVER_RIDING_STYLED_ITEM('overriding color',(#1824),#1125,#1814);
#1824 = PRESENTATION_STYLE_ASSIGNMENT((#1825));
#1825 = SURFACE_STYLE_USAGE(.BOTH.,#1826);
#1826 = SURFACE_SIDE_STYLE('',(#1827));
#1827 = SURFACE_STYLE_FILL_AREA(#1828);
#1828 = FILL_AREA_STYLE('',(#1829));
#1829 = FILL_AREA_STYLE_COLOUR('',#1739);
#1830 = OVER_RIDING_STYLED_ITEM('overriding color',(#1831),#1158,#1814);
#1831 = PRESENTATION_STYLE_ASSIGNMENT((#1832));
#1832 = SURFACE_STYLE_USAGE(.BOTH.,#1833);
#1833 = SURFACE_SIDE_STYLE('',(#1834));
#1834 = SURFACE_STYLE_FILL_AREA(#1835);
#1835 = FILL_AREA_STYLE('',(#1836));
#1836 = FILL_AREA_STYLE_COLOUR('',#1739);
#1837 = OVER_RIDING_STYLED_ITEM('overriding color',(#1838),#1167,#1814);
#1838 = PRESENTATION_STYLE_ASSIGNMENT((#1839));
#1839 = SURFACE_STYLE_USAGE(.BOTH.,#1840);
#1840 = SURFACE_SIDE_STYLE('',(#1841));
#1841 = SURFACE_STYLE_FILL_AREA(#1842);
#1842 = FILL_AREA_STYLE('',(#1843));
#1843 = FILL_AREA_STYLE_COLOUR('',#1739);
#1844 = STYLED_ITEM('color',(#1845),#1176);
#1845 = PRESENTATION_STYLE_ASSIGNMENT((#1846,#1851));
#1846 = SURFACE_STYLE_USAGE(.BOTH.,#1847);
#1847 = SURFACE_SIDE_STYLE('',(#1848));
#1848 = SURFACE_STYLE_FILL_AREA(#1849);
#1849 = FILL_AREA_STYLE('',(#1850));
#1850 = FILL_AREA_STYLE_COLOUR('',#1508);
#1851 = CURVE_STYLE('',#1852,POSITIVE_LENGTH_MEASURE(0.1),#1511);
#1852 = DRAUGHTING_PRE_DEFINED_CURVE_FONT('continuous');
#1853 = OVER_RIDING_STYLED_ITEM('overriding color',(#1854),#1178,#1844);
#1854 = PRESENTATION_STYLE_ASSIGNMENT((#1855));
#1855 = SURFACE_STYLE_USAGE(.BOTH.,#1856);
#1856 = SURFACE_SIDE_STYLE('',(#1857));
#1857 = SURFACE_STYLE_FILL_AREA(#1858);
#1858 = FILL_AREA_STYLE('',(#1859));
#1859 = FILL_AREA_STYLE_COLOUR('',#1739);
#1860 = OVER_RIDING_STYLED_ITEM('overriding color',(#1861),#1211,#1844);
#1861 = PRESENTATION_STYLE_ASSIGNMENT((#1862));
#1862 = SURFACE_STYLE_USAGE(.BOTH.,#1863);
#1863 = SURFACE_SIDE_STYLE('',(#1864));
#1864 = SURFACE_STYLE_FILL_AREA(#1865);
#1865 = FILL_AREA_STYLE('',(#1866));
#1866 = FILL_AREA_STYLE_COLOUR('',#1739);
#1867 = OVER_RIDING_STYLED_ITEM('overriding color',(#1868),#1220,#1844);
#1868 = PRESENTATION_STYLE_ASSIGNMENT((#1869));
#1869 = SURFACE_STYLE_USAGE(.BOTH.,#1870);
#1870 = SURFACE_SIDE_STYLE('',(#1871));
#1871 = SURFACE_STYLE_FILL_AREA(#1872);
#1872 = FILL_AREA_STYLE('',(#1873));
#1873 = FILL_AREA_STYLE_COLOUR('',#1739);
#1874 = STYLED_ITEM('color',(#1875),#1229);
#1875 = PRESENTATION_STYLE_ASSIGNMENT((#1876,#1881));
#1876 = SURFACE_STYLE_USAGE(.BOTH.,#1877);
#1877 = SURFACE_SIDE_STYLE('',(#1878));
#1878 = SURFACE_STYLE_FILL_AREA(#1879);
#1879 = FILL_AREA_STYLE('',(#1880));
#1880 = FILL_AREA_STYLE_COLOUR('',#1508);
#1881 = CURVE_STYLE('',#1882,POSITIVE_LENGTH_MEASURE(0.1),#1511);
#1882 = DRAUGHTING_PRE_DEFINED_CURVE_FONT('continuous');
#1883 = OVER_RIDING_STYLED_ITEM('overriding color',(#1884),#1231,#1874);
#1884 = PRESENTATION_STYLE_ASSIGNMENT((#1885));
#1885 = SURFACE_STYLE_USAGE(.BOTH.,#1886);
#1886 = SURFACE_SIDE_STYLE('',(#1887));
#1887 = SURFACE_STYLE_FILL_AREA(#1888);
#1888 = FILL_AREA_STYLE('',(#1889));
#1889 = FILL_AREA_STYLE_COLOUR('',#1739);
#1890 = OVER_RIDING_STYLED_ITEM('overriding color',(#1891),#1264,#1874);
#1891 = PRESENTATION_STYLE_ASSIGNMENT((#1892));
#1892 = SURFACE_STYLE_USAGE(.BOTH.,#1893);
#1893 = SURFACE_SIDE_STYLE('',(#1894));
#1894 = SURFACE_STYLE_FILL_AREA(#1895);
#1895 = FILL_AREA_STYLE('',(#1896));
#1896 = FILL_AREA_STYLE_COLOUR('',#1739);
#1897 = OVER_RIDING_STYLED_ITEM('overriding color',(#1898),#1273,#1874);
#1898 = PRESENTATION_STYLE_ASSIGNMENT((#1899));
#1899 = SURFACE_STYLE_USAGE(.BOTH.,#1900);
#1900 = SURFACE_SIDE_STYLE('',(#1901));
#1901 = SURFACE_STYLE_FILL_AREA(#1902);
#1902 = FILL_AREA_STYLE('',(#1903));
#1903 = FILL_AREA_STYLE_COLOUR('',#1739);
#1904 = STYLED_ITEM('color',(#1905),#1282);
#1905 = PRESENTATION_STYLE_ASSIGNMENT((#1906,#1911));
#1906 = SURFACE_STYLE_USAGE(.BOTH.,#1907);
#1907 = SURFACE_SIDE_STYLE('',(#1908));
#1908 = SURFACE_STYLE_FILL_AREA(#1909);
#1909 = FILL_AREA_STYLE('',(#1910));
#1910 = FILL_AREA_STYLE_COLOUR('',#1508);
#1911 = CURVE_STYLE('',#1912,POSITIVE_LENGTH_MEASURE(0.1),#1511);
#1912 = DRAUGHTING_PRE_DEFINED_CURVE_FONT('continuous');
#1913 = OVER_RIDING_STYLED_ITEM('overriding color',(#1914),#1284,#1904);
#1914 = PRESENTATION_STYLE_ASSIGNMENT((#1915));
#1915 = SURFACE_STYLE_USAGE(.BOTH.,#1916);
#1916 = SURFACE_SIDE_STYLE('',(#1917));
#1917 = SURFACE_STYLE_FILL_AREA(#1918);
#1918 = FILL_AREA_STYLE('',(#1919));
#1919 = FILL_AREA_STYLE_COLOUR('',#1739);
#1920 = OVER_RIDING_STYLED_ITEM('overriding color',(#1921),#1317,#1904);
#1921 = PRESENTATION_STYLE_ASSIGNMENT((#1922));
#1922 = SURFACE_STYLE_USAGE(.BOTH.,#1923);
#1923 = SURFACE_SIDE_STYLE('',(#1924));
#1924 = SURFACE_STYLE_FILL_AREA(#1925);
#1925 = FILL_AREA_STYLE('',(#1926));
#1926 = FILL_AREA_STYLE_COLOUR('',#1739);
#1927 = OVER_RIDING_STYLED_ITEM('overriding color',(#1928),#1326,#1904);
#1928 = PRESENTATION_STYLE_ASSIGNMENT((#1929));
#1929 = SURFACE_STYLE_USAGE(.BOTH.,#1930);
#1930 = SURFACE_SIDE_STYLE('',(#1931));
#1931 = SURFACE_STYLE_FILL_AREA(#1932);
#1932 = FILL_AREA_STYLE('',(#1933));
#1933 = FILL_AREA_STYLE_COLOUR('',#1739);
#1934 = STYLED_ITEM('color',(#1935),#1335);
#1935 = PRESENTATION_STYLE_ASSIGNMENT((#1936,#1941));
#1936 = SURFACE_STYLE_USAGE(.BOTH.,#1937);
#1937 = SURFACE_SIDE_STYLE('',(#1938));
#1938 = SURFACE_STYLE_FILL_AREA(#1939);
#1939 = FILL_AREA_STYLE('',(#1940));
#1940 = FILL_AREA_STYLE_COLOUR('',#1508);
#1941 = CURVE_STYLE('',#1942,POSITIVE_LENGTH_MEASURE(0.1),#1511);
#1942 = DRAUGHTING_PRE_DEFINED_CURVE_FONT('continuous');
#1943 = OVER_RIDING_STYLED_ITEM('overriding color',(#1944),#1337,#1934);
#1944 = PRESENTATION_STYLE_ASSIGNMENT((#1945));
#1945 = SURFACE_STYLE_USAGE(.BOTH.,#1946);
#1946 = SURFACE_SIDE_STYLE('',(#1947));
#1947 = SURFACE_STYLE_FILL_AREA(#1948);
#1948 = FILL_AREA_STYLE('',(#1949));
#1949 = FILL_AREA_STYLE_COLOUR('',#1739);
#1950 = OVER_RIDING_STYLED_ITEM('overriding color',(#1951),#1370,#1934);
#1951 = PRESENTATION_STYLE_ASSIGNMENT((#1952));
#1952 = SURFACE_STYLE_USAGE(.BOTH.,#1953);
#1953 = SURFACE_SIDE_STYLE('',(#1954));
#1954 = SURFACE_STYLE_FILL_AREA(#1955);
#1955 = FILL_AREA_STYLE('',(#1956));
#1956 = FILL_AREA_STYLE_COLOUR('',#1739);
#1957 = OVER_RIDING_STYLED_ITEM('overriding color',(#1958),#1379,#1934);
#1958 = PRESENTATION_STYLE_ASSIGNMENT((#1959));
#1959 = SURFACE_STYLE_USAGE(.BOTH.,#1960);
#1960 = SURFACE_SIDE_STYLE('',(#1961));
#1961 = SURFACE_STYLE_FILL_AREA(#1962);
#1962 = FILL_AREA_STYLE('',(#1963));
#1963 = FILL_AREA_STYLE_COLOUR('',#1739);
#1964 = STYLED_ITEM('color',(#1965),#1388);
#1965 = PRESENTATION_STYLE_ASSIGNMENT((#1966,#1971));
#1966 = SURFACE_STYLE_USAGE(.BOTH.,#1967);
#1967 = SURFACE_SIDE_STYLE('',(#1968));
#1968 = SURFACE_STYLE_FILL_AREA(#1969);
#1969 = FILL_AREA_STYLE('',(#1970));
#1970 = FILL_AREA_STYLE_COLOUR('',#1508);
#1971 = CURVE_STYLE('',#1972,POSITIVE_LENGTH_MEASURE(0.1),#1511);
#1972 = DRAUGHTING_PRE_DEFINED_CURVE_FONT('continuous');
#1973 = OVER_RIDING_STYLED_ITEM('overriding color',(#1974),#1390,#1964);
#1974 = PRESENTATION_STYLE_ASSIGNMENT((#1975));
#1975 = SURFACE_STYLE_USAGE(.BOTH.,#1976);
#1976 = SURFACE_SIDE_STYLE('',(#1977));
#1977 = SURFACE_STYLE_FILL_AREA(#1978);
#1978 = FILL_AREA_STYLE('',(#1979));
#1979 = FILL_AREA_STYLE_COLOUR('',#1739);
#1980 = OVER_RIDING_STYLED_ITEM('overriding color',(#1981),#1423,#1964);
#1981 = PRESENTATION_STYLE_ASSIGNMENT((#1982));
#1982 = SURFACE_STYLE_USAGE(.BOTH.,#1983);
#1983 = SURFACE_SIDE_STYLE('',(#1984));
#1984 = SURFACE_STYLE_FILL_AREA(#1985);
#1985 = FILL_AREA_STYLE('',(#1986));
#1986 = FILL_AREA_STYLE_COLOUR('',#1739);
#1987 = OVER_RIDING_STYLED_ITEM('overriding color',(#1988),#1432,#1964);
#1988 = PRESENTATION_STYLE_ASSIGNMENT((#1989));
#1989 = SURFACE_STYLE_USAGE(.BOTH.,#1990);
#1990 = SURFACE_SIDE_STYLE('',(#1991));
#1991 = SURFACE_STYLE_FILL_AREA(#1992);
#1992 = FILL_AREA_STYLE('',(#1993));
#1993 = FILL_AREA_STYLE_COLOUR('',#1739);
#1994 = STYLED_ITEM('color',(#1995),#1441);
#1995 = PRESENTATION_STYLE_ASSIGNMENT((#1996,#2001));
#1996 = SURFACE_STYLE_USAGE(.BOTH.,#1997);
#1997 = SURFACE_SIDE_STYLE('',(#1998));
#1998 = SURFACE_STYLE_FILL_AREA(#1999);
#1999 = FILL_AREA_STYLE('',(#2000));
#2000 = FILL_AREA_STYLE_COLOUR('',#1508);
#2001 = CURVE_STYLE('',#2002,POSITIVE_LENGTH_MEASURE(0.1),#1511);
#2002 = DRAUGHTING_PRE_DEFINED_CURVE_FONT('continuous');
#2003 = OVER_RIDING_STYLED_ITEM('overriding color',(#2004),#1443,#1994);
#2004 = PRESENTATION_STYLE_ASSIGNMENT((#2005));
#2005 = SURFACE_STYLE_USAGE(.BOTH.,#2006);
#2006 = SURFACE_SIDE_STYLE('',(#2007));
#2007 = SURFACE_STYLE_FILL_AREA(#2008);
#2008 = FILL_AREA_STYLE('',(#2009));
#2009 = FILL_AREA_STYLE_COLOUR('',#1739);
#2010 = OVER_RIDING_STYLED_ITEM('overriding color',(#2011),#1476,#1994);
#2011 = PRESENTATION_STYLE_ASSIGNMENT((#2012));
#2012 = SURFACE_STYLE_USAGE(.BOTH.,#2013);
#2013 = SURFACE_SIDE_STYLE('',(#2014));
#2014 = SURFACE_STYLE_FILL_AREA(#2015);
#2015 = FILL_AREA_STYLE('',(#2016));
#2016 = FILL_AREA_STYLE_COLOUR('',#1739);
#2017 = OVER_RIDING_STYLED_ITEM('overriding color',(#2018),#1485,#1994);
#2018 = PRESENTATION_STYLE_ASSIGNMENT((#2019));
#2019 = SURFACE_STYLE_USAGE(.BOTH.,#2020);
#2020 = SURFACE_SIDE_STYLE('',(#2021));
#2021 = SURFACE_STYLE_FILL_AREA(#2022);
#2022 = FILL_AREA_STYLE('',(#2023));
#2023 = FILL_AREA_STYLE_COLOUR('',#1739);
ENDSEC;
END-ISO-10303-21;
