ISO-10303-21;
HEADER;
FILE_DESCRIPTION(('FreeCAD Model'),'2;1');
FILE_NAME(
'/home/huba/pCloudDrive/_Freelance/0068 - OpenVentilator/01 - 
Electronic parts/GKS-913-0089.step','2020-05-04T13:38:56',('Author'),(''
    ),'Open CASCADE STEP processor 7.4','FreeCAD','Unknown');
FILE_SCHEMA(('AUTOMOTIVE_DESIGN { 1 0 10303 214 1 1 1 1 }'));
ENDSEC;
DATA;
#1 = APPLICATION_PROTOCOL_DEFINITION('international standard',
  'automotive_design',2000,#2);
#2 = APPLICATION_CONTEXT(
  'core data for automotive mechanical design processes');
#3 = SHAPE_DEFINITION_REPRESENTATION(#4,#10);
#4 = PRODUCT_DEFINITION_SHAPE('','',#5);
#5 = PRODUCT_DEFINITION('design','',#6,#9);
#6 = PRODUCT_DEFINITION_FORMATION('','',#7);
#7 = PRODUCT('GKS-913-0089','GKS-913-0089','',(#8));
#8 = PRODUCT_CONTEXT('',#2,'mechanical');
#9 = PRODUCT_DEFINITION_CONTEXT('part definition',#2,'design');
#10 = ADVANCED_BREP_SHAPE_REPRESENTATION('',(#11,#15),#283);
#11 = AXIS2_PLACEMENT_3D('',#12,#13,#14);
#12 = CARTESIAN_POINT('',(0.,0.,0.));
#13 = DIRECTION('',(0.,0.,1.));
#14 = DIRECTION('',(1.,0.,-0.));
#15 = MANIFOLD_SOLID_BREP('',#16);
#16 = CLOSED_SHELL('',(#17,#44,#69,#89,#114,#134,#159,#184,#204,#229,
    #249,#274));
#17 = ADVANCED_FACE('',(#18),#39,.T.);
#18 = FACE_BOUND('',#19,.F.);
#19 = EDGE_LOOP('',(#20,#31,#38));
#20 = ORIENTED_EDGE('',*,*,#21,.T.);
#21 = EDGE_CURVE('',#22,#24,#26,.T.);
#22 = VERTEX_POINT('',#23);
#23 = CARTESIAN_POINT('',(0.,0.,0.));
#24 = VERTEX_POINT('',#25);
#25 = CARTESIAN_POINT('',(-1.15,7.660538869914E-16,1.15));
#26 = CIRCLE('',#27,1.15);
#27 = AXIS2_PLACEMENT_3D('',#28,#29,#30);
#28 = CARTESIAN_POINT('',(-1.15,0.,0.));
#29 = DIRECTION('',(0.,-1.,6.661338147751E-16));
#30 = DIRECTION('',(1.,0.,0.));
#31 = ORIENTED_EDGE('',*,*,#32,.F.);
#32 = EDGE_CURVE('',#24,#24,#33,.T.);
#33 = CIRCLE('',#34,1.15);
#34 = AXIS2_PLACEMENT_3D('',#35,#36,#37);
#35 = CARTESIAN_POINT('',(-1.15,0.,0.));
#36 = DIRECTION('',(1.,0.,-0.));
#37 = DIRECTION('',(0.,6.661338147751E-16,1.));
#38 = ORIENTED_EDGE('',*,*,#21,.F.);
#39 = SPHERICAL_SURFACE('',#40,1.15);
#40 = AXIS2_PLACEMENT_3D('',#41,#42,#43);
#41 = CARTESIAN_POINT('',(-1.15,0.,0.));
#42 = DIRECTION('',(-1.,0.,-0.));
#43 = DIRECTION('',(0.,6.661338147751E-16,1.));
#44 = ADVANCED_FACE('',(#45),#64,.T.);
#45 = FACE_BOUND('',#46,.F.);
#46 = EDGE_LOOP('',(#47,#48,#56,#63));
#47 = ORIENTED_EDGE('',*,*,#32,.T.);
#48 = ORIENTED_EDGE('',*,*,#49,.T.);
#49 = EDGE_CURVE('',#24,#50,#52,.T.);
#50 = VERTEX_POINT('',#51);
#51 = CARTESIAN_POINT('',(-1.6,7.660538869914E-16,1.15));
#52 = LINE('',#53,#54);
#53 = CARTESIAN_POINT('',(-1.15,7.660538869914E-16,1.15));
#54 = VECTOR('',#55,1.);
#55 = DIRECTION('',(-1.,0.,0.));
#56 = ORIENTED_EDGE('',*,*,#57,.F.);
#57 = EDGE_CURVE('',#50,#50,#58,.T.);
#58 = CIRCLE('',#59,1.15);
#59 = AXIS2_PLACEMENT_3D('',#60,#61,#62);
#60 = CARTESIAN_POINT('',(-1.6,0.,0.));
#61 = DIRECTION('',(1.,0.,-0.));
#62 = DIRECTION('',(0.,6.661338147751E-16,1.));
#63 = ORIENTED_EDGE('',*,*,#49,.F.);
#64 = CYLINDRICAL_SURFACE('',#65,1.15);
#65 = AXIS2_PLACEMENT_3D('',#66,#67,#68);
#66 = CARTESIAN_POINT('',(-1.15,0.,0.));
#67 = DIRECTION('',(-1.,0.,-0.));
#68 = DIRECTION('',(0.,6.661338147751E-16,1.));
#69 = ADVANCED_FACE('',(#70,#73),#84,.F.);
#70 = FACE_BOUND('',#71,.F.);
#71 = EDGE_LOOP('',(#72));
#72 = ORIENTED_EDGE('',*,*,#57,.T.);
#73 = FACE_BOUND('',#74,.F.);
#74 = EDGE_LOOP('',(#75));
#75 = ORIENTED_EDGE('',*,*,#76,.F.);
#76 = EDGE_CURVE('',#77,#77,#79,.T.);
#77 = VERTEX_POINT('',#78);
#78 = CARTESIAN_POINT('',(-1.6,5.995204332976E-16,0.9));
#79 = CIRCLE('',#80,0.9);
#80 = AXIS2_PLACEMENT_3D('',#81,#82,#83);
#81 = CARTESIAN_POINT('',(-1.6,0.,0.));
#82 = DIRECTION('',(1.,0.,-0.));
#83 = DIRECTION('',(0.,6.661338147751E-16,1.));
#84 = PLANE('',#85);
#85 = AXIS2_PLACEMENT_3D('',#86,#87,#88);
#86 = CARTESIAN_POINT('',(-1.6,0.,0.));
#87 = DIRECTION('',(1.,0.,0.));
#88 = DIRECTION('',(0.,6.661338147751E-16,1.));
#89 = ADVANCED_FACE('',(#90),#109,.T.);
#90 = FACE_BOUND('',#91,.F.);
#91 = EDGE_LOOP('',(#92,#93,#101,#108));
#92 = ORIENTED_EDGE('',*,*,#76,.T.);
#93 = ORIENTED_EDGE('',*,*,#94,.T.);
#94 = EDGE_CURVE('',#77,#95,#97,.T.);
#95 = VERTEX_POINT('',#96);
#96 = CARTESIAN_POINT('',(-5.1,5.995204332976E-16,0.9));
#97 = LINE('',#98,#99);
#98 = CARTESIAN_POINT('',(-1.6,5.995204332976E-16,0.9));
#99 = VECTOR('',#100,1.);
#100 = DIRECTION('',(-1.,0.,0.));
#101 = ORIENTED_EDGE('',*,*,#102,.F.);
#102 = EDGE_CURVE('',#95,#95,#103,.T.);
#103 = CIRCLE('',#104,0.9);
#104 = AXIS2_PLACEMENT_3D('',#105,#106,#107);
#105 = CARTESIAN_POINT('',(-5.1,0.,0.));
#106 = DIRECTION('',(1.,0.,-0.));
#107 = DIRECTION('',(0.,6.661338147751E-16,1.));
#108 = ORIENTED_EDGE('',*,*,#94,.F.);
#109 = CYLINDRICAL_SURFACE('',#110,0.9);
#110 = AXIS2_PLACEMENT_3D('',#111,#112,#113);
#111 = CARTESIAN_POINT('',(-1.6,0.,0.));
#112 = DIRECTION('',(-1.,0.,-0.));
#113 = DIRECTION('',(0.,6.661338147751E-16,1.));
#114 = ADVANCED_FACE('',(#115,#118),#129,.T.);
#115 = FACE_BOUND('',#116,.F.);
#116 = EDGE_LOOP('',(#117));
#117 = ORIENTED_EDGE('',*,*,#102,.T.);
#118 = FACE_BOUND('',#119,.F.);
#119 = EDGE_LOOP('',(#120));
#120 = ORIENTED_EDGE('',*,*,#121,.F.);
#121 = EDGE_CURVE('',#122,#122,#124,.T.);
#122 = VERTEX_POINT('',#123);
#123 = CARTESIAN_POINT('',(-5.1,9.349786534904E-16,1.403589838486));
#124 = CIRCLE('',#125,1.403589838486);
#125 = AXIS2_PLACEMENT_3D('',#126,#127,#128);
#126 = CARTESIAN_POINT('',(-5.1,0.,0.));
#127 = DIRECTION('',(1.,0.,-0.));
#128 = DIRECTION('',(0.,6.661338147751E-16,1.));
#129 = PLANE('',#130);
#130 = AXIS2_PLACEMENT_3D('',#131,#132,#133);
#131 = CARTESIAN_POINT('',(-5.1,0.,0.));
#132 = DIRECTION('',(1.,0.,0.));
#133 = DIRECTION('',(-0.,6.661338147751E-16,1.));
#134 = ADVANCED_FACE('',(#135),#154,.T.);
#135 = FACE_BOUND('',#136,.F.);
#136 = EDGE_LOOP('',(#137,#138,#146,#153));
#137 = ORIENTED_EDGE('',*,*,#121,.T.);
#138 = ORIENTED_EDGE('',*,*,#139,.T.);
#139 = EDGE_CURVE('',#122,#140,#142,.T.);
#140 = VERTEX_POINT('',#141);
#141 = CARTESIAN_POINT('',(-5.7,1.165734175856E-15,1.75));
#142 = LINE('',#143,#144);
#143 = CARTESIAN_POINT('',(-5.1,9.349786534904E-16,1.403589838486));
#144 = VECTOR('',#145,1.);
#145 = DIRECTION('',(-0.866025403784,3.330669073875E-16,0.5));
#146 = ORIENTED_EDGE('',*,*,#147,.F.);
#147 = EDGE_CURVE('',#140,#140,#148,.T.);
#148 = CIRCLE('',#149,1.75);
#149 = AXIS2_PLACEMENT_3D('',#150,#151,#152);
#150 = CARTESIAN_POINT('',(-5.7,0.,0.));
#151 = DIRECTION('',(1.,0.,-0.));
#152 = DIRECTION('',(0.,6.661338147751E-16,1.));
#153 = ORIENTED_EDGE('',*,*,#139,.F.);
#154 = CONICAL_SURFACE('',#155,1.403589838486,0.523598775598);
#155 = AXIS2_PLACEMENT_3D('',#156,#157,#158);
#156 = CARTESIAN_POINT('',(-5.1,0.,0.));
#157 = DIRECTION('',(-1.,0.,-0.));
#158 = DIRECTION('',(0.,6.661338147751E-16,1.));
#159 = ADVANCED_FACE('',(#160),#179,.T.);
#160 = FACE_BOUND('',#161,.F.);
#161 = EDGE_LOOP('',(#162,#163,#171,#178));
#162 = ORIENTED_EDGE('',*,*,#147,.T.);
#163 = ORIENTED_EDGE('',*,*,#164,.T.);
#164 = EDGE_CURVE('',#140,#165,#167,.T.);
#165 = VERTEX_POINT('',#166);
#166 = CARTESIAN_POINT('',(-5.9,1.165734175856E-15,1.75));
#167 = LINE('',#168,#169);
#168 = CARTESIAN_POINT('',(-5.7,1.165734175856E-15,1.75));
#169 = VECTOR('',#170,1.);
#170 = DIRECTION('',(-1.,0.,0.));
#171 = ORIENTED_EDGE('',*,*,#172,.F.);
#172 = EDGE_CURVE('',#165,#165,#173,.T.);
#173 = CIRCLE('',#174,1.75);
#174 = AXIS2_PLACEMENT_3D('',#175,#176,#177);
#175 = CARTESIAN_POINT('',(-5.9,0.,0.));
#176 = DIRECTION('',(1.,0.,-0.));
#177 = DIRECTION('',(0.,6.661338147751E-16,1.));
#178 = ORIENTED_EDGE('',*,*,#164,.F.);
#179 = CYLINDRICAL_SURFACE('',#180,1.75);
#180 = AXIS2_PLACEMENT_3D('',#181,#182,#183);
#181 = CARTESIAN_POINT('',(-5.7,0.,0.));
#182 = DIRECTION('',(-1.,0.,-0.));
#183 = DIRECTION('',(0.,6.661338147751E-16,1.));
#184 = ADVANCED_FACE('',(#185,#188),#199,.F.);
#185 = FACE_BOUND('',#186,.F.);
#186 = EDGE_LOOP('',(#187));
#187 = ORIENTED_EDGE('',*,*,#172,.T.);
#188 = FACE_BOUND('',#189,.F.);
#189 = EDGE_LOOP('',(#190));
#190 = ORIENTED_EDGE('',*,*,#191,.F.);
#191 = EDGE_CURVE('',#192,#192,#194,.T.);
#192 = VERTEX_POINT('',#193);
#193 = CARTESIAN_POINT('',(-5.9,9.992007221626E-16,1.5));
#194 = CIRCLE('',#195,1.5);
#195 = AXIS2_PLACEMENT_3D('',#196,#197,#198);
#196 = CARTESIAN_POINT('',(-5.9,0.,0.));
#197 = DIRECTION('',(1.,0.,-0.));
#198 = DIRECTION('',(0.,6.661338147751E-16,1.));
#199 = PLANE('',#200);
#200 = AXIS2_PLACEMENT_3D('',#201,#202,#203);
#201 = CARTESIAN_POINT('',(-5.9,0.,0.));
#202 = DIRECTION('',(1.,0.,0.));
#203 = DIRECTION('',(0.,6.661338147751E-16,1.));
#204 = ADVANCED_FACE('',(#205),#224,.T.);
#205 = FACE_BOUND('',#206,.F.);
#206 = EDGE_LOOP('',(#207,#208,#216,#223));
#207 = ORIENTED_EDGE('',*,*,#191,.T.);
#208 = ORIENTED_EDGE('',*,*,#209,.T.);
#209 = EDGE_CURVE('',#192,#210,#212,.T.);
#210 = VERTEX_POINT('',#211);
#211 = CARTESIAN_POINT('',(-7.2,9.992007221626E-16,1.5));
#212 = LINE('',#213,#214);
#213 = CARTESIAN_POINT('',(-5.9,9.992007221626E-16,1.5));
#214 = VECTOR('',#215,1.);
#215 = DIRECTION('',(-1.,0.,0.));
#216 = ORIENTED_EDGE('',*,*,#217,.F.);
#217 = EDGE_CURVE('',#210,#210,#218,.T.);
#218 = CIRCLE('',#219,1.5);
#219 = AXIS2_PLACEMENT_3D('',#220,#221,#222);
#220 = CARTESIAN_POINT('',(-7.2,0.,0.));
#221 = DIRECTION('',(1.,0.,-0.));
#222 = DIRECTION('',(0.,6.661338147751E-16,1.));
#223 = ORIENTED_EDGE('',*,*,#209,.F.);
#224 = CYLINDRICAL_SURFACE('',#225,1.5);
#225 = AXIS2_PLACEMENT_3D('',#226,#227,#228);
#226 = CARTESIAN_POINT('',(-5.9,0.,0.));
#227 = DIRECTION('',(-1.,0.,-0.));
#228 = DIRECTION('',(0.,6.661338147751E-16,1.));
#229 = ADVANCED_FACE('',(#230,#233),#244,.F.);
#230 = FACE_BOUND('',#231,.F.);
#231 = EDGE_LOOP('',(#232));
#232 = ORIENTED_EDGE('',*,*,#217,.T.);
#233 = FACE_BOUND('',#234,.F.);
#234 = EDGE_LOOP('',(#235));
#235 = ORIENTED_EDGE('',*,*,#236,.F.);
#236 = EDGE_CURVE('',#237,#237,#239,.T.);
#237 = VERTEX_POINT('',#238);
#238 = CARTESIAN_POINT('',(-7.2,9.159339953158E-16,1.375));
#239 = CIRCLE('',#240,1.375);
#240 = AXIS2_PLACEMENT_3D('',#241,#242,#243);
#241 = CARTESIAN_POINT('',(-7.2,0.,0.));
#242 = DIRECTION('',(1.,0.,-0.));
#243 = DIRECTION('',(0.,6.661338147751E-16,1.));
#244 = PLANE('',#245);
#245 = AXIS2_PLACEMENT_3D('',#246,#247,#248);
#246 = CARTESIAN_POINT('',(-7.2,0.,0.));
#247 = DIRECTION('',(1.,0.,0.));
#248 = DIRECTION('',(0.,6.661338147751E-16,1.));
#249 = ADVANCED_FACE('',(#250),#269,.T.);
#250 = FACE_BOUND('',#251,.F.);
#251 = EDGE_LOOP('',(#252,#253,#261,#268));
#252 = ORIENTED_EDGE('',*,*,#236,.T.);
#253 = ORIENTED_EDGE('',*,*,#254,.T.);
#254 = EDGE_CURVE('',#237,#255,#257,.T.);
#255 = VERTEX_POINT('',#256);
#256 = CARTESIAN_POINT('',(-15.1,9.159339953158E-16,1.375));
#257 = LINE('',#258,#259);
#258 = CARTESIAN_POINT('',(-7.2,9.159339953158E-16,1.375));
#259 = VECTOR('',#260,1.);
#260 = DIRECTION('',(-1.,0.,0.));
#261 = ORIENTED_EDGE('',*,*,#262,.F.);
#262 = EDGE_CURVE('',#255,#255,#263,.T.);
#263 = CIRCLE('',#264,1.375);
#264 = AXIS2_PLACEMENT_3D('',#265,#266,#267);
#265 = CARTESIAN_POINT('',(-15.1,0.,0.));
#266 = DIRECTION('',(1.,0.,-0.));
#267 = DIRECTION('',(0.,6.661338147751E-16,1.));
#268 = ORIENTED_EDGE('',*,*,#254,.F.);
#269 = CYLINDRICAL_SURFACE('',#270,1.375);
#270 = AXIS2_PLACEMENT_3D('',#271,#272,#273);
#271 = CARTESIAN_POINT('',(-7.2,0.,0.));
#272 = DIRECTION('',(-1.,0.,-0.));
#273 = DIRECTION('',(0.,6.661338147751E-16,1.));
#274 = ADVANCED_FACE('',(#275),#278,.F.);
#275 = FACE_BOUND('',#276,.F.);
#276 = EDGE_LOOP('',(#277));
#277 = ORIENTED_EDGE('',*,*,#262,.T.);
#278 = PLANE('',#279);
#279 = AXIS2_PLACEMENT_3D('',#280,#281,#282);
#280 = CARTESIAN_POINT('',(-15.1,0.,0.));
#281 = DIRECTION('',(1.,0.,0.));
#282 = DIRECTION('',(0.,6.661338147751E-16,1.));
#283 = ( GEOMETRIC_REPRESENTATION_CONTEXT(3) 
GLOBAL_UNCERTAINTY_ASSIGNED_CONTEXT((#287)) GLOBAL_UNIT_ASSIGNED_CONTEXT
((#284,#285,#286)) REPRESENTATION_CONTEXT('Context #1',
  '3D Context with UNIT and UNCERTAINTY') );
#284 = ( LENGTH_UNIT() NAMED_UNIT(*) SI_UNIT(.MILLI.,.METRE.) );
#285 = ( NAMED_UNIT(*) PLANE_ANGLE_UNIT() SI_UNIT($,.RADIAN.) );
#286 = ( NAMED_UNIT(*) SI_UNIT($,.STERADIAN.) SOLID_ANGLE_UNIT() );
#287 = UNCERTAINTY_MEASURE_WITH_UNIT(LENGTH_MEASURE(1.E-07),#284,
  'distance_accuracy_value','confusion accuracy');
#288 = PRODUCT_RELATED_PRODUCT_CATEGORY('part',$,(#7));
#289 = MECHANICAL_DESIGN_GEOMETRIC_PRESENTATION_REPRESENTATION('',(#290)
  ,#283);
#290 = STYLED_ITEM('color',(#291),#15);
#291 = PRESENTATION_STYLE_ASSIGNMENT((#292,#298));
#292 = SURFACE_STYLE_USAGE(.BOTH.,#293);
#293 = SURFACE_SIDE_STYLE('',(#294));
#294 = SURFACE_STYLE_FILL_AREA(#295);
#295 = FILL_AREA_STYLE('',(#296));
#296 = FILL_AREA_STYLE_COLOUR('',#297);
#297 = COLOUR_RGB('',0.800000011921,0.72549021244,0.137254908681);
#298 = CURVE_STYLE('',#299,POSITIVE_LENGTH_MEASURE(0.1),#300);
#299 = DRAUGHTING_PRE_DEFINED_CURVE_FONT('continuous');
#300 = COLOUR_RGB('',9.803921729326E-02,9.803921729326E-02,
  9.803921729326E-02);
ENDSEC;
END-ISO-10303-21;
