ISO-10303-21;
HEADER;
/****************************************************************
 * Generated by software with PDE/Lib inside                    *
 * PDE/Lib Version 3.2.2, created Thu Mar 23, 2000 at 18:38:49  *
 * International Technegroup Inc. (www.iti-oh.com)              *
 ****************************************************************/
FILE_DESCRIPTION((''),'2;1');
FILE_NAME('INDC1005X55N.stp','2009-06-23T13:46:09',(''),(''),'Mechanical Desktop 2006','Mechanical Desktop 2006',', , ');
FILE_SCHEMA(('AUTOMOTIVE_DESIGN { 1 2 10303 214 0 1 1 1 }'));
ENDSEC;
DATA;
#8=(NAMED_UNIT(*)PLANE_ANGLE_UNIT()SI_UNIT($,.RADIAN.));
#9=DIMENSIONAL_EXPONENTS(0.0,0.0,0.0,0.0,0.0,0.0,0.0);
#10=PLANE_ANGLE_MEASURE_WITH_UNIT(PLANE_ANGLE_MEASURE(0.017453292500000),#8);
#14=(CONVERSION_BASED_UNIT('DEGREE',#10)NAMED_UNIT(#9)PLANE_ANGLE_UNIT());
#18=(NAMED_UNIT(*)SI_UNIT($,.STERADIAN.)SOLID_ANGLE_UNIT());
#22=(LENGTH_UNIT()NAMED_UNIT(*)SI_UNIT(.MILLI.,.METRE.));
#23=UNCERTAINTY_MEASURE_WITH_UNIT(LENGTH_MEASURE(0.000001000000000),#22,'DISTANCE_ACCURACY_VALUE','');
#28=(GEOMETRIC_REPRESENTATION_CONTEXT(3)GLOBAL_UNCERTAINTY_ASSIGNED_CONTEXT((#23))GLOBAL_UNIT_ASSIGNED_CONTEXT((#14,#18,#22))REPRESENTATION_CONTEXT('None','None'));
#29=APPLICATION_CONTEXT('automotive design');
#30=APPLICATION_PROTOCOL_DEFINITION('DRAFT_INTERNATIONAL_STANDARD','automotive_design',1998,#29);
#31=PRODUCT_CONTEXT('3D Mechanical Parts',#29,'mechanical');
#32=PRODUCT('Product','Product','',(#31));
#33=PRODUCT_RELATED_PRODUCT_CATEGORY('part',$,(#32));
#34=PRODUCT_CATEGORY('part',$);
#35=PERSON('1','Design','Joe',$,$,$);
#36=ORGANIZATION($,'None','None');
#37=PERSON_AND_ORGANIZATION(#35,#36);
#38=PERSON_AND_ORGANIZATION_ROLE('design_owner');
#39=APPLIED_PERSON_AND_ORGANIZATION_ASSIGNMENT(#37,#38,(#32));
#40=PRODUCT_DEFINITION_FORMATION_WITH_SPECIFIED_SOURCE('None','',#32,.BOUGHT.);
#41=PERSON('2','Creator','Joe',$,$,$);
#42=ORGANIZATION($,'None','None');
#43=PERSON_AND_ORGANIZATION(#41,#42);
#44=PERSON_AND_ORGANIZATION_ROLE('creator');
#45=APPLIED_PERSON_AND_ORGANIZATION_ASSIGNMENT(#43,#44,(#40));
#46=PERSON('3','Supplier','Joe',$,$,$);
#47=ORGANIZATION($,'None','None');
#48=PERSON_AND_ORGANIZATION(#46,#47);
#49=PERSON_AND_ORGANIZATION_ROLE('design_supplier');
#50=APPLIED_PERSON_AND_ORGANIZATION_ASSIGNMENT(#48,#49,(#40));
#51=PRODUCT_DEFINITION_CONTEXT('part definition',#29,'design');
#52=PRODUCT_DEFINITION('None','',#40,#51);
#53=PERSON('4','Creator','Joe',$,$,$);
#54=ORGANIZATION($,'None','None');
#55=PERSON_AND_ORGANIZATION(#53,#54);
#56=PERSON_AND_ORGANIZATION_ROLE('creator');
#57=APPLIED_PERSON_AND_ORGANIZATION_ASSIGNMENT(#55,#56,(#52));
#58=CARTESIAN_POINT('NONE',(0.0,0.0,0.0));
#59=DIRECTION('NONE',(0.0,0.0,1.0));
#60=DIRECTION('NONE',(1.0,0.0,0.0));
#61=AXIS2_PLACEMENT_3D('NONE',#58,#59,#60);
#62=SHAPE_REPRESENTATION('SR1',(#61),#28);
#63=PRODUCT_DEFINITION_SHAPE('PDS1','Test Part',#52);
#64=SHAPE_DEFINITION_REPRESENTATION(#63,#62);
#65=CARTESIAN_POINT('',(-0.437500000000000,0.175000000000000,0.450000000000000));
#66=DIRECTION('',(1.0,0.0,0.0));
#67=DIRECTION('',(0.0,0.707106781186548,0.707106781186547));
#68=AXIS2_PLACEMENT_3D('',#65,#66,#67);
#69=CYLINDRICAL_SURFACE('',#68,0.100000000000000);
#70=CARTESIAN_POINT('',(-0.425000000000000,0.245710678118655,0.520710678118655));
#71=VERTEX_POINT('',#70);
#72=CARTESIAN_POINT('',(-0.175000000000000,0.245710678118655,0.520710678118655));
#73=VERTEX_POINT('',#72);
#74=CARTESIAN_POINT('',(-0.425000000000000,0.245710678118655,0.520710678118655));
#75=DIRECTION('',(1.0,0.0,0.0));
#76=VECTOR('',#75,0.250000000000000);
#77=LINE('',#74,#76);
#78=EDGE_CURVE('',#71,#73,#77,.T.);
#79=ORIENTED_EDGE('',*,*,#78,.F.);
#80=CARTESIAN_POINT('',(-0.425000000000000,0.175000000000000,0.550000000000000));
#81=VERTEX_POINT('',#80);
#82=CARTESIAN_POINT('',(-0.425000000000000,0.175000000000000,0.450000000000000));
#83=DIRECTION('',(1.0,0.0,0.0));
#84=DIRECTION('',(0.0,1.0,0.0));
#85=AXIS2_PLACEMENT_3D('',#82,#83,#84);
#86=CIRCLE('',#85,0.100000000000000);
#87=EDGE_CURVE('',#71,#81,#86,.T.);
#88=ORIENTED_EDGE('',*,*,#87,.T.);
#89=CARTESIAN_POINT('',(-0.175000000000000,0.175000000000000,0.550000000000000));
#90=VERTEX_POINT('',#89);
#91=CARTESIAN_POINT('',(-0.425000000000000,0.175000000000000,0.550000000000000));
#92=DIRECTION('',(1.0,0.0,0.0));
#93=VECTOR('',#92,0.250000000000000);
#94=LINE('',#91,#93);
#95=EDGE_CURVE('',#81,#90,#94,.T.);
#96=ORIENTED_EDGE('',*,*,#95,.T.);
#97=CARTESIAN_POINT('',(-0.175000000000000,0.175000000000000,0.450000000000000));
#98=DIRECTION('',(-1.000000000000000,0.0,0.0));
#99=DIRECTION('',(0.0,0.707106781186548,0.707106781186547));
#100=AXIS2_PLACEMENT_3D('',#97,#98,#99);
#101=CIRCLE('',#100,0.100000000000000);
#102=EDGE_CURVE('',#90,#73,#101,.T.);
#103=ORIENTED_EDGE('',*,*,#102,.T.);
#104=EDGE_LOOP('',(#79,#88,#96,#103));
#105=FACE_OUTER_BOUND('',#104,.T.);
#106=ADVANCED_FACE('',(#105),#69,.T.);
#107=CARTESIAN_POINT('',(-0.425000000000000,-0.137500000000000,0.450000000000000));
#108=DIRECTION('',(0.0,1.0,0.0));
#109=DIRECTION('',(-0.707106781186548,0.0,0.707106781186547));
#110=AXIS2_PLACEMENT_3D('',#107,#108,#109);
#111=CYLINDRICAL_SURFACE('',#110,0.100000000000000);
#112=CARTESIAN_POINT('',(-0.495710678118655,-0.175000000000000,0.520710678118655));
#113=VERTEX_POINT('',#112);
#114=CARTESIAN_POINT('',(-0.495710678118655,0.175000000000000,0.520710678118655));
#115=VERTEX_POINT('',#114);
#116=CARTESIAN_POINT('',(-0.495710678118655,-0.175000000000000,0.520710678118655));
#117=DIRECTION('',(0.0,1.0,0.0));
#118=VECTOR('',#117,0.350000000000001);
#119=LINE('',#116,#118);
#120=EDGE_CURVE('',#113,#115,#119,.T.);
#121=ORIENTED_EDGE('',*,*,#120,.F.);
#122=CARTESIAN_POINT('',(-0.425000000000000,-0.175000000000000,0.550000000000000));
#123=VERTEX_POINT('',#122);
#124=CARTESIAN_POINT('',(-0.425000000000000,-0.175000000000000,0.450000000000000));
#125=DIRECTION('',(0.0,1.0,0.0));
#126=DIRECTION('',(-1.0,0.0,0.0));
#127=AXIS2_PLACEMENT_3D('',#124,#125,#126);
#128=CIRCLE('',#127,0.100000000000000);
#129=EDGE_CURVE('',#113,#123,#128,.T.);
#130=ORIENTED_EDGE('',*,*,#129,.T.);
#131=CARTESIAN_POINT('',(-0.425000000000000,-0.175000000000000,0.550000000000000));
#132=DIRECTION('',(0.0,1.0,0.0));
#133=VECTOR('',#132,0.350000000000001);
#134=LINE('',#131,#133);
#135=EDGE_CURVE('',#123,#81,#134,.T.);
#136=ORIENTED_EDGE('',*,*,#135,.T.);
#137=CARTESIAN_POINT('',(-0.425000000000000,0.175000000000000,0.450000000000000));
#138=DIRECTION('',(0.0,-1.0,0.0));
#139=DIRECTION('',(0.0,0.0,1.0));
#140=AXIS2_PLACEMENT_3D('',#137,#138,#139);
#141=CIRCLE('',#140,0.100000000000000);
#142=EDGE_CURVE('',#81,#115,#141,.T.);
#143=ORIENTED_EDGE('',*,*,#142,.T.);
#144=EDGE_LOOP('',(#121,#130,#136,#143));
#145=FACE_OUTER_BOUND('',#144,.T.);
#146=ADVANCED_FACE('',(#145),#111,.T.);
#147=CARTESIAN_POINT('',(-0.262500000000000,-0.175000000000000,0.450000000000000));
#148=DIRECTION('',(-1.0,0.0,0.0));
#149=DIRECTION('',(0.0,-0.707106781186548,0.707106781186547));
#150=AXIS2_PLACEMENT_3D('',#147,#148,#149);
#151=CYLINDRICAL_SURFACE('',#150,0.100000000000000);
#152=CARTESIAN_POINT('',(-0.175000000000000,-0.245710678118655,0.520710678118655));
#153=VERTEX_POINT('',#152);
#154=CARTESIAN_POINT('',(-0.425000000000000,-0.245710678118655,0.520710678118655));
#155=VERTEX_POINT('',#154);
#156=CARTESIAN_POINT('',(-0.175000000000000,-0.245710678118655,0.520710678118655));
#157=DIRECTION('',(-1.0,0.0,0.0));
#158=VECTOR('',#157,0.250000000000000);
#159=LINE('',#156,#158);
#160=EDGE_CURVE('',#153,#155,#159,.T.);
#161=ORIENTED_EDGE('',*,*,#160,.F.);
#162=CARTESIAN_POINT('',(-0.175000000000000,-0.175000000000000,0.550000000000000));
#163=VERTEX_POINT('',#162);
#164=CARTESIAN_POINT('',(-0.175000000000000,-0.175000000000000,0.450000000000000));
#165=DIRECTION('',(-1.000000000000000,0.0,0.0));
#166=DIRECTION('',(0.0,-0.707106781186548,0.707106781186547));
#167=AXIS2_PLACEMENT_3D('',#164,#165,#166);
#168=CIRCLE('',#167,0.100000000000000);
#169=EDGE_CURVE('',#153,#163,#168,.T.);
#170=ORIENTED_EDGE('',*,*,#169,.T.);
#171=CARTESIAN_POINT('',(-0.175000000000000,-0.175000000000000,0.550000000000000));
#172=DIRECTION('',(-1.0,0.0,0.0));
#173=VECTOR('',#172,0.250000000000000);
#174=LINE('',#171,#173);
#175=EDGE_CURVE('',#163,#123,#174,.T.);
#176=ORIENTED_EDGE('',*,*,#175,.T.);
#177=CARTESIAN_POINT('',(-0.425000000000000,-0.175000000000000,0.450000000000000));
#178=DIRECTION('',(1.0,0.0,0.0));
#179=DIRECTION('',(0.0,0.0,1.0));
#180=AXIS2_PLACEMENT_3D('',#177,#178,#179);
#181=CIRCLE('',#180,0.100000000000000);
#182=EDGE_CURVE('',#123,#155,#181,.T.);
#183=ORIENTED_EDGE('',*,*,#182,.T.);
#184=EDGE_LOOP('',(#161,#170,#176,#183));
#185=FACE_OUTER_BOUND('',#184,.T.);
#186=ADVANCED_FACE('',(#185),#151,.T.);
#187=CARTESIAN_POINT('',(-0.425000000000000,-0.175000000000000,0.0));
#188=DIRECTION('',(0.0,0.0,1.0));
#189=DIRECTION('',(-0.707106781186547,-0.707106781186548,0.0));
#190=AXIS2_PLACEMENT_3D('',#187,#188,#189);
#191=CYLINDRICAL_SURFACE('',#190,0.100000000000000);
#192=CARTESIAN_POINT('',(-0.495710678118655,-0.245710678118655,0.100000000000000));
#193=VERTEX_POINT('',#192);
#194=CARTESIAN_POINT('',(-0.495710678118655,-0.245710678118655,0.450000000000000));
#195=VERTEX_POINT('',#194);
#196=CARTESIAN_POINT('',(-0.495710678118655,-0.245710678118655,0.100000000000000));
#197=DIRECTION('',(0.0,0.0,1.0));
#198=VECTOR('',#197,0.350000000000000);
#199=LINE('',#196,#198);
#200=EDGE_CURVE('',#193,#195,#199,.T.);
#201=ORIENTED_EDGE('',*,*,#200,.F.);
#202=CARTESIAN_POINT('',(-0.425000000000000,-0.275000000000000,0.100000000000000));
#203=VERTEX_POINT('',#202);
#204=CARTESIAN_POINT('',(-0.425000000000000,-0.175000000000000,0.100000000000000));
#205=DIRECTION('',(0.0,0.0,-1.0));
#206=DIRECTION('',(-0.707106781186547,-0.707106781186548,0.0));
#207=AXIS2_PLACEMENT_3D('',#204,#205,#206);
#208=CIRCLE('',#207,0.100000000000000);
#209=EDGE_CURVE('',#203,#193,#208,.T.);
#210=ORIENTED_EDGE('',*,*,#209,.F.);
#211=CARTESIAN_POINT('',(-0.425000000000000,-0.275000000000000,0.450000000000000));
#212=VERTEX_POINT('',#211);
#213=CARTESIAN_POINT('',(-0.425000000000000,-0.275000000000000,0.100000000000000));
#214=DIRECTION('',(0.0,0.0,1.0));
#215=VECTOR('',#214,0.350000000000000);
#216=LINE('',#213,#215);
#217=EDGE_CURVE('',#203,#212,#216,.T.);
#218=ORIENTED_EDGE('',*,*,#217,.T.);
#219=CARTESIAN_POINT('',(-0.425000000000000,-0.175000000000000,0.450000000000000));
#220=DIRECTION('',(0.0,0.0,1.0));
#221=DIRECTION('',(-0.707106781186547,-0.707106781186548,0.0));
#222=AXIS2_PLACEMENT_3D('',#219,#220,#221);
#223=CIRCLE('',#222,0.100000000000000);
#224=EDGE_CURVE('',#195,#212,#223,.T.);
#225=ORIENTED_EDGE('',*,*,#224,.F.);
#226=EDGE_LOOP('',(#201,#210,#218,#225));
#227=FACE_OUTER_BOUND('',#226,.T.);
#228=ADVANCED_FACE('',(#227),#191,.T.);
#229=CARTESIAN_POINT('',(-0.425000000000000,0.175000000000000,0.0));
#230=DIRECTION('',(0.0,0.0,1.0));
#231=DIRECTION('',(-0.707106781186547,0.707106781186547,0.0));
#232=AXIS2_PLACEMENT_3D('',#229,#230,#231);
#233=CYLINDRICAL_SURFACE('',#232,0.100000000000000);
#234=CARTESIAN_POINT('',(-0.495710678118655,0.245710678118655,0.100000000000000));
#235=VERTEX_POINT('',#234);
#236=CARTESIAN_POINT('',(-0.495710678118655,0.245710678118655,0.450000000000000));
#237=VERTEX_POINT('',#236);
#238=CARTESIAN_POINT('',(-0.495710678118655,0.245710678118655,0.100000000000000));
#239=DIRECTION('',(0.0,0.0,1.0));
#240=VECTOR('',#239,0.350000000000000);
#241=LINE('',#238,#240);
#242=EDGE_CURVE('',#235,#237,#241,.T.);
#243=ORIENTED_EDGE('',*,*,#242,.F.);
#244=CARTESIAN_POINT('',(-0.525000000000000,0.175000000000000,0.100000000000000));
#245=VERTEX_POINT('',#244);
#246=CARTESIAN_POINT('',(-0.425000000000000,0.175000000000000,0.100000000000000));
#247=DIRECTION('',(0.0,0.0,-1.0));
#248=DIRECTION('',(-0.707106781186547,0.707106781186548,0.0));
#249=AXIS2_PLACEMENT_3D('',#246,#247,#248);
#250=CIRCLE('',#249,0.100000000000000);
#251=EDGE_CURVE('',#245,#235,#250,.T.);
#252=ORIENTED_EDGE('',*,*,#251,.F.);
#253=CARTESIAN_POINT('',(-0.525000000000000,0.175000000000000,0.450000000000000));
#254=VERTEX_POINT('',#253);
#255=CARTESIAN_POINT('',(-0.525000000000000,0.175000000000000,0.100000000000000));
#256=DIRECTION('',(0.0,0.0,1.0));
#257=VECTOR('',#256,0.350000000000000);
#258=LINE('',#255,#257);
#259=EDGE_CURVE('',#245,#254,#258,.T.);
#260=ORIENTED_EDGE('',*,*,#259,.T.);
#261=CARTESIAN_POINT('',(-0.425000000000000,0.175000000000000,0.450000000000000));
#262=DIRECTION('',(0.0,0.0,1.0));
#263=DIRECTION('',(-0.707106781186547,0.707106781186548,0.0));
#264=AXIS2_PLACEMENT_3D('',#261,#262,#263);
#265=CIRCLE('',#264,0.100000000000000);
#266=EDGE_CURVE('',#237,#254,#265,.T.);
#267=ORIENTED_EDGE('',*,*,#266,.F.);
#268=EDGE_LOOP('',(#243,#252,#260,#267));
#269=FACE_OUTER_BOUND('',#268,.T.);
#270=ADVANCED_FACE('',(#269),#233,.T.);
#271=CARTESIAN_POINT('',(-0.262500000000000,-0.175000000000000,0.100000000000000));
#272=DIRECTION('',(1.0,0.0,0.0));
#273=DIRECTION('',(0.0,-0.707106781186548,-0.707106781186547));
#274=AXIS2_PLACEMENT_3D('',#271,#272,#273);
#275=CYLINDRICAL_SURFACE('',#274,0.100000000000000);
#276=CARTESIAN_POINT('',(-0.425000000000000,-0.245710678118655,0.029289321881345));
#277=VERTEX_POINT('',#276);
#278=CARTESIAN_POINT('',(-0.175000000000000,-0.245710678118655,0.029289321881345));
#279=VERTEX_POINT('',#278);
#280=CARTESIAN_POINT('',(-0.425000000000000,-0.245710678118655,0.029289321881345));
#281=DIRECTION('',(1.0,0.0,0.0));
#282=VECTOR('',#281,0.250000000000000);
#283=LINE('',#280,#282);
#284=EDGE_CURVE('',#277,#279,#283,.T.);
#285=ORIENTED_EDGE('',*,*,#284,.F.);
#286=CARTESIAN_POINT('',(-0.425000000000000,-0.175000000000000,0.0));
#287=VERTEX_POINT('',#286);
#288=CARTESIAN_POINT('',(-0.425000000000000,-0.175000000000000,0.100000000000000));
#289=DIRECTION('',(1.0,0.0,0.0));
#290=DIRECTION('',(0.0,-1.0,0.0));
#291=AXIS2_PLACEMENT_3D('',#288,#289,#290);
#292=CIRCLE('',#291,0.100000000000000);
#293=EDGE_CURVE('',#277,#287,#292,.T.);
#294=ORIENTED_EDGE('',*,*,#293,.T.);
#295=CARTESIAN_POINT('',(-0.175000000000000,-0.175000000000000,0.0));
#296=VERTEX_POINT('',#295);
#297=CARTESIAN_POINT('',(-0.425000000000000,-0.175000000000000,0.0));
#298=DIRECTION('',(1.0,0.0,0.0));
#299=VECTOR('',#298,0.250000000000000);
#300=LINE('',#297,#299);
#301=EDGE_CURVE('',#287,#296,#300,.T.);
#302=ORIENTED_EDGE('',*,*,#301,.T.);
#303=CARTESIAN_POINT('',(-0.175000000000000,-0.175000000000000,0.100000000000000));
#304=DIRECTION('',(-1.0,0.0,0.0));
#305=DIRECTION('',(0.0,-0.707106781186548,-0.707106781186547));
#306=AXIS2_PLACEMENT_3D('',#303,#304,#305);
#307=CIRCLE('',#306,0.100000000000000);
#308=EDGE_CURVE('',#296,#279,#307,.T.);
#309=ORIENTED_EDGE('',*,*,#308,.T.);
#310=EDGE_LOOP('',(#285,#294,#302,#309));
#311=FACE_OUTER_BOUND('',#310,.T.);
#312=ADVANCED_FACE('',(#311),#275,.T.);
#313=CARTESIAN_POINT('',(-0.425000000000000,-0.137500000000000,0.100000000000000));
#314=DIRECTION('',(0.0,-1.0,0.0));
#315=DIRECTION('',(-0.707106781186547,0.0,-0.707106781186548));
#316=AXIS2_PLACEMENT_3D('',#313,#314,#315);
#317=CYLINDRICAL_SURFACE('',#316,0.100000000000000);
#318=CARTESIAN_POINT('',(-0.495710678118655,0.175000000000000,0.029289321881345));
#319=VERTEX_POINT('',#318);
#320=CARTESIAN_POINT('',(-0.495710678118655,-0.175000000000000,0.029289321881345));
#321=VERTEX_POINT('',#320);
#322=CARTESIAN_POINT('',(-0.495710678118655,0.175000000000000,0.029289321881345));
#323=DIRECTION('',(0.0,-1.0,0.0));
#324=VECTOR('',#323,0.350000000000001);
#325=LINE('',#322,#324);
#326=EDGE_CURVE('',#319,#321,#325,.T.);
#327=ORIENTED_EDGE('',*,*,#326,.F.);
#328=CARTESIAN_POINT('',(-0.425000000000000,0.175000000000000,0.0));
#329=VERTEX_POINT('',#328);
#330=CARTESIAN_POINT('',(-0.425000000000000,0.175000000000000,0.100000000000000));
#331=DIRECTION('',(0.0,-1.0,0.0));
#332=DIRECTION('',(-1.0,0.0,0.0));
#333=AXIS2_PLACEMENT_3D('',#330,#331,#332);
#334=CIRCLE('',#333,0.100000000000000);
#335=EDGE_CURVE('',#319,#329,#334,.T.);
#336=ORIENTED_EDGE('',*,*,#335,.T.);
#337=CARTESIAN_POINT('',(-0.425000000000000,0.175000000000000,0.0));
#338=DIRECTION('',(0.0,-1.0,0.0));
#339=VECTOR('',#338,0.350000000000001);
#340=LINE('',#337,#339);
#341=EDGE_CURVE('',#329,#287,#340,.T.);
#342=ORIENTED_EDGE('',*,*,#341,.T.);
#343=CARTESIAN_POINT('',(-0.425000000000000,-0.175000000000000,0.100000000000000));
#344=DIRECTION('',(0.0,1.0,0.0));
#345=DIRECTION('',(0.0,0.0,-1.0));
#346=AXIS2_PLACEMENT_3D('',#343,#344,#345);
#347=CIRCLE('',#346,0.100000000000000);
#348=EDGE_CURVE('',#287,#321,#347,.T.);
#349=ORIENTED_EDGE('',*,*,#348,.T.);
#350=EDGE_LOOP('',(#327,#336,#342,#349));
#351=FACE_OUTER_BOUND('',#350,.T.);
#352=ADVANCED_FACE('',(#351),#317,.T.);
#353=CARTESIAN_POINT('',(-0.437500000000000,0.175000000000000,0.100000000000000));
#354=DIRECTION('',(-1.0,0.0,0.0));
#355=DIRECTION('',(0.0,0.707106781186548,-0.707106781186547));
#356=AXIS2_PLACEMENT_3D('',#353,#354,#355);
#357=CYLINDRICAL_SURFACE('',#356,0.100000000000000);
#358=CARTESIAN_POINT('',(-0.175000000000000,0.245710678118655,0.029289321881345));
#359=VERTEX_POINT('',#358);
#360=CARTESIAN_POINT('',(-0.425000000000000,0.245710678118655,0.029289321881345));
#361=VERTEX_POINT('',#360);
#362=CARTESIAN_POINT('',(-0.175000000000000,0.245710678118655,0.029289321881345));
#363=DIRECTION('',(-1.0,0.0,0.0));
#364=VECTOR('',#363,0.250000000000000);
#365=LINE('',#362,#364);
#366=EDGE_CURVE('',#359,#361,#365,.T.);
#367=ORIENTED_EDGE('',*,*,#366,.F.);
#368=CARTESIAN_POINT('',(-0.175000000000000,0.175000000000000,0.0));
#369=VERTEX_POINT('',#368);
#370=CARTESIAN_POINT('',(-0.175000000000000,0.175000000000000,0.100000000000000));
#371=DIRECTION('',(-1.0,0.0,0.0));
#372=DIRECTION('',(0.0,0.707106781186548,-0.707106781186547));
#373=AXIS2_PLACEMENT_3D('',#370,#371,#372);
#374=CIRCLE('',#373,0.100000000000000);
#375=EDGE_CURVE('',#359,#369,#374,.T.);
#376=ORIENTED_EDGE('',*,*,#375,.T.);
#377=CARTESIAN_POINT('',(-0.175000000000000,0.175000000000000,0.0));
#378=DIRECTION('',(-1.0,0.0,0.0));
#379=VECTOR('',#378,0.250000000000000);
#380=LINE('',#377,#379);
#381=EDGE_CURVE('',#369,#329,#380,.T.);
#382=ORIENTED_EDGE('',*,*,#381,.T.);
#383=CARTESIAN_POINT('',(-0.425000000000000,0.175000000000000,0.100000000000000));
#384=DIRECTION('',(1.0,0.0,0.0));
#385=DIRECTION('',(0.0,0.0,-1.0));
#386=AXIS2_PLACEMENT_3D('',#383,#384,#385);
#387=CIRCLE('',#386,0.100000000000000);
#388=EDGE_CURVE('',#329,#361,#387,.T.);
#389=ORIENTED_EDGE('',*,*,#388,.T.);
#390=EDGE_LOOP('',(#367,#376,#382,#389));
#391=FACE_OUTER_BOUND('',#390,.T.);
#392=ADVANCED_FACE('',(#391),#357,.T.);
#393=CARTESIAN_POINT('',(-0.437500000000000,0.175000000000000,0.100000000000000));
#394=DIRECTION('',(-1.0,0.0,0.0));
#395=DIRECTION('',(0.0,0.707106781186548,-0.707106781186547));
#396=AXIS2_PLACEMENT_3D('',#393,#394,#395);
#397=CYLINDRICAL_SURFACE('',#396,0.100000000000000);
#398=ORIENTED_EDGE('',*,*,#366,.T.);
#399=CARTESIAN_POINT('',(-0.425000000000000,0.275000000000000,0.100000000000000));
#400=VERTEX_POINT('',#399);
#401=CARTESIAN_POINT('',(-0.425000000000000,0.175000000000000,0.100000000000000));
#402=DIRECTION('',(1.0,0.0,0.0));
#403=DIRECTION('',(0.0,0.0,-1.0));
#404=AXIS2_PLACEMENT_3D('',#401,#402,#403);
#405=CIRCLE('',#404,0.100000000000000);
#406=EDGE_CURVE('',#361,#400,#405,.T.);
#407=ORIENTED_EDGE('',*,*,#406,.T.);
#408=CARTESIAN_POINT('',(-0.175000000000000,0.275000000000000,0.100000000000000));
#409=VERTEX_POINT('',#408);
#410=CARTESIAN_POINT('',(-0.425000000000000,0.275000000000000,0.100000000000000));
#411=DIRECTION('',(1.0,0.0,0.0));
#412=VECTOR('',#411,0.250000000000000);
#413=LINE('',#410,#412);
#414=EDGE_CURVE('',#400,#409,#413,.T.);
#415=ORIENTED_EDGE('',*,*,#414,.T.);
#416=CARTESIAN_POINT('',(-0.175000000000000,0.175000000000000,0.100000000000000));
#417=DIRECTION('',(-1.0,0.0,0.0));
#418=DIRECTION('',(0.0,0.707106781186548,-0.707106781186547));
#419=AXIS2_PLACEMENT_3D('',#416,#417,#418);
#420=CIRCLE('',#419,0.100000000000000);
#421=EDGE_CURVE('',#409,#359,#420,.T.);
#422=ORIENTED_EDGE('',*,*,#421,.T.);
#423=EDGE_LOOP('',(#398,#407,#415,#422));
#424=FACE_OUTER_BOUND('',#423,.T.);
#425=ADVANCED_FACE('',(#424),#397,.T.);
#426=CARTESIAN_POINT('',(-0.425000000000000,-0.137500000000000,0.100000000000000));
#427=DIRECTION('',(0.0,-1.0,0.0));
#428=DIRECTION('',(-0.707106781186547,0.0,-0.707106781186548));
#429=AXIS2_PLACEMENT_3D('',#426,#427,#428);
#430=CYLINDRICAL_SURFACE('',#429,0.100000000000000);
#431=ORIENTED_EDGE('',*,*,#326,.T.);
#432=CARTESIAN_POINT('',(-0.525000000000000,-0.175000000000000,0.100000000000000));
#433=VERTEX_POINT('',#432);
#434=CARTESIAN_POINT('',(-0.425000000000000,-0.175000000000000,0.100000000000000));
#435=DIRECTION('',(0.0,1.0,0.0));
#436=DIRECTION('',(0.0,0.0,-1.0));
#437=AXIS2_PLACEMENT_3D('',#434,#435,#436);
#438=CIRCLE('',#437,0.100000000000000);
#439=EDGE_CURVE('',#321,#433,#438,.T.);
#440=ORIENTED_EDGE('',*,*,#439,.T.);
#441=CARTESIAN_POINT('',(-0.525000000000000,-0.175000000000000,0.100000000000000));
#442=DIRECTION('',(0.0,1.0,0.0));
#443=VECTOR('',#442,0.350000000000001);
#444=LINE('',#441,#443);
#445=EDGE_CURVE('',#433,#245,#444,.T.);
#446=ORIENTED_EDGE('',*,*,#445,.T.);
#447=CARTESIAN_POINT('',(-0.425000000000000,0.175000000000000,0.100000000000000));
#448=DIRECTION('',(0.0,-1.0,0.0));
#449=DIRECTION('',(-1.0,0.0,0.0));
#450=AXIS2_PLACEMENT_3D('',#447,#448,#449);
#451=CIRCLE('',#450,0.100000000000000);
#452=EDGE_CURVE('',#245,#319,#451,.T.);
#453=ORIENTED_EDGE('',*,*,#452,.T.);
#454=EDGE_LOOP('',(#431,#440,#446,#453));
#455=FACE_OUTER_BOUND('',#454,.T.);
#456=ADVANCED_FACE('',(#455),#430,.T.);
#457=CARTESIAN_POINT('',(-0.262500000000000,-0.175000000000000,0.100000000000000));
#458=DIRECTION('',(1.0,0.0,0.0));
#459=DIRECTION('',(0.0,-0.707106781186548,-0.707106781186547));
#460=AXIS2_PLACEMENT_3D('',#457,#458,#459);
#461=CYLINDRICAL_SURFACE('',#460,0.100000000000000);
#462=ORIENTED_EDGE('',*,*,#284,.T.);
#463=CARTESIAN_POINT('',(-0.175000000000000,-0.275000000000000,0.100000000000000));
#464=VERTEX_POINT('',#463);
#465=CARTESIAN_POINT('',(-0.175000000000000,-0.175000000000000,0.100000000000000));
#466=DIRECTION('',(-1.0,0.0,0.0));
#467=DIRECTION('',(0.0,-0.707106781186548,-0.707106781186547));
#468=AXIS2_PLACEMENT_3D('',#465,#466,#467);
#469=CIRCLE('',#468,0.100000000000000);
#470=EDGE_CURVE('',#279,#464,#469,.T.);
#471=ORIENTED_EDGE('',*,*,#470,.T.);
#472=CARTESIAN_POINT('',(-0.175000000000000,-0.275000000000000,0.100000000000000));
#473=DIRECTION('',(-1.0,0.0,0.0));
#474=VECTOR('',#473,0.250000000000000);
#475=LINE('',#472,#474);
#476=EDGE_CURVE('',#464,#203,#475,.T.);
#477=ORIENTED_EDGE('',*,*,#476,.T.);
#478=CARTESIAN_POINT('',(-0.425000000000000,-0.175000000000000,0.100000000000000));
#479=DIRECTION('',(1.0,0.0,0.0));
#480=DIRECTION('',(0.0,-1.0,0.0));
#481=AXIS2_PLACEMENT_3D('',#478,#479,#480);
#482=CIRCLE('',#481,0.100000000000000);
#483=EDGE_CURVE('',#203,#277,#482,.T.);
#484=ORIENTED_EDGE('',*,*,#483,.T.);
#485=EDGE_LOOP('',(#462,#471,#477,#484));
#486=FACE_OUTER_BOUND('',#485,.T.);
#487=ADVANCED_FACE('',(#486),#461,.T.);
#488=CARTESIAN_POINT('',(-0.425000000000000,-0.175000000000000,0.100000000000000));
#489=DIRECTION('',(0.0,0.0,1.0));
#490=DIRECTION('',(1.0,0.0,0.0));
#491=AXIS2_PLACEMENT_3D('',#488,#489,#490);
#492=SPHERICAL_SURFACE('',#491,0.100000000000000);
#493=ORIENTED_EDGE('',*,*,#483,.F.);
#494=ORIENTED_EDGE('',*,*,#209,.T.);
#495=CARTESIAN_POINT('',(-0.425000000000000,-0.175000000000000,0.100000000000000));
#496=DIRECTION('',(0.0,0.0,-1.0));
#497=DIRECTION('',(-0.707106781186547,-0.707106781186548,0.0));
#498=AXIS2_PLACEMENT_3D('',#495,#496,#497);
#499=CIRCLE('',#498,0.100000000000000);
#500=EDGE_CURVE('',#193,#433,#499,.T.);
#501=ORIENTED_EDGE('',*,*,#500,.T.);
#502=ORIENTED_EDGE('',*,*,#439,.F.);
#503=ORIENTED_EDGE('',*,*,#348,.F.);
#504=ORIENTED_EDGE('',*,*,#293,.F.);
#505=EDGE_LOOP('',(#493,#494,#501,#502,#503,#504));
#506=FACE_OUTER_BOUND('',#505,.T.);
#507=ADVANCED_FACE('',(#506),#492,.T.);
#508=CARTESIAN_POINT('',(-0.425000000000000,0.175000000000000,0.100000000000000));
#509=DIRECTION('',(0.0,0.0,1.0));
#510=DIRECTION('',(1.0,0.0,0.0));
#511=AXIS2_PLACEMENT_3D('',#508,#509,#510);
#512=SPHERICAL_SURFACE('',#511,0.100000000000000);
#513=ORIENTED_EDGE('',*,*,#452,.F.);
#514=ORIENTED_EDGE('',*,*,#251,.T.);
#515=CARTESIAN_POINT('',(-0.425000000000000,0.175000000000000,0.100000000000000));
#516=DIRECTION('',(0.0,0.0,-1.0));
#517=DIRECTION('',(-0.707106781186547,0.707106781186548,0.0));
#518=AXIS2_PLACEMENT_3D('',#515,#516,#517);
#519=CIRCLE('',#518,0.100000000000000);
#520=EDGE_CURVE('',#235,#400,#519,.T.);
#521=ORIENTED_EDGE('',*,*,#520,.T.);
#522=ORIENTED_EDGE('',*,*,#406,.F.);
#523=ORIENTED_EDGE('',*,*,#388,.F.);
#524=ORIENTED_EDGE('',*,*,#335,.F.);
#525=EDGE_LOOP('',(#513,#514,#521,#522,#523,#524));
#526=FACE_OUTER_BOUND('',#525,.T.);
#527=ADVANCED_FACE('',(#526),#512,.T.);
#528=CARTESIAN_POINT('',(-0.525000000000000,0.275000000000000,0.0));
#529=DIRECTION('',(0.0,1.0,0.0));
#530=DIRECTION('',(0.0,0.0,1.0));
#531=AXIS2_PLACEMENT_3D('',#528,#529,#530);
#532=PLANE('',#531);
#533=ORIENTED_EDGE('',*,*,#414,.F.);
#534=CARTESIAN_POINT('',(-0.425000000000000,0.275000000000000,0.450000000000000));
#535=VERTEX_POINT('',#534);
#536=CARTESIAN_POINT('',(-0.425000000000000,0.275000000000000,0.450000000000000));
#537=DIRECTION('',(0.0,0.0,-1.0));
#538=VECTOR('',#537,0.350000000000000);
#539=LINE('',#536,#538);
#540=EDGE_CURVE('',#535,#400,#539,.T.);
#541=ORIENTED_EDGE('',*,*,#540,.F.);
#542=CARTESIAN_POINT('',(-0.175000000000000,0.275000000000000,0.450000000000000));
#543=VERTEX_POINT('',#542);
#544=CARTESIAN_POINT('',(-0.175000000000000,0.275000000000000,0.450000000000000));
#545=DIRECTION('',(-1.0,0.0,0.0));
#546=VECTOR('',#545,0.250000000000000);
#547=LINE('',#544,#546);
#548=EDGE_CURVE('',#543,#535,#547,.T.);
#549=ORIENTED_EDGE('',*,*,#548,.F.);
#550=CARTESIAN_POINT('',(-0.175000000000000,0.275000000000000,0.100000000000000));
#551=DIRECTION('',(0.0,0.0,1.0));
#552=VECTOR('',#551,0.350000000000000);
#553=LINE('',#550,#552);
#554=EDGE_CURVE('',#409,#543,#553,.T.);
#555=ORIENTED_EDGE('',*,*,#554,.F.);
#556=EDGE_LOOP('',(#533,#541,#549,#555));
#557=FACE_OUTER_BOUND('',#556,.T.);
#558=ADVANCED_FACE('',(#557),#532,.T.);
#559=CARTESIAN_POINT('',(-0.425000000000000,0.175000000000000,0.0));
#560=DIRECTION('',(0.0,0.0,1.0));
#561=DIRECTION('',(-0.707106781186547,0.707106781186547,0.0));
#562=AXIS2_PLACEMENT_3D('',#559,#560,#561);
#563=CYLINDRICAL_SURFACE('',#562,0.100000000000000);
#564=ORIENTED_EDGE('',*,*,#242,.T.);
#565=CARTESIAN_POINT('',(-0.425000000000000,0.175000000000000,0.450000000000000));
#566=DIRECTION('',(0.0,0.0,1.0));
#567=DIRECTION('',(-0.707106781186547,0.707106781186548,0.0));
#568=AXIS2_PLACEMENT_3D('',#565,#566,#567);
#569=CIRCLE('',#568,0.100000000000000);
#570=EDGE_CURVE('',#535,#237,#569,.T.);
#571=ORIENTED_EDGE('',*,*,#570,.F.);
#572=ORIENTED_EDGE('',*,*,#540,.T.);
#573=ORIENTED_EDGE('',*,*,#520,.F.);
#574=EDGE_LOOP('',(#564,#571,#572,#573));
#575=FACE_OUTER_BOUND('',#574,.T.);
#576=ADVANCED_FACE('',(#575),#563,.T.);
#577=CARTESIAN_POINT('',(-0.525000000000000,-0.275000000000000,0.0));
#578=DIRECTION('',(-1.0,0.0,0.0));
#579=DIRECTION('',(0.0,0.0,1.0));
#580=AXIS2_PLACEMENT_3D('',#577,#578,#579);
#581=PLANE('',#580);
#582=ORIENTED_EDGE('',*,*,#445,.F.);
#583=CARTESIAN_POINT('',(-0.525000000000000,-0.175000000000000,0.450000000000000));
#584=VERTEX_POINT('',#583);
#585=CARTESIAN_POINT('',(-0.525000000000000,-0.175000000000000,0.450000000000000));
#586=DIRECTION('',(0.0,0.0,-1.0));
#587=VECTOR('',#586,0.350000000000000);
#588=LINE('',#585,#587);
#589=EDGE_CURVE('',#584,#433,#588,.T.);
#590=ORIENTED_EDGE('',*,*,#589,.F.);
#591=CARTESIAN_POINT('',(-0.525000000000000,0.175000000000000,0.450000000000000));
#592=DIRECTION('',(0.0,-1.0,0.0));
#593=VECTOR('',#592,0.350000000000001);
#594=LINE('',#591,#593);
#595=EDGE_CURVE('',#254,#584,#594,.T.);
#596=ORIENTED_EDGE('',*,*,#595,.F.);
#597=ORIENTED_EDGE('',*,*,#259,.F.);
#598=EDGE_LOOP('',(#582,#590,#596,#597));
#599=FACE_OUTER_BOUND('',#598,.T.);
#600=ADVANCED_FACE('',(#599),#581,.T.);
#601=CARTESIAN_POINT('',(-0.425000000000000,-0.175000000000000,0.0));
#602=DIRECTION('',(0.0,0.0,1.0));
#603=DIRECTION('',(-0.707106781186547,-0.707106781186548,0.0));
#604=AXIS2_PLACEMENT_3D('',#601,#602,#603);
#605=CYLINDRICAL_SURFACE('',#604,0.100000000000000);
#606=ORIENTED_EDGE('',*,*,#200,.T.);
#607=CARTESIAN_POINT('',(-0.425000000000000,-0.175000000000000,0.450000000000000));
#608=DIRECTION('',(0.0,0.0,1.0));
#609=DIRECTION('',(-0.707106781186547,-0.707106781186548,0.0));
#610=AXIS2_PLACEMENT_3D('',#607,#608,#609);
#611=CIRCLE('',#610,0.100000000000000);
#612=EDGE_CURVE('',#584,#195,#611,.T.);
#613=ORIENTED_EDGE('',*,*,#612,.F.);
#614=ORIENTED_EDGE('',*,*,#589,.T.);
#615=ORIENTED_EDGE('',*,*,#500,.F.);
#616=EDGE_LOOP('',(#606,#613,#614,#615));
#617=FACE_OUTER_BOUND('',#616,.T.);
#618=ADVANCED_FACE('',(#617),#605,.T.);
#619=CARTESIAN_POINT('',(-0.175000000000000,-0.275000000000000,0.0));
#620=DIRECTION('',(0.0,-1.0,0.0));
#621=DIRECTION('',(0.0,0.0,-1.0));
#622=AXIS2_PLACEMENT_3D('',#619,#620,#621);
#623=PLANE('',#622);
#624=ORIENTED_EDGE('',*,*,#476,.F.);
#625=CARTESIAN_POINT('',(-0.175000000000000,-0.275000000000000,0.450000000000000));
#626=VERTEX_POINT('',#625);
#627=CARTESIAN_POINT('',(-0.175000000000000,-0.275000000000000,0.100000000000000));
#628=DIRECTION('',(0.0,0.0,1.0));
#629=VECTOR('',#628,0.350000000000000);
#630=LINE('',#627,#629);
#631=EDGE_CURVE('',#464,#626,#630,.T.);
#632=ORIENTED_EDGE('',*,*,#631,.T.);
#633=CARTESIAN_POINT('',(-0.425000000000000,-0.275000000000000,0.450000000000000));
#634=DIRECTION('',(1.0,0.0,0.0));
#635=VECTOR('',#634,0.250000000000000);
#636=LINE('',#633,#635);
#637=EDGE_CURVE('',#212,#626,#636,.T.);
#638=ORIENTED_EDGE('',*,*,#637,.F.);
#639=ORIENTED_EDGE('',*,*,#217,.F.);
#640=EDGE_LOOP('',(#624,#632,#638,#639));
#641=FACE_OUTER_BOUND('',#640,.T.);
#642=ADVANCED_FACE('',(#641),#623,.T.);
#643=CARTESIAN_POINT('',(-0.262500000000000,-0.175000000000000,0.450000000000000));
#644=DIRECTION('',(-1.0,0.0,0.0));
#645=DIRECTION('',(0.0,-0.707106781186548,0.707106781186547));
#646=AXIS2_PLACEMENT_3D('',#643,#644,#645);
#647=CYLINDRICAL_SURFACE('',#646,0.100000000000000);
#648=ORIENTED_EDGE('',*,*,#160,.T.);
#649=CARTESIAN_POINT('',(-0.425000000000000,-0.175000000000000,0.450000000000000));
#650=DIRECTION('',(1.0,0.0,0.0));
#651=DIRECTION('',(0.0,0.0,1.0));
#652=AXIS2_PLACEMENT_3D('',#649,#650,#651);
#653=CIRCLE('',#652,0.100000000000000);
#654=EDGE_CURVE('',#155,#212,#653,.T.);
#655=ORIENTED_EDGE('',*,*,#654,.T.);
#656=ORIENTED_EDGE('',*,*,#637,.T.);
#657=CARTESIAN_POINT('',(-0.175000000000000,-0.175000000000000,0.450000000000000));
#658=DIRECTION('',(-1.000000000000000,0.0,0.0));
#659=DIRECTION('',(0.0,-0.707106781186548,0.707106781186547));
#660=AXIS2_PLACEMENT_3D('',#657,#658,#659);
#661=CIRCLE('',#660,0.100000000000000);
#662=EDGE_CURVE('',#626,#153,#661,.T.);
#663=ORIENTED_EDGE('',*,*,#662,.T.);
#664=EDGE_LOOP('',(#648,#655,#656,#663));
#665=FACE_OUTER_BOUND('',#664,.T.);
#666=ADVANCED_FACE('',(#665),#647,.T.);
#667=CARTESIAN_POINT('',(-0.425000000000000,-0.137500000000000,0.450000000000000));
#668=DIRECTION('',(0.0,1.0,0.0));
#669=DIRECTION('',(-0.707106781186548,0.0,0.707106781186547));
#670=AXIS2_PLACEMENT_3D('',#667,#668,#669);
#671=CYLINDRICAL_SURFACE('',#670,0.100000000000000);
#672=ORIENTED_EDGE('',*,*,#120,.T.);
#673=CARTESIAN_POINT('',(-0.425000000000000,0.175000000000000,0.450000000000000));
#674=DIRECTION('',(0.0,-1.0,0.0));
#675=DIRECTION('',(0.0,0.0,1.0));
#676=AXIS2_PLACEMENT_3D('',#673,#674,#675);
#677=CIRCLE('',#676,0.100000000000000);
#678=EDGE_CURVE('',#115,#254,#677,.T.);
#679=ORIENTED_EDGE('',*,*,#678,.T.);
#680=ORIENTED_EDGE('',*,*,#595,.T.);
#681=CARTESIAN_POINT('',(-0.425000000000000,-0.175000000000000,0.450000000000000));
#682=DIRECTION('',(0.0,1.0,0.0));
#683=DIRECTION('',(-1.0,0.0,0.0));
#684=AXIS2_PLACEMENT_3D('',#681,#682,#683);
#685=CIRCLE('',#684,0.100000000000000);
#686=EDGE_CURVE('',#584,#113,#685,.T.);
#687=ORIENTED_EDGE('',*,*,#686,.T.);
#688=EDGE_LOOP('',(#672,#679,#680,#687));
#689=FACE_OUTER_BOUND('',#688,.T.);
#690=ADVANCED_FACE('',(#689),#671,.T.);
#691=CARTESIAN_POINT('',(-0.425000000000000,-0.175000000000000,0.450000000000000));
#692=DIRECTION('',(0.0,0.0,1.0));
#693=DIRECTION('',(1.0,0.0,0.0));
#694=AXIS2_PLACEMENT_3D('',#691,#692,#693);
#695=SPHERICAL_SURFACE('',#694,0.100000000000000);
#696=ORIENTED_EDGE('',*,*,#686,.F.);
#697=ORIENTED_EDGE('',*,*,#612,.T.);
#698=ORIENTED_EDGE('',*,*,#224,.T.);
#699=ORIENTED_EDGE('',*,*,#654,.F.);
#700=ORIENTED_EDGE('',*,*,#182,.F.);
#701=ORIENTED_EDGE('',*,*,#129,.F.);
#702=EDGE_LOOP('',(#696,#697,#698,#699,#700,#701));
#703=FACE_OUTER_BOUND('',#702,.T.);
#704=ADVANCED_FACE('',(#703),#695,.T.);
#705=CARTESIAN_POINT('',(-0.437500000000000,0.175000000000000,0.450000000000000));
#706=DIRECTION('',(1.0,0.0,0.0));
#707=DIRECTION('',(0.0,0.707106781186548,0.707106781186547));
#708=AXIS2_PLACEMENT_3D('',#705,#706,#707);
#709=CYLINDRICAL_SURFACE('',#708,0.100000000000000);
#710=ORIENTED_EDGE('',*,*,#78,.T.);
#711=CARTESIAN_POINT('',(-0.175000000000000,0.175000000000000,0.450000000000000));
#712=DIRECTION('',(-1.000000000000000,0.0,0.0));
#713=DIRECTION('',(0.0,0.707106781186548,0.707106781186547));
#714=AXIS2_PLACEMENT_3D('',#711,#712,#713);
#715=CIRCLE('',#714,0.100000000000000);
#716=EDGE_CURVE('',#73,#543,#715,.T.);
#717=ORIENTED_EDGE('',*,*,#716,.T.);
#718=ORIENTED_EDGE('',*,*,#548,.T.);
#719=CARTESIAN_POINT('',(-0.425000000000000,0.175000000000000,0.450000000000000));
#720=DIRECTION('',(1.0,0.0,0.0));
#721=DIRECTION('',(0.0,1.0,0.0));
#722=AXIS2_PLACEMENT_3D('',#719,#720,#721);
#723=CIRCLE('',#722,0.100000000000000);
#724=EDGE_CURVE('',#535,#71,#723,.T.);
#725=ORIENTED_EDGE('',*,*,#724,.T.);
#726=EDGE_LOOP('',(#710,#717,#718,#725));
#727=FACE_OUTER_BOUND('',#726,.T.);
#728=ADVANCED_FACE('',(#727),#709,.T.);
#729=CARTESIAN_POINT('',(-0.425000000000000,0.175000000000000,0.450000000000000));
#730=DIRECTION('',(0.0,0.0,1.0));
#731=DIRECTION('',(1.0,0.0,0.0));
#732=AXIS2_PLACEMENT_3D('',#729,#730,#731);
#733=SPHERICAL_SURFACE('',#732,0.100000000000000);
#734=ORIENTED_EDGE('',*,*,#724,.F.);
#735=ORIENTED_EDGE('',*,*,#570,.T.);
#736=ORIENTED_EDGE('',*,*,#266,.T.);
#737=ORIENTED_EDGE('',*,*,#678,.F.);
#738=ORIENTED_EDGE('',*,*,#142,.F.);
#739=ORIENTED_EDGE('',*,*,#87,.F.);
#740=EDGE_LOOP('',(#734,#735,#736,#737,#738,#739));
#741=FACE_OUTER_BOUND('',#740,.T.);
#742=ADVANCED_FACE('',(#741),#733,.T.);
#743=CARTESIAN_POINT('',(-0.350000000000000,0.0,0.0));
#744=DIRECTION('',(0.0,0.0,1.0));
#745=DIRECTION('',(1.0,0.0,0.0));
#746=AXIS2_PLACEMENT_3D('',#743,#744,#745);
#747=PLANE('',#746);
#748=ORIENTED_EDGE('',*,*,#381,.F.);
#749=CARTESIAN_POINT('',(-0.175000000000000,-0.175000000000000,0.0));
#750=DIRECTION('',(0.0,1.0,0.0));
#751=VECTOR('',#750,0.350000000000001);
#752=LINE('',#749,#751);
#753=EDGE_CURVE('',#296,#369,#752,.T.);
#754=ORIENTED_EDGE('',*,*,#753,.F.);
#755=ORIENTED_EDGE('',*,*,#301,.F.);
#756=ORIENTED_EDGE('',*,*,#341,.F.);
#757=EDGE_LOOP('',(#748,#754,#755,#756));
#758=FACE_OUTER_BOUND('',#757,.T.);
#759=ADVANCED_FACE('',(#758),#747,.F.);
#760=CARTESIAN_POINT('',(-0.175000000000000,0.275000000000000,0.0));
#761=DIRECTION('',(1.0,0.0,0.0));
#762=DIRECTION('',(0.0,0.0,-1.0));
#763=AXIS2_PLACEMENT_3D('',#760,#761,#762);
#764=PLANE('',#763);
#765=ORIENTED_EDGE('',*,*,#421,.F.);
#766=ORIENTED_EDGE('',*,*,#554,.T.);
#767=ORIENTED_EDGE('',*,*,#716,.F.);
#768=ORIENTED_EDGE('',*,*,#102,.F.);
#769=CARTESIAN_POINT('',(-0.175000000000000,0.175000000000000,0.550000000000000));
#770=DIRECTION('',(0.0,-1.0,0.0));
#771=VECTOR('',#770,0.350000000000001);
#772=LINE('',#769,#771);
#773=EDGE_CURVE('',#90,#163,#772,.T.);
#774=ORIENTED_EDGE('',*,*,#773,.T.);
#775=ORIENTED_EDGE('',*,*,#169,.F.);
#776=ORIENTED_EDGE('',*,*,#662,.F.);
#777=ORIENTED_EDGE('',*,*,#631,.F.);
#778=ORIENTED_EDGE('',*,*,#470,.F.);
#779=ORIENTED_EDGE('',*,*,#308,.F.);
#780=ORIENTED_EDGE('',*,*,#753,.T.);
#781=ORIENTED_EDGE('',*,*,#375,.F.);
#782=EDGE_LOOP('',(#765,#766,#767,#768,#774,#775,#776,#777,#778,#779,#780,#781));
#783=FACE_OUTER_BOUND('',#782,.T.);
#784=ADVANCED_FACE('',(#783),#764,.T.);
#785=CARTESIAN_POINT('',(-0.350000000000000,0.0,0.550000000000000));
#786=DIRECTION('',(0.0,0.0,1.0));
#787=DIRECTION('',(1.0,0.0,0.0));
#788=AXIS2_PLACEMENT_3D('',#785,#786,#787);
#789=PLANE('',#788);
#790=ORIENTED_EDGE('',*,*,#175,.F.);
#791=ORIENTED_EDGE('',*,*,#773,.F.);
#792=ORIENTED_EDGE('',*,*,#95,.F.);
#793=ORIENTED_EDGE('',*,*,#135,.F.);
#794=EDGE_LOOP('',(#790,#791,#792,#793));
#795=FACE_OUTER_BOUND('',#794,.T.);
#796=ADVANCED_FACE('',(#795),#789,.T.);
#797=CLOSED_SHELL('',(#106,#146,#186,#228,#270,#312,#352,#392,#425,#456,#487,#507,#527,#558,#576,#600,#618,#642,#666,#690,#704,#728,#742,#759,#784,#796));
#798=MANIFOLD_SOLID_BREP('778',#797);
#799=COLOUR_RGB('253',0.732000000000000,0.732000000000000,0.732000000000000);
#800=SURFACE_STYLE_USAGE(.BOTH.,#801);
#801=SURFACE_SIDE_STYLE('NONE',(#802));
#802=SURFACE_STYLE_FILL_AREA(#803);
#803=FILL_AREA_STYLE('NONE',(#804));
#804=FILL_AREA_STYLE_COLOUR('NONE',#799);
#805=PRESENTATION_STYLE_ASSIGNMENT((#800));
#806=STYLED_ITEM('NONE',(#805),#798);
#807=MECHANICAL_DESIGN_GEOMETRIC_PRESENTATION_REPRESENTATION('NONE',(#806,#1246,#1981),#28);
#808=PRESENTATION_LAYER_ASSIGNMENT('3D','None',(#798,#1238,#1980));
#809=CARTESIAN_POINT('',(0.087500000000000,-0.175000000000000,0.450000000000000));
#810=DIRECTION('',(-1.0,0.0,0.0));
#811=DIRECTION('',(0.0,-0.707106781186548,0.707106781186547));
#812=AXIS2_PLACEMENT_3D('',#809,#810,#811);
#813=CYLINDRICAL_SURFACE('',#812,0.100000000000000);
#814=CARTESIAN_POINT('',(0.175000000000000,-0.245710678118655,0.520710678118655));
#815=VERTEX_POINT('',#814);
#816=CARTESIAN_POINT('',(-0.175000000000000,-0.245710678118655,0.520710678118655));
#817=VERTEX_POINT('',#816);
#818=CARTESIAN_POINT('',(0.175000000000000,-0.245710678118655,0.520710678118655));
#819=DIRECTION('',(-1.0,0.0,0.0));
#820=VECTOR('',#819,0.350000000000000);
#821=LINE('',#818,#820);
#822=EDGE_CURVE('',#815,#817,#821,.T.);
#823=ORIENTED_EDGE('',*,*,#822,.F.);
#824=CARTESIAN_POINT('',(0.175000000000000,-0.175000000000000,0.550000000000000));
#825=VERTEX_POINT('',#824);
#826=CARTESIAN_POINT('',(0.175000000000000,-0.175000000000000,0.450000000000000));
#827=DIRECTION('',(-1.000000000000000,0.0,0.0));
#828=DIRECTION('',(0.0,-0.707106781186548,0.707106781186547));
#829=AXIS2_PLACEMENT_3D('',#826,#827,#828);
#830=CIRCLE('',#829,0.100000000000000);
#831=EDGE_CURVE('',#815,#825,#830,.T.);
#832=ORIENTED_EDGE('',*,*,#831,.T.);
#833=CARTESIAN_POINT('',(-0.175000000000000,-0.175000000000000,0.550000000000000));
#834=VERTEX_POINT('',#833);
#835=CARTESIAN_POINT('',(0.175000000000000,-0.175000000000000,0.550000000000000));
#836=DIRECTION('',(-1.0,0.0,0.0));
#837=VECTOR('',#836,0.350000000000000);
#838=LINE('',#835,#837);
#839=EDGE_CURVE('',#825,#834,#838,.T.);
#840=ORIENTED_EDGE('',*,*,#839,.T.);
#841=CARTESIAN_POINT('',(-0.175000000000000,-0.175000000000000,0.450000000000000));
#842=DIRECTION('',(1.000000000000000,0.0,0.0));
#843=DIRECTION('',(0.0,-0.707106781186548,0.707106781186547));
#844=AXIS2_PLACEMENT_3D('',#841,#842,#843);
#845=CIRCLE('',#844,0.100000000000000);
#846=EDGE_CURVE('',#834,#817,#845,.T.);
#847=ORIENTED_EDGE('',*,*,#846,.T.);
#848=EDGE_LOOP('',(#823,#832,#840,#847));
#849=FACE_OUTER_BOUND('',#848,.T.);
#850=ADVANCED_FACE('',(#849),#813,.T.);
#851=CARTESIAN_POINT('',(-0.087500000000000,0.175000000000000,0.450000000000000));
#852=DIRECTION('',(1.0,0.0,0.0));
#853=DIRECTION('',(0.0,0.707106781186548,0.707106781186547));
#854=AXIS2_PLACEMENT_3D('',#851,#852,#853);
#855=CYLINDRICAL_SURFACE('',#854,0.100000000000000);
#856=CARTESIAN_POINT('',(-0.175000000000000,0.245710678118655,0.520710678118655));
#857=VERTEX_POINT('',#856);
#858=CARTESIAN_POINT('',(0.175000000000000,0.245710678118655,0.520710678118655));
#859=VERTEX_POINT('',#858);
#860=CARTESIAN_POINT('',(-0.175000000000000,0.245710678118655,0.520710678118655));
#861=DIRECTION('',(1.0,0.0,0.0));
#862=VECTOR('',#861,0.350000000000000);
#863=LINE('',#860,#862);
#864=EDGE_CURVE('',#857,#859,#863,.T.);
#865=ORIENTED_EDGE('',*,*,#864,.F.);
#866=CARTESIAN_POINT('',(-0.175000000000000,0.175000000000000,0.550000000000000));
#867=VERTEX_POINT('',#866);
#868=CARTESIAN_POINT('',(-0.175000000000000,0.175000000000000,0.450000000000000));
#869=DIRECTION('',(1.000000000000000,0.0,0.0));
#870=DIRECTION('',(0.0,0.707106781186548,0.707106781186547));
#871=AXIS2_PLACEMENT_3D('',#868,#869,#870);
#872=CIRCLE('',#871,0.100000000000000);
#873=EDGE_CURVE('',#857,#867,#872,.T.);
#874=ORIENTED_EDGE('',*,*,#873,.T.);
#875=CARTESIAN_POINT('',(0.175000000000000,0.175000000000000,0.550000000000000));
#876=VERTEX_POINT('',#875);
#877=CARTESIAN_POINT('',(-0.175000000000000,0.175000000000000,0.550000000000000));
#878=DIRECTION('',(1.0,0.0,0.0));
#879=VECTOR('',#878,0.350000000000000);
#880=LINE('',#877,#879);
#881=EDGE_CURVE('',#867,#876,#880,.T.);
#882=ORIENTED_EDGE('',*,*,#881,.T.);
#883=CARTESIAN_POINT('',(0.175000000000000,0.175000000000000,0.450000000000000));
#884=DIRECTION('',(-1.000000000000000,0.0,0.0));
#885=DIRECTION('',(0.0,0.707106781186548,0.707106781186547));
#886=AXIS2_PLACEMENT_3D('',#883,#884,#885);
#887=CIRCLE('',#886,0.100000000000000);
#888=EDGE_CURVE('',#876,#859,#887,.T.);
#889=ORIENTED_EDGE('',*,*,#888,.T.);
#890=EDGE_LOOP('',(#865,#874,#882,#889));
#891=FACE_OUTER_BOUND('',#890,.T.);
#892=ADVANCED_FACE('',(#891),#855,.T.);
#893=CARTESIAN_POINT('',(0.087500000000000,-0.175000000000000,0.100000000000000));
#894=DIRECTION('',(-1.0,0.0,0.0));
#895=DIRECTION('',(0.0,-0.707106781186548,-0.707106781186547));
#896=AXIS2_PLACEMENT_3D('',#893,#894,#895);
#897=CYLINDRICAL_SURFACE('',#896,0.100000000000000);
#898=CARTESIAN_POINT('',(0.175000000000000,-0.245710678118655,0.029289321881345));
#899=VERTEX_POINT('',#898);
#900=CARTESIAN_POINT('',(-0.175000000000000,-0.245710678118655,0.029289321881345));
#901=VERTEX_POINT('',#900);
#902=CARTESIAN_POINT('',(0.175000000000000,-0.245710678118655,0.029289321881345));
#903=DIRECTION('',(-1.0,0.0,0.0));
#904=VECTOR('',#903,0.350000000000000);
#905=LINE('',#902,#904);
#906=EDGE_CURVE('',#899,#901,#905,.T.);
#907=ORIENTED_EDGE('',*,*,#906,.F.);
#908=CARTESIAN_POINT('',(0.175000000000000,-0.275000000000000,0.100000000000000));
#909=VERTEX_POINT('',#908);
#910=CARTESIAN_POINT('',(0.175000000000000,-0.175000000000000,0.100000000000000));
#911=DIRECTION('',(-1.0,0.0,0.0));
#912=DIRECTION('',(0.0,-0.707106781186548,-0.707106781186547));
#913=AXIS2_PLACEMENT_3D('',#910,#911,#912);
#914=CIRCLE('',#913,0.100000000000000);
#915=EDGE_CURVE('',#899,#909,#914,.T.);
#916=ORIENTED_EDGE('',*,*,#915,.T.);
#917=CARTESIAN_POINT('',(-0.175000000000000,-0.275000000000000,0.100000000000000));
#918=VERTEX_POINT('',#917);
#919=CARTESIAN_POINT('',(0.175000000000000,-0.275000000000000,0.100000000000000));
#920=DIRECTION('',(-1.0,0.0,0.0));
#921=VECTOR('',#920,0.350000000000000);
#922=LINE('',#919,#921);
#923=EDGE_CURVE('',#909,#918,#922,.T.);
#924=ORIENTED_EDGE('',*,*,#923,.T.);
#925=CARTESIAN_POINT('',(-0.175000000000000,-0.175000000000000,0.100000000000000));
#926=DIRECTION('',(1.0,0.0,0.0));
#927=DIRECTION('',(0.0,-0.707106781186548,-0.707106781186547));
#928=AXIS2_PLACEMENT_3D('',#925,#926,#927);
#929=CIRCLE('',#928,0.100000000000000);
#930=EDGE_CURVE('',#918,#901,#929,.T.);
#931=ORIENTED_EDGE('',*,*,#930,.T.);
#932=EDGE_LOOP('',(#907,#916,#924,#931));
#933=FACE_OUTER_BOUND('',#932,.T.);
#934=ADVANCED_FACE('',(#933),#897,.T.);
#935=CARTESIAN_POINT('',(-0.087500000000000,0.175000000000000,0.100000000000000));
#936=DIRECTION('',(1.0,0.0,0.0));
#937=DIRECTION('',(0.0,0.707106781186548,-0.707106781186547));
#938=AXIS2_PLACEMENT_3D('',#935,#936,#937);
#939=CYLINDRICAL_SURFACE('',#938,0.100000000000000);
#940=CARTESIAN_POINT('',(-0.175000000000000,0.245710678118655,0.029289321881345));
#941=VERTEX_POINT('',#940);
#942=CARTESIAN_POINT('',(0.175000000000000,0.245710678118655,0.029289321881345));
#943=VERTEX_POINT('',#942);
#944=CARTESIAN_POINT('',(-0.175000000000000,0.245710678118655,0.029289321881345));
#945=DIRECTION('',(1.0,0.0,0.0));
#946=VECTOR('',#945,0.350000000000000);
#947=LINE('',#944,#946);
#948=EDGE_CURVE('',#941,#943,#947,.T.);
#949=ORIENTED_EDGE('',*,*,#948,.F.);
#950=CARTESIAN_POINT('',(-0.175000000000000,0.275000000000000,0.100000000000000));
#951=VERTEX_POINT('',#950);
#952=CARTESIAN_POINT('',(-0.175000000000000,0.175000000000000,0.100000000000000));
#953=DIRECTION('',(1.0,0.0,0.0));
#954=DIRECTION('',(0.0,0.707106781186548,-0.707106781186547));
#955=AXIS2_PLACEMENT_3D('',#952,#953,#954);
#956=CIRCLE('',#955,0.100000000000000);
#957=EDGE_CURVE('',#941,#951,#956,.T.);
#958=ORIENTED_EDGE('',*,*,#957,.T.);
#959=CARTESIAN_POINT('',(0.175000000000000,0.275000000000000,0.100000000000000));
#960=VERTEX_POINT('',#959);
#961=CARTESIAN_POINT('',(-0.175000000000000,0.275000000000000,0.100000000000000));
#962=DIRECTION('',(1.0,0.0,0.0));
#963=VECTOR('',#962,0.350000000000000);
#964=LINE('',#961,#963);
#965=EDGE_CURVE('',#951,#960,#964,.T.);
#966=ORIENTED_EDGE('',*,*,#965,.T.);
#967=CARTESIAN_POINT('',(0.175000000000000,0.175000000000000,0.100000000000000));
#968=DIRECTION('',(-1.0,0.0,0.0));
#969=DIRECTION('',(0.0,0.707106781186548,-0.707106781186547));
#970=AXIS2_PLACEMENT_3D('',#967,#968,#969);
#971=CIRCLE('',#970,0.100000000000000);
#972=EDGE_CURVE('',#960,#943,#971,.T.);
#973=ORIENTED_EDGE('',*,*,#972,.T.);
#974=EDGE_LOOP('',(#949,#958,#966,#973));
#975=FACE_OUTER_BOUND('',#974,.T.);
#976=ADVANCED_FACE('',(#975),#939,.T.);
#977=CARTESIAN_POINT('',(-0.087500000000000,0.175000000000000,0.100000000000000));
#978=DIRECTION('',(1.0,0.0,0.0));
#979=DIRECTION('',(0.0,0.707106781186548,-0.707106781186547));
#980=AXIS2_PLACEMENT_3D('',#977,#978,#979);
#981=CYLINDRICAL_SURFACE('',#980,0.100000000000000);
#982=ORIENTED_EDGE('',*,*,#948,.T.);
#983=CARTESIAN_POINT('',(0.175000000000000,0.175000000000000,0.0));
#984=VERTEX_POINT('',#983);
#985=CARTESIAN_POINT('',(0.175000000000000,0.175000000000000,0.100000000000000));
#986=DIRECTION('',(-1.0,0.0,0.0));
#987=DIRECTION('',(0.0,0.707106781186548,-0.707106781186547));
#988=AXIS2_PLACEMENT_3D('',#985,#986,#987);
#989=CIRCLE('',#988,0.100000000000000);
#990=EDGE_CURVE('',#943,#984,#989,.T.);
#991=ORIENTED_EDGE('',*,*,#990,.T.);
#992=CARTESIAN_POINT('',(-0.175000000000000,0.175000000000000,0.0));
#993=VERTEX_POINT('',#992);
#994=CARTESIAN_POINT('',(0.175000000000000,0.175000000000000,0.0));
#995=DIRECTION('',(-1.0,0.0,0.0));
#996=VECTOR('',#995,0.350000000000000);
#997=LINE('',#994,#996);
#998=EDGE_CURVE('',#984,#993,#997,.T.);
#999=ORIENTED_EDGE('',*,*,#998,.T.);
#1000=CARTESIAN_POINT('',(-0.175000000000000,0.175000000000000,0.100000000000000));
#1001=DIRECTION('',(1.0,0.0,0.0));
#1002=DIRECTION('',(0.0,0.707106781186548,-0.707106781186547));
#1003=AXIS2_PLACEMENT_3D('',#1000,#1001,#1002);
#1004=CIRCLE('',#1003,0.100000000000000);
#1005=EDGE_CURVE('',#993,#941,#1004,.T.);
#1006=ORIENTED_EDGE('',*,*,#1005,.T.);
#1007=EDGE_LOOP('',(#982,#991,#999,#1006));
#1008=FACE_OUTER_BOUND('',#1007,.T.);
#1009=ADVANCED_FACE('',(#1008),#981,.T.);
#1010=CARTESIAN_POINT('',(-0.175000000000000,0.275000000000000,0.0));
#1011=DIRECTION('',(0.0,1.0,0.0));
#1012=DIRECTION('',(0.0,0.0,1.0));
#1013=AXIS2_PLACEMENT_3D('',#1010,#1011,#1012);
#1014=PLANE('',#1013);
#1015=ORIENTED_EDGE('',*,*,#965,.F.);
#1016=CARTESIAN_POINT('',(-0.175000000000000,0.275000000000000,0.450000000000000));
#1017=VERTEX_POINT('',#1016);
#1018=CARTESIAN_POINT('',(-0.175000000000000,0.275000000000000,0.100000000000000));
#1019=DIRECTION('',(0.0,0.0,1.0));
#1020=VECTOR('',#1019,0.350000000000000);
#1021=LINE('',#1018,#1020);
#1022=EDGE_CURVE('',#951,#1017,#1021,.T.);
#1023=ORIENTED_EDGE('',*,*,#1022,.T.);
#1024=CARTESIAN_POINT('',(0.175000000000000,0.275000000000000,0.450000000000000));
#1025=VERTEX_POINT('',#1024);
#1026=CARTESIAN_POINT('',(0.175000000000000,0.275000000000000,0.450000000000000));
#1027=DIRECTION('',(-1.0,0.0,0.0));
#1028=VECTOR('',#1027,0.350000000000000);
#1029=LINE('',#1026,#1028);
#1030=EDGE_CURVE('',#1025,#1017,#1029,.T.);
#1031=ORIENTED_EDGE('',*,*,#1030,.F.);
#1032=CARTESIAN_POINT('',(0.175000000000000,0.275000000000000,0.100000000000000));
#1033=DIRECTION('',(0.0,0.0,1.0));
#1034=VECTOR('',#1033,0.350000000000000);
#1035=LINE('',#1032,#1034);
#1036=EDGE_CURVE('',#960,#1025,#1035,.T.);
#1037=ORIENTED_EDGE('',*,*,#1036,.F.);
#1038=EDGE_LOOP('',(#1015,#1023,#1031,#1037));
#1039=FACE_OUTER_BOUND('',#1038,.T.);
#1040=ADVANCED_FACE('',(#1039),#1014,.T.);
#1041=CARTESIAN_POINT('',(-0.175000000000000,-0.275000000000000,0.0));
#1042=DIRECTION('',(-1.0,0.0,0.0));
#1043=DIRECTION('',(0.0,0.0,1.0));
#1044=AXIS2_PLACEMENT_3D('',#1041,#1042,#1043);
#1045=PLANE('',#1044);
#1046=ORIENTED_EDGE('',*,*,#1005,.F.);
#1047=CARTESIAN_POINT('',(-0.175000000000000,-0.175000000000000,0.0));
#1048=VERTEX_POINT('',#1047);
#1049=CARTESIAN_POINT('',(-0.175000000000000,-0.175000000000000,0.0));
#1050=DIRECTION('',(0.0,1.0,0.0));
#1051=VECTOR('',#1050,0.350000000000001);
#1052=LINE('',#1049,#1051);
#1053=EDGE_CURVE('',#1048,#993,#1052,.T.);
#1054=ORIENTED_EDGE('',*,*,#1053,.F.);
#1055=CARTESIAN_POINT('',(-0.175000000000000,-0.175000000000000,0.100000000000000));
#1056=DIRECTION('',(1.0,0.0,0.0));
#1057=DIRECTION('',(0.0,-0.707106781186548,-0.707106781186547));
#1058=AXIS2_PLACEMENT_3D('',#1055,#1056,#1057);
#1059=CIRCLE('',#1058,0.100000000000000);
#1060=EDGE_CURVE('',#901,#1048,#1059,.T.);
#1061=ORIENTED_EDGE('',*,*,#1060,.F.);
#1062=ORIENTED_EDGE('',*,*,#930,.F.);
#1063=CARTESIAN_POINT('',(-0.175000000000000,-0.275000000000000,0.450000000000000));
#1064=VERTEX_POINT('',#1063);
#1065=CARTESIAN_POINT('',(-0.175000000000000,-0.275000000000000,0.100000000000000));
#1066=DIRECTION('',(0.0,0.0,1.0));
#1067=VECTOR('',#1066,0.350000000000000);
#1068=LINE('',#1065,#1067);
#1069=EDGE_CURVE('',#918,#1064,#1068,.T.);
#1070=ORIENTED_EDGE('',*,*,#1069,.T.);
#1071=CARTESIAN_POINT('',(-0.175000000000000,-0.175000000000000,0.450000000000000));
#1072=DIRECTION('',(1.000000000000000,0.0,0.0));
#1073=DIRECTION('',(0.0,-0.707106781186548,0.707106781186547));
#1074=AXIS2_PLACEMENT_3D('',#1071,#1072,#1073);
#1075=CIRCLE('',#1074,0.100000000000000);
#1076=EDGE_CURVE('',#817,#1064,#1075,.T.);
#1077=ORIENTED_EDGE('',*,*,#1076,.F.);
#1078=ORIENTED_EDGE('',*,*,#846,.F.);
#1079=CARTESIAN_POINT('',(-0.175000000000000,-0.175000000000000,0.550000000000000));
#1080=DIRECTION('',(0.0,1.0,0.0));
#1081=VECTOR('',#1080,0.350000000000001);
#1082=LINE('',#1079,#1081);
#1083=EDGE_CURVE('',#834,#867,#1082,.T.);
#1084=ORIENTED_EDGE('',*,*,#1083,.T.);
#1085=ORIENTED_EDGE('',*,*,#873,.F.);
#1086=CARTESIAN_POINT('',(-0.175000000000000,0.175000000000000,0.450000000000000));
#1087=DIRECTION('',(1.000000000000000,0.0,0.0));
#1088=DIRECTION('',(0.0,0.707106781186548,0.707106781186547));
#1089=AXIS2_PLACEMENT_3D('',#1086,#1087,#1088);
#1090=CIRCLE('',#1089,0.100000000000000);
#1091=EDGE_CURVE('',#1017,#857,#1090,.T.);
#1092=ORIENTED_EDGE('',*,*,#1091,.F.);
#1093=ORIENTED_EDGE('',*,*,#1022,.F.);
#1094=ORIENTED_EDGE('',*,*,#957,.F.);
#1095=EDGE_LOOP('',(#1046,#1054,#1061,#1062,#1070,#1077,#1078,#1084,#1085,#1092,#1093,#1094));
#1096=FACE_OUTER_BOUND('',#1095,.T.);
#1097=ADVANCED_FACE('',(#1096),#1045,.T.);
#1098=CARTESIAN_POINT('',(0.087500000000000,-0.175000000000000,0.100000000000000));
#1099=DIRECTION('',(-1.0,0.0,0.0));
#1100=DIRECTION('',(0.0,-0.707106781186548,-0.707106781186547));
#1101=AXIS2_PLACEMENT_3D('',#1098,#1099,#1100);
#1102=CYLINDRICAL_SURFACE('',#1101,0.100000000000000);
#1103=ORIENTED_EDGE('',*,*,#906,.T.);
#1104=ORIENTED_EDGE('',*,*,#1060,.T.);
#1105=CARTESIAN_POINT('',(0.175000000000000,-0.175000000000000,0.0));
#1106=VERTEX_POINT('',#1105);
#1107=CARTESIAN_POINT('',(-0.175000000000000,-0.175000000000000,0.0));
#1108=DIRECTION('',(1.0,0.0,0.0));
#1109=VECTOR('',#1108,0.350000000000000);
#1110=LINE('',#1107,#1109);
#1111=EDGE_CURVE('',#1048,#1106,#1110,.T.);
#1112=ORIENTED_EDGE('',*,*,#1111,.T.);
#1113=CARTESIAN_POINT('',(0.175000000000000,-0.175000000000000,0.100000000000000));
#1114=DIRECTION('',(-1.0,0.0,0.0));
#1115=DIRECTION('',(0.0,-0.707106781186548,-0.707106781186547));
#1116=AXIS2_PLACEMENT_3D('',#1113,#1114,#1115);
#1117=CIRCLE('',#1116,0.100000000000000);
#1118=EDGE_CURVE('',#1106,#899,#1117,.T.);
#1119=ORIENTED_EDGE('',*,*,#1118,.T.);
#1120=EDGE_LOOP('',(#1103,#1104,#1112,#1119));
#1121=FACE_OUTER_BOUND('',#1120,.T.);
#1122=ADVANCED_FACE('',(#1121),#1102,.T.);
#1123=CARTESIAN_POINT('',(0.175000000000000,-0.275000000000000,0.0));
#1124=DIRECTION('',(0.0,-1.0,0.0));
#1125=DIRECTION('',(0.0,0.0,-1.0));
#1126=AXIS2_PLACEMENT_3D('',#1123,#1124,#1125);
#1127=PLANE('',#1126);
#1128=ORIENTED_EDGE('',*,*,#923,.F.);
#1129=CARTESIAN_POINT('',(0.175000000000000,-0.275000000000000,0.450000000000000));
#1130=VERTEX_POINT('',#1129);
#1131=CARTESIAN_POINT('',(0.175000000000000,-0.275000000000000,0.100000000000000));
#1132=DIRECTION('',(0.0,0.0,1.0));
#1133=VECTOR('',#1132,0.350000000000000);
#1134=LINE('',#1131,#1133);
#1135=EDGE_CURVE('',#909,#1130,#1134,.T.);
#1136=ORIENTED_EDGE('',*,*,#1135,.T.);
#1137=CARTESIAN_POINT('',(-0.175000000000000,-0.275000000000000,0.450000000000000));
#1138=DIRECTION('',(1.0,0.0,0.0));
#1139=VECTOR('',#1138,0.350000000000000);
#1140=LINE('',#1137,#1139);
#1141=EDGE_CURVE('',#1064,#1130,#1140,.T.);
#1142=ORIENTED_EDGE('',*,*,#1141,.F.);
#1143=ORIENTED_EDGE('',*,*,#1069,.F.);
#1144=EDGE_LOOP('',(#1128,#1136,#1142,#1143));
#1145=FACE_OUTER_BOUND('',#1144,.T.);
#1146=ADVANCED_FACE('',(#1145),#1127,.T.);
#1147=CARTESIAN_POINT('',(0.175000000000000,0.275000000000000,0.0));
#1148=DIRECTION('',(1.0,0.0,0.0));
#1149=DIRECTION('',(0.0,0.0,-1.0));
#1150=AXIS2_PLACEMENT_3D('',#1147,#1148,#1149);
#1151=PLANE('',#1150);
#1152=ORIENTED_EDGE('',*,*,#972,.F.);
#1153=ORIENTED_EDGE('',*,*,#1036,.T.);
#1154=CARTESIAN_POINT('',(0.175000000000000,0.175000000000000,0.450000000000000));
#1155=DIRECTION('',(-1.000000000000000,0.0,0.0));
#1156=DIRECTION('',(0.0,0.707106781186548,0.707106781186547));
#1157=AXIS2_PLACEMENT_3D('',#1154,#1155,#1156);
#1158=CIRCLE('',#1157,0.100000000000000);
#1159=EDGE_CURVE('',#859,#1025,#1158,.T.);
#1160=ORIENTED_EDGE('',*,*,#1159,.F.);
#1161=ORIENTED_EDGE('',*,*,#888,.F.);
#1162=CARTESIAN_POINT('',(0.175000000000000,0.175000000000000,0.550000000000000));
#1163=DIRECTION('',(0.0,-1.0,0.0));
#1164=VECTOR('',#1163,0.350000000000001);
#1165=LINE('',#1162,#1164);
#1166=EDGE_CURVE('',#876,#825,#1165,.T.);
#1167=ORIENTED_EDGE('',*,*,#1166,.T.);
#1168=ORIENTED_EDGE('',*,*,#831,.F.);
#1169=CARTESIAN_POINT('',(0.175000000000000,-0.175000000000000,0.450000000000000));
#1170=DIRECTION('',(-1.000000000000000,0.0,0.0));
#1171=DIRECTION('',(0.0,-0.707106781186548,0.707106781186547));
#1172=AXIS2_PLACEMENT_3D('',#1169,#1170,#1171);
#1173=CIRCLE('',#1172,0.100000000000000);
#1174=EDGE_CURVE('',#1130,#815,#1173,.T.);
#1175=ORIENTED_EDGE('',*,*,#1174,.F.);
#1176=ORIENTED_EDGE('',*,*,#1135,.F.);
#1177=ORIENTED_EDGE('',*,*,#915,.F.);
#1178=ORIENTED_EDGE('',*,*,#1118,.F.);
#1179=CARTESIAN_POINT('',(0.175000000000000,0.175000000000000,0.0));
#1180=DIRECTION('',(0.0,-1.0,0.0));
#1181=VECTOR('',#1180,0.350000000000001);
#1182=LINE('',#1179,#1181);
#1183=EDGE_CURVE('',#984,#1106,#1182,.T.);
#1184=ORIENTED_EDGE('',*,*,#1183,.F.);
#1185=ORIENTED_EDGE('',*,*,#990,.F.);
#1186=EDGE_LOOP('',(#1152,#1153,#1160,#1161,#1167,#1168,#1175,#1176,#1177,#1178,#1184,#1185));
#1187=FACE_OUTER_BOUND('',#1186,.T.);
#1188=ADVANCED_FACE('',(#1187),#1151,.T.);
#1189=CARTESIAN_POINT('',(-0.087500000000000,0.175000000000000,0.450000000000000));
#1190=DIRECTION('',(1.0,0.0,0.0));
#1191=DIRECTION('',(0.0,0.707106781186548,0.707106781186547));
#1192=AXIS2_PLACEMENT_3D('',#1189,#1190,#1191);
#1193=CYLINDRICAL_SURFACE('',#1192,0.100000000000000);
#1194=ORIENTED_EDGE('',*,*,#864,.T.);
#1195=ORIENTED_EDGE('',*,*,#1159,.T.);
#1196=ORIENTED_EDGE('',*,*,#1030,.T.);
#1197=ORIENTED_EDGE('',*,*,#1091,.T.);
#1198=EDGE_LOOP('',(#1194,#1195,#1196,#1197));
#1199=FACE_OUTER_BOUND('',#1198,.T.);
#1200=ADVANCED_FACE('',(#1199),#1193,.T.);
#1201=CARTESIAN_POINT('',(-1.734723E-016,2.775558E-017,0.550000000000000));
#1202=DIRECTION('',(0.0,0.0,1.0));
#1203=DIRECTION('',(1.0,0.0,0.0));
#1204=AXIS2_PLACEMENT_3D('',#1201,#1202,#1203);
#1205=PLANE('',#1204);
#1206=ORIENTED_EDGE('',*,*,#881,.F.);
#1207=ORIENTED_EDGE('',*,*,#1083,.F.);
#1208=ORIENTED_EDGE('',*,*,#839,.F.);
#1209=ORIENTED_EDGE('',*,*,#1166,.F.);
#1210=EDGE_LOOP('',(#1206,#1207,#1208,#1209));
#1211=FACE_OUTER_BOUND('',#1210,.T.);
#1212=ADVANCED_FACE('',(#1211),#1205,.T.);
#1213=CARTESIAN_POINT('',(0.087500000000000,-0.175000000000000,0.450000000000000));
#1214=DIRECTION('',(-1.0,0.0,0.0));
#1215=DIRECTION('',(0.0,-0.707106781186548,0.707106781186547));
#1216=AXIS2_PLACEMENT_3D('',#1213,#1214,#1215);
#1217=CYLINDRICAL_SURFACE('',#1216,0.100000000000000);
#1218=ORIENTED_EDGE('',*,*,#822,.T.);
#1219=ORIENTED_EDGE('',*,*,#1076,.T.);
#1220=ORIENTED_EDGE('',*,*,#1141,.T.);
#1221=ORIENTED_EDGE('',*,*,#1174,.T.);
#1222=EDGE_LOOP('',(#1218,#1219,#1220,#1221));
#1223=FACE_OUTER_BOUND('',#1222,.T.);
#1224=ADVANCED_FACE('',(#1223),#1217,.T.);
#1225=CARTESIAN_POINT('',(-1.734723E-016,2.775558E-017,0.0));
#1226=DIRECTION('',(0.0,0.0,1.0));
#1227=DIRECTION('',(1.0,0.0,0.0));
#1228=AXIS2_PLACEMENT_3D('',#1225,#1226,#1227);
#1229=PLANE('',#1228);
#1230=ORIENTED_EDGE('',*,*,#998,.F.);
#1231=ORIENTED_EDGE('',*,*,#1183,.T.);
#1232=ORIENTED_EDGE('',*,*,#1111,.F.);
#1233=ORIENTED_EDGE('',*,*,#1053,.T.);
#1234=EDGE_LOOP('',(#1230,#1231,#1232,#1233));
#1235=FACE_OUTER_BOUND('',#1234,.T.);
#1236=ADVANCED_FACE('',(#1235),#1229,.F.);
#1237=CLOSED_SHELL('',(#850,#892,#934,#976,#1009,#1040,#1097,#1122,#1146,#1188,#1200,#1212,#1224,#1236));
#1238=MANIFOLD_SOLID_BREP('777',#1237);
#1239=COLOUR_RGB('250',0.330000000000000,0.330000000000000,0.330000000000000);
#1240=SURFACE_STYLE_USAGE(.BOTH.,#1241);
#1241=SURFACE_SIDE_STYLE('NONE',(#1242));
#1242=SURFACE_STYLE_FILL_AREA(#1243);
#1243=FILL_AREA_STYLE('NONE',(#1244));
#1244=FILL_AREA_STYLE_COLOUR('NONE',#1239);
#1245=PRESENTATION_STYLE_ASSIGNMENT((#1240));
#1246=STYLED_ITEM('NONE',(#1245),#1238);
#1247=CARTESIAN_POINT('',(0.437500000000000,-0.175000000000000,0.450000000000000));
#1248=DIRECTION('',(-1.0,0.0,0.0));
#1249=DIRECTION('',(0.0,-0.707106781186548,0.707106781186547));
#1250=AXIS2_PLACEMENT_3D('',#1247,#1248,#1249);
#1251=CYLINDRICAL_SURFACE('',#1250,0.100000000000000);
#1252=CARTESIAN_POINT('',(0.425000000000000,-0.245710678118655,0.520710678118655));
#1253=VERTEX_POINT('',#1252);
#1254=CARTESIAN_POINT('',(0.175000000000000,-0.245710678118655,0.520710678118655));
#1255=VERTEX_POINT('',#1254);
#1256=CARTESIAN_POINT('',(0.425000000000000,-0.245710678118655,0.520710678118655));
#1257=DIRECTION('',(-1.0,0.0,0.0));
#1258=VECTOR('',#1257,0.250000000000000);
#1259=LINE('',#1256,#1258);
#1260=EDGE_CURVE('',#1253,#1255,#1259,.T.);
#1261=ORIENTED_EDGE('',*,*,#1260,.F.);
#1262=CARTESIAN_POINT('',(0.425000000000000,-0.175000000000000,0.550000000000000));
#1263=VERTEX_POINT('',#1262);
#1264=CARTESIAN_POINT('',(0.425000000000000,-0.175000000000000,0.450000000000000));
#1265=DIRECTION('',(-1.0,0.0,0.0));
#1266=DIRECTION('',(0.0,-1.0,0.0));
#1267=AXIS2_PLACEMENT_3D('',#1264,#1265,#1266);
#1268=CIRCLE('',#1267,0.100000000000000);
#1269=EDGE_CURVE('',#1253,#1263,#1268,.T.);
#1270=ORIENTED_EDGE('',*,*,#1269,.T.);
#1271=CARTESIAN_POINT('',(0.175000000000000,-0.175000000000000,0.550000000000000));
#1272=VERTEX_POINT('',#1271);
#1273=CARTESIAN_POINT('',(0.425000000000000,-0.175000000000000,0.550000000000000));
#1274=DIRECTION('',(-1.0,0.0,0.0));
#1275=VECTOR('',#1274,0.250000000000000);
#1276=LINE('',#1273,#1275);
#1277=EDGE_CURVE('',#1263,#1272,#1276,.T.);
#1278=ORIENTED_EDGE('',*,*,#1277,.T.);
#1279=CARTESIAN_POINT('',(0.175000000000000,-0.175000000000000,0.450000000000000));
#1280=DIRECTION('',(1.000000000000000,0.0,0.0));
#1281=DIRECTION('',(0.0,-0.707106781186548,0.707106781186547));
#1282=AXIS2_PLACEMENT_3D('',#1279,#1280,#1281);
#1283=CIRCLE('',#1282,0.100000000000000);
#1284=EDGE_CURVE('',#1272,#1255,#1283,.T.);
#1285=ORIENTED_EDGE('',*,*,#1284,.T.);
#1286=EDGE_LOOP('',(#1261,#1270,#1278,#1285));
#1287=FACE_OUTER_BOUND('',#1286,.T.);
#1288=ADVANCED_FACE('',(#1287),#1251,.T.);
#1289=CARTESIAN_POINT('',(0.425000000000000,0.137500000000000,0.450000000000000));
#1290=DIRECTION('',(0.0,-1.0,0.0));
#1291=DIRECTION('',(0.707106781186548,0.0,0.707106781186547));
#1292=AXIS2_PLACEMENT_3D('',#1289,#1290,#1291);
#1293=CYLINDRICAL_SURFACE('',#1292,0.100000000000000);
#1294=CARTESIAN_POINT('',(0.495710678118655,0.175000000000000,0.520710678118655));
#1295=VERTEX_POINT('',#1294);
#1296=CARTESIAN_POINT('',(0.495710678118655,-0.175000000000000,0.520710678118655));
#1297=VERTEX_POINT('',#1296);
#1298=CARTESIAN_POINT('',(0.495710678118655,0.175000000000000,0.520710678118655));
#1299=DIRECTION('',(0.0,-1.0,0.0));
#1300=VECTOR('',#1299,0.350000000000001);
#1301=LINE('',#1298,#1300);
#1302=EDGE_CURVE('',#1295,#1297,#1301,.T.);
#1303=ORIENTED_EDGE('',*,*,#1302,.F.);
#1304=CARTESIAN_POINT('',(0.425000000000000,0.175000000000000,0.550000000000000));
#1305=VERTEX_POINT('',#1304);
#1306=CARTESIAN_POINT('',(0.425000000000000,0.175000000000000,0.450000000000000));
#1307=DIRECTION('',(0.0,-1.0,0.0));
#1308=DIRECTION('',(1.0,0.0,0.0));
#1309=AXIS2_PLACEMENT_3D('',#1306,#1307,#1308);
#1310=CIRCLE('',#1309,0.100000000000000);
#1311=EDGE_CURVE('',#1295,#1305,#1310,.T.);
#1312=ORIENTED_EDGE('',*,*,#1311,.T.);
#1313=CARTESIAN_POINT('',(0.425000000000000,0.175000000000000,0.550000000000000));
#1314=DIRECTION('',(0.0,-1.0,0.0));
#1315=VECTOR('',#1314,0.350000000000001);
#1316=LINE('',#1313,#1315);
#1317=EDGE_CURVE('',#1305,#1263,#1316,.T.);
#1318=ORIENTED_EDGE('',*,*,#1317,.T.);
#1319=CARTESIAN_POINT('',(0.425000000000000,-0.175000000000000,0.450000000000000));
#1320=DIRECTION('',(0.0,1.0,0.0));
#1321=DIRECTION('',(0.0,0.0,1.0));
#1322=AXIS2_PLACEMENT_3D('',#1319,#1320,#1321);
#1323=CIRCLE('',#1322,0.100000000000000);
#1324=EDGE_CURVE('',#1263,#1297,#1323,.T.);
#1325=ORIENTED_EDGE('',*,*,#1324,.T.);
#1326=EDGE_LOOP('',(#1303,#1312,#1318,#1325));
#1327=FACE_OUTER_BOUND('',#1326,.T.);
#1328=ADVANCED_FACE('',(#1327),#1293,.T.);
#1329=CARTESIAN_POINT('',(0.262500000000000,0.175000000000000,0.450000000000000));
#1330=DIRECTION('',(1.0,0.0,0.0));
#1331=DIRECTION('',(0.0,0.707106781186548,0.707106781186547));
#1332=AXIS2_PLACEMENT_3D('',#1329,#1330,#1331);
#1333=CYLINDRICAL_SURFACE('',#1332,0.100000000000000);
#1334=CARTESIAN_POINT('',(0.175000000000000,0.245710678118655,0.520710678118655));
#1335=VERTEX_POINT('',#1334);
#1336=CARTESIAN_POINT('',(0.425000000000000,0.245710678118655,0.520710678118655));
#1337=VERTEX_POINT('',#1336);
#1338=CARTESIAN_POINT('',(0.175000000000000,0.245710678118655,0.520710678118655));
#1339=DIRECTION('',(1.0,0.0,0.0));
#1340=VECTOR('',#1339,0.250000000000000);
#1341=LINE('',#1338,#1340);
#1342=EDGE_CURVE('',#1335,#1337,#1341,.T.);
#1343=ORIENTED_EDGE('',*,*,#1342,.F.);
#1344=CARTESIAN_POINT('',(0.175000000000000,0.175000000000000,0.550000000000000));
#1345=VERTEX_POINT('',#1344);
#1346=CARTESIAN_POINT('',(0.175000000000000,0.175000000000000,0.450000000000000));
#1347=DIRECTION('',(1.000000000000000,0.0,0.0));
#1348=DIRECTION('',(0.0,0.707106781186548,0.707106781186547));
#1349=AXIS2_PLACEMENT_3D('',#1346,#1347,#1348);
#1350=CIRCLE('',#1349,0.100000000000000);
#1351=EDGE_CURVE('',#1335,#1345,#1350,.T.);
#1352=ORIENTED_EDGE('',*,*,#1351,.T.);
#1353=CARTESIAN_POINT('',(0.175000000000000,0.175000000000000,0.550000000000000));
#1354=DIRECTION('',(1.0,0.0,0.0));
#1355=VECTOR('',#1354,0.250000000000000);
#1356=LINE('',#1353,#1355);
#1357=EDGE_CURVE('',#1345,#1305,#1356,.T.);
#1358=ORIENTED_EDGE('',*,*,#1357,.T.);
#1359=CARTESIAN_POINT('',(0.425000000000000,0.175000000000000,0.450000000000000));
#1360=DIRECTION('',(-1.0,0.0,0.0));
#1361=DIRECTION('',(0.0,0.0,1.0));
#1362=AXIS2_PLACEMENT_3D('',#1359,#1360,#1361);
#1363=CIRCLE('',#1362,0.100000000000000);
#1364=EDGE_CURVE('',#1305,#1337,#1363,.T.);
#1365=ORIENTED_EDGE('',*,*,#1364,.T.);
#1366=EDGE_LOOP('',(#1343,#1352,#1358,#1365));
#1367=FACE_OUTER_BOUND('',#1366,.T.);
#1368=ADVANCED_FACE('',(#1367),#1333,.T.);
#1369=CARTESIAN_POINT('',(0.425000000000000,0.175000000000000,0.0));
#1370=DIRECTION('',(0.0,0.0,1.0));
#1371=DIRECTION('',(0.707106781186547,0.707106781186548,0.0));
#1372=AXIS2_PLACEMENT_3D('',#1369,#1370,#1371);
#1373=CYLINDRICAL_SURFACE('',#1372,0.100000000000000);
#1374=CARTESIAN_POINT('',(0.495710678118655,0.245710678118655,0.100000000000000));
#1375=VERTEX_POINT('',#1374);
#1376=CARTESIAN_POINT('',(0.495710678118655,0.245710678118655,0.450000000000000));
#1377=VERTEX_POINT('',#1376);
#1378=CARTESIAN_POINT('',(0.495710678118655,0.245710678118655,0.100000000000000));
#1379=DIRECTION('',(0.0,0.0,1.0));
#1380=VECTOR('',#1379,0.350000000000000);
#1381=LINE('',#1378,#1380);
#1382=EDGE_CURVE('',#1375,#1377,#1381,.T.);
#1383=ORIENTED_EDGE('',*,*,#1382,.F.);
#1384=CARTESIAN_POINT('',(0.425000000000000,0.275000000000000,0.100000000000000));
#1385=VERTEX_POINT('',#1384);
#1386=CARTESIAN_POINT('',(0.425000000000000,0.175000000000000,0.100000000000000));
#1387=DIRECTION('',(0.0,0.0,-1.0));
#1388=DIRECTION('',(0.707106781186547,0.707106781186548,0.0));
#1389=AXIS2_PLACEMENT_3D('',#1386,#1387,#1388);
#1390=CIRCLE('',#1389,0.100000000000000);
#1391=EDGE_CURVE('',#1385,#1375,#1390,.T.);
#1392=ORIENTED_EDGE('',*,*,#1391,.F.);
#1393=CARTESIAN_POINT('',(0.425000000000000,0.275000000000000,0.450000000000000));
#1394=VERTEX_POINT('',#1393);
#1395=CARTESIAN_POINT('',(0.425000000000000,0.275000000000000,0.100000000000000));
#1396=DIRECTION('',(0.0,0.0,1.0));
#1397=VECTOR('',#1396,0.350000000000000);
#1398=LINE('',#1395,#1397);
#1399=EDGE_CURVE('',#1385,#1394,#1398,.T.);
#1400=ORIENTED_EDGE('',*,*,#1399,.T.);
#1401=CARTESIAN_POINT('',(0.425000000000000,0.175000000000000,0.450000000000000));
#1402=DIRECTION('',(0.0,0.0,1.0));
#1403=DIRECTION('',(0.707106781186547,0.707106781186548,0.0));
#1404=AXIS2_PLACEMENT_3D('',#1401,#1402,#1403);
#1405=CIRCLE('',#1404,0.100000000000000);
#1406=EDGE_CURVE('',#1377,#1394,#1405,.T.);
#1407=ORIENTED_EDGE('',*,*,#1406,.F.);
#1408=EDGE_LOOP('',(#1383,#1392,#1400,#1407));
#1409=FACE_OUTER_BOUND('',#1408,.T.);
#1410=ADVANCED_FACE('',(#1409),#1373,.T.);
#1411=CARTESIAN_POINT('',(0.425000000000000,-0.175000000000000,0.0));
#1412=DIRECTION('',(0.0,0.0,1.0));
#1413=DIRECTION('',(0.707106781186547,-0.707106781186547,0.0));
#1414=AXIS2_PLACEMENT_3D('',#1411,#1412,#1413);
#1415=CYLINDRICAL_SURFACE('',#1414,0.100000000000000);
#1416=CARTESIAN_POINT('',(0.495710678118655,-0.245710678118655,0.100000000000000));
#1417=VERTEX_POINT('',#1416);
#1418=CARTESIAN_POINT('',(0.495710678118655,-0.245710678118655,0.450000000000000));
#1419=VERTEX_POINT('',#1418);
#1420=CARTESIAN_POINT('',(0.495710678118655,-0.245710678118655,0.100000000000000));
#1421=DIRECTION('',(0.0,0.0,1.0));
#1422=VECTOR('',#1421,0.350000000000000);
#1423=LINE('',#1420,#1422);
#1424=EDGE_CURVE('',#1417,#1419,#1423,.T.);
#1425=ORIENTED_EDGE('',*,*,#1424,.F.);
#1426=CARTESIAN_POINT('',(0.525000000000000,-0.175000000000000,0.100000000000000));
#1427=VERTEX_POINT('',#1426);
#1428=CARTESIAN_POINT('',(0.425000000000000,-0.175000000000000,0.100000000000000));
#1429=DIRECTION('',(0.0,0.0,-1.0));
#1430=DIRECTION('',(0.707106781186547,-0.707106781186548,0.0));
#1431=AXIS2_PLACEMENT_3D('',#1428,#1429,#1430);
#1432=CIRCLE('',#1431,0.100000000000000);
#1433=EDGE_CURVE('',#1427,#1417,#1432,.T.);
#1434=ORIENTED_EDGE('',*,*,#1433,.F.);
#1435=CARTESIAN_POINT('',(0.525000000000000,-0.175000000000000,0.450000000000000));
#1436=VERTEX_POINT('',#1435);
#1437=CARTESIAN_POINT('',(0.525000000000000,-0.175000000000000,0.100000000000000));
#1438=DIRECTION('',(0.0,0.0,1.0));
#1439=VECTOR('',#1438,0.350000000000000);
#1440=LINE('',#1437,#1439);
#1441=EDGE_CURVE('',#1427,#1436,#1440,.T.);
#1442=ORIENTED_EDGE('',*,*,#1441,.T.);
#1443=CARTESIAN_POINT('',(0.425000000000000,-0.175000000000000,0.450000000000000));
#1444=DIRECTION('',(0.0,0.0,1.0));
#1445=DIRECTION('',(0.707106781186547,-0.707106781186548,0.0));
#1446=AXIS2_PLACEMENT_3D('',#1443,#1444,#1445);
#1447=CIRCLE('',#1446,0.100000000000000);
#1448=EDGE_CURVE('',#1419,#1436,#1447,.T.);
#1449=ORIENTED_EDGE('',*,*,#1448,.F.);
#1450=EDGE_LOOP('',(#1425,#1434,#1442,#1449));
#1451=FACE_OUTER_BOUND('',#1450,.T.);
#1452=ADVANCED_FACE('',(#1451),#1415,.T.);
#1453=CARTESIAN_POINT('',(0.262500000000000,0.175000000000000,0.100000000000000));
#1454=DIRECTION('',(-1.0,0.0,0.0));
#1455=DIRECTION('',(0.0,0.707106781186548,-0.707106781186547));
#1456=AXIS2_PLACEMENT_3D('',#1453,#1454,#1455);
#1457=CYLINDRICAL_SURFACE('',#1456,0.100000000000000);
#1458=CARTESIAN_POINT('',(0.425000000000000,0.245710678118655,0.029289321881345));
#1459=VERTEX_POINT('',#1458);
#1460=CARTESIAN_POINT('',(0.175000000000000,0.245710678118655,0.029289321881345));
#1461=VERTEX_POINT('',#1460);
#1462=CARTESIAN_POINT('',(0.425000000000000,0.245710678118655,0.029289321881345));
#1463=DIRECTION('',(-1.0,0.0,0.0));
#1464=VECTOR('',#1463,0.250000000000000);
#1465=LINE('',#1462,#1464);
#1466=EDGE_CURVE('',#1459,#1461,#1465,.T.);
#1467=ORIENTED_EDGE('',*,*,#1466,.F.);
#1468=CARTESIAN_POINT('',(0.425000000000000,0.175000000000000,0.0));
#1469=VERTEX_POINT('',#1468);
#1470=CARTESIAN_POINT('',(0.425000000000000,0.175000000000000,0.100000000000000));
#1471=DIRECTION('',(-1.0,0.0,0.0));
#1472=DIRECTION('',(0.0,1.0,0.0));
#1473=AXIS2_PLACEMENT_3D('',#1470,#1471,#1472);
#1474=CIRCLE('',#1473,0.100000000000000);
#1475=EDGE_CURVE('',#1459,#1469,#1474,.T.);
#1476=ORIENTED_EDGE('',*,*,#1475,.T.);
#1477=CARTESIAN_POINT('',(0.175000000000000,0.175000000000000,0.0));
#1478=VERTEX_POINT('',#1477);
#1479=CARTESIAN_POINT('',(0.425000000000000,0.175000000000000,0.0));
#1480=DIRECTION('',(-1.0,0.0,0.0));
#1481=VECTOR('',#1480,0.250000000000000);
#1482=LINE('',#1479,#1481);
#1483=EDGE_CURVE('',#1469,#1478,#1482,.T.);
#1484=ORIENTED_EDGE('',*,*,#1483,.T.);
#1485=CARTESIAN_POINT('',(0.175000000000000,0.175000000000000,0.100000000000000));
#1486=DIRECTION('',(1.0,0.0,0.0));
#1487=DIRECTION('',(0.0,0.707106781186548,-0.707106781186547));
#1488=AXIS2_PLACEMENT_3D('',#1485,#1486,#1487);
#1489=CIRCLE('',#1488,0.100000000000000);
#1490=EDGE_CURVE('',#1478,#1461,#1489,.T.);
#1491=ORIENTED_EDGE('',*,*,#1490,.T.);
#1492=EDGE_LOOP('',(#1467,#1476,#1484,#1491));
#1493=FACE_OUTER_BOUND('',#1492,.T.);
#1494=ADVANCED_FACE('',(#1493),#1457,.T.);
#1495=CARTESIAN_POINT('',(0.425000000000000,0.137500000000000,0.100000000000000));
#1496=DIRECTION('',(0.0,1.0,0.0));
#1497=DIRECTION('',(0.707106781186547,0.0,-0.707106781186548));
#1498=AXIS2_PLACEMENT_3D('',#1495,#1496,#1497);
#1499=CYLINDRICAL_SURFACE('',#1498,0.100000000000000);
#1500=CARTESIAN_POINT('',(0.495710678118655,-0.175000000000000,0.029289321881345));
#1501=VERTEX_POINT('',#1500);
#1502=CARTESIAN_POINT('',(0.495710678118655,0.175000000000000,0.029289321881345));
#1503=VERTEX_POINT('',#1502);
#1504=CARTESIAN_POINT('',(0.495710678118655,-0.175000000000000,0.029289321881345));
#1505=DIRECTION('',(0.0,1.0,0.0));
#1506=VECTOR('',#1505,0.350000000000001);
#1507=LINE('',#1504,#1506);
#1508=EDGE_CURVE('',#1501,#1503,#1507,.T.);
#1509=ORIENTED_EDGE('',*,*,#1508,.F.);
#1510=CARTESIAN_POINT('',(0.425000000000000,-0.175000000000000,0.0));
#1511=VERTEX_POINT('',#1510);
#1512=CARTESIAN_POINT('',(0.425000000000000,-0.175000000000000,0.100000000000000));
#1513=DIRECTION('',(0.0,1.0,0.0));
#1514=DIRECTION('',(1.0,0.0,0.0));
#1515=AXIS2_PLACEMENT_3D('',#1512,#1513,#1514);
#1516=CIRCLE('',#1515,0.100000000000000);
#1517=EDGE_CURVE('',#1501,#1511,#1516,.T.);
#1518=ORIENTED_EDGE('',*,*,#1517,.T.);
#1519=CARTESIAN_POINT('',(0.425000000000000,-0.175000000000000,0.0));
#1520=DIRECTION('',(0.0,1.0,0.0));
#1521=VECTOR('',#1520,0.350000000000001);
#1522=LINE('',#1519,#1521);
#1523=EDGE_CURVE('',#1511,#1469,#1522,.T.);
#1524=ORIENTED_EDGE('',*,*,#1523,.T.);
#1525=CARTESIAN_POINT('',(0.425000000000000,0.175000000000000,0.100000000000000));
#1526=DIRECTION('',(0.0,-1.0,0.0));
#1527=DIRECTION('',(0.0,0.0,-1.0));
#1528=AXIS2_PLACEMENT_3D('',#1525,#1526,#1527);
#1529=CIRCLE('',#1528,0.100000000000000);
#1530=EDGE_CURVE('',#1469,#1503,#1529,.T.);
#1531=ORIENTED_EDGE('',*,*,#1530,.T.);
#1532=EDGE_LOOP('',(#1509,#1518,#1524,#1531));
#1533=FACE_OUTER_BOUND('',#1532,.T.);
#1534=ADVANCED_FACE('',(#1533),#1499,.T.);
#1535=CARTESIAN_POINT('',(0.437500000000000,-0.175000000000000,0.100000000000000));
#1536=DIRECTION('',(1.0,0.0,0.0));
#1537=DIRECTION('',(0.0,-0.707106781186548,-0.707106781186547));
#1538=AXIS2_PLACEMENT_3D('',#1535,#1536,#1537);
#1539=CYLINDRICAL_SURFACE('',#1538,0.100000000000000);
#1540=CARTESIAN_POINT('',(0.175000000000000,-0.245710678118655,0.029289321881345));
#1541=VERTEX_POINT('',#1540);
#1542=CARTESIAN_POINT('',(0.425000000000000,-0.245710678118655,0.029289321881345));
#1543=VERTEX_POINT('',#1542);
#1544=CARTESIAN_POINT('',(0.175000000000000,-0.245710678118655,0.029289321881345));
#1545=DIRECTION('',(1.0,0.0,0.0));
#1546=VECTOR('',#1545,0.250000000000000);
#1547=LINE('',#1544,#1546);
#1548=EDGE_CURVE('',#1541,#1543,#1547,.T.);
#1549=ORIENTED_EDGE('',*,*,#1548,.F.);
#1550=CARTESIAN_POINT('',(0.175000000000000,-0.175000000000000,0.0));
#1551=VERTEX_POINT('',#1550);
#1552=CARTESIAN_POINT('',(0.175000000000000,-0.175000000000000,0.100000000000000));
#1553=DIRECTION('',(1.0,0.0,0.0));
#1554=DIRECTION('',(0.0,-0.707106781186548,-0.707106781186547));
#1555=AXIS2_PLACEMENT_3D('',#1552,#1553,#1554);
#1556=CIRCLE('',#1555,0.100000000000000);
#1557=EDGE_CURVE('',#1541,#1551,#1556,.T.);
#1558=ORIENTED_EDGE('',*,*,#1557,.T.);
#1559=CARTESIAN_POINT('',(0.175000000000000,-0.175000000000000,0.0));
#1560=DIRECTION('',(1.0,0.0,0.0));
#1561=VECTOR('',#1560,0.250000000000000);
#1562=LINE('',#1559,#1561);
#1563=EDGE_CURVE('',#1551,#1511,#1562,.T.);
#1564=ORIENTED_EDGE('',*,*,#1563,.T.);
#1565=CARTESIAN_POINT('',(0.425000000000000,-0.175000000000000,0.100000000000000));
#1566=DIRECTION('',(-1.0,0.0,0.0));
#1567=DIRECTION('',(0.0,0.0,-1.0));
#1568=AXIS2_PLACEMENT_3D('',#1565,#1566,#1567);
#1569=CIRCLE('',#1568,0.100000000000000);
#1570=EDGE_CURVE('',#1511,#1543,#1569,.T.);
#1571=ORIENTED_EDGE('',*,*,#1570,.T.);
#1572=EDGE_LOOP('',(#1549,#1558,#1564,#1571));
#1573=FACE_OUTER_BOUND('',#1572,.T.);
#1574=ADVANCED_FACE('',(#1573),#1539,.T.);
#1575=CARTESIAN_POINT('',(0.437500000000000,-0.175000000000000,0.100000000000000));
#1576=DIRECTION('',(1.0,0.0,0.0));
#1577=DIRECTION('',(0.0,-0.707106781186548,-0.707106781186547));
#1578=AXIS2_PLACEMENT_3D('',#1575,#1576,#1577);
#1579=CYLINDRICAL_SURFACE('',#1578,0.100000000000000);
#1580=ORIENTED_EDGE('',*,*,#1548,.T.);
#1581=CARTESIAN_POINT('',(0.425000000000000,-0.275000000000000,0.100000000000000));
#1582=VERTEX_POINT('',#1581);
#1583=CARTESIAN_POINT('',(0.425000000000000,-0.175000000000000,0.100000000000000));
#1584=DIRECTION('',(-1.0,0.0,0.0));
#1585=DIRECTION('',(0.0,0.0,-1.0));
#1586=AXIS2_PLACEMENT_3D('',#1583,#1584,#1585);
#1587=CIRCLE('',#1586,0.100000000000000);
#1588=EDGE_CURVE('',#1543,#1582,#1587,.T.);
#1589=ORIENTED_EDGE('',*,*,#1588,.T.);
#1590=CARTESIAN_POINT('',(0.175000000000000,-0.275000000000000,0.100000000000000));
#1591=VERTEX_POINT('',#1590);
#1592=CARTESIAN_POINT('',(0.425000000000000,-0.275000000000000,0.100000000000000));
#1593=DIRECTION('',(-1.0,0.0,0.0));
#1594=VECTOR('',#1593,0.250000000000000);
#1595=LINE('',#1592,#1594);
#1596=EDGE_CURVE('',#1582,#1591,#1595,.T.);
#1597=ORIENTED_EDGE('',*,*,#1596,.T.);
#1598=CARTESIAN_POINT('',(0.175000000000000,-0.175000000000000,0.100000000000000));
#1599=DIRECTION('',(1.0,0.0,0.0));
#1600=DIRECTION('',(0.0,-0.707106781186548,-0.707106781186547));
#1601=AXIS2_PLACEMENT_3D('',#1598,#1599,#1600);
#1602=CIRCLE('',#1601,0.100000000000000);
#1603=EDGE_CURVE('',#1591,#1541,#1602,.T.);
#1604=ORIENTED_EDGE('',*,*,#1603,.T.);
#1605=EDGE_LOOP('',(#1580,#1589,#1597,#1604));
#1606=FACE_OUTER_BOUND('',#1605,.T.);
#1607=ADVANCED_FACE('',(#1606),#1579,.T.);
#1608=CARTESIAN_POINT('',(0.425000000000000,0.137500000000000,0.100000000000000));
#1609=DIRECTION('',(0.0,1.0,0.0));
#1610=DIRECTION('',(0.707106781186547,0.0,-0.707106781186548));
#1611=AXIS2_PLACEMENT_3D('',#1608,#1609,#1610);
#1612=CYLINDRICAL_SURFACE('',#1611,0.100000000000000);
#1613=ORIENTED_EDGE('',*,*,#1508,.T.);
#1614=CARTESIAN_POINT('',(0.525000000000000,0.175000000000000,0.100000000000000));
#1615=VERTEX_POINT('',#1614);
#1616=CARTESIAN_POINT('',(0.425000000000000,0.175000000000000,0.100000000000000));
#1617=DIRECTION('',(0.0,-1.0,0.0));
#1618=DIRECTION('',(0.0,0.0,-1.0));
#1619=AXIS2_PLACEMENT_3D('',#1616,#1617,#1618);
#1620=CIRCLE('',#1619,0.100000000000000);
#1621=EDGE_CURVE('',#1503,#1615,#1620,.T.);
#1622=ORIENTED_EDGE('',*,*,#1621,.T.);
#1623=CARTESIAN_POINT('',(0.525000000000000,0.175000000000000,0.100000000000000));
#1624=DIRECTION('',(0.0,-1.0,0.0));
#1625=VECTOR('',#1624,0.350000000000001);
#1626=LINE('',#1623,#1625);
#1627=EDGE_CURVE('',#1615,#1427,#1626,.T.);
#1628=ORIENTED_EDGE('',*,*,#1627,.T.);
#1629=CARTESIAN_POINT('',(0.425000000000000,-0.175000000000000,0.100000000000000));
#1630=DIRECTION('',(0.0,1.0,0.0));
#1631=DIRECTION('',(1.0,0.0,0.0));
#1632=AXIS2_PLACEMENT_3D('',#1629,#1630,#1631);
#1633=CIRCLE('',#1632,0.100000000000000);
#1634=EDGE_CURVE('',#1427,#1501,#1633,.T.);
#1635=ORIENTED_EDGE('',*,*,#1634,.T.);
#1636=EDGE_LOOP('',(#1613,#1622,#1628,#1635));
#1637=FACE_OUTER_BOUND('',#1636,.T.);
#1638=ADVANCED_FACE('',(#1637),#1612,.T.);
#1639=CARTESIAN_POINT('',(0.425000000000000,-0.175000000000000,0.100000000000000));
#1640=DIRECTION('',(0.0,0.0,1.0));
#1641=DIRECTION('',(1.0,0.0,0.0));
#1642=AXIS2_PLACEMENT_3D('',#1639,#1640,#1641);
#1643=SPHERICAL_SURFACE('',#1642,0.100000000000000);
#1644=ORIENTED_EDGE('',*,*,#1634,.F.);
#1645=ORIENTED_EDGE('',*,*,#1433,.T.);
#1646=CARTESIAN_POINT('',(0.425000000000000,-0.175000000000000,0.100000000000000));
#1647=DIRECTION('',(0.0,0.0,-1.0));
#1648=DIRECTION('',(0.707106781186547,-0.707106781186548,0.0));
#1649=AXIS2_PLACEMENT_3D('',#1646,#1647,#1648);
#1650=CIRCLE('',#1649,0.100000000000000);
#1651=EDGE_CURVE('',#1417,#1582,#1650,.T.);
#1652=ORIENTED_EDGE('',*,*,#1651,.T.);
#1653=ORIENTED_EDGE('',*,*,#1588,.F.);
#1654=ORIENTED_EDGE('',*,*,#1570,.F.);
#1655=ORIENTED_EDGE('',*,*,#1517,.F.);
#1656=EDGE_LOOP('',(#1644,#1645,#1652,#1653,#1654,#1655));
#1657=FACE_OUTER_BOUND('',#1656,.T.);
#1658=ADVANCED_FACE('',(#1657),#1643,.T.);
#1659=CARTESIAN_POINT('',(0.262500000000000,0.175000000000000,0.100000000000000));
#1660=DIRECTION('',(-1.0,0.0,0.0));
#1661=DIRECTION('',(0.0,0.707106781186548,-0.707106781186547));
#1662=AXIS2_PLACEMENT_3D('',#1659,#1660,#1661);
#1663=CYLINDRICAL_SURFACE('',#1662,0.100000000000000);
#1664=ORIENTED_EDGE('',*,*,#1466,.T.);
#1665=CARTESIAN_POINT('',(0.175000000000000,0.275000000000000,0.100000000000000));
#1666=VERTEX_POINT('',#1665);
#1667=CARTESIAN_POINT('',(0.175000000000000,0.175000000000000,0.100000000000000));
#1668=DIRECTION('',(1.0,0.0,0.0));
#1669=DIRECTION('',(0.0,0.707106781186548,-0.707106781186547));
#1670=AXIS2_PLACEMENT_3D('',#1667,#1668,#1669);
#1671=CIRCLE('',#1670,0.100000000000000);
#1672=EDGE_CURVE('',#1461,#1666,#1671,.T.);
#1673=ORIENTED_EDGE('',*,*,#1672,.T.);
#1674=CARTESIAN_POINT('',(0.175000000000000,0.275000000000000,0.100000000000000));
#1675=DIRECTION('',(1.0,0.0,0.0));
#1676=VECTOR('',#1675,0.250000000000000);
#1677=LINE('',#1674,#1676);
#1678=EDGE_CURVE('',#1666,#1385,#1677,.T.);
#1679=ORIENTED_EDGE('',*,*,#1678,.T.);
#1680=CARTESIAN_POINT('',(0.425000000000000,0.175000000000000,0.100000000000000));
#1681=DIRECTION('',(-1.0,0.0,0.0));
#1682=DIRECTION('',(0.0,1.0,0.0));
#1683=AXIS2_PLACEMENT_3D('',#1680,#1681,#1682);
#1684=CIRCLE('',#1683,0.100000000000000);
#1685=EDGE_CURVE('',#1385,#1459,#1684,.T.);
#1686=ORIENTED_EDGE('',*,*,#1685,.T.);
#1687=EDGE_LOOP('',(#1664,#1673,#1679,#1686));
#1688=FACE_OUTER_BOUND('',#1687,.T.);
#1689=ADVANCED_FACE('',(#1688),#1663,.T.);
#1690=CARTESIAN_POINT('',(0.425000000000000,0.175000000000000,0.100000000000000));
#1691=DIRECTION('',(0.0,0.0,1.0));
#1692=DIRECTION('',(1.0,0.0,0.0));
#1693=AXIS2_PLACEMENT_3D('',#1690,#1691,#1692);
#1694=SPHERICAL_SURFACE('',#1693,0.100000000000000);
#1695=ORIENTED_EDGE('',*,*,#1685,.F.);
#1696=ORIENTED_EDGE('',*,*,#1391,.T.);
#1697=CARTESIAN_POINT('',(0.425000000000000,0.175000000000000,0.100000000000000));
#1698=DIRECTION('',(0.0,0.0,-1.0));
#1699=DIRECTION('',(0.707106781186547,0.707106781186548,0.0));
#1700=AXIS2_PLACEMENT_3D('',#1697,#1698,#1699);
#1701=CIRCLE('',#1700,0.100000000000000);
#1702=EDGE_CURVE('',#1375,#1615,#1701,.T.);
#1703=ORIENTED_EDGE('',*,*,#1702,.T.);
#1704=ORIENTED_EDGE('',*,*,#1621,.F.);
#1705=ORIENTED_EDGE('',*,*,#1530,.F.);
#1706=ORIENTED_EDGE('',*,*,#1475,.F.);
#1707=EDGE_LOOP('',(#1695,#1696,#1703,#1704,#1705,#1706));
#1708=FACE_OUTER_BOUND('',#1707,.T.);
#1709=ADVANCED_FACE('',(#1708),#1694,.T.);
#1710=CARTESIAN_POINT('',(0.525000000000000,-0.275000000000000,0.0));
#1711=DIRECTION('',(0.0,-1.0,0.0));
#1712=DIRECTION('',(0.0,0.0,-1.0));
#1713=AXIS2_PLACEMENT_3D('',#1710,#1711,#1712);
#1714=PLANE('',#1713);
#1715=ORIENTED_EDGE('',*,*,#1596,.F.);
#1716=CARTESIAN_POINT('',(0.425000000000000,-0.275000000000000,0.450000000000000));
#1717=VERTEX_POINT('',#1716);
#1718=CARTESIAN_POINT('',(0.425000000000000,-0.275000000000000,0.450000000000000));
#1719=DIRECTION('',(0.0,0.0,-1.0));
#1720=VECTOR('',#1719,0.350000000000000);
#1721=LINE('',#1718,#1720);
#1722=EDGE_CURVE('',#1717,#1582,#1721,.T.);
#1723=ORIENTED_EDGE('',*,*,#1722,.F.);
#1724=CARTESIAN_POINT('',(0.175000000000000,-0.275000000000000,0.450000000000000));
#1725=VERTEX_POINT('',#1724);
#1726=CARTESIAN_POINT('',(0.175000000000000,-0.275000000000000,0.450000000000000));
#1727=DIRECTION('',(1.0,0.0,0.0));
#1728=VECTOR('',#1727,0.250000000000000);
#1729=LINE('',#1726,#1728);
#1730=EDGE_CURVE('',#1725,#1717,#1729,.T.);
#1731=ORIENTED_EDGE('',*,*,#1730,.F.);
#1732=CARTESIAN_POINT('',(0.175000000000000,-0.275000000000000,0.100000000000000));
#1733=DIRECTION('',(0.0,0.0,1.0));
#1734=VECTOR('',#1733,0.350000000000000);
#1735=LINE('',#1732,#1734);
#1736=EDGE_CURVE('',#1591,#1725,#1735,.T.);
#1737=ORIENTED_EDGE('',*,*,#1736,.F.);
#1738=EDGE_LOOP('',(#1715,#1723,#1731,#1737));
#1739=FACE_OUTER_BOUND('',#1738,.T.);
#1740=ADVANCED_FACE('',(#1739),#1714,.T.);
#1741=CARTESIAN_POINT('',(0.425000000000000,-0.175000000000000,0.0));
#1742=DIRECTION('',(0.0,0.0,1.0));
#1743=DIRECTION('',(0.707106781186547,-0.707106781186547,0.0));
#1744=AXIS2_PLACEMENT_3D('',#1741,#1742,#1743);
#1745=CYLINDRICAL_SURFACE('',#1744,0.100000000000000);
#1746=ORIENTED_EDGE('',*,*,#1424,.T.);
#1747=CARTESIAN_POINT('',(0.425000000000000,-0.175000000000000,0.450000000000000));
#1748=DIRECTION('',(0.0,0.0,1.0));
#1749=DIRECTION('',(0.707106781186547,-0.707106781186548,0.0));
#1750=AXIS2_PLACEMENT_3D('',#1747,#1748,#1749);
#1751=CIRCLE('',#1750,0.100000000000000);
#1752=EDGE_CURVE('',#1717,#1419,#1751,.T.);
#1753=ORIENTED_EDGE('',*,*,#1752,.F.);
#1754=ORIENTED_EDGE('',*,*,#1722,.T.);
#1755=ORIENTED_EDGE('',*,*,#1651,.F.);
#1756=EDGE_LOOP('',(#1746,#1753,#1754,#1755));
#1757=FACE_OUTER_BOUND('',#1756,.T.);
#1758=ADVANCED_FACE('',(#1757),#1745,.T.);
#1759=CARTESIAN_POINT('',(0.525000000000000,0.275000000000000,0.0));
#1760=DIRECTION('',(1.0,0.0,0.0));
#1761=DIRECTION('',(0.0,0.0,-1.0));
#1762=AXIS2_PLACEMENT_3D('',#1759,#1760,#1761);
#1763=PLANE('',#1762);
#1764=ORIENTED_EDGE('',*,*,#1627,.F.);
#1765=CARTESIAN_POINT('',(0.525000000000000,0.175000000000000,0.450000000000000));
#1766=VERTEX_POINT('',#1765);
#1767=CARTESIAN_POINT('',(0.525000000000000,0.175000000000000,0.450000000000000));
#1768=DIRECTION('',(0.0,0.0,-1.0));
#1769=VECTOR('',#1768,0.350000000000000);
#1770=LINE('',#1767,#1769);
#1771=EDGE_CURVE('',#1766,#1615,#1770,.T.);
#1772=ORIENTED_EDGE('',*,*,#1771,.F.);
#1773=CARTESIAN_POINT('',(0.525000000000000,-0.175000000000000,0.450000000000000));
#1774=DIRECTION('',(0.0,1.0,0.0));
#1775=VECTOR('',#1774,0.350000000000001);
#1776=LINE('',#1773,#1775);
#1777=EDGE_CURVE('',#1436,#1766,#1776,.T.);
#1778=ORIENTED_EDGE('',*,*,#1777,.F.);
#1779=ORIENTED_EDGE('',*,*,#1441,.F.);
#1780=EDGE_LOOP('',(#1764,#1772,#1778,#1779));
#1781=FACE_OUTER_BOUND('',#1780,.T.);
#1782=ADVANCED_FACE('',(#1781),#1763,.T.);
#1783=CARTESIAN_POINT('',(0.425000000000000,0.175000000000000,0.0));
#1784=DIRECTION('',(0.0,0.0,1.0));
#1785=DIRECTION('',(0.707106781186547,0.707106781186548,0.0));
#1786=AXIS2_PLACEMENT_3D('',#1783,#1784,#1785);
#1787=CYLINDRICAL_SURFACE('',#1786,0.100000000000000);
#1788=ORIENTED_EDGE('',*,*,#1382,.T.);
#1789=CARTESIAN_POINT('',(0.425000000000000,0.175000000000000,0.450000000000000));
#1790=DIRECTION('',(0.0,0.0,1.0));
#1791=DIRECTION('',(0.707106781186547,0.707106781186548,0.0));
#1792=AXIS2_PLACEMENT_3D('',#1789,#1790,#1791);
#1793=CIRCLE('',#1792,0.100000000000000);
#1794=EDGE_CURVE('',#1766,#1377,#1793,.T.);
#1795=ORIENTED_EDGE('',*,*,#1794,.F.);
#1796=ORIENTED_EDGE('',*,*,#1771,.T.);
#1797=ORIENTED_EDGE('',*,*,#1702,.F.);
#1798=EDGE_LOOP('',(#1788,#1795,#1796,#1797));
#1799=FACE_OUTER_BOUND('',#1798,.T.);
#1800=ADVANCED_FACE('',(#1799),#1787,.T.);
#1801=CARTESIAN_POINT('',(0.175000000000000,0.275000000000000,0.0));
#1802=DIRECTION('',(0.0,1.0,0.0));
#1803=DIRECTION('',(0.0,0.0,1.0));
#1804=AXIS2_PLACEMENT_3D('',#1801,#1802,#1803);
#1805=PLANE('',#1804);
#1806=ORIENTED_EDGE('',*,*,#1678,.F.);
#1807=CARTESIAN_POINT('',(0.175000000000000,0.275000000000000,0.450000000000000));
#1808=VERTEX_POINT('',#1807);
#1809=CARTESIAN_POINT('',(0.175000000000000,0.275000000000000,0.100000000000000));
#1810=DIRECTION('',(0.0,0.0,1.0));
#1811=VECTOR('',#1810,0.350000000000000);
#1812=LINE('',#1809,#1811);
#1813=EDGE_CURVE('',#1666,#1808,#1812,.T.);
#1814=ORIENTED_EDGE('',*,*,#1813,.T.);
#1815=CARTESIAN_POINT('',(0.425000000000000,0.275000000000000,0.450000000000000));
#1816=DIRECTION('',(-1.0,0.0,0.0));
#1817=VECTOR('',#1816,0.250000000000000);
#1818=LINE('',#1815,#1817);
#1819=EDGE_CURVE('',#1394,#1808,#1818,.T.);
#1820=ORIENTED_EDGE('',*,*,#1819,.F.);
#1821=ORIENTED_EDGE('',*,*,#1399,.F.);
#1822=EDGE_LOOP('',(#1806,#1814,#1820,#1821));
#1823=FACE_OUTER_BOUND('',#1822,.T.);
#1824=ADVANCED_FACE('',(#1823),#1805,.T.);
#1825=CARTESIAN_POINT('',(0.262500000000000,0.175000000000000,0.450000000000000));
#1826=DIRECTION('',(1.0,0.0,0.0));
#1827=DIRECTION('',(0.0,0.707106781186548,0.707106781186547));
#1828=AXIS2_PLACEMENT_3D('',#1825,#1826,#1827);
#1829=CYLINDRICAL_SURFACE('',#1828,0.100000000000000);
#1830=ORIENTED_EDGE('',*,*,#1342,.T.);
#1831=CARTESIAN_POINT('',(0.425000000000000,0.175000000000000,0.450000000000000));
#1832=DIRECTION('',(-1.0,0.0,0.0));
#1833=DIRECTION('',(0.0,0.0,1.0));
#1834=AXIS2_PLACEMENT_3D('',#1831,#1832,#1833);
#1835=CIRCLE('',#1834,0.100000000000000);
#1836=EDGE_CURVE('',#1337,#1394,#1835,.T.);
#1837=ORIENTED_EDGE('',*,*,#1836,.T.);
#1838=ORIENTED_EDGE('',*,*,#1819,.T.);
#1839=CARTESIAN_POINT('',(0.175000000000000,0.175000000000000,0.450000000000000));
#1840=DIRECTION('',(1.000000000000000,0.0,0.0));
#1841=DIRECTION('',(0.0,0.707106781186548,0.707106781186547));
#1842=AXIS2_PLACEMENT_3D('',#1839,#1840,#1841);
#1843=CIRCLE('',#1842,0.100000000000000);
#1844=EDGE_CURVE('',#1808,#1335,#1843,.T.);
#1845=ORIENTED_EDGE('',*,*,#1844,.T.);
#1846=EDGE_LOOP('',(#1830,#1837,#1838,#1845));
#1847=FACE_OUTER_BOUND('',#1846,.T.);
#1848=ADVANCED_FACE('',(#1847),#1829,.T.);
#1849=CARTESIAN_POINT('',(0.425000000000000,0.137500000000000,0.450000000000000));
#1850=DIRECTION('',(0.0,-1.0,0.0));
#1851=DIRECTION('',(0.707106781186548,0.0,0.707106781186547));
#1852=AXIS2_PLACEMENT_3D('',#1849,#1850,#1851);
#1853=CYLINDRICAL_SURFACE('',#1852,0.100000000000000);
#1854=ORIENTED_EDGE('',*,*,#1302,.T.);
#1855=CARTESIAN_POINT('',(0.425000000000000,-0.175000000000000,0.450000000000000));
#1856=DIRECTION('',(0.0,1.0,0.0));
#1857=DIRECTION('',(0.0,0.0,1.0));
#1858=AXIS2_PLACEMENT_3D('',#1855,#1856,#1857);
#1859=CIRCLE('',#1858,0.100000000000000);
#1860=EDGE_CURVE('',#1297,#1436,#1859,.T.);
#1861=ORIENTED_EDGE('',*,*,#1860,.T.);
#1862=ORIENTED_EDGE('',*,*,#1777,.T.);
#1863=CARTESIAN_POINT('',(0.425000000000000,0.175000000000000,0.450000000000000));
#1864=DIRECTION('',(0.0,-1.0,0.0));
#1865=DIRECTION('',(1.0,0.0,0.0));
#1866=AXIS2_PLACEMENT_3D('',#1863,#1864,#1865);
#1867=CIRCLE('',#1866,0.100000000000000);
#1868=EDGE_CURVE('',#1766,#1295,#1867,.T.);
#1869=ORIENTED_EDGE('',*,*,#1868,.T.);
#1870=EDGE_LOOP('',(#1854,#1861,#1862,#1869));
#1871=FACE_OUTER_BOUND('',#1870,.T.);
#1872=ADVANCED_FACE('',(#1871),#1853,.T.);
#1873=CARTESIAN_POINT('',(0.437500000000000,-0.175000000000000,0.450000000000000));
#1874=DIRECTION('',(-1.0,0.0,0.0));
#1875=DIRECTION('',(0.0,-0.707106781186548,0.707106781186547));
#1876=AXIS2_PLACEMENT_3D('',#1873,#1874,#1875);
#1877=CYLINDRICAL_SURFACE('',#1876,0.100000000000000);
#1878=ORIENTED_EDGE('',*,*,#1260,.T.);
#1879=CARTESIAN_POINT('',(0.175000000000000,-0.175000000000000,0.450000000000000));
#1880=DIRECTION('',(1.000000000000000,0.0,0.0));
#1881=DIRECTION('',(0.0,-0.707106781186548,0.707106781186547));
#1882=AXIS2_PLACEMENT_3D('',#1879,#1880,#1881);
#1883=CIRCLE('',#1882,0.100000000000000);
#1884=EDGE_CURVE('',#1255,#1725,#1883,.T.);
#1885=ORIENTED_EDGE('',*,*,#1884,.T.);
#1886=ORIENTED_EDGE('',*,*,#1730,.T.);
#1887=CARTESIAN_POINT('',(0.425000000000000,-0.175000000000000,0.450000000000000));
#1888=DIRECTION('',(-1.0,0.0,0.0));
#1889=DIRECTION('',(0.0,-1.0,0.0));
#1890=AXIS2_PLACEMENT_3D('',#1887,#1888,#1889);
#1891=CIRCLE('',#1890,0.100000000000000);
#1892=EDGE_CURVE('',#1717,#1253,#1891,.T.);
#1893=ORIENTED_EDGE('',*,*,#1892,.T.);
#1894=EDGE_LOOP('',(#1878,#1885,#1886,#1893));
#1895=FACE_OUTER_BOUND('',#1894,.T.);
#1896=ADVANCED_FACE('',(#1895),#1877,.T.);
#1897=CARTESIAN_POINT('',(0.425000000000000,-0.175000000000000,0.450000000000000));
#1898=DIRECTION('',(0.0,0.0,1.0));
#1899=DIRECTION('',(1.0,0.0,0.0));
#1900=AXIS2_PLACEMENT_3D('',#1897,#1898,#1899);
#1901=SPHERICAL_SURFACE('',#1900,0.100000000000000);
#1902=ORIENTED_EDGE('',*,*,#1892,.F.);
#1903=ORIENTED_EDGE('',*,*,#1752,.T.);
#1904=ORIENTED_EDGE('',*,*,#1448,.T.);
#1905=ORIENTED_EDGE('',*,*,#1860,.F.);
#1906=ORIENTED_EDGE('',*,*,#1324,.F.);
#1907=ORIENTED_EDGE('',*,*,#1269,.F.);
#1908=EDGE_LOOP('',(#1902,#1903,#1904,#1905,#1906,#1907));
#1909=FACE_OUTER_BOUND('',#1908,.T.);
#1910=ADVANCED_FACE('',(#1909),#1901,.T.);
#1911=CARTESIAN_POINT('',(0.425000000000000,0.175000000000000,0.450000000000000));
#1912=DIRECTION('',(0.0,0.0,1.0));
#1913=DIRECTION('',(1.0,0.0,0.0));
#1914=AXIS2_PLACEMENT_3D('',#1911,#1912,#1913);
#1915=SPHERICAL_SURFACE('',#1914,0.100000000000000);
#1916=ORIENTED_EDGE('',*,*,#1868,.F.);
#1917=ORIENTED_EDGE('',*,*,#1794,.T.);
#1918=ORIENTED_EDGE('',*,*,#1406,.T.);
#1919=ORIENTED_EDGE('',*,*,#1836,.F.);
#1920=ORIENTED_EDGE('',*,*,#1364,.F.);
#1921=ORIENTED_EDGE('',*,*,#1311,.F.);
#1922=EDGE_LOOP('',(#1916,#1917,#1918,#1919,#1920,#1921));
#1923=FACE_OUTER_BOUND('',#1922,.T.);
#1924=ADVANCED_FACE('',(#1923),#1915,.T.);
#1925=CARTESIAN_POINT('',(0.350000000000000,-2.775558E-017,0.550000000000000));
#1926=DIRECTION('',(0.0,0.0,1.0));
#1927=DIRECTION('',(1.0,0.0,0.0));
#1928=AXIS2_PLACEMENT_3D('',#1925,#1926,#1927);
#1929=PLANE('',#1928);
#1930=ORIENTED_EDGE('',*,*,#1357,.F.);
#1931=CARTESIAN_POINT('',(0.175000000000000,-0.175000000000000,0.550000000000000));
#1932=DIRECTION('',(0.0,1.0,0.0));
#1933=VECTOR('',#1932,0.350000000000001);
#1934=LINE('',#1931,#1933);
#1935=EDGE_CURVE('',#1272,#1345,#1934,.T.);
#1936=ORIENTED_EDGE('',*,*,#1935,.F.);
#1937=ORIENTED_EDGE('',*,*,#1277,.F.);
#1938=ORIENTED_EDGE('',*,*,#1317,.F.);
#1939=EDGE_LOOP('',(#1930,#1936,#1937,#1938));
#1940=FACE_OUTER_BOUND('',#1939,.T.);
#1941=ADVANCED_FACE('',(#1940),#1929,.T.);
#1942=CARTESIAN_POINT('',(0.175000000000000,-0.275000000000000,0.0));
#1943=DIRECTION('',(-1.0,0.0,0.0));
#1944=DIRECTION('',(0.0,0.0,1.0));
#1945=AXIS2_PLACEMENT_3D('',#1942,#1943,#1944);
#1946=PLANE('',#1945);
#1947=ORIENTED_EDGE('',*,*,#1603,.F.);
#1948=ORIENTED_EDGE('',*,*,#1736,.T.);
#1949=ORIENTED_EDGE('',*,*,#1884,.F.);
#1950=ORIENTED_EDGE('',*,*,#1284,.F.);
#1951=ORIENTED_EDGE('',*,*,#1935,.T.);
#1952=ORIENTED_EDGE('',*,*,#1351,.F.);
#1953=ORIENTED_EDGE('',*,*,#1844,.F.);
#1954=ORIENTED_EDGE('',*,*,#1813,.F.);
#1955=ORIENTED_EDGE('',*,*,#1672,.F.);
#1956=ORIENTED_EDGE('',*,*,#1490,.F.);
#1957=CARTESIAN_POINT('',(0.175000000000000,0.175000000000000,0.0));
#1958=DIRECTION('',(0.0,-1.0,0.0));
#1959=VECTOR('',#1958,0.350000000000001);
#1960=LINE('',#1957,#1959);
#1961=EDGE_CURVE('',#1478,#1551,#1960,.T.);
#1962=ORIENTED_EDGE('',*,*,#1961,.T.);
#1963=ORIENTED_EDGE('',*,*,#1557,.F.);
#1964=EDGE_LOOP('',(#1947,#1948,#1949,#1950,#1951,#1952,#1953,#1954,#1955,#1956,#1962,#1963));
#1965=FACE_OUTER_BOUND('',#1964,.T.);
#1966=ADVANCED_FACE('',(#1965),#1946,.T.);
#1967=CARTESIAN_POINT('',(0.350000000000000,-2.775558E-017,0.0));
#1968=DIRECTION('',(0.0,0.0,1.0));
#1969=DIRECTION('',(1.0,0.0,0.0));
#1970=AXIS2_PLACEMENT_3D('',#1967,#1968,#1969);
#1971=PLANE('',#1970);
#1972=ORIENTED_EDGE('',*,*,#1563,.F.);
#1973=ORIENTED_EDGE('',*,*,#1961,.F.);
#1974=ORIENTED_EDGE('',*,*,#1483,.F.);
#1975=ORIENTED_EDGE('',*,*,#1523,.F.);
#1976=EDGE_LOOP('',(#1972,#1973,#1974,#1975));
#1977=FACE_OUTER_BOUND('',#1976,.T.);
#1978=ADVANCED_FACE('',(#1977),#1971,.F.);
#1979=CLOSED_SHELL('',(#1288,#1328,#1368,#1410,#1452,#1494,#1534,#1574,#1607,#1638,#1658,#1689,#1709,#1740,#1758,#1782,#1800,#1824,#1848,#1872,#1896,#1910,#1924,#1941,#1966,#1978));
#1980=MANIFOLD_SOLID_BREP('776',#1979);
#1981=STYLED_ITEM('NONE',(#805),#1980);
#1982=ADVANCED_BREP_SHAPE_REPRESENTATION('ABSR1',(#798,#1238,#1980),#28);
#1983=SHAPE_REPRESENTATION_RELATIONSHIP('SRRPL1','',#1982,#62);
ENDSEC;
END-ISO-10303-21;
