ISO-10303-21;
HEADER;
/****************************************************************
 * Generated by software with PDElib inside                    *
 * PDElib Version v51a, created Fri 09/10/2010                  *
 * ITI Transcendata (http://www.transcendata.com/)              *
 ****************************************************************/
FILE_DESCRIPTION((''),'2;1');
FILE_NAME('RESC6331X70N.stp','2013-01-21T13:59:51',(''),(''),'Mechanical Desktop 2011','Mechanical Desktop 2011',', , ');
FILE_SCHEMA(('AUTOMOTIVE_DESIGN { 1 2 10303 214 1 1 1 1 }'));
ENDSEC;
DATA;
#10=(NAMED_UNIT(*)PLANE_ANGLE_UNIT()SI_UNIT($,.RADIAN.));
#11=DIMENSIONAL_EXPONENTS(0.0,0.0,0.0,0.0,0.0,0.0,0.0);
#12=PLANE_ANGLE_MEASURE_WITH_UNIT(PLANE_ANGLE_MEASURE(0.0174532925),#10);
#16=(CONVERSION_BASED_UNIT('DEGREE',#12)NAMED_UNIT(#11)PLANE_ANGLE_UNIT());
#20=(NAMED_UNIT(*)SI_UNIT($,.STERADIAN.)SOLID_ANGLE_UNIT());
#24=(LENGTH_UNIT()NAMED_UNIT(*)SI_UNIT(.MILLI.,.METRE.));
#26=UNCERTAINTY_MEASURE_WITH_UNIT(LENGTH_MEASURE(0.000001),#24,'DISTANCE_ACCURACY_VALUE','');
#28=(GEOMETRIC_REPRESENTATION_CONTEXT(3)GLOBAL_UNCERTAINTY_ASSIGNED_CONTEXT((#26))GLOBAL_UNIT_ASSIGNED_CONTEXT((#16,#20,#24))REPRESENTATION_CONTEXT('','3D'));
#29=APPLICATION_CONTEXT('automotive design');
#30=APPLICATION_PROTOCOL_DEFINITION('INTERNATIONAL_STANDARD','automotive_design',1998,#29);
#31=PRODUCT_CONTEXT('3D Mechanical Parts',#29,'mechanical');
#32=PRODUCT('Product','Product','',(#31));
#33=PRODUCT_RELATED_PRODUCT_CATEGORY('part',$,(#32));
#34=PRODUCT_CATEGORY('part',$);
#35=PERSON('1','Design','Joe',$,$,$);
#36=ORGANIZATION($,'None','None');
#37=PERSON_AND_ORGANIZATION(#35,#36);
#38=PERSON_AND_ORGANIZATION_ROLE('design_owner');
#39=APPLIED_PERSON_AND_ORGANIZATION_ASSIGNMENT(#37,#38,(#32));
#40=PRODUCT_DEFINITION_FORMATION_WITH_SPECIFIED_SOURCE('None','',#32,.BOUGHT.);
#41=PERSON('2','Creator','Joe',$,$,$);
#42=ORGANIZATION($,'None','None');
#43=PERSON_AND_ORGANIZATION(#41,#42);
#44=PERSON_AND_ORGANIZATION_ROLE('creator');
#45=APPLIED_PERSON_AND_ORGANIZATION_ASSIGNMENT(#43,#44,(#40));
#46=PERSON('3','Supplier','Joe',$,$,$);
#47=ORGANIZATION($,'None','None');
#48=PERSON_AND_ORGANIZATION(#46,#47);
#49=PERSON_AND_ORGANIZATION_ROLE('design_supplier');
#50=APPLIED_PERSON_AND_ORGANIZATION_ASSIGNMENT(#48,#49,(#40));
#51=PRODUCT_DEFINITION_CONTEXT('part definition',#29,'design');
#52=PRODUCT_DEFINITION('None','',#40,#51);
#53=PERSON('4','Creator','Joe',$,$,$);
#54=ORGANIZATION($,'None','None');
#55=PERSON_AND_ORGANIZATION(#53,#54);
#56=PERSON_AND_ORGANIZATION_ROLE('creator');
#57=APPLIED_PERSON_AND_ORGANIZATION_ASSIGNMENT(#55,#56,(#52));
#58=CARTESIAN_POINT('NONE',(0.0,0.0,0.0));
#59=DIRECTION('NONE',(0.0,0.0,1.0));
#60=DIRECTION('NONE',(1.0,0.0,0.0));
#61=AXIS2_PLACEMENT_3D('NONE',#58,#59,#60);
#62=SHAPE_REPRESENTATION('SR1',(#61),#28);
#63=PRODUCT_DEFINITION_SHAPE('PDS1','Test Part',#52);
#64=SHAPE_DEFINITION_REPRESENTATION(#63,#62);
#65=CARTESIAN_POINT('',(0.0,-1.65,0.35));
#66=DIRECTION('',(0.0,-1.0,0.0));
#67=DIRECTION('',(1.0,0.0,0.0));
#68=AXIS2_PLACEMENT_3D('',#65,#66,#67);
#69=PLANE('',#68);
#70=CARTESIAN_POINT('',(3.2,-1.65,0.05));
#71=VERTEX_POINT('',#70);
#72=CARTESIAN_POINT('',(3.2,-1.65,0.65));
#73=VERTEX_POINT('',#72);
#74=CARTESIAN_POINT('',(3.2,-1.65,0.05));
#75=DIRECTION('',(0.0,0.0,1.0));
#76=VECTOR('',#75,0.6);
#77=LINE('',#74,#76);
#78=EDGE_CURVE('',#71,#73,#77,.T.);
#79=ORIENTED_EDGE('',*,*,#78,.T.);
#80=CARTESIAN_POINT('',(-3.2,-1.65,0.65));
#81=VERTEX_POINT('',#80);
#82=CARTESIAN_POINT('',(3.2,-1.65,0.65));
#83=DIRECTION('',(-1.0,0.0,0.0));
#84=VECTOR('',#83,6.4);
#85=LINE('',#82,#84);
#86=EDGE_CURVE('',#73,#81,#85,.T.);
#87=ORIENTED_EDGE('',*,*,#86,.T.);
#88=CARTESIAN_POINT('',(-3.2,-1.65,0.05));
#89=VERTEX_POINT('',#88);
#90=CARTESIAN_POINT('',(-3.2,-1.65,0.65));
#91=DIRECTION('',(0.0,0.0,-1.0));
#92=VECTOR('',#91,0.6);
#93=LINE('',#90,#92);
#94=EDGE_CURVE('',#81,#89,#93,.T.);
#95=ORIENTED_EDGE('',*,*,#94,.T.);
#96=CARTESIAN_POINT('',(-3.2,-1.65,0.05));
#97=DIRECTION('',(1.0,0.0,0.0));
#98=VECTOR('',#97,6.4);
#99=LINE('',#96,#98);
#100=EDGE_CURVE('',#89,#71,#99,.T.);
#101=ORIENTED_EDGE('',*,*,#100,.T.);
#102=EDGE_LOOP('',(#79,#87,#95,#101));
#103=FACE_OUTER_BOUND('',#102,.T.);
#104=ADVANCED_FACE('',(#103),#69,.T.);
#105=CARTESIAN_POINT('',(0.0,1.649999999999999,0.349999999999999));
#106=DIRECTION('',(0.0,-1.0,0.0));
#107=DIRECTION('',(1.0,0.0,0.0));
#108=AXIS2_PLACEMENT_3D('',#105,#106,#107);
#109=PLANE('',#108);
#110=CARTESIAN_POINT('',(3.2,1.649999999999999,0.649999999999999));
#111=VERTEX_POINT('',#110);
#112=CARTESIAN_POINT('',(3.2,1.649999999999999,0.049999999999999));
#113=VERTEX_POINT('',#112);
#114=CARTESIAN_POINT('',(3.2,1.649999999999999,0.649999999999999));
#115=DIRECTION('',(0.0,0.0,-1.0));
#116=VECTOR('',#115,0.6);
#117=LINE('',#114,#116);
#118=EDGE_CURVE('',#111,#113,#117,.T.);
#119=ORIENTED_EDGE('',*,*,#118,.T.);
#120=CARTESIAN_POINT('',(-3.2,1.649999999999999,0.049999999999999));
#121=VERTEX_POINT('',#120);
#122=CARTESIAN_POINT('',(3.2,1.649999999999999,0.049999999999999));
#123=DIRECTION('',(-1.0,0.0,0.0));
#124=VECTOR('',#123,6.4);
#125=LINE('',#122,#124);
#126=EDGE_CURVE('',#113,#121,#125,.T.);
#127=ORIENTED_EDGE('',*,*,#126,.T.);
#128=CARTESIAN_POINT('',(-3.2,1.649999999999999,0.649999999999999));
#129=VERTEX_POINT('',#128);
#130=CARTESIAN_POINT('',(-3.2,1.649999999999999,0.049999999999999));
#131=DIRECTION('',(0.0,0.0,1.0));
#132=VECTOR('',#131,0.6);
#133=LINE('',#130,#132);
#134=EDGE_CURVE('',#121,#129,#133,.T.);
#135=ORIENTED_EDGE('',*,*,#134,.T.);
#136=CARTESIAN_POINT('',(-3.2,1.649999999999999,0.649999999999999));
#137=DIRECTION('',(1.0,0.0,0.0));
#138=VECTOR('',#137,6.4);
#139=LINE('',#136,#138);
#140=EDGE_CURVE('',#129,#111,#139,.T.);
#141=ORIENTED_EDGE('',*,*,#140,.T.);
#142=EDGE_LOOP('',(#119,#127,#135,#141));
#143=FACE_OUTER_BOUND('',#142,.T.);
#144=ADVANCED_FACE('',(#143),#109,.F.);
#145=CARTESIAN_POINT('',(0.0,-4.329870E-016,0.05));
#146=DIRECTION('',(0.0,0.0,1.0));
#147=DIRECTION('',(0.0,-1.0,0.0));
#148=AXIS2_PLACEMENT_3D('',#145,#146,#147);
#149=PLANE('',#148);
#150=CARTESIAN_POINT('',(-3.2,-1.65,0.05));
#151=DIRECTION('',(0.0,1.0,0.0));
#152=VECTOR('',#151,3.299999999999999);
#153=LINE('',#150,#152);
#154=EDGE_CURVE('',#89,#121,#153,.T.);
#155=ORIENTED_EDGE('',*,*,#154,.T.);
#156=ORIENTED_EDGE('',*,*,#126,.F.);
#157=CARTESIAN_POINT('',(3.2,-1.65,0.05));
#158=DIRECTION('',(0.0,1.0,0.0));
#159=VECTOR('',#158,3.299999999999999);
#160=LINE('',#157,#159);
#161=EDGE_CURVE('',#71,#113,#160,.T.);
#162=ORIENTED_EDGE('',*,*,#161,.F.);
#163=ORIENTED_EDGE('',*,*,#100,.F.);
#164=EDGE_LOOP('',(#155,#156,#162,#163));
#165=FACE_OUTER_BOUND('',#164,.T.);
#166=ADVANCED_FACE('',(#165),#149,.F.);
#167=CARTESIAN_POINT('',(-3.2,-3.663736E-016,0.35));
#168=DIRECTION('',(1.0,0.0,0.0));
#169=DIRECTION('',(0.0,1.0,0.0));
#170=AXIS2_PLACEMENT_3D('',#167,#168,#169);
#171=PLANE('',#170);
#172=CARTESIAN_POINT('',(-3.2,-1.65,0.65));
#173=DIRECTION('',(0.0,1.0,0.0));
#174=VECTOR('',#173,3.299999999999999);
#175=LINE('',#172,#174);
#176=EDGE_CURVE('',#81,#129,#175,.T.);
#177=ORIENTED_EDGE('',*,*,#176,.T.);
#178=ORIENTED_EDGE('',*,*,#134,.F.);
#179=ORIENTED_EDGE('',*,*,#154,.F.);
#180=ORIENTED_EDGE('',*,*,#94,.F.);
#181=EDGE_LOOP('',(#177,#178,#179,#180));
#182=FACE_OUTER_BOUND('',#181,.T.);
#183=ADVANCED_FACE('',(#182),#171,.F.);
#184=CARTESIAN_POINT('',(0.0,-2.997602E-016,0.65));
#185=DIRECTION('',(0.0,0.0,-1.0));
#186=DIRECTION('',(0.0,1.0,0.0));
#187=AXIS2_PLACEMENT_3D('',#184,#185,#186);
#188=PLANE('',#187);
#189=CARTESIAN_POINT('',(3.2,-1.65,0.65));
#190=DIRECTION('',(0.0,1.0,0.0));
#191=VECTOR('',#190,3.299999999999999);
#192=LINE('',#189,#191);
#193=EDGE_CURVE('',#73,#111,#192,.T.);
#194=ORIENTED_EDGE('',*,*,#193,.T.);
#195=ORIENTED_EDGE('',*,*,#140,.F.);
#196=ORIENTED_EDGE('',*,*,#176,.F.);
#197=ORIENTED_EDGE('',*,*,#86,.F.);
#198=EDGE_LOOP('',(#194,#195,#196,#197));
#199=FACE_OUTER_BOUND('',#198,.T.);
#200=ADVANCED_FACE('',(#199),#188,.F.);
#201=CARTESIAN_POINT('',(3.2,-3.663736E-016,0.35));
#202=DIRECTION('',(-1.0,0.0,0.0));
#203=DIRECTION('',(0.0,-1.0,0.0));
#204=AXIS2_PLACEMENT_3D('',#201,#202,#203);
#205=PLANE('',#204);
#206=ORIENTED_EDGE('',*,*,#161,.T.);
#207=ORIENTED_EDGE('',*,*,#118,.F.);
#208=ORIENTED_EDGE('',*,*,#193,.F.);
#209=ORIENTED_EDGE('',*,*,#78,.F.);
#210=EDGE_LOOP('',(#206,#207,#208,#209));
#211=FACE_OUTER_BOUND('',#210,.T.);
#212=ADVANCED_FACE('',(#211),#205,.F.);
#213=CLOSED_SHELL('',(#104,#144,#166,#183,#200,#212));
#214=MANIFOLD_SOLID_BREP('4F0',#213);
#215=COLOUR_RGB('250',0.33,0.33,0.33);
#216=SURFACE_STYLE_USAGE(.BOTH.,#217);
#217=SURFACE_SIDE_STYLE('NONE',(#218));
#218=SURFACE_STYLE_FILL_AREA(#219);
#219=FILL_AREA_STYLE('NONE',(#220));
#220=FILL_AREA_STYLE_COLOUR('NONE',#215);
#221=PRESENTATION_STYLE_ASSIGNMENT((#216));
#222=STYLED_ITEM('NONE',(#221),#214);
#223=MECHANICAL_DESIGN_GEOMETRIC_PRESENTATION_REPRESENTATION('NONE',(#222,#514,#797),#28);
#224=PRESENTATION_LAYER_ASSIGNMENT('3D','None',(#214,#506,#796));
#225=CARTESIAN_POINT('',(3.25,1.649999999999999,0.699999999999999));
#226=CARTESIAN_POINT('',(2.65,1.649999999999999,0.699999999999999));
#227=CARTESIAN_POINT('',(3.25,-1.65,0.7));
#228=CARTESIAN_POINT('',(2.65,-1.65,0.7));
#229=B_SPLINE_SURFACE_WITH_KNOTS('',1,1,((#225,#227),(#226,#228)),.UNSPECIFIED.,.F.,.F.,.U.,(2,2),(2,2),(0.0,0.6),(0.0,3.299999999999999),.UNSPECIFIED.);
#230=CARTESIAN_POINT('',(2.65,1.649999999999999,0.699999999999999));
#231=VERTEX_POINT('',#230);
#232=CARTESIAN_POINT('',(3.25,1.649999999999999,0.699999999999999));
#233=VERTEX_POINT('',#232);
#234=CARTESIAN_POINT('',(2.65,1.649999999999999,0.699999999999999));
#235=DIRECTION('',(1.0,0.0,0.0));
#236=VECTOR('',#235,0.6);
#237=LINE('',#234,#236);
#238=EDGE_CURVE('',#231,#233,#237,.T.);
#239=ORIENTED_EDGE('',*,*,#238,.F.);
#240=CARTESIAN_POINT('',(2.65,-1.65,0.7));
#241=VERTEX_POINT('',#240);
#242=CARTESIAN_POINT('',(2.65,-1.65,0.7));
#243=DIRECTION('',(0.0,1.0,0.0));
#244=VECTOR('',#243,3.299999999999999);
#245=LINE('',#242,#244);
#246=EDGE_CURVE('',#241,#231,#245,.T.);
#247=ORIENTED_EDGE('',*,*,#246,.F.);
#248=CARTESIAN_POINT('',(3.25,-1.65,0.7));
#249=VERTEX_POINT('',#248);
#250=CARTESIAN_POINT('',(2.65,-1.65,0.7));
#251=DIRECTION('',(1.0,0.0,0.0));
#252=VECTOR('',#251,0.6);
#253=LINE('',#250,#252);
#254=EDGE_CURVE('',#241,#249,#253,.T.);
#255=ORIENTED_EDGE('',*,*,#254,.T.);
#256=CARTESIAN_POINT('',(3.25,-1.65,0.7));
#257=DIRECTION('',(0.0,1.0,0.0));
#258=VECTOR('',#257,3.299999999999999);
#259=LINE('',#256,#258);
#260=EDGE_CURVE('',#249,#233,#259,.T.);
#261=ORIENTED_EDGE('',*,*,#260,.T.);
#262=EDGE_LOOP('',(#239,#247,#255,#261));
#263=FACE_OUTER_BOUND('',#262,.T.);
#264=ADVANCED_FACE('',(#263),#229,.T.);
#265=CARTESIAN_POINT('',(3.25,1.649999999999999,-7.771561E-016));
#266=CARTESIAN_POINT('',(3.25,1.649999999999999,0.7));
#267=CARTESIAN_POINT('',(3.25,-1.65,-7.771561E-016));
#268=CARTESIAN_POINT('',(3.25,-1.65,0.7));
#269=B_SPLINE_SURFACE_WITH_KNOTS('',1,1,((#265,#267),(#266,#268)),.UNSPECIFIED.,.F.,.F.,.U.,(2,2),(2,2),(0.0,0.700000000000001),(0.0,3.299999999999999),.UNSPECIFIED.);
#270=CARTESIAN_POINT('',(3.25,1.649999999999999,-7.771561E-016));
#271=VERTEX_POINT('',#270);
#272=CARTESIAN_POINT('',(3.25,1.649999999999999,0.699999999999999));
#273=DIRECTION('',(0.0,0.0,-1.0));
#274=VECTOR('',#273,0.7);
#275=LINE('',#272,#274);
#276=EDGE_CURVE('',#233,#271,#275,.T.);
#277=ORIENTED_EDGE('',*,*,#276,.F.);
#278=ORIENTED_EDGE('',*,*,#260,.F.);
#279=CARTESIAN_POINT('',(3.25,-1.65,4.930381E-032));
#280=VERTEX_POINT('',#279);
#281=CARTESIAN_POINT('',(3.25,-1.65,0.7));
#282=DIRECTION('',(0.0,0.0,-1.0));
#283=VECTOR('',#282,0.7);
#284=LINE('',#281,#283);
#285=EDGE_CURVE('',#249,#280,#284,.T.);
#286=ORIENTED_EDGE('',*,*,#285,.T.);
#287=CARTESIAN_POINT('',(3.25,-1.65,4.930381E-032));
#288=DIRECTION('',(0.0,1.0,0.0));
#289=VECTOR('',#288,3.299999999999999);
#290=LINE('',#287,#289);
#291=EDGE_CURVE('',#280,#271,#290,.T.);
#292=ORIENTED_EDGE('',*,*,#291,.T.);
#293=EDGE_LOOP('',(#277,#278,#286,#292));
#294=FACE_OUTER_BOUND('',#293,.T.);
#295=ADVANCED_FACE('',(#294),#269,.T.);
#296=CARTESIAN_POINT('',(2.65,1.649999999999999,-7.771561E-016));
#297=CARTESIAN_POINT('',(3.25,1.649999999999999,-7.771561E-016));
#298=CARTESIAN_POINT('',(2.65,-1.65,9.860761E-032));
#299=CARTESIAN_POINT('',(3.25,-1.65,9.860761E-032));
#300=B_SPLINE_SURFACE_WITH_KNOTS('',1,1,((#296,#298),(#297,#299)),.UNSPECIFIED.,.F.,.F.,.U.,(2,2),(2,2),(0.0,0.6),(0.0,3.299999999999999),.UNSPECIFIED.);
#301=CARTESIAN_POINT('',(2.65,1.649999999999999,-7.771561E-016));
#302=VERTEX_POINT('',#301);
#303=CARTESIAN_POINT('',(3.25,1.649999999999999,-7.771561E-016));
#304=DIRECTION('',(-1.0,0.0,0.0));
#305=VECTOR('',#304,0.6);
#306=LINE('',#303,#305);
#307=EDGE_CURVE('',#271,#302,#306,.T.);
#308=ORIENTED_EDGE('',*,*,#307,.F.);
#309=ORIENTED_EDGE('',*,*,#291,.F.);
#310=CARTESIAN_POINT('',(2.65,-1.65,4.930381E-032));
#311=VERTEX_POINT('',#310);
#312=CARTESIAN_POINT('',(3.25,-1.65,4.930381E-032));
#313=DIRECTION('',(-1.0,0.0,0.0));
#314=VECTOR('',#313,0.6);
#315=LINE('',#312,#314);
#316=EDGE_CURVE('',#280,#311,#315,.T.);
#317=ORIENTED_EDGE('',*,*,#316,.T.);
#318=CARTESIAN_POINT('',(2.65,-1.65,4.930381E-032));
#319=DIRECTION('',(0.0,1.0,0.0));
#320=VECTOR('',#319,3.299999999999999);
#321=LINE('',#318,#320);
#322=EDGE_CURVE('',#311,#302,#321,.T.);
#323=ORIENTED_EDGE('',*,*,#322,.T.);
#324=EDGE_LOOP('',(#308,#309,#317,#323));
#325=FACE_OUTER_BOUND('',#324,.T.);
#326=ADVANCED_FACE('',(#325),#300,.T.);
#327=CARTESIAN_POINT('',(2.65,1.649999999999999,0.05));
#328=CARTESIAN_POINT('',(2.65,1.649999999999999,-7.771561E-016));
#329=CARTESIAN_POINT('',(2.65,-1.65,0.05));
#330=CARTESIAN_POINT('',(2.65,-1.65,-7.771561E-016));
#331=B_SPLINE_SURFACE_WITH_KNOTS('',1,1,((#327,#329),(#328,#330)),.UNSPECIFIED.,.F.,.F.,.U.,(2,2),(2,2),(0.0,0.050000000000001),(0.0,3.299999999999999),.UNSPECIFIED.);
#332=CARTESIAN_POINT('',(2.65,1.649999999999999,0.049999999999999));
#333=VERTEX_POINT('',#332);
#334=CARTESIAN_POINT('',(2.65,1.649999999999999,-7.771561E-016));
#335=DIRECTION('',(0.0,0.0,1.0));
#336=VECTOR('',#335,0.05);
#337=LINE('',#334,#336);
#338=EDGE_CURVE('',#302,#333,#337,.T.);
#339=ORIENTED_EDGE('',*,*,#338,.F.);
#340=ORIENTED_EDGE('',*,*,#322,.F.);
#341=CARTESIAN_POINT('',(2.65,-1.65,0.05));
#342=VERTEX_POINT('',#341);
#343=CARTESIAN_POINT('',(2.65,-1.65,4.930381E-032));
#344=DIRECTION('',(0.0,0.0,1.0));
#345=VECTOR('',#344,0.05);
#346=LINE('',#343,#345);
#347=EDGE_CURVE('',#311,#342,#346,.T.);
#348=ORIENTED_EDGE('',*,*,#347,.T.);
#349=CARTESIAN_POINT('',(2.65,-1.65,0.05));
#350=DIRECTION('',(0.0,1.0,0.0));
#351=VECTOR('',#350,3.299999999999999);
#352=LINE('',#349,#351);
#353=EDGE_CURVE('',#342,#333,#352,.T.);
#354=ORIENTED_EDGE('',*,*,#353,.T.);
#355=EDGE_LOOP('',(#339,#340,#348,#354));
#356=FACE_OUTER_BOUND('',#355,.T.);
#357=ADVANCED_FACE('',(#356),#331,.T.);
#358=CARTESIAN_POINT('',(3.2,1.649999999999999,0.049999999999999));
#359=CARTESIAN_POINT('',(2.65,1.649999999999999,0.049999999999999));
#360=CARTESIAN_POINT('',(3.2,-1.65,0.05));
#361=CARTESIAN_POINT('',(2.65,-1.65,0.05));
#362=B_SPLINE_SURFACE_WITH_KNOTS('',1,1,((#358,#360),(#359,#361)),.UNSPECIFIED.,.F.,.F.,.U.,(2,2),(2,2),(0.0,0.55),(0.0,3.299999999999999),.UNSPECIFIED.);
#363=CARTESIAN_POINT('',(3.2,1.649999999999999,0.049999999999999));
#364=VERTEX_POINT('',#363);
#365=CARTESIAN_POINT('',(2.65,1.649999999999999,0.049999999999999));
#366=DIRECTION('',(1.0,0.0,0.0));
#367=VECTOR('',#366,0.55);
#368=LINE('',#365,#367);
#369=EDGE_CURVE('',#333,#364,#368,.T.);
#370=ORIENTED_EDGE('',*,*,#369,.F.);
#371=ORIENTED_EDGE('',*,*,#353,.F.);
#372=CARTESIAN_POINT('',(3.2,-1.65,0.05));
#373=VERTEX_POINT('',#372);
#374=CARTESIAN_POINT('',(2.65,-1.65,0.05));
#375=DIRECTION('',(1.0,0.0,0.0));
#376=VECTOR('',#375,0.55);
#377=LINE('',#374,#376);
#378=EDGE_CURVE('',#342,#373,#377,.T.);
#379=ORIENTED_EDGE('',*,*,#378,.T.);
#380=CARTESIAN_POINT('',(3.2,-1.65,0.05));
#381=DIRECTION('',(0.0,1.0,0.0));
#382=VECTOR('',#381,3.299999999999999);
#383=LINE('',#380,#382);
#384=EDGE_CURVE('',#373,#364,#383,.T.);
#385=ORIENTED_EDGE('',*,*,#384,.T.);
#386=EDGE_LOOP('',(#370,#371,#379,#385));
#387=FACE_OUTER_BOUND('',#386,.T.);
#388=ADVANCED_FACE('',(#387),#362,.T.);
#389=CARTESIAN_POINT('',(3.2,1.649999999999999,0.65));
#390=CARTESIAN_POINT('',(3.2,1.649999999999999,0.049999999999999));
#391=CARTESIAN_POINT('',(3.2,-1.65,0.65));
#392=CARTESIAN_POINT('',(3.2,-1.65,0.049999999999999));
#393=B_SPLINE_SURFACE_WITH_KNOTS('',1,1,((#389,#391),(#390,#392)),.UNSPECIFIED.,.F.,.F.,.U.,(2,2),(2,2),(0.0,0.600000000000001),(0.0,3.299999999999999),.UNSPECIFIED.);
#394=CARTESIAN_POINT('',(3.2,1.649999999999999,0.649999999999999));
#395=VERTEX_POINT('',#394);
#396=CARTESIAN_POINT('',(3.2,1.649999999999999,0.049999999999999));
#397=DIRECTION('',(0.0,0.0,1.0));
#398=VECTOR('',#397,0.6);
#399=LINE('',#396,#398);
#400=EDGE_CURVE('',#364,#395,#399,.T.);
#401=ORIENTED_EDGE('',*,*,#400,.F.);
#402=ORIENTED_EDGE('',*,*,#384,.F.);
#403=CARTESIAN_POINT('',(3.2,-1.65,0.65));
#404=VERTEX_POINT('',#403);
#405=CARTESIAN_POINT('',(3.2,-1.65,0.05));
#406=DIRECTION('',(0.0,0.0,1.0));
#407=VECTOR('',#406,0.6);
#408=LINE('',#405,#407);
#409=EDGE_CURVE('',#373,#404,#408,.T.);
#410=ORIENTED_EDGE('',*,*,#409,.T.);
#411=CARTESIAN_POINT('',(3.2,-1.65,0.65));
#412=DIRECTION('',(0.0,1.0,0.0));
#413=VECTOR('',#412,3.299999999999999);
#414=LINE('',#411,#413);
#415=EDGE_CURVE('',#404,#395,#414,.T.);
#416=ORIENTED_EDGE('',*,*,#415,.T.);
#417=EDGE_LOOP('',(#401,#402,#410,#416));
#418=FACE_OUTER_BOUND('',#417,.T.);
#419=ADVANCED_FACE('',(#418),#393,.T.);
#420=CARTESIAN_POINT('',(2.65,1.649999999999999,0.649999999999999));
#421=CARTESIAN_POINT('',(3.2,1.649999999999999,0.649999999999999));
#422=CARTESIAN_POINT('',(2.65,-1.65,0.65));
#423=CARTESIAN_POINT('',(3.2,-1.65,0.65));
#424=B_SPLINE_SURFACE_WITH_KNOTS('',1,1,((#420,#422),(#421,#423)),.UNSPECIFIED.,.F.,.F.,.U.,(2,2),(2,2),(0.0,0.55),(0.0,3.299999999999999),.UNSPECIFIED.);
#425=CARTESIAN_POINT('',(2.65,1.649999999999999,0.649999999999999));
#426=VERTEX_POINT('',#425);
#427=CARTESIAN_POINT('',(3.2,1.649999999999999,0.649999999999999));
#428=DIRECTION('',(-1.0,0.0,0.0));
#429=VECTOR('',#428,0.55);
#430=LINE('',#427,#429);
#431=EDGE_CURVE('',#395,#426,#430,.T.);
#432=ORIENTED_EDGE('',*,*,#431,.F.);
#433=ORIENTED_EDGE('',*,*,#415,.F.);
#434=CARTESIAN_POINT('',(2.65,-1.65,0.65));
#435=VERTEX_POINT('',#434);
#436=CARTESIAN_POINT('',(3.2,-1.65,0.65));
#437=DIRECTION('',(-1.0,0.0,0.0));
#438=VECTOR('',#437,0.55);
#439=LINE('',#436,#438);
#440=EDGE_CURVE('',#404,#435,#439,.T.);
#441=ORIENTED_EDGE('',*,*,#440,.T.);
#442=CARTESIAN_POINT('',(2.65,-1.65,0.65));
#443=DIRECTION('',(0.0,1.0,0.0));
#444=VECTOR('',#443,3.299999999999999);
#445=LINE('',#442,#444);
#446=EDGE_CURVE('',#435,#426,#445,.T.);
#447=ORIENTED_EDGE('',*,*,#446,.T.);
#448=EDGE_LOOP('',(#432,#433,#441,#447));
#449=FACE_OUTER_BOUND('',#448,.T.);
#450=ADVANCED_FACE('',(#449),#424,.T.);
#451=CARTESIAN_POINT('',(2.65,1.649999999999999,0.7));
#452=CARTESIAN_POINT('',(2.65,1.649999999999999,0.649999999999999));
#453=CARTESIAN_POINT('',(2.65,-1.65,0.7));
#454=CARTESIAN_POINT('',(2.65,-1.65,0.649999999999999));
#455=B_SPLINE_SURFACE_WITH_KNOTS('',1,1,((#451,#453),(#452,#454)),.UNSPECIFIED.,.F.,.F.,.U.,(2,2),(2,2),(0.0,0.050000000000001),(0.0,3.299999999999999),.UNSPECIFIED.);
#456=CARTESIAN_POINT('',(2.65,1.649999999999999,0.649999999999999));
#457=DIRECTION('',(0.0,0.0,1.0));
#458=VECTOR('',#457,0.05);
#459=LINE('',#456,#458);
#460=EDGE_CURVE('',#426,#231,#459,.T.);
#461=ORIENTED_EDGE('',*,*,#460,.F.);
#462=ORIENTED_EDGE('',*,*,#446,.F.);
#463=CARTESIAN_POINT('',(2.65,-1.65,0.65));
#464=DIRECTION('',(0.0,0.0,1.0));
#465=VECTOR('',#464,0.05);
#466=LINE('',#463,#465);
#467=EDGE_CURVE('',#435,#241,#466,.T.);
#468=ORIENTED_EDGE('',*,*,#467,.T.);
#469=ORIENTED_EDGE('',*,*,#246,.T.);
#470=EDGE_LOOP('',(#461,#462,#468,#469));
#471=FACE_OUTER_BOUND('',#470,.T.);
#472=ADVANCED_FACE('',(#471),#455,.T.);
#473=CARTESIAN_POINT('',(2.65,1.649999999999999,-7.771561E-016));
#474=CARTESIAN_POINT('',(2.65,1.649999999999999,0.699999999999999));
#475=CARTESIAN_POINT('',(3.25,1.649999999999999,-7.771561E-016));
#476=CARTESIAN_POINT('',(3.25,1.649999999999999,0.699999999999999));
#477=B_SPLINE_SURFACE_WITH_KNOTS('',1,1,((#473,#475),(#474,#476)),.UNSPECIFIED.,.F.,.F.,.U.,(2,2),(2,2),(0.0,0.7),(0.0,0.6),.UNSPECIFIED.);
#478=ORIENTED_EDGE('',*,*,#238,.T.);
#479=ORIENTED_EDGE('',*,*,#276,.T.);
#480=ORIENTED_EDGE('',*,*,#307,.T.);
#481=ORIENTED_EDGE('',*,*,#338,.T.);
#482=ORIENTED_EDGE('',*,*,#369,.T.);
#483=ORIENTED_EDGE('',*,*,#400,.T.);
#484=ORIENTED_EDGE('',*,*,#431,.T.);
#485=ORIENTED_EDGE('',*,*,#460,.T.);
#486=EDGE_LOOP('',(#478,#479,#480,#481,#482,#483,#484,#485));
#487=FACE_OUTER_BOUND('',#486,.T.);
#488=ADVANCED_FACE('',(#487),#477,.T.);
#489=CARTESIAN_POINT('',(2.65,-1.65,-8.861605E-034));
#490=CARTESIAN_POINT('',(2.65,-1.65,0.7));
#491=CARTESIAN_POINT('',(3.25,-1.65,5.066015E-034));
#492=CARTESIAN_POINT('',(3.25,-1.65,0.7));
#493=B_SPLINE_SURFACE_WITH_KNOTS('',1,1,((#489,#491),(#490,#492)),.UNSPECIFIED.,.F.,.F.,.U.,(2,2),(2,2),(0.0,0.7),(0.0,0.6),.UNSPECIFIED.);
#494=ORIENTED_EDGE('',*,*,#467,.F.);
#495=ORIENTED_EDGE('',*,*,#440,.F.);
#496=ORIENTED_EDGE('',*,*,#409,.F.);
#497=ORIENTED_EDGE('',*,*,#378,.F.);
#498=ORIENTED_EDGE('',*,*,#347,.F.);
#499=ORIENTED_EDGE('',*,*,#316,.F.);
#500=ORIENTED_EDGE('',*,*,#285,.F.);
#501=ORIENTED_EDGE('',*,*,#254,.F.);
#502=EDGE_LOOP('',(#494,#495,#496,#497,#498,#499,#500,#501));
#503=FACE_OUTER_BOUND('',#502,.T.);
#504=ADVANCED_FACE('',(#503),#493,.F.);
#505=CLOSED_SHELL('',(#264,#295,#326,#357,#388,#419,#450,#472,#488,#504));
#506=MANIFOLD_SOLID_BREP('4EC',#505);
#507=COLOUR_RGB('254',0.866,0.866,0.866);
#508=SURFACE_STYLE_USAGE(.BOTH.,#509);
#509=SURFACE_SIDE_STYLE('NONE',(#510));
#510=SURFACE_STYLE_FILL_AREA(#511);
#511=FILL_AREA_STYLE('NONE',(#512));
#512=FILL_AREA_STYLE_COLOUR('NONE',#507);
#513=PRESENTATION_STYLE_ASSIGNMENT((#508));
#514=STYLED_ITEM('NONE',(#513),#506);
#515=CARTESIAN_POINT('',(-2.65,-1.65,0.7));
#516=DIRECTION('',(0.0,0.0,1.0));
#517=DIRECTION('',(1.0,0.0,0.0));
#518=AXIS2_PLACEMENT_3D('',#515,#516,#517);
#519=PLANE('',#518);
#520=CARTESIAN_POINT('',(-2.65,1.649999999999999,0.699999999999999));
#521=VERTEX_POINT('',#520);
#522=CARTESIAN_POINT('',(-3.25,1.649999999999999,0.699999999999999));
#523=VERTEX_POINT('',#522);
#524=CARTESIAN_POINT('',(-2.65,1.649999999999999,0.699999999999999));
#525=DIRECTION('',(-1.0,0.0,0.0));
#526=VECTOR('',#525,0.6);
#527=LINE('',#524,#526);
#528=EDGE_CURVE('',#521,#523,#527,.T.);
#529=ORIENTED_EDGE('',*,*,#528,.T.);
#530=CARTESIAN_POINT('',(-3.25,-1.65,0.7));
#531=VERTEX_POINT('',#530);
#532=CARTESIAN_POINT('',(-3.25,-1.65,0.7));
#533=DIRECTION('',(0.0,1.0,0.0));
#534=VECTOR('',#533,3.299999999999999);
#535=LINE('',#532,#534);
#536=EDGE_CURVE('',#531,#523,#535,.T.);
#537=ORIENTED_EDGE('',*,*,#536,.F.);
#538=CARTESIAN_POINT('',(-2.65,-1.65,0.7));
#539=VERTEX_POINT('',#538);
#540=CARTESIAN_POINT('',(-2.65,-1.65,0.7));
#541=DIRECTION('',(-1.0,0.0,0.0));
#542=VECTOR('',#541,0.6);
#543=LINE('',#540,#542);
#544=EDGE_CURVE('',#539,#531,#543,.T.);
#545=ORIENTED_EDGE('',*,*,#544,.F.);
#546=CARTESIAN_POINT('',(-2.65,-1.65,0.7));
#547=DIRECTION('',(0.0,1.0,0.0));
#548=VECTOR('',#547,3.299999999999999);
#549=LINE('',#546,#548);
#550=EDGE_CURVE('',#539,#521,#549,.T.);
#551=ORIENTED_EDGE('',*,*,#550,.T.);
#552=EDGE_LOOP('',(#529,#537,#545,#551));
#553=FACE_OUTER_BOUND('',#552,.T.);
#554=ADVANCED_FACE('',(#553),#519,.T.);
#555=CARTESIAN_POINT('',(-3.25,-1.65,0.7));
#556=DIRECTION('',(-1.0,0.0,0.0));
#557=DIRECTION('',(0.0,0.0,1.0));
#558=AXIS2_PLACEMENT_3D('',#555,#556,#557);
#559=PLANE('',#558);
#560=CARTESIAN_POINT('',(-3.25,1.649999999999999,-7.771561E-016));
#561=VERTEX_POINT('',#560);
#562=CARTESIAN_POINT('',(-3.25,1.649999999999999,0.699999999999999));
#563=DIRECTION('',(0.0,0.0,-1.0));
#564=VECTOR('',#563,0.7);
#565=LINE('',#562,#564);
#566=EDGE_CURVE('',#523,#561,#565,.T.);
#567=ORIENTED_EDGE('',*,*,#566,.T.);
#568=CARTESIAN_POINT('',(-3.25,-1.65,4.930381E-032));
#569=VERTEX_POINT('',#568);
#570=CARTESIAN_POINT('',(-3.25,-1.65,4.930381E-032));
#571=DIRECTION('',(0.0,1.0,0.0));
#572=VECTOR('',#571,3.299999999999999);
#573=LINE('',#570,#572);
#574=EDGE_CURVE('',#569,#561,#573,.T.);
#575=ORIENTED_EDGE('',*,*,#574,.F.);
#576=CARTESIAN_POINT('',(-3.25,-1.65,0.7));
#577=DIRECTION('',(0.0,0.0,-1.0));
#578=VECTOR('',#577,0.7);
#579=LINE('',#576,#578);
#580=EDGE_CURVE('',#531,#569,#579,.T.);
#581=ORIENTED_EDGE('',*,*,#580,.F.);
#582=ORIENTED_EDGE('',*,*,#536,.T.);
#583=EDGE_LOOP('',(#567,#575,#581,#582));
#584=FACE_OUTER_BOUND('',#583,.T.);
#585=ADVANCED_FACE('',(#584),#559,.T.);
#586=CARTESIAN_POINT('',(-3.25,-1.65,4.930381E-032));
#587=DIRECTION('',(0.0,0.0,-1.0));
#588=DIRECTION('',(-1.0,0.0,0.0));
#589=AXIS2_PLACEMENT_3D('',#586,#587,#588);
#590=PLANE('',#589);
#591=CARTESIAN_POINT('',(-2.65,1.649999999999999,-7.771561E-016));
#592=VERTEX_POINT('',#591);
#593=CARTESIAN_POINT('',(-3.25,1.649999999999999,-7.771561E-016));
#594=DIRECTION('',(1.0,0.0,0.0));
#595=VECTOR('',#594,0.6);
#596=LINE('',#593,#595);
#597=EDGE_CURVE('',#561,#592,#596,.T.);
#598=ORIENTED_EDGE('',*,*,#597,.T.);
#599=CARTESIAN_POINT('',(-2.65,-1.65,4.930381E-032));
#600=VERTEX_POINT('',#599);
#601=CARTESIAN_POINT('',(-2.65,-1.65,4.930381E-032));
#602=DIRECTION('',(0.0,1.0,0.0));
#603=VECTOR('',#602,3.299999999999999);
#604=LINE('',#601,#603);
#605=EDGE_CURVE('',#600,#592,#604,.T.);
#606=ORIENTED_EDGE('',*,*,#605,.F.);
#607=CARTESIAN_POINT('',(-3.25,-1.65,4.930381E-032));
#608=DIRECTION('',(1.0,0.0,0.0));
#609=VECTOR('',#608,0.6);
#610=LINE('',#607,#609);
#611=EDGE_CURVE('',#569,#600,#610,.T.);
#612=ORIENTED_EDGE('',*,*,#611,.F.);
#613=ORIENTED_EDGE('',*,*,#574,.T.);
#614=EDGE_LOOP('',(#598,#606,#612,#613));
#615=FACE_OUTER_BOUND('',#614,.T.);
#616=ADVANCED_FACE('',(#615),#590,.T.);
#617=CARTESIAN_POINT('',(-2.65,-1.65,4.930381E-032));
#618=DIRECTION('',(1.0,0.0,0.0));
#619=DIRECTION('',(0.0,0.0,-1.0));
#620=AXIS2_PLACEMENT_3D('',#617,#618,#619);
#621=PLANE('',#620);
#622=CARTESIAN_POINT('',(-2.65,1.649999999999999,0.049999999999999));
#623=VERTEX_POINT('',#622);
#624=CARTESIAN_POINT('',(-2.65,1.649999999999999,-7.771561E-016));
#625=DIRECTION('',(0.0,0.0,1.0));
#626=VECTOR('',#625,0.05);
#627=LINE('',#624,#626);
#628=EDGE_CURVE('',#592,#623,#627,.T.);
#629=ORIENTED_EDGE('',*,*,#628,.T.);
#630=CARTESIAN_POINT('',(-2.65,-1.65,0.05));
#631=VERTEX_POINT('',#630);
#632=CARTESIAN_POINT('',(-2.65,-1.65,0.05));
#633=DIRECTION('',(0.0,1.0,0.0));
#634=VECTOR('',#633,3.299999999999999);
#635=LINE('',#632,#634);
#636=EDGE_CURVE('',#631,#623,#635,.T.);
#637=ORIENTED_EDGE('',*,*,#636,.F.);
#638=CARTESIAN_POINT('',(-2.65,-1.65,4.930381E-032));
#639=DIRECTION('',(0.0,0.0,1.0));
#640=VECTOR('',#639,0.05);
#641=LINE('',#638,#640);
#642=EDGE_CURVE('',#600,#631,#641,.T.);
#643=ORIENTED_EDGE('',*,*,#642,.F.);
#644=ORIENTED_EDGE('',*,*,#605,.T.);
#645=EDGE_LOOP('',(#629,#637,#643,#644));
#646=FACE_OUTER_BOUND('',#645,.T.);
#647=ADVANCED_FACE('',(#646),#621,.T.);
#648=CARTESIAN_POINT('',(-2.65,-1.65,0.05));
#649=DIRECTION('',(0.0,0.0,1.0));
#650=DIRECTION('',(1.0,0.0,0.0));
#651=AXIS2_PLACEMENT_3D('',#648,#649,#650);
#652=PLANE('',#651);
#653=CARTESIAN_POINT('',(-3.2,1.649999999999999,0.049999999999999));
#654=VERTEX_POINT('',#653);
#655=CARTESIAN_POINT('',(-2.65,1.649999999999999,0.049999999999999));
#656=DIRECTION('',(-1.0,0.0,0.0));
#657=VECTOR('',#656,0.55);
#658=LINE('',#655,#657);
#659=EDGE_CURVE('',#623,#654,#658,.T.);
#660=ORIENTED_EDGE('',*,*,#659,.T.);
#661=CARTESIAN_POINT('',(-3.2,-1.65,0.05));
#662=VERTEX_POINT('',#661);
#663=CARTESIAN_POINT('',(-3.2,-1.65,0.05));
#664=DIRECTION('',(0.0,1.0,0.0));
#665=VECTOR('',#664,3.299999999999999);
#666=LINE('',#663,#665);
#667=EDGE_CURVE('',#662,#654,#666,.T.);
#668=ORIENTED_EDGE('',*,*,#667,.F.);
#669=CARTESIAN_POINT('',(-2.65,-1.65,0.05));
#670=DIRECTION('',(-1.0,0.0,0.0));
#671=VECTOR('',#670,0.55);
#672=LINE('',#669,#671);
#673=EDGE_CURVE('',#631,#662,#672,.T.);
#674=ORIENTED_EDGE('',*,*,#673,.F.);
#675=ORIENTED_EDGE('',*,*,#636,.T.);
#676=EDGE_LOOP('',(#660,#668,#674,#675));
#677=FACE_OUTER_BOUND('',#676,.T.);
#678=ADVANCED_FACE('',(#677),#652,.T.);
#679=CARTESIAN_POINT('',(-3.2,-1.65,0.05));
#680=DIRECTION('',(1.0,0.0,0.0));
#681=DIRECTION('',(0.0,0.0,-1.0));
#682=AXIS2_PLACEMENT_3D('',#679,#680,#681);
#683=PLANE('',#682);
#684=CARTESIAN_POINT('',(-3.2,1.649999999999999,0.649999999999999));
#685=VERTEX_POINT('',#684);
#686=CARTESIAN_POINT('',(-3.2,1.649999999999999,0.049999999999999));
#687=DIRECTION('',(0.0,0.0,1.0));
#688=VECTOR('',#687,0.6);
#689=LINE('',#686,#688);
#690=EDGE_CURVE('',#654,#685,#689,.T.);
#691=ORIENTED_EDGE('',*,*,#690,.T.);
#692=CARTESIAN_POINT('',(-3.2,-1.65,0.65));
#693=VERTEX_POINT('',#692);
#694=CARTESIAN_POINT('',(-3.2,-1.65,0.65));
#695=DIRECTION('',(0.0,1.0,0.0));
#696=VECTOR('',#695,3.299999999999999);
#697=LINE('',#694,#696);
#698=EDGE_CURVE('',#693,#685,#697,.T.);
#699=ORIENTED_EDGE('',*,*,#698,.F.);
#700=CARTESIAN_POINT('',(-3.2,-1.65,0.05));
#701=DIRECTION('',(0.0,0.0,1.0));
#702=VECTOR('',#701,0.6);
#703=LINE('',#700,#702);
#704=EDGE_CURVE('',#662,#693,#703,.T.);
#705=ORIENTED_EDGE('',*,*,#704,.F.);
#706=ORIENTED_EDGE('',*,*,#667,.T.);
#707=EDGE_LOOP('',(#691,#699,#705,#706));
#708=FACE_OUTER_BOUND('',#707,.T.);
#709=ADVANCED_FACE('',(#708),#683,.T.);
#710=CARTESIAN_POINT('',(-3.2,-1.65,0.65));
#711=DIRECTION('',(0.0,0.0,-1.0));
#712=DIRECTION('',(-1.0,0.0,0.0));
#713=AXIS2_PLACEMENT_3D('',#710,#711,#712);
#714=PLANE('',#713);
#715=CARTESIAN_POINT('',(-2.65,1.649999999999999,0.649999999999999));
#716=VERTEX_POINT('',#715);
#717=CARTESIAN_POINT('',(-3.2,1.649999999999999,0.649999999999999));
#718=DIRECTION('',(1.0,0.0,0.0));
#719=VECTOR('',#718,0.55);
#720=LINE('',#717,#719);
#721=EDGE_CURVE('',#685,#716,#720,.T.);
#722=ORIENTED_EDGE('',*,*,#721,.T.);
#723=CARTESIAN_POINT('',(-2.65,-1.65,0.65));
#724=VERTEX_POINT('',#723);
#725=CARTESIAN_POINT('',(-2.65,-1.65,0.65));
#726=DIRECTION('',(0.0,1.0,0.0));
#727=VECTOR('',#726,3.299999999999999);
#728=LINE('',#725,#727);
#729=EDGE_CURVE('',#724,#716,#728,.T.);
#730=ORIENTED_EDGE('',*,*,#729,.F.);
#731=CARTESIAN_POINT('',(-3.2,-1.65,0.65));
#732=DIRECTION('',(1.0,0.0,0.0));
#733=VECTOR('',#732,0.55);
#734=LINE('',#731,#733);
#735=EDGE_CURVE('',#693,#724,#734,.T.);
#736=ORIENTED_EDGE('',*,*,#735,.F.);
#737=ORIENTED_EDGE('',*,*,#698,.T.);
#738=EDGE_LOOP('',(#722,#730,#736,#737));
#739=FACE_OUTER_BOUND('',#738,.T.);
#740=ADVANCED_FACE('',(#739),#714,.T.);
#741=CARTESIAN_POINT('',(-2.65,-1.65,0.65));
#742=DIRECTION('',(1.0,0.0,0.0));
#743=DIRECTION('',(0.0,0.0,-1.0));
#744=AXIS2_PLACEMENT_3D('',#741,#742,#743);
#745=PLANE('',#744);
#746=CARTESIAN_POINT('',(-2.65,1.649999999999999,0.649999999999999));
#747=DIRECTION('',(0.0,0.0,1.0));
#748=VECTOR('',#747,0.05);
#749=LINE('',#746,#748);
#750=EDGE_CURVE('',#716,#521,#749,.T.);
#751=ORIENTED_EDGE('',*,*,#750,.T.);
#752=ORIENTED_EDGE('',*,*,#550,.F.);
#753=CARTESIAN_POINT('',(-2.65,-1.65,0.65));
#754=DIRECTION('',(0.0,0.0,1.0));
#755=VECTOR('',#754,0.05);
#756=LINE('',#753,#755);
#757=EDGE_CURVE('',#724,#539,#756,.T.);
#758=ORIENTED_EDGE('',*,*,#757,.F.);
#759=ORIENTED_EDGE('',*,*,#729,.T.);
#760=EDGE_LOOP('',(#751,#752,#758,#759));
#761=FACE_OUTER_BOUND('',#760,.T.);
#762=ADVANCED_FACE('',(#761),#745,.T.);
#763=CARTESIAN_POINT('',(-3.031756756756757,1.649999999999999,0.349999999999999));
#764=DIRECTION('',(0.0,1.0,0.0));
#765=DIRECTION('',(0.0,0.0,1.0));
#766=AXIS2_PLACEMENT_3D('',#763,#764,#765);
#767=PLANE('',#766);
#768=ORIENTED_EDGE('',*,*,#528,.F.);
#769=ORIENTED_EDGE('',*,*,#750,.F.);
#770=ORIENTED_EDGE('',*,*,#721,.F.);
#771=ORIENTED_EDGE('',*,*,#690,.F.);
#772=ORIENTED_EDGE('',*,*,#659,.F.);
#773=ORIENTED_EDGE('',*,*,#628,.F.);
#774=ORIENTED_EDGE('',*,*,#597,.F.);
#775=ORIENTED_EDGE('',*,*,#566,.F.);
#776=EDGE_LOOP('',(#768,#769,#770,#771,#772,#773,#774,#775));
#777=FACE_OUTER_BOUND('',#776,.T.);
#778=ADVANCED_FACE('',(#777),#767,.T.);
#779=CARTESIAN_POINT('',(-3.031756756756757,-1.65,0.35));
#780=DIRECTION('',(0.0,1.0,0.0));
#781=DIRECTION('',(0.0,0.0,1.0));
#782=AXIS2_PLACEMENT_3D('',#779,#780,#781);
#783=PLANE('',#782);
#784=ORIENTED_EDGE('',*,*,#757,.T.);
#785=ORIENTED_EDGE('',*,*,#544,.T.);
#786=ORIENTED_EDGE('',*,*,#580,.T.);
#787=ORIENTED_EDGE('',*,*,#611,.T.);
#788=ORIENTED_EDGE('',*,*,#642,.T.);
#789=ORIENTED_EDGE('',*,*,#673,.T.);
#790=ORIENTED_EDGE('',*,*,#704,.T.);
#791=ORIENTED_EDGE('',*,*,#735,.T.);
#792=EDGE_LOOP('',(#784,#785,#786,#787,#788,#789,#790,#791));
#793=FACE_OUTER_BOUND('',#792,.T.);
#794=ADVANCED_FACE('',(#793),#783,.F.);
#795=CLOSED_SHELL('',(#554,#585,#616,#647,#678,#709,#740,#762,#778,#794));
#796=MANIFOLD_SOLID_BREP('4E8',#795);
#797=STYLED_ITEM('NONE',(#513),#796);
#798=ADVANCED_BREP_SHAPE_REPRESENTATION('ABSR1',(#214,#506,#796),#28);
#799=SHAPE_REPRESENTATION_RELATIONSHIP('SRRPL1','',#798,#62);
ENDSEC;
END-ISO-10303-21;
