ISO-10303-21;
HEADER;
FILE_DESCRIPTION(('FreeCAD Model'),'2;1');
FILE_NAME(
'/home/huba/pCloudDrive/_Freelance/0068 - OpenVentilator/01 - 
Electronic parts/TO-220-HFLIP_bent.step','2020-05-10T15:21:34',('Author'
    ),(''),'Open CASCADE STEP processor 7.4','FreeCAD','Unknown');
FILE_SCHEMA(('AUTOMOTIVE_DESIGN { 1 0 10303 214 1 1 1 1 }'));
ENDSEC;
DATA;
#1 = APPLICATION_PROTOCOL_DEFINITION('international standard',
  'automotive_design',2000,#2);
#2 = APPLICATION_CONTEXT(
  'core data for automotive mechanical design processes');
#3 = SHAPE_DEFINITION_REPRESENTATION(#4,#10);
#4 = PRODUCT_DEFINITION_SHAPE('','',#5);
#5 = PRODUCT_DEFINITION('design','',#6,#9);
#6 = PRODUCT_DEFINITION_FORMATION('','',#7);
#7 = PRODUCT('TO-220-HFLIP','TO-220-HFLIP','',(#8));
#8 = PRODUCT_CONTEXT('',#2,'mechanical');
#9 = PRODUCT_DEFINITION_CONTEXT('part definition',#2,'design');
#10 = SHAPE_REPRESENTATION('',(#11,#15,#19,#23,#27),#31);
#11 = AXIS2_PLACEMENT_3D('',#12,#13,#14);
#12 = CARTESIAN_POINT('',(0.,0.,0.));
#13 = DIRECTION('',(0.,0.,1.));
#14 = DIRECTION('',(1.,0.,-0.));
#15 = AXIS2_PLACEMENT_3D('',#16,#17,#18);
#16 = CARTESIAN_POINT('',(0.,0.,0.));
#17 = DIRECTION('',(0.,0.,1.));
#18 = DIRECTION('',(1.,0.,0.));
#19 = AXIS2_PLACEMENT_3D('',#20,#21,#22);
#20 = CARTESIAN_POINT('',(0.,0.,0.));
#21 = DIRECTION('',(0.,0.,1.));
#22 = DIRECTION('',(1.,0.,0.));
#23 = AXIS2_PLACEMENT_3D('',#24,#25,#26);
#24 = CARTESIAN_POINT('',(0.,0.,0.));
#25 = DIRECTION('',(0.,0.,1.));
#26 = DIRECTION('',(1.,0.,0.));
#27 = AXIS2_PLACEMENT_3D('',#28,#29,#30);
#28 = CARTESIAN_POINT('',(0.,0.,0.));
#29 = DIRECTION('',(0.,0.,1.));
#30 = DIRECTION('',(1.,0.,0.));
#31 = ( GEOMETRIC_REPRESENTATION_CONTEXT(3) 
GLOBAL_UNCERTAINTY_ASSIGNED_CONTEXT((#35)) GLOBAL_UNIT_ASSIGNED_CONTEXT(
(#32,#33,#34)) REPRESENTATION_CONTEXT('Context #1',
  '3D Context with UNIT and UNCERTAINTY') );
#32 = ( LENGTH_UNIT() NAMED_UNIT(*) SI_UNIT(.MILLI.,.METRE.) );
#33 = ( NAMED_UNIT(*) PLANE_ANGLE_UNIT() SI_UNIT($,.RADIAN.) );
#34 = ( NAMED_UNIT(*) SI_UNIT($,.STERADIAN.) SOLID_ANGLE_UNIT() );
#35 = UNCERTAINTY_MEASURE_WITH_UNIT(LENGTH_MEASURE(2.E-05),#32,
  'distance_accuracy_value','confusion accuracy');
#36 = PRODUCT_RELATED_PRODUCT_CATEGORY('part',$,(#7));
#37 = ADVANCED_BREP_SHAPE_REPRESENTATION('',(#11,#38),#479);
#38 = MANIFOLD_SOLID_BREP('',#39);
#39 = CLOSED_SHELL('',(#40,#80,#111,#174,#215,#256,#273,#297,#321,#345,
    #369,#386,#410,#433,#445,#470));
#40 = ADVANCED_FACE('',(#41),#75,.T.);
#41 = FACE_BOUND('',#42,.T.);
#42 = EDGE_LOOP('',(#43,#53,#61,#69));
#43 = ORIENTED_EDGE('',*,*,#44,.T.);
#44 = EDGE_CURVE('',#45,#47,#49,.T.);
#45 = VERTEX_POINT('',#46);
#46 = CARTESIAN_POINT('',(0.,5.08,2.67));
#47 = VERTEX_POINT('',#48);
#48 = CARTESIAN_POINT('',(0.,-5.08,2.67));
#49 = LINE('',#50,#51);
#50 = CARTESIAN_POINT('',(0.,5.08,2.67));
#51 = VECTOR('',#52,1.);
#52 = DIRECTION('',(0.,-1.,4.4E-16));
#53 = ORIENTED_EDGE('',*,*,#54,.T.);
#54 = EDGE_CURVE('',#47,#55,#57,.T.);
#55 = VERTEX_POINT('',#56);
#56 = CARTESIAN_POINT('',(-0.280628308159,-5.08,3.E-15));
#57 = LINE('',#58,#59);
#58 = CARTESIAN_POINT('',(0.,-5.08,2.67));
#59 = VECTOR('',#60,1.);
#60 = DIRECTION('',(-0.104528463268,-0.,-0.994521895368));
#61 = ORIENTED_EDGE('',*,*,#62,.F.);
#62 = EDGE_CURVE('',#63,#55,#65,.T.);
#63 = VERTEX_POINT('',#64);
#64 = CARTESIAN_POINT('',(-0.280628308159,5.08,-2.E-15));
#65 = LINE('',#66,#67);
#66 = CARTESIAN_POINT('',(-0.280628308159,5.08,-2.26E-15));
#67 = VECTOR('',#68,1.);
#68 = DIRECTION('',(0.,-1.,4.4E-16));
#69 = ORIENTED_EDGE('',*,*,#70,.F.);
#70 = EDGE_CURVE('',#45,#63,#71,.T.);
#71 = LINE('',#72,#73);
#72 = CARTESIAN_POINT('',(0.,5.08,2.67));
#73 = VECTOR('',#74,1.);
#74 = DIRECTION('',(-0.104528463268,-0.,-0.994521895368));
#75 = PLANE('',#76);
#76 = AXIS2_PLACEMENT_3D('',#77,#78,#79);
#77 = CARTESIAN_POINT('',(0.,5.08,2.67));
#78 = DIRECTION('',(0.994521895368,-5.E-17,-0.104528463268));
#79 = DIRECTION('',(-0.104528463268,-4.4E-16,-0.994521895368));
#80 = ADVANCED_FACE('',(#81),#106,.T.);
#81 = FACE_BOUND('',#82,.T.);
#82 = EDGE_LOOP('',(#83,#93,#99,#100));
#83 = ORIENTED_EDGE('',*,*,#84,.T.);
#84 = EDGE_CURVE('',#85,#87,#89,.T.);
#85 = VERTEX_POINT('',#86);
#86 = CARTESIAN_POINT('',(0.,5.08,3.05));
#87 = VERTEX_POINT('',#88);
#88 = CARTESIAN_POINT('',(0.,-5.08,3.05));
#89 = LINE('',#90,#91);
#90 = CARTESIAN_POINT('',(0.,5.08,3.05));
#91 = VECTOR('',#92,1.);
#92 = DIRECTION('',(0.,-1.,4.4E-16));
#93 = ORIENTED_EDGE('',*,*,#94,.T.);
#94 = EDGE_CURVE('',#87,#47,#95,.T.);
#95 = LINE('',#96,#97);
#96 = CARTESIAN_POINT('',(0.,-5.08,3.05));
#97 = VECTOR('',#98,1.);
#98 = DIRECTION('',(0.,0.,-1.));
#99 = ORIENTED_EDGE('',*,*,#44,.F.);
#100 = ORIENTED_EDGE('',*,*,#101,.F.);
#101 = EDGE_CURVE('',#85,#45,#102,.T.);
#102 = LINE('',#103,#104);
#103 = CARTESIAN_POINT('',(0.,5.08,3.05));
#104 = VECTOR('',#105,1.);
#105 = DIRECTION('',(0.,0.,-1.));
#106 = PLANE('',#107);
#107 = AXIS2_PLACEMENT_3D('',#108,#109,#110);
#108 = CARTESIAN_POINT('',(0.,5.08,3.05));
#109 = DIRECTION('',(1.,0.,0.));
#110 = DIRECTION('',(0.,-4.4E-16,-1.));
#111 = ADVANCED_FACE('',(#112),#169,.T.);
#112 = FACE_BOUND('',#113,.T.);
#113 = EDGE_LOOP('',(#114,#122,#123,#131,#139,#147,#155,#163));
#114 = ORIENTED_EDGE('',*,*,#115,.F.);
#115 = EDGE_CURVE('',#63,#116,#118,.T.);
#116 = VERTEX_POINT('',#117);
#117 = CARTESIAN_POINT('',(-8.5,5.08,-2.E-15));
#118 = LINE('',#119,#120);
#119 = CARTESIAN_POINT('',(-0.280628308159,5.08,-1.7763568394E-15));
#120 = VECTOR('',#121,1.);
#121 = DIRECTION('',(-1.,0.,0.));
#122 = ORIENTED_EDGE('',*,*,#62,.T.);
#123 = ORIENTED_EDGE('',*,*,#124,.T.);
#124 = EDGE_CURVE('',#55,#125,#127,.T.);
#125 = VERTEX_POINT('',#126);
#126 = CARTESIAN_POINT('',(-8.5,-5.08,3.E-15));
#127 = LINE('',#128,#129);
#128 = CARTESIAN_POINT('',(-0.280628308159,-5.08,2.6645352591E-15));
#129 = VECTOR('',#130,1.);
#130 = DIRECTION('',(-1.,0.,0.));
#131 = ORIENTED_EDGE('',*,*,#132,.F.);
#132 = EDGE_CURVE('',#133,#125,#135,.T.);
#133 = VERTEX_POINT('',#134);
#134 = CARTESIAN_POINT('',(-8.5,-4.,2.E-15));
#135 = LINE('',#136,#137);
#136 = CARTESIAN_POINT('',(-8.5,5.08,-2.26E-15));
#137 = VECTOR('',#138,1.);
#138 = DIRECTION('',(0.,-1.,4.4E-16));
#139 = ORIENTED_EDGE('',*,*,#140,.F.);
#140 = EDGE_CURVE('',#141,#133,#143,.T.);
#141 = VERTEX_POINT('',#142);
#142 = CARTESIAN_POINT('',(-3.5,-4.,2.E-15));
#143 = LINE('',#144,#145);
#144 = CARTESIAN_POINT('',(-3.5,-4.,2.22044604925E-15));
#145 = VECTOR('',#146,1.);
#146 = DIRECTION('',(-1.,0.,0.));
#147 = ORIENTED_EDGE('',*,*,#148,.T.);
#148 = EDGE_CURVE('',#141,#149,#151,.T.);
#149 = VERTEX_POINT('',#150);
#150 = CARTESIAN_POINT('',(-3.5,4.,-2.E-15));
#151 = LINE('',#152,#153);
#152 = CARTESIAN_POINT('',(-3.5,-4.,1.78E-15));
#153 = VECTOR('',#154,1.);
#154 = DIRECTION('',(0.,1.,-4.4E-16));
#155 = ORIENTED_EDGE('',*,*,#156,.T.);
#156 = EDGE_CURVE('',#149,#157,#159,.T.);
#157 = VERTEX_POINT('',#158);
#158 = CARTESIAN_POINT('',(-8.5,4.,-2.E-15));
#159 = LINE('',#160,#161);
#160 = CARTESIAN_POINT('',(-3.5,4.,-2.22044604925E-15));
#161 = VECTOR('',#162,1.);
#162 = DIRECTION('',(-1.,0.,0.));
#163 = ORIENTED_EDGE('',*,*,#164,.F.);
#164 = EDGE_CURVE('',#116,#157,#165,.T.);
#165 = LINE('',#166,#167);
#166 = CARTESIAN_POINT('',(-8.5,5.08,-2.26E-15));
#167 = VECTOR('',#168,1.);
#168 = DIRECTION('',(0.,-1.,4.4E-16));
#169 = PLANE('',#170);
#170 = AXIS2_PLACEMENT_3D('',#171,#172,#173);
#171 = CARTESIAN_POINT('',(-0.280628308159,5.08,-2.26E-15));
#172 = DIRECTION('',(0.,-4.4E-16,-1.));
#173 = DIRECTION('',(-1.,0.,0.));
#174 = ADVANCED_FACE('',(#175),#210,.T.);
#175 = FACE_BOUND('',#176,.T.);
#176 = EDGE_LOOP('',(#177,#178,#179,#187,#195,#203,#209));
#177 = ORIENTED_EDGE('',*,*,#70,.T.);
#178 = ORIENTED_EDGE('',*,*,#115,.T.);
#179 = ORIENTED_EDGE('',*,*,#180,.T.);
#180 = EDGE_CURVE('',#116,#181,#183,.T.);
#181 = VERTEX_POINT('',#182);
#182 = CARTESIAN_POINT('',(-8.5,5.08,1.25));
#183 = LINE('',#184,#185);
#184 = CARTESIAN_POINT('',(-8.5,5.08,-1.7763568394E-15));
#185 = VECTOR('',#186,1.);
#186 = DIRECTION('',(0.,0.,1.));
#187 = ORIENTED_EDGE('',*,*,#188,.T.);
#188 = EDGE_CURVE('',#181,#189,#191,.T.);
#189 = VERTEX_POINT('',#190);
#190 = CARTESIAN_POINT('',(-8.100950177345,5.08,4.5));
#191 = LINE('',#192,#193);
#192 = CARTESIAN_POINT('',(-8.5,5.08,1.25));
#193 = VECTOR('',#194,1.);
#194 = DIRECTION('',(0.121869343321,0.,0.992546151652));
#195 = ORIENTED_EDGE('',*,*,#196,.T.);
#196 = EDGE_CURVE('',#189,#197,#199,.T.);
#197 = VERTEX_POINT('',#198);
#198 = CARTESIAN_POINT('',(-0.178037613309,5.08,4.5));
#199 = LINE('',#200,#201);
#200 = CARTESIAN_POINT('',(-8.100950177345,5.08,4.5));
#201 = VECTOR('',#202,1.);
#202 = DIRECTION('',(1.,0.,0.));
#203 = ORIENTED_EDGE('',*,*,#204,.T.);
#204 = EDGE_CURVE('',#197,#85,#205,.T.);
#205 = LINE('',#206,#207);
#206 = CARTESIAN_POINT('',(-0.178037613309,5.08,4.5));
#207 = VECTOR('',#208,1.);
#208 = DIRECTION('',(0.121869343405,0.,-0.992546151641));
#209 = ORIENTED_EDGE('',*,*,#101,.T.);
#210 = PLANE('',#211);
#211 = AXIS2_PLACEMENT_3D('',#212,#213,#214);
#212 = CARTESIAN_POINT('',(-4.255006778922,5.08,2.224252850029));
#213 = DIRECTION('',(0.,1.,-2.2E-16));
#214 = DIRECTION('',(0.,2.2E-16,1.));
#215 = ADVANCED_FACE('',(#216),#251,.F.);
#216 = FACE_BOUND('',#217,.F.);
#217 = EDGE_LOOP('',(#218,#219,#220,#228,#236,#244,#250));
#218 = ORIENTED_EDGE('',*,*,#54,.T.);
#219 = ORIENTED_EDGE('',*,*,#124,.T.);
#220 = ORIENTED_EDGE('',*,*,#221,.T.);
#221 = EDGE_CURVE('',#125,#222,#224,.T.);
#222 = VERTEX_POINT('',#223);
#223 = CARTESIAN_POINT('',(-8.5,-5.08,1.25));
#224 = LINE('',#225,#226);
#225 = CARTESIAN_POINT('',(-8.5,-5.08,2.6645352591E-15));
#226 = VECTOR('',#227,1.);
#227 = DIRECTION('',(0.,0.,1.));
#228 = ORIENTED_EDGE('',*,*,#229,.T.);
#229 = EDGE_CURVE('',#222,#230,#232,.T.);
#230 = VERTEX_POINT('',#231);
#231 = CARTESIAN_POINT('',(-8.100950177345,-5.08,4.5));
#232 = LINE('',#233,#234);
#233 = CARTESIAN_POINT('',(-8.5,-5.08,1.25));
#234 = VECTOR('',#235,1.);
#235 = DIRECTION('',(0.121869343321,0.,0.992546151652));
#236 = ORIENTED_EDGE('',*,*,#237,.T.);
#237 = EDGE_CURVE('',#230,#238,#240,.T.);
#238 = VERTEX_POINT('',#239);
#239 = CARTESIAN_POINT('',(-0.178037613309,-5.08,4.5));
#240 = LINE('',#241,#242);
#241 = CARTESIAN_POINT('',(-8.100950177345,-5.08,4.5));
#242 = VECTOR('',#243,1.);
#243 = DIRECTION('',(1.,0.,0.));
#244 = ORIENTED_EDGE('',*,*,#245,.T.);
#245 = EDGE_CURVE('',#238,#87,#246,.T.);
#246 = LINE('',#247,#248);
#247 = CARTESIAN_POINT('',(-0.178037613309,-5.08,4.5));
#248 = VECTOR('',#249,1.);
#249 = DIRECTION('',(0.121869343405,0.,-0.992546151641));
#250 = ORIENTED_EDGE('',*,*,#94,.T.);
#251 = PLANE('',#252);
#252 = AXIS2_PLACEMENT_3D('',#253,#254,#255);
#253 = CARTESIAN_POINT('',(-4.255006778922,-5.08,2.224252850029));
#254 = DIRECTION('',(0.,1.,-2.2E-16));
#255 = DIRECTION('',(0.,2.2E-16,1.));
#256 = ADVANCED_FACE('',(#257),#268,.T.);
#257 = FACE_BOUND('',#258,.T.);
#258 = EDGE_LOOP('',(#259,#265,#266,#267));
#259 = ORIENTED_EDGE('',*,*,#260,.T.);
#260 = EDGE_CURVE('',#197,#238,#261,.T.);
#261 = LINE('',#262,#263);
#262 = CARTESIAN_POINT('',(-0.178037613309,5.08,4.5));
#263 = VECTOR('',#264,1.);
#264 = DIRECTION('',(0.,-1.,4.4E-16));
#265 = ORIENTED_EDGE('',*,*,#245,.T.);
#266 = ORIENTED_EDGE('',*,*,#84,.F.);
#267 = ORIENTED_EDGE('',*,*,#204,.F.);
#268 = PLANE('',#269);
#269 = AXIS2_PLACEMENT_3D('',#270,#271,#272);
#270 = CARTESIAN_POINT('',(-0.178037613309,5.08,4.5));
#271 = DIRECTION('',(0.992546151641,5.E-17,0.121869343405));
#272 = DIRECTION('',(0.121869343405,-4.4E-16,-0.992546151641));
#273 = ADVANCED_FACE('',(#274),#292,.T.);
#274 = FACE_BOUND('',#275,.T.);
#275 = EDGE_LOOP('',(#276,#277,#278,#286));
#276 = ORIENTED_EDGE('',*,*,#180,.F.);
#277 = ORIENTED_EDGE('',*,*,#164,.T.);
#278 = ORIENTED_EDGE('',*,*,#279,.T.);
#279 = EDGE_CURVE('',#157,#280,#282,.T.);
#280 = VERTEX_POINT('',#281);
#281 = CARTESIAN_POINT('',(-8.5,4.,1.25));
#282 = LINE('',#283,#284);
#283 = CARTESIAN_POINT('',(-8.5,4.,-2.22044604925E-15));
#284 = VECTOR('',#285,1.);
#285 = DIRECTION('',(0.,0.,1.));
#286 = ORIENTED_EDGE('',*,*,#287,.F.);
#287 = EDGE_CURVE('',#181,#280,#288,.T.);
#288 = LINE('',#289,#290);
#289 = CARTESIAN_POINT('',(-8.5,5.08,1.25));
#290 = VECTOR('',#291,1.);
#291 = DIRECTION('',(0.,-1.,4.4E-16));
#292 = PLANE('',#293);
#293 = AXIS2_PLACEMENT_3D('',#294,#295,#296);
#294 = CARTESIAN_POINT('',(-8.5,5.08,-2.26E-15));
#295 = DIRECTION('',(-1.,0.,0.));
#296 = DIRECTION('',(0.,4.4E-16,1.));
#297 = ADVANCED_FACE('',(#298),#316,.F.);
#298 = FACE_BOUND('',#299,.F.);
#299 = EDGE_LOOP('',(#300,#308,#314,#315));
#300 = ORIENTED_EDGE('',*,*,#301,.T.);
#301 = EDGE_CURVE('',#280,#302,#304,.T.);
#302 = VERTEX_POINT('',#303);
#303 = CARTESIAN_POINT('',(-3.5,4.,1.25));
#304 = LINE('',#305,#306);
#305 = CARTESIAN_POINT('',(-8.5,4.,1.25));
#306 = VECTOR('',#307,1.);
#307 = DIRECTION('',(1.,0.,0.));
#308 = ORIENTED_EDGE('',*,*,#309,.T.);
#309 = EDGE_CURVE('',#302,#149,#310,.T.);
#310 = LINE('',#311,#312);
#311 = CARTESIAN_POINT('',(-3.5,4.,1.25));
#312 = VECTOR('',#313,1.);
#313 = DIRECTION('',(0.,0.,-1.));
#314 = ORIENTED_EDGE('',*,*,#156,.T.);
#315 = ORIENTED_EDGE('',*,*,#279,.T.);
#316 = PLANE('',#317);
#317 = AXIS2_PLACEMENT_3D('',#318,#319,#320);
#318 = CARTESIAN_POINT('',(-6.,4.,0.625));
#319 = DIRECTION('',(0.,1.,-2.2E-16));
#320 = DIRECTION('',(0.,2.2E-16,1.));
#321 = ADVANCED_FACE('',(#322),#340,.T.);
#322 = FACE_BOUND('',#323,.T.);
#323 = EDGE_LOOP('',(#324,#332,#333,#334));
#324 = ORIENTED_EDGE('',*,*,#325,.T.);
#325 = EDGE_CURVE('',#326,#302,#328,.T.);
#326 = VERTEX_POINT('',#327);
#327 = CARTESIAN_POINT('',(-3.5,-4.,1.25));
#328 = LINE('',#329,#330);
#329 = CARTESIAN_POINT('',(-3.5,-4.,1.25));
#330 = VECTOR('',#331,1.);
#331 = DIRECTION('',(0.,1.,-4.4E-16));
#332 = ORIENTED_EDGE('',*,*,#309,.T.);
#333 = ORIENTED_EDGE('',*,*,#148,.F.);
#334 = ORIENTED_EDGE('',*,*,#335,.F.);
#335 = EDGE_CURVE('',#326,#141,#336,.T.);
#336 = LINE('',#337,#338);
#337 = CARTESIAN_POINT('',(-3.5,-4.,1.25));
#338 = VECTOR('',#339,1.);
#339 = DIRECTION('',(0.,0.,-1.));
#340 = PLANE('',#341);
#341 = AXIS2_PLACEMENT_3D('',#342,#343,#344);
#342 = CARTESIAN_POINT('',(-3.5,-4.,1.25));
#343 = DIRECTION('',(-1.,0.,0.));
#344 = DIRECTION('',(0.,-4.4E-16,-1.));
#345 = ADVANCED_FACE('',(#346),#364,.T.);
#346 = FACE_BOUND('',#347,.T.);
#347 = EDGE_LOOP('',(#348,#356,#357,#358));
#348 = ORIENTED_EDGE('',*,*,#349,.T.);
#349 = EDGE_CURVE('',#350,#326,#352,.T.);
#350 = VERTEX_POINT('',#351);
#351 = CARTESIAN_POINT('',(-8.5,-4.,1.25));
#352 = LINE('',#353,#354);
#353 = CARTESIAN_POINT('',(-8.5,-4.,1.25));
#354 = VECTOR('',#355,1.);
#355 = DIRECTION('',(1.,0.,0.));
#356 = ORIENTED_EDGE('',*,*,#335,.T.);
#357 = ORIENTED_EDGE('',*,*,#140,.T.);
#358 = ORIENTED_EDGE('',*,*,#359,.T.);
#359 = EDGE_CURVE('',#133,#350,#360,.T.);
#360 = LINE('',#361,#362);
#361 = CARTESIAN_POINT('',(-8.5,-4.,2.22044604925E-15));
#362 = VECTOR('',#363,1.);
#363 = DIRECTION('',(0.,0.,1.));
#364 = PLANE('',#365);
#365 = AXIS2_PLACEMENT_3D('',#366,#367,#368);
#366 = CARTESIAN_POINT('',(-6.,-4.,0.625));
#367 = DIRECTION('',(0.,1.,-2.2E-16));
#368 = DIRECTION('',(0.,2.2E-16,1.));
#369 = ADVANCED_FACE('',(#370),#381,.T.);
#370 = FACE_BOUND('',#371,.T.);
#371 = EDGE_LOOP('',(#372,#373,#374,#375));
#372 = ORIENTED_EDGE('',*,*,#359,.F.);
#373 = ORIENTED_EDGE('',*,*,#132,.T.);
#374 = ORIENTED_EDGE('',*,*,#221,.T.);
#375 = ORIENTED_EDGE('',*,*,#376,.F.);
#376 = EDGE_CURVE('',#350,#222,#377,.T.);
#377 = LINE('',#378,#379);
#378 = CARTESIAN_POINT('',(-8.5,5.08,1.25));
#379 = VECTOR('',#380,1.);
#380 = DIRECTION('',(0.,-1.,4.4E-16));
#381 = PLANE('',#382);
#382 = AXIS2_PLACEMENT_3D('',#383,#384,#385);
#383 = CARTESIAN_POINT('',(-8.5,5.08,-2.26E-15));
#384 = DIRECTION('',(-1.,0.,0.));
#385 = DIRECTION('',(0.,4.4E-16,1.));
#386 = ADVANCED_FACE('',(#387),#405,.T.);
#387 = FACE_BOUND('',#388,.T.);
#388 = EDGE_LOOP('',(#389,#390,#396,#397,#398,#404));
#389 = ORIENTED_EDGE('',*,*,#287,.T.);
#390 = ORIENTED_EDGE('',*,*,#391,.T.);
#391 = EDGE_CURVE('',#280,#350,#392,.T.);
#392 = LINE('',#393,#394);
#393 = CARTESIAN_POINT('',(-8.5,5.08,1.25));
#394 = VECTOR('',#395,1.);
#395 = DIRECTION('',(0.,-1.,4.4E-16));
#396 = ORIENTED_EDGE('',*,*,#376,.T.);
#397 = ORIENTED_EDGE('',*,*,#229,.T.);
#398 = ORIENTED_EDGE('',*,*,#399,.F.);
#399 = EDGE_CURVE('',#189,#230,#400,.T.);
#400 = LINE('',#401,#402);
#401 = CARTESIAN_POINT('',(-8.100950177345,5.08,4.5));
#402 = VECTOR('',#403,1.);
#403 = DIRECTION('',(0.,-1.,4.4E-16));
#404 = ORIENTED_EDGE('',*,*,#188,.F.);
#405 = PLANE('',#406);
#406 = AXIS2_PLACEMENT_3D('',#407,#408,#409);
#407 = CARTESIAN_POINT('',(-8.5,5.08,1.25));
#408 = DIRECTION('',(-0.992546151652,5.E-17,0.121869343321));
#409 = DIRECTION('',(0.121869343321,4.4E-16,0.992546151652));
#410 = ADVANCED_FACE('',(#411,#417),#428,.T.);
#411 = FACE_BOUND('',#412,.T.);
#412 = EDGE_LOOP('',(#413,#414,#415,#416));
#413 = ORIENTED_EDGE('',*,*,#399,.T.);
#414 = ORIENTED_EDGE('',*,*,#237,.T.);
#415 = ORIENTED_EDGE('',*,*,#260,.F.);
#416 = ORIENTED_EDGE('',*,*,#196,.F.);
#417 = FACE_BOUND('',#418,.T.);
#418 = EDGE_LOOP('',(#419));
#419 = ORIENTED_EDGE('',*,*,#420,.F.);
#420 = EDGE_CURVE('',#421,#421,#423,.T.);
#421 = VERTEX_POINT('',#422);
#422 = CARTESIAN_POINT('',(-2.,-2.625,4.5));
#423 = CIRCLE('',#424,0.5);
#424 = AXIS2_PLACEMENT_3D('',#425,#426,#427);
#425 = CARTESIAN_POINT('',(-1.5,-2.625,4.5));
#426 = DIRECTION('',(0.,1.E-15,1.));
#427 = DIRECTION('',(-1.,0.,0.));
#428 = PLANE('',#429);
#429 = AXIS2_PLACEMENT_3D('',#430,#431,#432);
#430 = CARTESIAN_POINT('',(-8.100950177345,5.08,4.5));
#431 = DIRECTION('',(0.,4.4E-16,1.));
#432 = DIRECTION('',(1.,0.,0.));
#433 = ADVANCED_FACE('',(#434),#440,.T.);
#434 = FACE_BOUND('',#435,.T.);
#435 = EDGE_LOOP('',(#436,#437,#438,#439));
#436 = ORIENTED_EDGE('',*,*,#391,.F.);
#437 = ORIENTED_EDGE('',*,*,#301,.T.);
#438 = ORIENTED_EDGE('',*,*,#325,.F.);
#439 = ORIENTED_EDGE('',*,*,#349,.F.);
#440 = PLANE('',#441);
#441 = AXIS2_PLACEMENT_3D('',#442,#443,#444);
#442 = CARTESIAN_POINT('',(-8.5,-4.,1.25));
#443 = DIRECTION('',(0.,-4.4E-16,-1.));
#444 = DIRECTION('',(1.,0.,0.));
#445 = ADVANCED_FACE('',(#446),#465,.F.);
#446 = FACE_BOUND('',#447,.F.);
#447 = EDGE_LOOP('',(#448,#456,#463,#464));
#448 = ORIENTED_EDGE('',*,*,#449,.T.);
#449 = EDGE_CURVE('',#421,#450,#452,.T.);
#450 = VERTEX_POINT('',#451);
#451 = CARTESIAN_POINT('',(-2.,-2.625,4.));
#452 = LINE('',#453,#454);
#453 = CARTESIAN_POINT('',(-2.,-2.625,4.5));
#454 = VECTOR('',#455,1.);
#455 = DIRECTION('',(0.,-1.33E-15,-1.));
#456 = ORIENTED_EDGE('',*,*,#457,.T.);
#457 = EDGE_CURVE('',#450,#450,#458,.T.);
#458 = CIRCLE('',#459,0.5);
#459 = AXIS2_PLACEMENT_3D('',#460,#461,#462);
#460 = CARTESIAN_POINT('',(-1.5,-2.625,4.));
#461 = DIRECTION('',(0.,1.E-15,1.));
#462 = DIRECTION('',(-1.,0.,0.));
#463 = ORIENTED_EDGE('',*,*,#449,.F.);
#464 = ORIENTED_EDGE('',*,*,#420,.F.);
#465 = CYLINDRICAL_SURFACE('',#466,0.5);
#466 = AXIS2_PLACEMENT_3D('',#467,#468,#469);
#467 = CARTESIAN_POINT('',(-1.5,-2.625,4.5));
#468 = DIRECTION('',(0.,1.33E-15,1.));
#469 = DIRECTION('',(-1.,0.,0.));
#470 = ADVANCED_FACE('',(#471),#474,.T.);
#471 = FACE_BOUND('',#472,.T.);
#472 = EDGE_LOOP('',(#473));
#473 = ORIENTED_EDGE('',*,*,#457,.T.);
#474 = PLANE('',#475);
#475 = AXIS2_PLACEMENT_3D('',#476,#477,#478);
#476 = CARTESIAN_POINT('',(-1.5,-2.625,4.));
#477 = DIRECTION('',(-5.9E-16,1.03E-15,1.));
#478 = DIRECTION('',(0.,1.,-1.03E-15));
#479 = ( GEOMETRIC_REPRESENTATION_CONTEXT(3) 
GLOBAL_UNCERTAINTY_ASSIGNED_CONTEXT((#483)) GLOBAL_UNIT_ASSIGNED_CONTEXT
((#480,#481,#482)) REPRESENTATION_CONTEXT('Context #1',
  '3D Context with UNIT and UNCERTAINTY') );
#480 = ( LENGTH_UNIT() NAMED_UNIT(*) SI_UNIT(.MILLI.,.METRE.) );
#481 = ( NAMED_UNIT(*) PLANE_ANGLE_UNIT() SI_UNIT($,.RADIAN.) );
#482 = ( NAMED_UNIT(*) SI_UNIT($,.STERADIAN.) SOLID_ANGLE_UNIT() );
#483 = UNCERTAINTY_MEASURE_WITH_UNIT(LENGTH_MEASURE(1.E-07),#480,
  'distance_accuracy_value','confusion accuracy');
#484 = SHAPE_DEFINITION_REPRESENTATION(#485,#37);
#485 = PRODUCT_DEFINITION_SHAPE('','',#486);
#486 = PRODUCT_DEFINITION('design','',#487,#490);
#487 = PRODUCT_DEFINITION_FORMATION('','',#488);
#488 = PRODUCT('Body','Body','',(#489));
#489 = PRODUCT_CONTEXT('',#2,'mechanical');
#490 = PRODUCT_DEFINITION_CONTEXT('part definition',#2,'design');
#491 = CONTEXT_DEPENDENT_SHAPE_REPRESENTATION(#492,#494);
#492 = ( REPRESENTATION_RELATIONSHIP('','',#37,#10) 
REPRESENTATION_RELATIONSHIP_WITH_TRANSFORMATION(#493) 
SHAPE_REPRESENTATION_RELATIONSHIP() );
#493 = ITEM_DEFINED_TRANSFORMATION('','',#11,#15);
#494 = PRODUCT_DEFINITION_SHAPE('Placement','Placement of an item',#495
  );
#495 = NEXT_ASSEMBLY_USAGE_OCCURRENCE('1','Body','',#5,#486,$);
#496 = PRODUCT_RELATED_PRODUCT_CATEGORY('part',$,(#488));
#497 = ADVANCED_BREP_SHAPE_REPRESENTATION('',(#11,#498),#819);
#498 = MANIFOLD_SOLID_BREP('',#499);
#499 = CLOSED_SHELL('',(#500,#540,#571,#602,#633,#664,#695,#726,#748,
    #781,#800));
#500 = ADVANCED_FACE('',(#501),#535,.T.);
#501 = FACE_BOUND('',#502,.T.);
#502 = EDGE_LOOP('',(#503,#513,#521,#529));
#503 = ORIENTED_EDGE('',*,*,#504,.T.);
#504 = EDGE_CURVE('',#505,#507,#509,.T.);
#505 = VERTEX_POINT('',#506);
#506 = CARTESIAN_POINT('',(-8.5,4.,0.));
#507 = VERTEX_POINT('',#508);
#508 = CARTESIAN_POINT('',(-8.5,4.,1.25));
#509 = LINE('',#510,#511);
#510 = CARTESIAN_POINT('',(-8.5,4.,0.));
#511 = VECTOR('',#512,1.);
#512 = DIRECTION('',(0.,0.,1.));
#513 = ORIENTED_EDGE('',*,*,#514,.T.);
#514 = EDGE_CURVE('',#507,#515,#517,.T.);
#515 = VERTEX_POINT('',#516);
#516 = CARTESIAN_POINT('',(-3.5,4.,1.25));
#517 = LINE('',#518,#519);
#518 = CARTESIAN_POINT('',(-8.5,4.,1.25));
#519 = VECTOR('',#520,1.);
#520 = DIRECTION('',(1.,0.,0.));
#521 = ORIENTED_EDGE('',*,*,#522,.F.);
#522 = EDGE_CURVE('',#523,#515,#525,.T.);
#523 = VERTEX_POINT('',#524);
#524 = CARTESIAN_POINT('',(-3.5,4.,0.));
#525 = LINE('',#526,#527);
#526 = CARTESIAN_POINT('',(-3.5,4.,0.));
#527 = VECTOR('',#528,1.);
#528 = DIRECTION('',(0.,0.,1.));
#529 = ORIENTED_EDGE('',*,*,#530,.F.);
#530 = EDGE_CURVE('',#505,#523,#531,.T.);
#531 = LINE('',#532,#533);
#532 = CARTESIAN_POINT('',(-8.5,4.,0.));
#533 = VECTOR('',#534,1.);
#534 = DIRECTION('',(1.,0.,0.));
#535 = PLANE('',#536);
#536 = AXIS2_PLACEMENT_3D('',#537,#538,#539);
#537 = CARTESIAN_POINT('',(-8.5,4.,0.));
#538 = DIRECTION('',(0.,1.,0.));
#539 = DIRECTION('',(1.,0.,0.));
#540 = ADVANCED_FACE('',(#541),#566,.T.);
#541 = FACE_BOUND('',#542,.T.);
#542 = EDGE_LOOP('',(#543,#544,#552,#560));
#543 = ORIENTED_EDGE('',*,*,#522,.T.);
#544 = ORIENTED_EDGE('',*,*,#545,.T.);
#545 = EDGE_CURVE('',#515,#546,#548,.T.);
#546 = VERTEX_POINT('',#547);
#547 = CARTESIAN_POINT('',(-3.5,-4.,1.25));
#548 = LINE('',#549,#550);
#549 = CARTESIAN_POINT('',(-3.5,4.,1.25));
#550 = VECTOR('',#551,1.);
#551 = DIRECTION('',(0.,-1.,0.));
#552 = ORIENTED_EDGE('',*,*,#553,.F.);
#553 = EDGE_CURVE('',#554,#546,#556,.T.);
#554 = VERTEX_POINT('',#555);
#555 = CARTESIAN_POINT('',(-3.5,-4.,0.));
#556 = LINE('',#557,#558);
#557 = CARTESIAN_POINT('',(-3.5,-4.,0.));
#558 = VECTOR('',#559,1.);
#559 = DIRECTION('',(0.,0.,1.));
#560 = ORIENTED_EDGE('',*,*,#561,.F.);
#561 = EDGE_CURVE('',#523,#554,#562,.T.);
#562 = LINE('',#563,#564);
#563 = CARTESIAN_POINT('',(-3.5,4.,0.));
#564 = VECTOR('',#565,1.);
#565 = DIRECTION('',(0.,-1.,0.));
#566 = PLANE('',#567);
#567 = AXIS2_PLACEMENT_3D('',#568,#569,#570);
#568 = CARTESIAN_POINT('',(-3.5,4.,0.));
#569 = DIRECTION('',(1.,0.,0.));
#570 = DIRECTION('',(0.,-1.,0.));
#571 = ADVANCED_FACE('',(#572),#597,.T.);
#572 = FACE_BOUND('',#573,.T.);
#573 = EDGE_LOOP('',(#574,#575,#583,#591));
#574 = ORIENTED_EDGE('',*,*,#553,.T.);
#575 = ORIENTED_EDGE('',*,*,#576,.T.);
#576 = EDGE_CURVE('',#546,#577,#579,.T.);
#577 = VERTEX_POINT('',#578);
#578 = CARTESIAN_POINT('',(-8.5,-4.,1.25));
#579 = LINE('',#580,#581);
#580 = CARTESIAN_POINT('',(-3.5,-4.,1.25));
#581 = VECTOR('',#582,1.);
#582 = DIRECTION('',(-1.,0.,0.));
#583 = ORIENTED_EDGE('',*,*,#584,.F.);
#584 = EDGE_CURVE('',#585,#577,#587,.T.);
#585 = VERTEX_POINT('',#586);
#586 = CARTESIAN_POINT('',(-8.5,-4.,0.));
#587 = LINE('',#588,#589);
#588 = CARTESIAN_POINT('',(-8.5,-4.,0.));
#589 = VECTOR('',#590,1.);
#590 = DIRECTION('',(0.,0.,1.));
#591 = ORIENTED_EDGE('',*,*,#592,.F.);
#592 = EDGE_CURVE('',#554,#585,#593,.T.);
#593 = LINE('',#594,#595);
#594 = CARTESIAN_POINT('',(-3.5,-4.,0.));
#595 = VECTOR('',#596,1.);
#596 = DIRECTION('',(-1.,0.,0.));
#597 = PLANE('',#598);
#598 = AXIS2_PLACEMENT_3D('',#599,#600,#601);
#599 = CARTESIAN_POINT('',(-3.5,-4.,0.));
#600 = DIRECTION('',(0.,-1.,0.));
#601 = DIRECTION('',(-1.,0.,0.));
#602 = ADVANCED_FACE('',(#603),#628,.T.);
#603 = FACE_BOUND('',#604,.T.);
#604 = EDGE_LOOP('',(#605,#606,#614,#622));
#605 = ORIENTED_EDGE('',*,*,#584,.T.);
#606 = ORIENTED_EDGE('',*,*,#607,.T.);
#607 = EDGE_CURVE('',#577,#608,#610,.T.);
#608 = VERTEX_POINT('',#609);
#609 = CARTESIAN_POINT('',(-8.5,-5.08,1.25));
#610 = LINE('',#611,#612);
#611 = CARTESIAN_POINT('',(-8.5,-4.,1.25));
#612 = VECTOR('',#613,1.);
#613 = DIRECTION('',(0.,-1.,0.));
#614 = ORIENTED_EDGE('',*,*,#615,.F.);
#615 = EDGE_CURVE('',#616,#608,#618,.T.);
#616 = VERTEX_POINT('',#617);
#617 = CARTESIAN_POINT('',(-8.5,-5.08,0.));
#618 = LINE('',#619,#620);
#619 = CARTESIAN_POINT('',(-8.5,-5.08,0.));
#620 = VECTOR('',#621,1.);
#621 = DIRECTION('',(0.,0.,1.));
#622 = ORIENTED_EDGE('',*,*,#623,.F.);
#623 = EDGE_CURVE('',#585,#616,#624,.T.);
#624 = LINE('',#625,#626);
#625 = CARTESIAN_POINT('',(-8.5,-4.,0.));
#626 = VECTOR('',#627,1.);
#627 = DIRECTION('',(0.,-1.,0.));
#628 = PLANE('',#629);
#629 = AXIS2_PLACEMENT_3D('',#630,#631,#632);
#630 = CARTESIAN_POINT('',(-8.5,-4.,0.));
#631 = DIRECTION('',(1.,0.,0.));
#632 = DIRECTION('',(0.,-1.,0.));
#633 = ADVANCED_FACE('',(#634),#659,.T.);
#634 = FACE_BOUND('',#635,.T.);
#635 = EDGE_LOOP('',(#636,#637,#645,#653));
#636 = ORIENTED_EDGE('',*,*,#615,.T.);
#637 = ORIENTED_EDGE('',*,*,#638,.T.);
#638 = EDGE_CURVE('',#608,#639,#641,.T.);
#639 = VERTEX_POINT('',#640);
#640 = CARTESIAN_POINT('',(-15.,-5.08,1.25));
#641 = LINE('',#642,#643);
#642 = CARTESIAN_POINT('',(-8.5,-5.08,1.25));
#643 = VECTOR('',#644,1.);
#644 = DIRECTION('',(-1.,0.,0.));
#645 = ORIENTED_EDGE('',*,*,#646,.F.);
#646 = EDGE_CURVE('',#647,#639,#649,.T.);
#647 = VERTEX_POINT('',#648);
#648 = CARTESIAN_POINT('',(-15.,-5.08,0.));
#649 = LINE('',#650,#651);
#650 = CARTESIAN_POINT('',(-15.,-5.08,0.));
#651 = VECTOR('',#652,1.);
#652 = DIRECTION('',(0.,0.,1.));
#653 = ORIENTED_EDGE('',*,*,#654,.F.);
#654 = EDGE_CURVE('',#616,#647,#655,.T.);
#655 = LINE('',#656,#657);
#656 = CARTESIAN_POINT('',(-8.5,-5.08,0.));
#657 = VECTOR('',#658,1.);
#658 = DIRECTION('',(-1.,0.,0.));
#659 = PLANE('',#660);
#660 = AXIS2_PLACEMENT_3D('',#661,#662,#663);
#661 = CARTESIAN_POINT('',(-8.5,-5.08,0.));
#662 = DIRECTION('',(0.,-1.,0.));
#663 = DIRECTION('',(-1.,0.,0.));
#664 = ADVANCED_FACE('',(#665),#690,.T.);
#665 = FACE_BOUND('',#666,.T.);
#666 = EDGE_LOOP('',(#667,#668,#676,#684));
#667 = ORIENTED_EDGE('',*,*,#646,.T.);
#668 = ORIENTED_EDGE('',*,*,#669,.T.);
#669 = EDGE_CURVE('',#639,#670,#672,.T.);
#670 = VERTEX_POINT('',#671);
#671 = CARTESIAN_POINT('',(-15.,5.08,1.25));
#672 = LINE('',#673,#674);
#673 = CARTESIAN_POINT('',(-15.,-5.08,1.25));
#674 = VECTOR('',#675,1.);
#675 = DIRECTION('',(0.,1.,0.));
#676 = ORIENTED_EDGE('',*,*,#677,.F.);
#677 = EDGE_CURVE('',#678,#670,#680,.T.);
#678 = VERTEX_POINT('',#679);
#679 = CARTESIAN_POINT('',(-15.,5.08,0.));
#680 = LINE('',#681,#682);
#681 = CARTESIAN_POINT('',(-15.,5.08,0.));
#682 = VECTOR('',#683,1.);
#683 = DIRECTION('',(0.,0.,1.));
#684 = ORIENTED_EDGE('',*,*,#685,.F.);
#685 = EDGE_CURVE('',#647,#678,#686,.T.);
#686 = LINE('',#687,#688);
#687 = CARTESIAN_POINT('',(-15.,-5.08,0.));
#688 = VECTOR('',#689,1.);
#689 = DIRECTION('',(0.,1.,0.));
#690 = PLANE('',#691);
#691 = AXIS2_PLACEMENT_3D('',#692,#693,#694);
#692 = CARTESIAN_POINT('',(-15.,-5.08,0.));
#693 = DIRECTION('',(-1.,0.,0.));
#694 = DIRECTION('',(0.,1.,0.));
#695 = ADVANCED_FACE('',(#696),#721,.T.);
#696 = FACE_BOUND('',#697,.T.);
#697 = EDGE_LOOP('',(#698,#699,#707,#715));
#698 = ORIENTED_EDGE('',*,*,#677,.T.);
#699 = ORIENTED_EDGE('',*,*,#700,.T.);
#700 = EDGE_CURVE('',#670,#701,#703,.T.);
#701 = VERTEX_POINT('',#702);
#702 = CARTESIAN_POINT('',(-8.5,5.08,1.25));
#703 = LINE('',#704,#705);
#704 = CARTESIAN_POINT('',(-15.,5.08,1.25));
#705 = VECTOR('',#706,1.);
#706 = DIRECTION('',(1.,0.,0.));
#707 = ORIENTED_EDGE('',*,*,#708,.F.);
#708 = EDGE_CURVE('',#709,#701,#711,.T.);
#709 = VERTEX_POINT('',#710);
#710 = CARTESIAN_POINT('',(-8.5,5.08,0.));
#711 = LINE('',#712,#713);
#712 = CARTESIAN_POINT('',(-8.5,5.08,0.));
#713 = VECTOR('',#714,1.);
#714 = DIRECTION('',(0.,0.,1.));
#715 = ORIENTED_EDGE('',*,*,#716,.F.);
#716 = EDGE_CURVE('',#678,#709,#717,.T.);
#717 = LINE('',#718,#719);
#718 = CARTESIAN_POINT('',(-15.,5.08,0.));
#719 = VECTOR('',#720,1.);
#720 = DIRECTION('',(1.,0.,0.));
#721 = PLANE('',#722);
#722 = AXIS2_PLACEMENT_3D('',#723,#724,#725);
#723 = CARTESIAN_POINT('',(-15.,5.08,0.));
#724 = DIRECTION('',(0.,1.,0.));
#725 = DIRECTION('',(1.,0.,0.));
#726 = ADVANCED_FACE('',(#727),#743,.T.);
#727 = FACE_BOUND('',#728,.T.);
#728 = EDGE_LOOP('',(#729,#730,#736,#737));
#729 = ORIENTED_EDGE('',*,*,#708,.T.);
#730 = ORIENTED_EDGE('',*,*,#731,.T.);
#731 = EDGE_CURVE('',#701,#507,#732,.T.);
#732 = LINE('',#733,#734);
#733 = CARTESIAN_POINT('',(-8.5,5.08,1.25));
#734 = VECTOR('',#735,1.);
#735 = DIRECTION('',(0.,-1.,0.));
#736 = ORIENTED_EDGE('',*,*,#504,.F.);
#737 = ORIENTED_EDGE('',*,*,#738,.F.);
#738 = EDGE_CURVE('',#709,#505,#739,.T.);
#739 = LINE('',#740,#741);
#740 = CARTESIAN_POINT('',(-8.5,5.08,0.));
#741 = VECTOR('',#742,1.);
#742 = DIRECTION('',(0.,-1.,0.));
#743 = PLANE('',#744);
#744 = AXIS2_PLACEMENT_3D('',#745,#746,#747);
#745 = CARTESIAN_POINT('',(-8.5,5.08,0.));
#746 = DIRECTION('',(1.,0.,0.));
#747 = DIRECTION('',(0.,-1.,0.));
#748 = ADVANCED_FACE('',(#749),#776,.F.);
#749 = FACE_BOUND('',#750,.T.);
#750 = EDGE_LOOP('',(#751,#761,#768,#769));
#751 = ORIENTED_EDGE('',*,*,#752,.T.);
#752 = EDGE_CURVE('',#753,#755,#757,.T.);
#753 = VERTEX_POINT('',#754);
#754 = CARTESIAN_POINT('',(-10.56,0.,0.));
#755 = VERTEX_POINT('',#756);
#756 = CARTESIAN_POINT('',(-10.56,0.,1.25));
#757 = LINE('',#758,#759);
#758 = CARTESIAN_POINT('',(-10.56,0.,0.));
#759 = VECTOR('',#760,1.);
#760 = DIRECTION('',(0.,0.,1.));
#761 = ORIENTED_EDGE('',*,*,#762,.T.);
#762 = EDGE_CURVE('',#755,#755,#763,.T.);
#763 = CIRCLE('',#764,1.9);
#764 = AXIS2_PLACEMENT_3D('',#765,#766,#767);
#765 = CARTESIAN_POINT('',(-12.46,0.,1.25));
#766 = DIRECTION('',(0.,0.,1.));
#767 = DIRECTION('',(1.,0.,0.));
#768 = ORIENTED_EDGE('',*,*,#752,.F.);
#769 = ORIENTED_EDGE('',*,*,#770,.F.);
#770 = EDGE_CURVE('',#753,#753,#771,.T.);
#771 = CIRCLE('',#772,1.9);
#772 = AXIS2_PLACEMENT_3D('',#773,#774,#775);
#773 = CARTESIAN_POINT('',(-12.46,0.,0.));
#774 = DIRECTION('',(0.,0.,1.));
#775 = DIRECTION('',(1.,0.,0.));
#776 = CYLINDRICAL_SURFACE('',#777,1.9);
#777 = AXIS2_PLACEMENT_3D('',#778,#779,#780);
#778 = CARTESIAN_POINT('',(-12.46,0.,0.));
#779 = DIRECTION('',(-0.,-0.,-1.));
#780 = DIRECTION('',(1.,0.,0.));
#781 = ADVANCED_FACE('',(#782,#792),#795,.T.);
#782 = FACE_BOUND('',#783,.T.);
#783 = EDGE_LOOP('',(#784,#785,#786,#787,#788,#789,#790,#791));
#784 = ORIENTED_EDGE('',*,*,#530,.T.);
#785 = ORIENTED_EDGE('',*,*,#561,.T.);
#786 = ORIENTED_EDGE('',*,*,#592,.T.);
#787 = ORIENTED_EDGE('',*,*,#623,.T.);
#788 = ORIENTED_EDGE('',*,*,#654,.T.);
#789 = ORIENTED_EDGE('',*,*,#685,.T.);
#790 = ORIENTED_EDGE('',*,*,#716,.T.);
#791 = ORIENTED_EDGE('',*,*,#738,.T.);
#792 = FACE_BOUND('',#793,.T.);
#793 = EDGE_LOOP('',(#794));
#794 = ORIENTED_EDGE('',*,*,#770,.T.);
#795 = PLANE('',#796);
#796 = AXIS2_PLACEMENT_3D('',#797,#798,#799);
#797 = CARTESIAN_POINT('',(-9.499307479224,-1.1E-16,0.));
#798 = DIRECTION('',(-0.,-0.,-1.));
#799 = DIRECTION('',(-1.,0.,0.));
#800 = ADVANCED_FACE('',(#801,#811),#814,.F.);
#801 = FACE_BOUND('',#802,.F.);
#802 = EDGE_LOOP('',(#803,#804,#805,#806,#807,#808,#809,#810));
#803 = ORIENTED_EDGE('',*,*,#514,.T.);
#804 = ORIENTED_EDGE('',*,*,#545,.T.);
#805 = ORIENTED_EDGE('',*,*,#576,.T.);
#806 = ORIENTED_EDGE('',*,*,#607,.T.);
#807 = ORIENTED_EDGE('',*,*,#638,.T.);
#808 = ORIENTED_EDGE('',*,*,#669,.T.);
#809 = ORIENTED_EDGE('',*,*,#700,.T.);
#810 = ORIENTED_EDGE('',*,*,#731,.T.);
#811 = FACE_BOUND('',#812,.F.);
#812 = EDGE_LOOP('',(#813));
#813 = ORIENTED_EDGE('',*,*,#762,.T.);
#814 = PLANE('',#815);
#815 = AXIS2_PLACEMENT_3D('',#816,#817,#818);
#816 = CARTESIAN_POINT('',(-9.499307479224,-1.1E-16,1.25));
#817 = DIRECTION('',(-0.,-0.,-1.));
#818 = DIRECTION('',(-1.,0.,0.));
#819 = ( GEOMETRIC_REPRESENTATION_CONTEXT(3) 
GLOBAL_UNCERTAINTY_ASSIGNED_CONTEXT((#823)) GLOBAL_UNIT_ASSIGNED_CONTEXT
((#820,#821,#822)) REPRESENTATION_CONTEXT('Context #1',
  '3D Context with UNIT and UNCERTAINTY') );
#820 = ( LENGTH_UNIT() NAMED_UNIT(*) SI_UNIT(.MILLI.,.METRE.) );
#821 = ( NAMED_UNIT(*) PLANE_ANGLE_UNIT() SI_UNIT($,.RADIAN.) );
#822 = ( NAMED_UNIT(*) SI_UNIT($,.STERADIAN.) SOLID_ANGLE_UNIT() );
#823 = UNCERTAINTY_MEASURE_WITH_UNIT(LENGTH_MEASURE(1.E-07),#820,
  'distance_accuracy_value','confusion accuracy');
#824 = SHAPE_DEFINITION_REPRESENTATION(#825,#497);
#825 = PRODUCT_DEFINITION_SHAPE('','',#826);
#826 = PRODUCT_DEFINITION('design','',#827,#830);
#827 = PRODUCT_DEFINITION_FORMATION('','',#828);
#828 = PRODUCT('heatsink','heatsink','',(#829));
#829 = PRODUCT_CONTEXT('',#2,'mechanical');
#830 = PRODUCT_DEFINITION_CONTEXT('part definition',#2,'design');
#831 = CONTEXT_DEPENDENT_SHAPE_REPRESENTATION(#832,#834);
#832 = ( REPRESENTATION_RELATIONSHIP('','',#497,#10) 
REPRESENTATION_RELATIONSHIP_WITH_TRANSFORMATION(#833) 
SHAPE_REPRESENTATION_RELATIONSHIP() );
#833 = ITEM_DEFINED_TRANSFORMATION('','',#11,#19);
#834 = PRODUCT_DEFINITION_SHAPE('Placement','Placement of an item',#835
  );
#835 = NEXT_ASSEMBLY_USAGE_OCCURRENCE('2','heatsink','',#5,#826,$);
#836 = PRODUCT_RELATED_PRODUCT_CATEGORY('part',$,(#828));
#837 = SHAPE_DEFINITION_REPRESENTATION(#838,#844);
#838 = PRODUCT_DEFINITION_SHAPE('','',#839);
#839 = PRODUCT_DEFINITION('design','',#840,#843);
#840 = PRODUCT_DEFINITION_FORMATION('','',#841);
#841 = PRODUCT('Array001','Array001','',(#842));
#842 = PRODUCT_CONTEXT('',#2,'mechanical');
#843 = PRODUCT_DEFINITION_CONTEXT('part definition',#2,'design');
#844 = SHAPE_REPRESENTATION('',(#11,#845,#849),#853);
#845 = AXIS2_PLACEMENT_3D('',#846,#847,#848);
#846 = CARTESIAN_POINT('',(0.,0.,0.));
#847 = DIRECTION('',(0.,0.,1.));
#848 = DIRECTION('',(1.,0.,0.));
#849 = AXIS2_PLACEMENT_3D('',#850,#851,#852);
#850 = CARTESIAN_POINT('',(0.,-2.5,0.));
#851 = DIRECTION('',(0.,0.,1.));
#852 = DIRECTION('',(1.,0.,0.));
#853 = ( GEOMETRIC_REPRESENTATION_CONTEXT(3) 
GLOBAL_UNCERTAINTY_ASSIGNED_CONTEXT((#857)) GLOBAL_UNIT_ASSIGNED_CONTEXT
((#854,#855,#856)) REPRESENTATION_CONTEXT('Context #1',
  '3D Context with UNIT and UNCERTAINTY') );
#854 = ( LENGTH_UNIT() NAMED_UNIT(*) SI_UNIT(.MILLI.,.METRE.) );
#855 = ( NAMED_UNIT(*) PLANE_ANGLE_UNIT() SI_UNIT($,.RADIAN.) );
#856 = ( NAMED_UNIT(*) SI_UNIT($,.STERADIAN.) SOLID_ANGLE_UNIT() );
#857 = UNCERTAINTY_MEASURE_WITH_UNIT(LENGTH_MEASURE(2.E-05),#854,
  'distance_accuracy_value','confusion accuracy');
#858 = ADVANCED_BREP_SHAPE_REPRESENTATION('',(#11,#859),#1337);
#859 = MANIFOLD_SOLID_BREP('',#860);
#860 = CLOSED_SHELL('',(#861,#917,#948,#972,#1005,#1029,#1060,#1077,
    #1102,#1121,#1146,#1193,#1210,#1234,#1258,#1289,#1306,#1323));
#861 = ADVANCED_FACE('',(#862),#912,.T.);
#862 = FACE_BOUND('',#863,.T.);
#863 = EDGE_LOOP('',(#864,#874,#882,#890,#898,#906));
#864 = ORIENTED_EDGE('',*,*,#865,.T.);
#865 = EDGE_CURVE('',#866,#868,#870,.T.);
#866 = VERTEX_POINT('',#867);
#867 = CARTESIAN_POINT('',(4.23,0.45,3.15));
#868 = VERTEX_POINT('',#869);
#869 = CARTESIAN_POINT('',(4.23,0.45,12.75));
#870 = LINE('',#871,#872);
#871 = CARTESIAN_POINT('',(4.23,0.45,3.15));
#872 = VECTOR('',#873,1.);
#873 = DIRECTION('',(1.110223024625E-16,0.,1.));
#874 = ORIENTED_EDGE('',*,*,#875,.T.);
#875 = EDGE_CURVE('',#868,#876,#878,.T.);
#876 = VERTEX_POINT('',#877);
#877 = CARTESIAN_POINT('',(4.23,5.E-02,13.15));
#878 = LINE('',#879,#880);
#879 = CARTESIAN_POINT('',(4.23,1.3875,11.8125));
#880 = VECTOR('',#881,1.);
#881 = DIRECTION('',(7.850462293419E-17,-0.707106781187,0.707106781187)
  );
#882 = ORIENTED_EDGE('',*,*,#883,.T.);
#883 = EDGE_CURVE('',#876,#884,#886,.T.);
#884 = VERTEX_POINT('',#885);
#885 = CARTESIAN_POINT('',(4.23,-5.E-02,13.15));
#886 = LINE('',#887,#888);
#887 = CARTESIAN_POINT('',(4.23,0.45,13.15));
#888 = VECTOR('',#889,1.);
#889 = DIRECTION('',(0.,-1.,0.));
#890 = ORIENTED_EDGE('',*,*,#891,.F.);
#891 = EDGE_CURVE('',#892,#884,#894,.T.);
#892 = VERTEX_POINT('',#893);
#893 = CARTESIAN_POINT('',(4.23,-0.45,12.75));
#894 = LINE('',#895,#896);
#895 = CARTESIAN_POINT('',(4.23,-1.3875,11.8125));
#896 = VECTOR('',#897,1.);
#897 = DIRECTION('',(7.850462293419E-17,0.707106781187,0.707106781187));
#898 = ORIENTED_EDGE('',*,*,#899,.T.);
#899 = EDGE_CURVE('',#892,#900,#902,.T.);
#900 = VERTEX_POINT('',#901);
#901 = CARTESIAN_POINT('',(4.23,-0.45,3.15));
#902 = LINE('',#903,#904);
#903 = CARTESIAN_POINT('',(4.23,-0.45,13.15));
#904 = VECTOR('',#905,1.);
#905 = DIRECTION('',(-1.110223024625E-16,0.,-1.));
#906 = ORIENTED_EDGE('',*,*,#907,.T.);
#907 = EDGE_CURVE('',#900,#866,#908,.T.);
#908 = LINE('',#909,#910);
#909 = CARTESIAN_POINT('',(4.23,-0.45,3.15));
#910 = VECTOR('',#911,1.);
#911 = DIRECTION('',(0.,1.,0.));
#912 = PLANE('',#913);
#913 = AXIS2_PLACEMENT_3D('',#914,#915,#916);
#914 = CARTESIAN_POINT('',(4.23,-4.074212934404E-17,8.15));
#915 = DIRECTION('',(1.,-5.584302477779E-32,-1.110223024625E-16));
#916 = DIRECTION('',(-5.584302477779E-32,-1.,6.199821187302E-48));
#917 = ADVANCED_FACE('',(#918),#943,.T.);
#918 = FACE_BOUND('',#919,.T.);
#919 = EDGE_LOOP('',(#920,#921,#929,#937));
#920 = ORIENTED_EDGE('',*,*,#865,.F.);
#921 = ORIENTED_EDGE('',*,*,#922,.T.);
#922 = EDGE_CURVE('',#866,#923,#925,.T.);
#923 = VERTEX_POINT('',#924);
#924 = CARTESIAN_POINT('',(3.85,0.45,3.15));
#925 = LINE('',#926,#927);
#926 = CARTESIAN_POINT('',(4.23,0.45,3.15));
#927 = VECTOR('',#928,1.);
#928 = DIRECTION('',(-1.,0.,1.110223024625E-16));
#929 = ORIENTED_EDGE('',*,*,#930,.T.);
#930 = EDGE_CURVE('',#923,#931,#933,.T.);
#931 = VERTEX_POINT('',#932);
#932 = CARTESIAN_POINT('',(3.85,0.45,12.75));
#933 = LINE('',#934,#935);
#934 = CARTESIAN_POINT('',(3.85,0.45,3.15));
#935 = VECTOR('',#936,1.);
#936 = DIRECTION('',(1.110223024625E-16,0.,1.));
#937 = ORIENTED_EDGE('',*,*,#938,.F.);
#938 = EDGE_CURVE('',#868,#931,#939,.T.);
#939 = LINE('',#940,#941);
#940 = CARTESIAN_POINT('',(4.23,0.45,12.75));
#941 = VECTOR('',#942,1.);
#942 = DIRECTION('',(-1.,0.,1.110223024625E-16));
#943 = PLANE('',#944);
#944 = AXIS2_PLACEMENT_3D('',#945,#946,#947);
#945 = CARTESIAN_POINT('',(4.23,0.45,3.15));
#946 = DIRECTION('',(0.,1.,0.));
#947 = DIRECTION('',(1.110223024625E-16,0.,1.));
#948 = ADVANCED_FACE('',(#949),#967,.T.);
#949 = FACE_BOUND('',#950,.T.);
#950 = EDGE_LOOP('',(#951,#952,#953,#961));
#951 = ORIENTED_EDGE('',*,*,#875,.F.);
#952 = ORIENTED_EDGE('',*,*,#938,.T.);
#953 = ORIENTED_EDGE('',*,*,#954,.T.);
#954 = EDGE_CURVE('',#931,#955,#957,.T.);
#955 = VERTEX_POINT('',#956);
#956 = CARTESIAN_POINT('',(3.85,5.E-02,13.15));
#957 = LINE('',#958,#959);
#958 = CARTESIAN_POINT('',(3.85,1.3875,11.8125));
#959 = VECTOR('',#960,1.);
#960 = DIRECTION('',(7.850462293419E-17,-0.707106781187,0.707106781187)
  );
#961 = ORIENTED_EDGE('',*,*,#962,.F.);
#962 = EDGE_CURVE('',#876,#955,#963,.T.);
#963 = LINE('',#964,#965);
#964 = CARTESIAN_POINT('',(4.23,5.E-02,13.15));
#965 = VECTOR('',#966,1.);
#966 = DIRECTION('',(-1.,0.,1.110223024625E-16));
#967 = PLANE('',#968);
#968 = AXIS2_PLACEMENT_3D('',#969,#970,#971);
#969 = CARTESIAN_POINT('',(4.23,0.25,12.95));
#970 = DIRECTION('',(1.250997707979E-16,0.707106781187,0.707106781187));
#971 = DIRECTION('',(-1.,3.294774502484E-17,1.439700474874E-16));
#972 = ADVANCED_FACE('',(#973),#1000,.T.);
#973 = FACE_BOUND('',#974,.F.);
#974 = EDGE_LOOP('',(#975,#984,#985,#994));
#975 = ORIENTED_EDGE('',*,*,#976,.T.);
#976 = EDGE_CURVE('',#977,#900,#979,.T.);
#977 = VERTEX_POINT('',#978);
#978 = CARTESIAN_POINT('',(3.75,-0.45,2.67));
#979 = CIRCLE('',#980,0.48);
#980 = AXIS2_PLACEMENT_3D('',#981,#982,#983);
#981 = CARTESIAN_POINT('',(3.75,-0.45,3.15));
#982 = DIRECTION('',(0.,-1.,0.));
#983 = DIRECTION('',(0.,0.,-1.));
#984 = ORIENTED_EDGE('',*,*,#907,.T.);
#985 = ORIENTED_EDGE('',*,*,#986,.F.);
#986 = EDGE_CURVE('',#987,#866,#989,.T.);
#987 = VERTEX_POINT('',#988);
#988 = CARTESIAN_POINT('',(3.75,0.45,2.67));
#989 = CIRCLE('',#990,0.48);
#990 = AXIS2_PLACEMENT_3D('',#991,#992,#993);
#991 = CARTESIAN_POINT('',(3.75,0.45,3.15));
#992 = DIRECTION('',(0.,-1.,0.));
#993 = DIRECTION('',(0.,0.,-1.));
#994 = ORIENTED_EDGE('',*,*,#995,.T.);
#995 = EDGE_CURVE('',#987,#977,#996,.T.);
#996 = LINE('',#997,#998);
#997 = CARTESIAN_POINT('',(3.75,0.65,2.67));
#998 = VECTOR('',#999,1.);
#999 = DIRECTION('',(0.,-1.,0.));
#1000 = CYLINDRICAL_SURFACE('',#1001,0.48);
#1001 = AXIS2_PLACEMENT_3D('',#1002,#1003,#1004);
#1002 = CARTESIAN_POINT('',(3.75,-0.45,3.15));
#1003 = DIRECTION('',(0.,1.,0.));
#1004 = DIRECTION('',(0.,0.,-1.));
#1005 = ADVANCED_FACE('',(#1006),#1024,.T.);
#1006 = FACE_BOUND('',#1007,.T.);
#1007 = EDGE_LOOP('',(#1008,#1009,#1010,#1018));
#1008 = ORIENTED_EDGE('',*,*,#883,.F.);
#1009 = ORIENTED_EDGE('',*,*,#962,.T.);
#1010 = ORIENTED_EDGE('',*,*,#1011,.T.);
#1011 = EDGE_CURVE('',#955,#1012,#1014,.T.);
#1012 = VERTEX_POINT('',#1013);
#1013 = CARTESIAN_POINT('',(3.85,-5.E-02,13.15));
#1014 = LINE('',#1015,#1016);
#1015 = CARTESIAN_POINT('',(3.85,0.45,13.15));
#1016 = VECTOR('',#1017,1.);
#1017 = DIRECTION('',(0.,-1.,0.));
#1018 = ORIENTED_EDGE('',*,*,#1019,.F.);
#1019 = EDGE_CURVE('',#884,#1012,#1020,.T.);
#1020 = LINE('',#1021,#1022);
#1021 = CARTESIAN_POINT('',(4.23,-5.E-02,13.15));
#1022 = VECTOR('',#1023,1.);
#1023 = DIRECTION('',(-1.,0.,1.110223024625E-16));
#1024 = PLANE('',#1025);
#1025 = AXIS2_PLACEMENT_3D('',#1026,#1027,#1028);
#1026 = CARTESIAN_POINT('',(4.23,0.45,13.15));
#1027 = DIRECTION('',(1.110223024625E-16,0.,1.));
#1028 = DIRECTION('',(0.,-1.,0.));
#1029 = ADVANCED_FACE('',(#1030),#1055,.T.);
#1030 = FACE_BOUND('',#1031,.T.);
#1031 = EDGE_LOOP('',(#1032,#1033,#1041,#1049));
#1032 = ORIENTED_EDGE('',*,*,#899,.F.);
#1033 = ORIENTED_EDGE('',*,*,#1034,.T.);
#1034 = EDGE_CURVE('',#892,#1035,#1037,.T.);
#1035 = VERTEX_POINT('',#1036);
#1036 = CARTESIAN_POINT('',(3.85,-0.45,12.75));
#1037 = LINE('',#1038,#1039);
#1038 = CARTESIAN_POINT('',(4.23,-0.45,12.75));
#1039 = VECTOR('',#1040,1.);
#1040 = DIRECTION('',(-1.,0.,1.110223024625E-16));
#1041 = ORIENTED_EDGE('',*,*,#1042,.T.);
#1042 = EDGE_CURVE('',#1035,#1043,#1045,.T.);
#1043 = VERTEX_POINT('',#1044);
#1044 = CARTESIAN_POINT('',(3.85,-0.45,3.15));
#1045 = LINE('',#1046,#1047);
#1046 = CARTESIAN_POINT('',(3.85,-0.45,13.15));
#1047 = VECTOR('',#1048,1.);
#1048 = DIRECTION('',(-1.110223024625E-16,0.,-1.));
#1049 = ORIENTED_EDGE('',*,*,#1050,.T.);
#1050 = EDGE_CURVE('',#1043,#900,#1051,.T.);
#1051 = LINE('',#1052,#1053);
#1052 = CARTESIAN_POINT('',(3.85,-0.45,3.15));
#1053 = VECTOR('',#1054,1.);
#1054 = DIRECTION('',(1.,0.,-1.110223024625E-16));
#1055 = PLANE('',#1056);
#1056 = AXIS2_PLACEMENT_3D('',#1057,#1058,#1059);
#1057 = CARTESIAN_POINT('',(4.23,-0.45,13.15));
#1058 = DIRECTION('',(0.,-1.,0.));
#1059 = DIRECTION('',(-1.110223024625E-16,0.,-1.));
#1060 = ADVANCED_FACE('',(#1061),#1072,.T.);
#1061 = FACE_BOUND('',#1062,.F.);
#1062 = EDGE_LOOP('',(#1063,#1064,#1065,#1071));
#1063 = ORIENTED_EDGE('',*,*,#891,.F.);
#1064 = ORIENTED_EDGE('',*,*,#1034,.T.);
#1065 = ORIENTED_EDGE('',*,*,#1066,.T.);
#1066 = EDGE_CURVE('',#1035,#1012,#1067,.T.);
#1067 = LINE('',#1068,#1069);
#1068 = CARTESIAN_POINT('',(3.85,-1.3875,11.8125));
#1069 = VECTOR('',#1070,1.);
#1070 = DIRECTION('',(7.850462293419E-17,0.707106781187,0.707106781187)
  );
#1071 = ORIENTED_EDGE('',*,*,#1019,.F.);
#1072 = PLANE('',#1073);
#1073 = AXIS2_PLACEMENT_3D('',#1074,#1075,#1076);
#1074 = CARTESIAN_POINT('',(4.23,-0.25,12.95));
#1075 = DIRECTION('',(1.250997707979E-16,-0.707106781187,0.707106781187)
  );
#1076 = DIRECTION('',(1.,3.294774502484E-17,-1.439700474874E-16));
#1077 = ADVANCED_FACE('',(#1078),#1097,.F.);
#1078 = FACE_BOUND('',#1079,.F.);
#1079 = EDGE_LOOP('',(#1080,#1081,#1082,#1091));
#1080 = ORIENTED_EDGE('',*,*,#986,.T.);
#1081 = ORIENTED_EDGE('',*,*,#922,.T.);
#1082 = ORIENTED_EDGE('',*,*,#1083,.F.);
#1083 = EDGE_CURVE('',#1084,#923,#1086,.T.);
#1084 = VERTEX_POINT('',#1085);
#1085 = CARTESIAN_POINT('',(3.75,0.45,3.05));
#1086 = CIRCLE('',#1087,0.1);
#1087 = AXIS2_PLACEMENT_3D('',#1088,#1089,#1090);
#1088 = CARTESIAN_POINT('',(3.75,0.45,3.15));
#1089 = DIRECTION('',(0.,-1.,0.));
#1090 = DIRECTION('',(0.,0.,-1.));
#1091 = ORIENTED_EDGE('',*,*,#1092,.F.);
#1092 = EDGE_CURVE('',#987,#1084,#1093,.T.);
#1093 = LINE('',#1094,#1095);
#1094 = CARTESIAN_POINT('',(3.75,0.45,2.67));
#1095 = VECTOR('',#1096,1.);
#1096 = DIRECTION('',(0.,0.,1.));
#1097 = PLANE('',#1098);
#1098 = AXIS2_PLACEMENT_3D('',#1099,#1100,#1101);
#1099 = CARTESIAN_POINT('',(3.75,0.45,3.15));
#1100 = DIRECTION('',(0.,-1.,0.));
#1101 = DIRECTION('',(0.,0.,-1.));
#1102 = ADVANCED_FACE('',(#1103),#1116,.F.);
#1103 = FACE_BOUND('',#1104,.F.);
#1104 = EDGE_LOOP('',(#1105,#1106,#1107,#1108,#1109,#1110));
#1105 = ORIENTED_EDGE('',*,*,#930,.T.);
#1106 = ORIENTED_EDGE('',*,*,#954,.T.);
#1107 = ORIENTED_EDGE('',*,*,#1011,.T.);
#1108 = ORIENTED_EDGE('',*,*,#1066,.F.);
#1109 = ORIENTED_EDGE('',*,*,#1042,.T.);
#1110 = ORIENTED_EDGE('',*,*,#1111,.F.);
#1111 = EDGE_CURVE('',#923,#1043,#1112,.T.);
#1112 = LINE('',#1113,#1114);
#1113 = CARTESIAN_POINT('',(3.85,0.45,3.15));
#1114 = VECTOR('',#1115,1.);
#1115 = DIRECTION('',(0.,-1.,0.));
#1116 = PLANE('',#1117);
#1117 = AXIS2_PLACEMENT_3D('',#1118,#1119,#1120);
#1118 = CARTESIAN_POINT('',(3.85,-4.074212934404E-17,8.15));
#1119 = DIRECTION('',(1.,-5.584302477779E-32,-1.110223024625E-16));
#1120 = DIRECTION('',(-5.584302477779E-32,-1.,6.199821187302E-48));
#1121 = ADVANCED_FACE('',(#1122),#1141,.T.);
#1122 = FACE_BOUND('',#1123,.F.);
#1123 = EDGE_LOOP('',(#1124,#1133,#1134,#1135));
#1124 = ORIENTED_EDGE('',*,*,#1125,.T.);
#1125 = EDGE_CURVE('',#1126,#1043,#1128,.T.);
#1126 = VERTEX_POINT('',#1127);
#1127 = CARTESIAN_POINT('',(3.75,-0.45,3.05));
#1128 = CIRCLE('',#1129,0.1);
#1129 = AXIS2_PLACEMENT_3D('',#1130,#1131,#1132);
#1130 = CARTESIAN_POINT('',(3.75,-0.45,3.15));
#1131 = DIRECTION('',(0.,-1.,0.));
#1132 = DIRECTION('',(0.,0.,-1.));
#1133 = ORIENTED_EDGE('',*,*,#1050,.T.);
#1134 = ORIENTED_EDGE('',*,*,#976,.F.);
#1135 = ORIENTED_EDGE('',*,*,#1136,.F.);
#1136 = EDGE_CURVE('',#1126,#977,#1137,.T.);
#1137 = LINE('',#1138,#1139);
#1138 = CARTESIAN_POINT('',(3.75,-0.45,3.05));
#1139 = VECTOR('',#1140,1.);
#1140 = DIRECTION('',(0.,0.,-1.));
#1141 = PLANE('',#1142);
#1142 = AXIS2_PLACEMENT_3D('',#1143,#1144,#1145);
#1143 = CARTESIAN_POINT('',(3.75,-0.45,3.15));
#1144 = DIRECTION('',(0.,-1.,0.));
#1145 = DIRECTION('',(-0.,-0.,-1.));
#1146 = ADVANCED_FACE('',(#1147),#1188,.F.);
#1147 = FACE_BOUND('',#1148,.F.);
#1148 = EDGE_LOOP('',(#1149,#1159,#1167,#1173,#1174,#1182));
#1149 = ORIENTED_EDGE('',*,*,#1150,.T.);
#1150 = EDGE_CURVE('',#1151,#1153,#1155,.T.);
#1151 = VERTEX_POINT('',#1152);
#1152 = CARTESIAN_POINT('',(0.,0.65,2.67));
#1153 = VERTEX_POINT('',#1154);
#1154 = CARTESIAN_POINT('',(0.,-0.65,2.67));
#1155 = LINE('',#1156,#1157);
#1156 = CARTESIAN_POINT('',(0.,0.65,2.67));
#1157 = VECTOR('',#1158,1.);
#1158 = DIRECTION('',(0.,-1.,0.));
#1159 = ORIENTED_EDGE('',*,*,#1160,.T.);
#1160 = EDGE_CURVE('',#1153,#1161,#1163,.T.);
#1161 = VERTEX_POINT('',#1162);
#1162 = CARTESIAN_POINT('',(3.75,-0.65,2.67));
#1163 = LINE('',#1164,#1165);
#1164 = CARTESIAN_POINT('',(0.,-0.65,2.67));
#1165 = VECTOR('',#1166,1.);
#1166 = DIRECTION('',(1.,0.,0.));
#1167 = ORIENTED_EDGE('',*,*,#1168,.F.);
#1168 = EDGE_CURVE('',#977,#1161,#1169,.T.);
#1169 = LINE('',#1170,#1171);
#1170 = CARTESIAN_POINT('',(3.75,0.65,2.67));
#1171 = VECTOR('',#1172,1.);
#1172 = DIRECTION('',(0.,-1.,0.));
#1173 = ORIENTED_EDGE('',*,*,#995,.F.);
#1174 = ORIENTED_EDGE('',*,*,#1175,.F.);
#1175 = EDGE_CURVE('',#1176,#987,#1178,.T.);
#1176 = VERTEX_POINT('',#1177);
#1177 = CARTESIAN_POINT('',(3.75,0.65,2.67));
#1178 = LINE('',#1179,#1180);
#1179 = CARTESIAN_POINT('',(3.75,0.65,2.67));
#1180 = VECTOR('',#1181,1.);
#1181 = DIRECTION('',(0.,-1.,0.));
#1182 = ORIENTED_EDGE('',*,*,#1183,.F.);
#1183 = EDGE_CURVE('',#1151,#1176,#1184,.T.);
#1184 = LINE('',#1185,#1186);
#1185 = CARTESIAN_POINT('',(0.,0.65,2.67));
#1186 = VECTOR('',#1187,1.);
#1187 = DIRECTION('',(1.,0.,0.));
#1188 = PLANE('',#1189);
#1189 = AXIS2_PLACEMENT_3D('',#1190,#1191,#1192);
#1190 = CARTESIAN_POINT('',(1.875,0.,2.67));
#1191 = DIRECTION('',(-2.603501337363E-32,0.,1.));
#1192 = DIRECTION('',(1.,0.,2.603501337363E-32));
#1193 = ADVANCED_FACE('',(#1194),#1205,.F.);
#1194 = FACE_BOUND('',#1195,.F.);
#1195 = EDGE_LOOP('',(#1196,#1197,#1198,#1199));
#1196 = ORIENTED_EDGE('',*,*,#1083,.T.);
#1197 = ORIENTED_EDGE('',*,*,#1111,.T.);
#1198 = ORIENTED_EDGE('',*,*,#1125,.F.);
#1199 = ORIENTED_EDGE('',*,*,#1200,.F.);
#1200 = EDGE_CURVE('',#1084,#1126,#1201,.T.);
#1201 = LINE('',#1202,#1203);
#1202 = CARTESIAN_POINT('',(3.75,0.65,3.05));
#1203 = VECTOR('',#1204,1.);
#1204 = DIRECTION('',(0.,-1.,0.));
#1205 = CYLINDRICAL_SURFACE('',#1206,0.1);
#1206 = AXIS2_PLACEMENT_3D('',#1207,#1208,#1209);
#1207 = CARTESIAN_POINT('',(3.75,0.45,3.15));
#1208 = DIRECTION('',(0.,-1.,0.));
#1209 = DIRECTION('',(0.,0.,-1.));
#1210 = ADVANCED_FACE('',(#1211),#1229,.T.);
#1211 = FACE_BOUND('',#1212,.T.);
#1212 = EDGE_LOOP('',(#1213,#1214,#1222,#1228));
#1213 = ORIENTED_EDGE('',*,*,#1175,.F.);
#1214 = ORIENTED_EDGE('',*,*,#1215,.T.);
#1215 = EDGE_CURVE('',#1176,#1216,#1218,.T.);
#1216 = VERTEX_POINT('',#1217);
#1217 = CARTESIAN_POINT('',(3.75,0.65,3.05));
#1218 = LINE('',#1219,#1220);
#1219 = CARTESIAN_POINT('',(3.75,0.65,2.67));
#1220 = VECTOR('',#1221,1.);
#1221 = DIRECTION('',(-2.603501337363E-32,0.,1.));
#1222 = ORIENTED_EDGE('',*,*,#1223,.T.);
#1223 = EDGE_CURVE('',#1216,#1084,#1224,.T.);
#1224 = LINE('',#1225,#1226);
#1225 = CARTESIAN_POINT('',(3.75,0.65,3.05));
#1226 = VECTOR('',#1227,1.);
#1227 = DIRECTION('',(0.,-1.,0.));
#1228 = ORIENTED_EDGE('',*,*,#1092,.F.);
#1229 = PLANE('',#1230);
#1230 = AXIS2_PLACEMENT_3D('',#1231,#1232,#1233);
#1231 = CARTESIAN_POINT('',(3.75,0.65,2.67));
#1232 = DIRECTION('',(1.,0.,2.603501337363E-32));
#1233 = DIRECTION('',(0.,-1.,0.));
#1234 = ADVANCED_FACE('',(#1235),#1253,.T.);
#1235 = FACE_BOUND('',#1236,.T.);
#1236 = EDGE_LOOP('',(#1237,#1238,#1239,#1247));
#1237 = ORIENTED_EDGE('',*,*,#1168,.F.);
#1238 = ORIENTED_EDGE('',*,*,#1136,.F.);
#1239 = ORIENTED_EDGE('',*,*,#1240,.T.);
#1240 = EDGE_CURVE('',#1126,#1241,#1243,.T.);
#1241 = VERTEX_POINT('',#1242);
#1242 = CARTESIAN_POINT('',(3.75,-0.65,3.05));
#1243 = LINE('',#1244,#1245);
#1244 = CARTESIAN_POINT('',(3.75,0.65,3.05));
#1245 = VECTOR('',#1246,1.);
#1246 = DIRECTION('',(0.,-1.,0.));
#1247 = ORIENTED_EDGE('',*,*,#1248,.F.);
#1248 = EDGE_CURVE('',#1161,#1241,#1249,.T.);
#1249 = LINE('',#1250,#1251);
#1250 = CARTESIAN_POINT('',(3.75,-0.65,2.67));
#1251 = VECTOR('',#1252,1.);
#1252 = DIRECTION('',(-2.603501337363E-32,0.,1.));
#1253 = PLANE('',#1254);
#1254 = AXIS2_PLACEMENT_3D('',#1255,#1256,#1257);
#1255 = CARTESIAN_POINT('',(3.75,0.65,2.67));
#1256 = DIRECTION('',(1.,0.,2.603501337363E-32));
#1257 = DIRECTION('',(0.,-1.,0.));
#1258 = ADVANCED_FACE('',(#1259),#1284,.F.);
#1259 = FACE_BOUND('',#1260,.F.);
#1260 = EDGE_LOOP('',(#1261,#1269,#1277,#1283));
#1261 = ORIENTED_EDGE('',*,*,#1262,.T.);
#1262 = EDGE_CURVE('',#1151,#1263,#1265,.T.);
#1263 = VERTEX_POINT('',#1264);
#1264 = CARTESIAN_POINT('',(-9.89330508198E-33,0.65,3.05));
#1265 = LINE('',#1266,#1267);
#1266 = CARTESIAN_POINT('',(0.,0.65,2.67));
#1267 = VECTOR('',#1268,1.);
#1268 = DIRECTION('',(-2.603501337363E-32,0.,1.));
#1269 = ORIENTED_EDGE('',*,*,#1270,.T.);
#1270 = EDGE_CURVE('',#1263,#1271,#1273,.T.);
#1271 = VERTEX_POINT('',#1272);
#1272 = CARTESIAN_POINT('',(-9.89330508198E-33,-0.65,3.05));
#1273 = LINE('',#1274,#1275);
#1274 = CARTESIAN_POINT('',(-9.89330508198E-33,0.65,3.05));
#1275 = VECTOR('',#1276,1.);
#1276 = DIRECTION('',(0.,-1.,0.));
#1277 = ORIENTED_EDGE('',*,*,#1278,.F.);
#1278 = EDGE_CURVE('',#1153,#1271,#1279,.T.);
#1279 = LINE('',#1280,#1281);
#1280 = CARTESIAN_POINT('',(0.,-0.65,2.67));
#1281 = VECTOR('',#1282,1.);
#1282 = DIRECTION('',(-2.603501337363E-32,0.,1.));
#1283 = ORIENTED_EDGE('',*,*,#1150,.F.);
#1284 = PLANE('',#1285);
#1285 = AXIS2_PLACEMENT_3D('',#1286,#1287,#1288);
#1286 = CARTESIAN_POINT('',(0.,0.65,2.67));
#1287 = DIRECTION('',(1.,0.,2.603501337363E-32));
#1288 = DIRECTION('',(0.,-1.,0.));
#1289 = ADVANCED_FACE('',(#1290),#1301,.F.);
#1290 = FACE_BOUND('',#1291,.F.);
#1291 = EDGE_LOOP('',(#1292,#1293,#1299,#1300));
#1292 = ORIENTED_EDGE('',*,*,#1278,.T.);
#1293 = ORIENTED_EDGE('',*,*,#1294,.T.);
#1294 = EDGE_CURVE('',#1271,#1241,#1295,.T.);
#1295 = LINE('',#1296,#1297);
#1296 = CARTESIAN_POINT('',(-9.89330508198E-33,-0.65,3.05));
#1297 = VECTOR('',#1298,1.);
#1298 = DIRECTION('',(1.,0.,0.));
#1299 = ORIENTED_EDGE('',*,*,#1248,.F.);
#1300 = ORIENTED_EDGE('',*,*,#1160,.F.);
#1301 = PLANE('',#1302);
#1302 = AXIS2_PLACEMENT_3D('',#1303,#1304,#1305);
#1303 = CARTESIAN_POINT('',(0.,-0.65,2.67));
#1304 = DIRECTION('',(0.,1.,0.));
#1305 = DIRECTION('',(1.,0.,0.));
#1306 = ADVANCED_FACE('',(#1307),#1318,.T.);
#1307 = FACE_BOUND('',#1308,.T.);
#1308 = EDGE_LOOP('',(#1309,#1310,#1316,#1317));
#1309 = ORIENTED_EDGE('',*,*,#1262,.T.);
#1310 = ORIENTED_EDGE('',*,*,#1311,.T.);
#1311 = EDGE_CURVE('',#1263,#1216,#1312,.T.);
#1312 = LINE('',#1313,#1314);
#1313 = CARTESIAN_POINT('',(-9.89330508198E-33,0.65,3.05));
#1314 = VECTOR('',#1315,1.);
#1315 = DIRECTION('',(1.,0.,0.));
#1316 = ORIENTED_EDGE('',*,*,#1215,.F.);
#1317 = ORIENTED_EDGE('',*,*,#1183,.F.);
#1318 = PLANE('',#1319);
#1319 = AXIS2_PLACEMENT_3D('',#1320,#1321,#1322);
#1320 = CARTESIAN_POINT('',(0.,0.65,2.67));
#1321 = DIRECTION('',(0.,1.,0.));
#1322 = DIRECTION('',(1.,0.,0.));
#1323 = ADVANCED_FACE('',(#1324),#1332,.T.);
#1324 = FACE_BOUND('',#1325,.T.);
#1325 = EDGE_LOOP('',(#1326,#1327,#1328,#1329,#1330,#1331));
#1326 = ORIENTED_EDGE('',*,*,#1270,.T.);
#1327 = ORIENTED_EDGE('',*,*,#1294,.T.);
#1328 = ORIENTED_EDGE('',*,*,#1240,.F.);
#1329 = ORIENTED_EDGE('',*,*,#1200,.F.);
#1330 = ORIENTED_EDGE('',*,*,#1223,.F.);
#1331 = ORIENTED_EDGE('',*,*,#1311,.F.);
#1332 = PLANE('',#1333);
#1333 = AXIS2_PLACEMENT_3D('',#1334,#1335,#1336);
#1334 = CARTESIAN_POINT('',(1.875,0.,3.05));
#1335 = DIRECTION('',(-2.603501337363E-32,0.,1.));
#1336 = DIRECTION('',(1.,0.,2.603501337363E-32));
#1337 = ( GEOMETRIC_REPRESENTATION_CONTEXT(3) 
GLOBAL_UNCERTAINTY_ASSIGNED_CONTEXT((#1341)) 
GLOBAL_UNIT_ASSIGNED_CONTEXT((#1338,#1339,#1340)) REPRESENTATION_CONTEXT
('Context #1','3D Context with UNIT and UNCERTAINTY') );
#1338 = ( LENGTH_UNIT() NAMED_UNIT(*) SI_UNIT(.MILLI.,.METRE.) );
#1339 = ( NAMED_UNIT(*) PLANE_ANGLE_UNIT() SI_UNIT($,.RADIAN.) );
#1340 = ( NAMED_UNIT(*) SI_UNIT($,.STERADIAN.) SOLID_ANGLE_UNIT() );
#1341 = UNCERTAINTY_MEASURE_WITH_UNIT(LENGTH_MEASURE(2.E-05),#1338,
  'distance_accuracy_value','confusion accuracy');
#1342 = SHAPE_DEFINITION_REPRESENTATION(#1343,#858);
#1343 = PRODUCT_DEFINITION_SHAPE('','',#1344);
#1344 = PRODUCT_DEFINITION('design','',#1345,#1348);
#1345 = PRODUCT_DEFINITION_FORMATION('','',#1346);
#1346 = PRODUCT('pins_bent','pins_bent','',(#1347));
#1347 = PRODUCT_CONTEXT('',#2,'mechanical');
#1348 = PRODUCT_DEFINITION_CONTEXT('part definition',#2,'design');
#1349 = CONTEXT_DEPENDENT_SHAPE_REPRESENTATION(#1350,#1352);
#1350 = ( REPRESENTATION_RELATIONSHIP('','',#858,#844) 
REPRESENTATION_RELATIONSHIP_WITH_TRANSFORMATION(#1351) 
SHAPE_REPRESENTATION_RELATIONSHIP() );
#1351 = ITEM_DEFINED_TRANSFORMATION('','',#11,#845);
#1352 = PRODUCT_DEFINITION_SHAPE('Placement','Placement of an item',
  #1353);
#1353 = NEXT_ASSEMBLY_USAGE_OCCURRENCE('3','0','',#839,#1344,$);
#1354 = PRODUCT_RELATED_PRODUCT_CATEGORY('part',$,(#1346));
#1355 = CONTEXT_DEPENDENT_SHAPE_REPRESENTATION(#1356,#1358);
#1356 = ( REPRESENTATION_RELATIONSHIP('','',#858,#844) 
REPRESENTATION_RELATIONSHIP_WITH_TRANSFORMATION(#1357) 
SHAPE_REPRESENTATION_RELATIONSHIP() );
#1357 = ITEM_DEFINED_TRANSFORMATION('','',#11,#849);
#1358 = PRODUCT_DEFINITION_SHAPE('Placement','Placement of an item',
  #1359);
#1359 = NEXT_ASSEMBLY_USAGE_OCCURRENCE('4','1','',#839,#1344,$);
#1360 = CONTEXT_DEPENDENT_SHAPE_REPRESENTATION(#1361,#1363);
#1361 = ( REPRESENTATION_RELATIONSHIP('','',#844,#10) 
REPRESENTATION_RELATIONSHIP_WITH_TRANSFORMATION(#1362) 
SHAPE_REPRESENTATION_RELATIONSHIP() );
#1362 = ITEM_DEFINED_TRANSFORMATION('','',#11,#23);
#1363 = PRODUCT_DEFINITION_SHAPE('Placement','Placement of an item',
  #1364);
#1364 = NEXT_ASSEMBLY_USAGE_OCCURRENCE('5','Array001','',#5,#839,$);
#1365 = PRODUCT_RELATED_PRODUCT_CATEGORY('part',$,(#841));
#1366 = SHAPE_DEFINITION_REPRESENTATION(#1367,#1373);
#1367 = PRODUCT_DEFINITION_SHAPE('','',#1368);
#1368 = PRODUCT_DEFINITION('design','',#1369,#1372);
#1369 = PRODUCT_DEFINITION_FORMATION('','',#1370);
#1370 = PRODUCT('Array','Array','',(#1371));
#1371 = PRODUCT_CONTEXT('',#2,'mechanical');
#1372 = PRODUCT_DEFINITION_CONTEXT('part definition',#2,'design');
#1373 = SHAPE_REPRESENTATION('',(#11,#1374,#1378),#1382);
#1374 = AXIS2_PLACEMENT_3D('',#1375,#1376,#1377);
#1375 = CARTESIAN_POINT('',(0.,0.,0.));
#1376 = DIRECTION('',(0.,0.,1.));
#1377 = DIRECTION('',(1.,0.,0.));
#1378 = AXIS2_PLACEMENT_3D('',#1379,#1380,#1381);
#1379 = CARTESIAN_POINT('',(0.,2.5,0.));
#1380 = DIRECTION('',(0.,0.,1.));
#1381 = DIRECTION('',(1.,0.,0.));
#1382 = ( GEOMETRIC_REPRESENTATION_CONTEXT(3) 
GLOBAL_UNCERTAINTY_ASSIGNED_CONTEXT((#1386)) 
GLOBAL_UNIT_ASSIGNED_CONTEXT((#1383,#1384,#1385)) REPRESENTATION_CONTEXT
('Context #1','3D Context with UNIT and UNCERTAINTY') );
#1383 = ( LENGTH_UNIT() NAMED_UNIT(*) SI_UNIT(.MILLI.,.METRE.) );
#1384 = ( NAMED_UNIT(*) PLANE_ANGLE_UNIT() SI_UNIT($,.RADIAN.) );
#1385 = ( NAMED_UNIT(*) SI_UNIT($,.STERADIAN.) SOLID_ANGLE_UNIT() );
#1386 = UNCERTAINTY_MEASURE_WITH_UNIT(LENGTH_MEASURE(2.E-05),#1383,
  'distance_accuracy_value','confusion accuracy');
#1387 = CONTEXT_DEPENDENT_SHAPE_REPRESENTATION(#1388,#1390);
#1388 = ( REPRESENTATION_RELATIONSHIP('','',#858,#1373) 
REPRESENTATION_RELATIONSHIP_WITH_TRANSFORMATION(#1389) 
SHAPE_REPRESENTATION_RELATIONSHIP() );
#1389 = ITEM_DEFINED_TRANSFORMATION('','',#11,#1374);
#1390 = PRODUCT_DEFINITION_SHAPE('Placement','Placement of an item',
  #1391);
#1391 = NEXT_ASSEMBLY_USAGE_OCCURRENCE('6','','',#1368,#1344,$);
#1392 = CONTEXT_DEPENDENT_SHAPE_REPRESENTATION(#1393,#1395);
#1393 = ( REPRESENTATION_RELATIONSHIP('','',#858,#1373) 
REPRESENTATION_RELATIONSHIP_WITH_TRANSFORMATION(#1394) 
SHAPE_REPRESENTATION_RELATIONSHIP() );
#1394 = ITEM_DEFINED_TRANSFORMATION('','',#11,#1378);
#1395 = PRODUCT_DEFINITION_SHAPE('Placement','Placement of an item',
  #1396);
#1396 = NEXT_ASSEMBLY_USAGE_OCCURRENCE('7','1','',#1368,#1344,$);
#1397 = CONTEXT_DEPENDENT_SHAPE_REPRESENTATION(#1398,#1400);
#1398 = ( REPRESENTATION_RELATIONSHIP('','',#1373,#10) 
REPRESENTATION_RELATIONSHIP_WITH_TRANSFORMATION(#1399) 
SHAPE_REPRESENTATION_RELATIONSHIP() );
#1399 = ITEM_DEFINED_TRANSFORMATION('','',#11,#27);
#1400 = PRODUCT_DEFINITION_SHAPE('Placement','Placement of an item',
  #1401);
#1401 = NEXT_ASSEMBLY_USAGE_OCCURRENCE('8','Array','',#5,#1368,$);
#1402 = PRODUCT_RELATED_PRODUCT_CATEGORY('part',$,(#1370));
#1403 = MECHANICAL_DESIGN_GEOMETRIC_PRESENTATION_REPRESENTATION('',(
    #1404),#819);
#1404 = STYLED_ITEM('color',(#1405),#498);
#1405 = PRESENTATION_STYLE_ASSIGNMENT((#1406,#1412));
#1406 = SURFACE_STYLE_USAGE(.BOTH.,#1407);
#1407 = SURFACE_SIDE_STYLE('',(#1408));
#1408 = SURFACE_STYLE_FILL_AREA(#1409);
#1409 = FILL_AREA_STYLE('',(#1410));
#1410 = FILL_AREA_STYLE_COLOUR('',#1411);
#1411 = COLOUR_RGB('',0.800000011921,0.800000011921,0.800000011921);
#1412 = CURVE_STYLE('',#1413,POSITIVE_LENGTH_MEASURE(0.1),#1414);
#1413 = DRAUGHTING_PRE_DEFINED_CURVE_FONT('continuous');
#1414 = COLOUR_RGB('',9.803921729326E-02,9.803921729326E-02,
  9.803921729326E-02);
#1415 = MECHANICAL_DESIGN_GEOMETRIC_PRESENTATION_REPRESENTATION('',(
    #1416),#479);
#1416 = STYLED_ITEM('color',(#1417),#38);
#1417 = PRESENTATION_STYLE_ASSIGNMENT((#1418,#1424));
#1418 = SURFACE_STYLE_USAGE(.BOTH.,#1419);
#1419 = SURFACE_SIDE_STYLE('',(#1420));
#1420 = SURFACE_STYLE_FILL_AREA(#1421);
#1421 = FILL_AREA_STYLE('',(#1422));
#1422 = FILL_AREA_STYLE_COLOUR('',#1423);
#1423 = COLOUR_RGB('',0.23137255013,0.23137255013,0.20000000298);
#1424 = CURVE_STYLE('',#1425,POSITIVE_LENGTH_MEASURE(0.1),#1414);
#1425 = DRAUGHTING_PRE_DEFINED_CURVE_FONT('continuous');
#1426 = MECHANICAL_DESIGN_GEOMETRIC_PRESENTATION_REPRESENTATION('',(
    #1427),#1337);
#1427 = STYLED_ITEM('color',(#1428),#859);
#1428 = PRESENTATION_STYLE_ASSIGNMENT((#1429,#1434));
#1429 = SURFACE_STYLE_USAGE(.BOTH.,#1430);
#1430 = SURFACE_SIDE_STYLE('',(#1431));
#1431 = SURFACE_STYLE_FILL_AREA(#1432);
#1432 = FILL_AREA_STYLE('',(#1433));
#1433 = FILL_AREA_STYLE_COLOUR('',#1411);
#1434 = CURVE_STYLE('',#1435,POSITIVE_LENGTH_MEASURE(0.1),#1414);
#1435 = DRAUGHTING_PRE_DEFINED_CURVE_FONT('continuous');
ENDSEC;
END-ISO-10303-21;
