ISO-10303-21;
HEADER;
/* Generated by software containing ST-Developer
 * from STEP Tools, Inc. (www.steptools.com) 
 */

FILE_DESCRIPTION(
/* description */ (''),
/* implementation_level */ '2;1');

FILE_NAME(
/* name */ 
'C:\\Users\\huesof\\Downloads\\medtronic-pb560-ventilator-system-file-
set-2\\Electronic PCBAs\\GR106769_CPU_PCBA\\3D_Model\\GR106769B00\\Vis
 KA22x5 hexalobes.stp',
/* time_stamp */ '2020-04-19T17:01:40-04:00',
/* author */ ('huesof'),
/* organization */ (''),
/* preprocessor_version */ 'ST-DEVELOPER v18',
/* originating_system */ 'Autodesk Inventor 2020',
/* authorisation */ '');

FILE_SCHEMA (('AUTOMOTIVE_DESIGN { 1 0 10303 214 3 1 1 }'));
ENDSEC;

DATA;
#10=MECHANICAL_DESIGN_GEOMETRIC_PRESENTATION_REPRESENTATION('',(#65,#66),
#927);
#11=SHAPE_REPRESENTATION_RELATIONSHIP('SRR','None',#934,#12);
#12=ADVANCED_BREP_SHAPE_REPRESENTATION('',(#13),#926);
#13=MANIFOLD_SOLID_BREP('Solid1',#483);
#14=CONICAL_SURFACE('',#587,1.025,1.22173047639603);
#15=TOROIDAL_SURFACE('',#538,1.35,0.1);
#16=TOROIDAL_SURFACE('',#540,2.15,0.25);
#17=TOROIDAL_SURFACE('',#542,2.15,0.25);
#18=SPHERICAL_SURFACE('',#519,2.68069275374855);
#19=FACE_BOUND('',#98,.T.);
#20=FACE_BOUND('',#102,.T.);
#21=LINE('',#786,#36);
#22=LINE('',#802,#37);
#23=LINE('',#851,#38);
#24=LINE('',#853,#39);
#25=LINE('',#859,#40);
#26=LINE('',#861,#41);
#27=LINE('',#867,#42);
#28=LINE('',#869,#43);
#29=LINE('',#875,#44);
#30=LINE('',#877,#45);
#31=LINE('',#883,#46);
#32=LINE('',#885,#47);
#33=LINE('',#891,#48);
#34=LINE('',#893,#49);
#35=LINE('',#923,#50);
#36=VECTOR('',#602,1.25);
#37=VECTOR('',#619,2.4);
#38=VECTOR('',#678,0.999999999999999);
#39=VECTOR('',#679,0.999999999999999);
#40=VECTOR('',#686,0.999999999999986);
#41=VECTOR('',#687,0.999999999999999);
#42=VECTOR('',#694,0.999999999999997);
#43=VECTOR('',#695,1.);
#44=VECTOR('',#702,1.);
#45=VECTOR('',#703,1.);
#46=VECTOR('',#710,1.);
#47=VECTOR('',#711,0.999999999999999);
#48=VECTOR('',#718,1.);
#49=VECTOR('',#719,0.999999999999999);
#50=VECTOR('',#774,1.025);
#51=CYLINDRICAL_SURFACE('',#506,1.25);
#52=CYLINDRICAL_SURFACE('',#514,2.4);
#53=CYLINDRICAL_SURFACE('',#544,0.59);
#54=CYLINDRICAL_SURFACE('',#547,0.59);
#55=CYLINDRICAL_SURFACE('',#550,0.59);
#56=CYLINDRICAL_SURFACE('',#553,0.59);
#57=CYLINDRICAL_SURFACE('',#556,0.59);
#58=CYLINDRICAL_SURFACE('',#559,0.59);
#59=CYLINDRICAL_SURFACE('',#581,1.4);
#60=CYLINDRICAL_SURFACE('',#582,1.4);
#61=CYLINDRICAL_SURFACE('',#583,1.4);
#62=CYLINDRICAL_SURFACE('',#584,1.4);
#63=CYLINDRICAL_SURFACE('',#585,1.4);
#64=CYLINDRICAL_SURFACE('',#586,1.4);
#65=STYLED_ITEM('',(#943),#456);
#66=STYLED_ITEM('',(#943),#13);
#67=FACE_OUTER_BOUND('',#95,.T.);
#68=FACE_OUTER_BOUND('',#96,.T.);
#69=FACE_OUTER_BOUND('',#97,.T.);
#70=FACE_OUTER_BOUND('',#99,.T.);
#71=FACE_OUTER_BOUND('',#100,.T.);
#72=FACE_OUTER_BOUND('',#101,.T.);
#73=FACE_OUTER_BOUND('',#103,.T.);
#74=FACE_OUTER_BOUND('',#104,.T.);
#75=FACE_OUTER_BOUND('',#105,.T.);
#76=FACE_OUTER_BOUND('',#106,.T.);
#77=FACE_OUTER_BOUND('',#107,.T.);
#78=FACE_OUTER_BOUND('',#108,.T.);
#79=FACE_OUTER_BOUND('',#109,.T.);
#80=FACE_OUTER_BOUND('',#110,.T.);
#81=FACE_OUTER_BOUND('',#111,.T.);
#82=FACE_OUTER_BOUND('',#112,.T.);
#83=FACE_OUTER_BOUND('',#113,.T.);
#84=FACE_OUTER_BOUND('',#114,.T.);
#85=FACE_OUTER_BOUND('',#115,.T.);
#86=FACE_OUTER_BOUND('',#116,.T.);
#87=FACE_OUTER_BOUND('',#117,.T.);
#88=FACE_OUTER_BOUND('',#118,.T.);
#89=FACE_OUTER_BOUND('',#119,.T.);
#90=FACE_OUTER_BOUND('',#120,.T.);
#91=FACE_OUTER_BOUND('',#121,.T.);
#92=FACE_OUTER_BOUND('',#122,.T.);
#93=FACE_OUTER_BOUND('',#123,.T.);
#94=FACE_OUTER_BOUND('',#124,.T.);
#95=EDGE_LOOP('',(#302,#303));
#96=EDGE_LOOP('',(#304,#305,#306,#307,#308,#309));
#97=EDGE_LOOP('',(#310,#311));
#98=EDGE_LOOP('',(#312,#313));
#99=EDGE_LOOP('',(#314,#315,#316,#317,#318,#319));
#100=EDGE_LOOP('',(#320,#321,#322,#323,#324,#325));
#101=EDGE_LOOP('',(#326,#327));
#102=EDGE_LOOP('',(#328,#329,#330,#331,#332,#333,#334,#335,#336,#337,#338,
#339));
#103=EDGE_LOOP('',(#340,#341,#342,#343,#344,#345));
#104=EDGE_LOOP('',(#346,#347,#348,#349,#350,#351));
#105=EDGE_LOOP('',(#352,#353,#354,#355,#356,#357));
#106=EDGE_LOOP('',(#358,#359,#360,#361,#362));
#107=EDGE_LOOP('',(#363,#364,#365,#366,#367));
#108=EDGE_LOOP('',(#368,#369,#370,#371,#372));
#109=EDGE_LOOP('',(#373,#374,#375,#376,#377));
#110=EDGE_LOOP('',(#378,#379,#380,#381,#382));
#111=EDGE_LOOP('',(#383,#384,#385,#386,#387));
#112=EDGE_LOOP('',(#388,#389,#390,#391));
#113=EDGE_LOOP('',(#392,#393,#394,#395));
#114=EDGE_LOOP('',(#396,#397,#398,#399,#400));
#115=EDGE_LOOP('',(#401,#402,#403,#404));
#116=EDGE_LOOP('',(#405,#406,#407,#408));
#117=EDGE_LOOP('',(#409,#410,#411,#412));
#118=EDGE_LOOP('',(#413,#414,#415,#416));
#119=EDGE_LOOP('',(#417,#418,#419,#420));
#120=EDGE_LOOP('',(#421,#422,#423,#424));
#121=EDGE_LOOP('',(#425,#426,#427,#428));
#122=EDGE_LOOP('',(#429,#430,#431,#432));
#123=EDGE_LOOP('',(#433,#434,#435,#436));
#124=EDGE_LOOP('',(#437,#438,#439,#440,#441,#442,#443,#444,#445));
#125=CIRCLE('',#504,1.25);
#126=CIRCLE('',#505,1.25);
#127=CIRCLE('',#507,1.25);
#128=CIRCLE('',#508,1.25);
#129=CIRCLE('',#510,2.15);
#130=CIRCLE('',#511,2.15);
#131=CIRCLE('',#512,1.35);
#132=CIRCLE('',#513,1.35);
#133=CIRCLE('',#515,2.4);
#134=CIRCLE('',#516,2.4);
#135=CIRCLE('',#517,2.4);
#136=CIRCLE('',#518,2.4);
#137=CIRCLE('',#520,2.37113037493985);
#138=CIRCLE('',#521,2.68069275374855);
#139=CIRCLE('',#522,1.54);
#140=CIRCLE('',#523,1.54);
#141=CIRCLE('',#524,2.37113037493985);
#142=CIRCLE('',#526,1.4);
#143=CIRCLE('',#527,0.59);
#144=CIRCLE('',#528,1.4);
#145=CIRCLE('',#529,0.59);
#146=CIRCLE('',#530,1.4);
#147=CIRCLE('',#531,0.59);
#148=CIRCLE('',#532,1.4);
#149=CIRCLE('',#533,0.59);
#150=CIRCLE('',#534,1.4);
#151=CIRCLE('',#535,0.59);
#152=CIRCLE('',#536,1.4);
#153=CIRCLE('',#537,0.59);
#154=CIRCLE('',#539,0.1);
#155=CIRCLE('',#541,0.25);
#156=CIRCLE('',#543,0.25);
#157=CIRCLE('',#545,0.59);
#158=CIRCLE('',#546,0.59);
#159=CIRCLE('',#548,0.59);
#160=CIRCLE('',#549,0.59);
#161=CIRCLE('',#551,0.59);
#162=CIRCLE('',#552,0.59);
#163=CIRCLE('',#554,0.59);
#164=CIRCLE('',#555,0.59);
#165=CIRCLE('',#557,0.59);
#166=CIRCLE('',#558,0.59);
#167=CIRCLE('',#560,0.59);
#168=CIRCLE('',#561,0.59);
#169=CIRCLE('',#563,1.025);
#170=CIRCLE('',#564,1.4);
#171=CIRCLE('',#566,1.025);
#172=CIRCLE('',#567,1.4);
#173=CIRCLE('',#569,1.025);
#174=CIRCLE('',#570,1.4);
#175=CIRCLE('',#571,1.025);
#176=CIRCLE('',#573,1.025);
#177=CIRCLE('',#574,1.4);
#178=CIRCLE('',#576,1.025);
#179=CIRCLE('',#577,1.4);
#180=CIRCLE('',#579,1.025);
#181=CIRCLE('',#580,1.4);
#182=VERTEX_POINT('',#777);
#183=VERTEX_POINT('',#778);
#184=VERTEX_POINT('',#782);
#185=VERTEX_POINT('',#783);
#186=VERTEX_POINT('',#788);
#187=VERTEX_POINT('',#789);
#188=VERTEX_POINT('',#792);
#189=VERTEX_POINT('',#793);
#190=VERTEX_POINT('',#797);
#191=VERTEX_POINT('',#798);
#192=VERTEX_POINT('',#801);
#193=VERTEX_POINT('',#803);
#194=VERTEX_POINT('',#807);
#195=VERTEX_POINT('',#808);
#196=VERTEX_POINT('',#810);
#197=VERTEX_POINT('',#812);
#198=VERTEX_POINT('',#817);
#199=VERTEX_POINT('',#818);
#200=VERTEX_POINT('',#820);
#201=VERTEX_POINT('',#822);
#202=VERTEX_POINT('',#824);
#203=VERTEX_POINT('',#826);
#204=VERTEX_POINT('',#828);
#205=VERTEX_POINT('',#830);
#206=VERTEX_POINT('',#832);
#207=VERTEX_POINT('',#834);
#208=VERTEX_POINT('',#836);
#209=VERTEX_POINT('',#838);
#210=VERTEX_POINT('',#848);
#211=VERTEX_POINT('',#849);
#212=VERTEX_POINT('',#852);
#213=VERTEX_POINT('',#856);
#214=VERTEX_POINT('',#857);
#215=VERTEX_POINT('',#860);
#216=VERTEX_POINT('',#864);
#217=VERTEX_POINT('',#865);
#218=VERTEX_POINT('',#868);
#219=VERTEX_POINT('',#872);
#220=VERTEX_POINT('',#873);
#221=VERTEX_POINT('',#876);
#222=VERTEX_POINT('',#880);
#223=VERTEX_POINT('',#881);
#224=VERTEX_POINT('',#884);
#225=VERTEX_POINT('',#888);
#226=VERTEX_POINT('',#889);
#227=VERTEX_POINT('',#892);
#228=VERTEX_POINT('',#902);
#229=VERTEX_POINT('',#922);
#230=EDGE_CURVE('',#182,#183,#125,.T.);
#231=EDGE_CURVE('',#183,#182,#126,.T.);
#232=EDGE_CURVE('',#184,#185,#127,.T.);
#233=EDGE_CURVE('',#185,#184,#128,.T.);
#234=EDGE_CURVE('',#184,#183,#21,.T.);
#235=EDGE_CURVE('',#186,#187,#129,.T.);
#236=EDGE_CURVE('',#187,#186,#130,.T.);
#237=EDGE_CURVE('',#188,#189,#131,.F.);
#238=EDGE_CURVE('',#189,#188,#132,.F.);
#239=EDGE_CURVE('',#190,#191,#133,.T.);
#240=EDGE_CURVE('',#191,#190,#134,.T.);
#241=EDGE_CURVE('',#190,#192,#22,.T.);
#242=EDGE_CURVE('',#192,#193,#135,.F.);
#243=EDGE_CURVE('',#193,#192,#136,.F.);
#244=EDGE_CURVE('',#194,#195,#137,.F.);
#245=EDGE_CURVE('',#195,#196,#138,.T.);
#246=EDGE_CURVE('',#197,#196,#139,.T.);
#247=EDGE_CURVE('',#196,#197,#140,.T.);
#248=EDGE_CURVE('',#195,#194,#141,.F.);
#249=EDGE_CURVE('',#198,#199,#142,.T.);
#250=EDGE_CURVE('',#200,#198,#143,.T.);
#251=EDGE_CURVE('',#201,#200,#144,.T.);
#252=EDGE_CURVE('',#202,#201,#145,.T.);
#253=EDGE_CURVE('',#203,#202,#146,.T.);
#254=EDGE_CURVE('',#204,#203,#147,.T.);
#255=EDGE_CURVE('',#205,#204,#148,.T.);
#256=EDGE_CURVE('',#206,#205,#149,.T.);
#257=EDGE_CURVE('',#207,#206,#150,.T.);
#258=EDGE_CURVE('',#208,#207,#151,.T.);
#259=EDGE_CURVE('',#209,#208,#152,.T.);
#260=EDGE_CURVE('',#199,#209,#153,.T.);
#261=EDGE_CURVE('',#185,#189,#154,.T.);
#262=EDGE_CURVE('',#191,#195,#155,.T.);
#263=EDGE_CURVE('',#187,#193,#156,.T.);
#264=EDGE_CURVE('',#210,#211,#157,.T.);
#265=EDGE_CURVE('',#210,#208,#23,.T.);
#266=EDGE_CURVE('',#212,#207,#24,.T.);
#267=EDGE_CURVE('',#211,#212,#158,.T.);
#268=EDGE_CURVE('',#213,#214,#159,.T.);
#269=EDGE_CURVE('',#213,#199,#25,.T.);
#270=EDGE_CURVE('',#215,#209,#26,.T.);
#271=EDGE_CURVE('',#214,#215,#160,.T.);
#272=EDGE_CURVE('',#216,#217,#161,.T.);
#273=EDGE_CURVE('',#216,#200,#27,.T.);
#274=EDGE_CURVE('',#218,#198,#28,.T.);
#275=EDGE_CURVE('',#217,#218,#162,.T.);
#276=EDGE_CURVE('',#219,#220,#163,.T.);
#277=EDGE_CURVE('',#219,#202,#29,.T.);
#278=EDGE_CURVE('',#221,#201,#30,.T.);
#279=EDGE_CURVE('',#220,#221,#164,.T.);
#280=EDGE_CURVE('',#222,#223,#165,.T.);
#281=EDGE_CURVE('',#222,#204,#31,.T.);
#282=EDGE_CURVE('',#224,#203,#32,.T.);
#283=EDGE_CURVE('',#223,#224,#166,.T.);
#284=EDGE_CURVE('',#225,#226,#167,.T.);
#285=EDGE_CURVE('',#225,#206,#33,.T.);
#286=EDGE_CURVE('',#227,#205,#34,.T.);
#287=EDGE_CURVE('',#226,#227,#168,.T.);
#288=EDGE_CURVE('',#211,#226,#169,.T.);
#289=EDGE_CURVE('',#212,#225,#170,.T.);
#290=EDGE_CURVE('',#214,#211,#171,.T.);
#291=EDGE_CURVE('',#215,#210,#172,.T.);
#292=EDGE_CURVE('',#217,#228,#173,.T.);
#293=EDGE_CURVE('',#218,#213,#174,.T.);
#294=EDGE_CURVE('',#228,#214,#175,.T.);
#295=EDGE_CURVE('',#220,#217,#176,.T.);
#296=EDGE_CURVE('',#221,#216,#177,.T.);
#297=EDGE_CURVE('',#223,#220,#178,.T.);
#298=EDGE_CURVE('',#224,#219,#179,.T.);
#299=EDGE_CURVE('',#226,#223,#180,.T.);
#300=EDGE_CURVE('',#227,#222,#181,.T.);
#301=EDGE_CURVE('',#229,#228,#35,.T.);
#302=ORIENTED_EDGE('',*,*,#230,.F.);
#303=ORIENTED_EDGE('',*,*,#231,.F.);
#304=ORIENTED_EDGE('',*,*,#232,.T.);
#305=ORIENTED_EDGE('',*,*,#233,.T.);
#306=ORIENTED_EDGE('',*,*,#234,.T.);
#307=ORIENTED_EDGE('',*,*,#231,.T.);
#308=ORIENTED_EDGE('',*,*,#230,.T.);
#309=ORIENTED_EDGE('',*,*,#234,.F.);
#310=ORIENTED_EDGE('',*,*,#235,.T.);
#311=ORIENTED_EDGE('',*,*,#236,.T.);
#312=ORIENTED_EDGE('',*,*,#237,.T.);
#313=ORIENTED_EDGE('',*,*,#238,.T.);
#314=ORIENTED_EDGE('',*,*,#239,.T.);
#315=ORIENTED_EDGE('',*,*,#240,.T.);
#316=ORIENTED_EDGE('',*,*,#241,.T.);
#317=ORIENTED_EDGE('',*,*,#242,.T.);
#318=ORIENTED_EDGE('',*,*,#243,.T.);
#319=ORIENTED_EDGE('',*,*,#241,.F.);
#320=ORIENTED_EDGE('',*,*,#244,.T.);
#321=ORIENTED_EDGE('',*,*,#245,.T.);
#322=ORIENTED_EDGE('',*,*,#246,.F.);
#323=ORIENTED_EDGE('',*,*,#247,.F.);
#324=ORIENTED_EDGE('',*,*,#245,.F.);
#325=ORIENTED_EDGE('',*,*,#248,.T.);
#326=ORIENTED_EDGE('',*,*,#246,.T.);
#327=ORIENTED_EDGE('',*,*,#247,.T.);
#328=ORIENTED_EDGE('',*,*,#249,.F.);
#329=ORIENTED_EDGE('',*,*,#250,.F.);
#330=ORIENTED_EDGE('',*,*,#251,.F.);
#331=ORIENTED_EDGE('',*,*,#252,.F.);
#332=ORIENTED_EDGE('',*,*,#253,.F.);
#333=ORIENTED_EDGE('',*,*,#254,.F.);
#334=ORIENTED_EDGE('',*,*,#255,.F.);
#335=ORIENTED_EDGE('',*,*,#256,.F.);
#336=ORIENTED_EDGE('',*,*,#257,.F.);
#337=ORIENTED_EDGE('',*,*,#258,.F.);
#338=ORIENTED_EDGE('',*,*,#259,.F.);
#339=ORIENTED_EDGE('',*,*,#260,.F.);
#340=ORIENTED_EDGE('',*,*,#232,.F.);
#341=ORIENTED_EDGE('',*,*,#233,.F.);
#342=ORIENTED_EDGE('',*,*,#261,.T.);
#343=ORIENTED_EDGE('',*,*,#237,.F.);
#344=ORIENTED_EDGE('',*,*,#238,.F.);
#345=ORIENTED_EDGE('',*,*,#261,.F.);
#346=ORIENTED_EDGE('',*,*,#239,.F.);
#347=ORIENTED_EDGE('',*,*,#240,.F.);
#348=ORIENTED_EDGE('',*,*,#262,.T.);
#349=ORIENTED_EDGE('',*,*,#244,.F.);
#350=ORIENTED_EDGE('',*,*,#248,.F.);
#351=ORIENTED_EDGE('',*,*,#262,.F.);
#352=ORIENTED_EDGE('',*,*,#235,.F.);
#353=ORIENTED_EDGE('',*,*,#236,.F.);
#354=ORIENTED_EDGE('',*,*,#263,.T.);
#355=ORIENTED_EDGE('',*,*,#242,.F.);
#356=ORIENTED_EDGE('',*,*,#243,.F.);
#357=ORIENTED_EDGE('',*,*,#263,.F.);
#358=ORIENTED_EDGE('',*,*,#264,.F.);
#359=ORIENTED_EDGE('',*,*,#265,.T.);
#360=ORIENTED_EDGE('',*,*,#258,.T.);
#361=ORIENTED_EDGE('',*,*,#266,.F.);
#362=ORIENTED_EDGE('',*,*,#267,.F.);
#363=ORIENTED_EDGE('',*,*,#268,.F.);
#364=ORIENTED_EDGE('',*,*,#269,.T.);
#365=ORIENTED_EDGE('',*,*,#260,.T.);
#366=ORIENTED_EDGE('',*,*,#270,.F.);
#367=ORIENTED_EDGE('',*,*,#271,.F.);
#368=ORIENTED_EDGE('',*,*,#272,.F.);
#369=ORIENTED_EDGE('',*,*,#273,.T.);
#370=ORIENTED_EDGE('',*,*,#250,.T.);
#371=ORIENTED_EDGE('',*,*,#274,.F.);
#372=ORIENTED_EDGE('',*,*,#275,.F.);
#373=ORIENTED_EDGE('',*,*,#276,.F.);
#374=ORIENTED_EDGE('',*,*,#277,.T.);
#375=ORIENTED_EDGE('',*,*,#252,.T.);
#376=ORIENTED_EDGE('',*,*,#278,.F.);
#377=ORIENTED_EDGE('',*,*,#279,.F.);
#378=ORIENTED_EDGE('',*,*,#280,.F.);
#379=ORIENTED_EDGE('',*,*,#281,.T.);
#380=ORIENTED_EDGE('',*,*,#254,.T.);
#381=ORIENTED_EDGE('',*,*,#282,.F.);
#382=ORIENTED_EDGE('',*,*,#283,.F.);
#383=ORIENTED_EDGE('',*,*,#284,.F.);
#384=ORIENTED_EDGE('',*,*,#285,.T.);
#385=ORIENTED_EDGE('',*,*,#256,.T.);
#386=ORIENTED_EDGE('',*,*,#286,.F.);
#387=ORIENTED_EDGE('',*,*,#287,.F.);
#388=ORIENTED_EDGE('',*,*,#288,.F.);
#389=ORIENTED_EDGE('',*,*,#267,.T.);
#390=ORIENTED_EDGE('',*,*,#289,.T.);
#391=ORIENTED_EDGE('',*,*,#284,.T.);
#392=ORIENTED_EDGE('',*,*,#290,.F.);
#393=ORIENTED_EDGE('',*,*,#271,.T.);
#394=ORIENTED_EDGE('',*,*,#291,.T.);
#395=ORIENTED_EDGE('',*,*,#264,.T.);
#396=ORIENTED_EDGE('',*,*,#292,.F.);
#397=ORIENTED_EDGE('',*,*,#275,.T.);
#398=ORIENTED_EDGE('',*,*,#293,.T.);
#399=ORIENTED_EDGE('',*,*,#268,.T.);
#400=ORIENTED_EDGE('',*,*,#294,.F.);
#401=ORIENTED_EDGE('',*,*,#295,.F.);
#402=ORIENTED_EDGE('',*,*,#279,.T.);
#403=ORIENTED_EDGE('',*,*,#296,.T.);
#404=ORIENTED_EDGE('',*,*,#272,.T.);
#405=ORIENTED_EDGE('',*,*,#297,.F.);
#406=ORIENTED_EDGE('',*,*,#283,.T.);
#407=ORIENTED_EDGE('',*,*,#298,.T.);
#408=ORIENTED_EDGE('',*,*,#276,.T.);
#409=ORIENTED_EDGE('',*,*,#299,.F.);
#410=ORIENTED_EDGE('',*,*,#287,.T.);
#411=ORIENTED_EDGE('',*,*,#300,.T.);
#412=ORIENTED_EDGE('',*,*,#280,.T.);
#413=ORIENTED_EDGE('',*,*,#259,.T.);
#414=ORIENTED_EDGE('',*,*,#265,.F.);
#415=ORIENTED_EDGE('',*,*,#291,.F.);
#416=ORIENTED_EDGE('',*,*,#270,.T.);
#417=ORIENTED_EDGE('',*,*,#249,.T.);
#418=ORIENTED_EDGE('',*,*,#269,.F.);
#419=ORIENTED_EDGE('',*,*,#293,.F.);
#420=ORIENTED_EDGE('',*,*,#274,.T.);
#421=ORIENTED_EDGE('',*,*,#251,.T.);
#422=ORIENTED_EDGE('',*,*,#273,.F.);
#423=ORIENTED_EDGE('',*,*,#296,.F.);
#424=ORIENTED_EDGE('',*,*,#278,.T.);
#425=ORIENTED_EDGE('',*,*,#253,.T.);
#426=ORIENTED_EDGE('',*,*,#277,.F.);
#427=ORIENTED_EDGE('',*,*,#298,.F.);
#428=ORIENTED_EDGE('',*,*,#282,.T.);
#429=ORIENTED_EDGE('',*,*,#255,.T.);
#430=ORIENTED_EDGE('',*,*,#281,.F.);
#431=ORIENTED_EDGE('',*,*,#300,.F.);
#432=ORIENTED_EDGE('',*,*,#286,.T.);
#433=ORIENTED_EDGE('',*,*,#257,.T.);
#434=ORIENTED_EDGE('',*,*,#285,.F.);
#435=ORIENTED_EDGE('',*,*,#289,.F.);
#436=ORIENTED_EDGE('',*,*,#266,.T.);
#437=ORIENTED_EDGE('',*,*,#301,.T.);
#438=ORIENTED_EDGE('',*,*,#294,.T.);
#439=ORIENTED_EDGE('',*,*,#290,.T.);
#440=ORIENTED_EDGE('',*,*,#288,.T.);
#441=ORIENTED_EDGE('',*,*,#299,.T.);
#442=ORIENTED_EDGE('',*,*,#297,.T.);
#443=ORIENTED_EDGE('',*,*,#295,.T.);
#444=ORIENTED_EDGE('',*,*,#292,.T.);
#445=ORIENTED_EDGE('',*,*,#301,.F.);
#446=PLANE('',#503);
#447=PLANE('',#509);
#448=PLANE('',#525);
#449=PLANE('',#562);
#450=PLANE('',#565);
#451=PLANE('',#568);
#452=PLANE('',#572);
#453=PLANE('',#575);
#454=PLANE('',#578);
#455=ADVANCED_FACE('',(#67),#446,.T.);
#456=ADVANCED_FACE('',(#68),#51,.T.);
#457=ADVANCED_FACE('',(#69,#19),#447,.T.);
#458=ADVANCED_FACE('',(#70),#52,.T.);
#459=ADVANCED_FACE('',(#71),#18,.T.);
#460=ADVANCED_FACE('',(#72,#20),#448,.T.);
#461=ADVANCED_FACE('',(#73),#15,.F.);
#462=ADVANCED_FACE('',(#74),#16,.T.);
#463=ADVANCED_FACE('',(#75),#17,.T.);
#464=ADVANCED_FACE('',(#76),#53,.T.);
#465=ADVANCED_FACE('',(#77),#54,.T.);
#466=ADVANCED_FACE('',(#78),#55,.T.);
#467=ADVANCED_FACE('',(#79),#56,.T.);
#468=ADVANCED_FACE('',(#80),#57,.T.);
#469=ADVANCED_FACE('',(#81),#58,.T.);
#470=ADVANCED_FACE('',(#82),#449,.T.);
#471=ADVANCED_FACE('',(#83),#450,.T.);
#472=ADVANCED_FACE('',(#84),#451,.T.);
#473=ADVANCED_FACE('',(#85),#452,.T.);
#474=ADVANCED_FACE('',(#86),#453,.T.);
#475=ADVANCED_FACE('',(#87),#454,.T.);
#476=ADVANCED_FACE('',(#88),#59,.F.);
#477=ADVANCED_FACE('',(#89),#60,.F.);
#478=ADVANCED_FACE('',(#90),#61,.F.);
#479=ADVANCED_FACE('',(#91),#62,.F.);
#480=ADVANCED_FACE('',(#92),#63,.F.);
#481=ADVANCED_FACE('',(#93),#64,.F.);
#482=ADVANCED_FACE('',(#94),#14,.F.);
#483=CLOSED_SHELL('',(#455,#456,#457,#458,#459,#460,#461,#462,#463,#464,
#465,#466,#467,#468,#469,#470,#471,#472,#473,#474,#475,#476,#477,#478,#479,
#480,#481,#482));
#484=DERIVED_UNIT_ELEMENT(#486,1.);
#485=DERIVED_UNIT_ELEMENT(#929,3.);
#486=(
MASS_UNIT()
NAMED_UNIT(*)
SI_UNIT($,.GRAM.)
);
#487=DERIVED_UNIT((#484,#485));
#488=MEASURE_REPRESENTATION_ITEM('density measure',
POSITIVE_RATIO_MEASURE(1.),#487);
#489=PROPERTY_DEFINITION_REPRESENTATION(#494,#491);
#490=PROPERTY_DEFINITION_REPRESENTATION(#495,#492);
#491=REPRESENTATION('material name',(#493),#926);
#492=REPRESENTATION('density',(#488),#926);
#493=DESCRIPTIVE_REPRESENTATION_ITEM('Generic','Generic');
#494=PROPERTY_DEFINITION('material property','material name',#936);
#495=PROPERTY_DEFINITION('material property','density of part',#936);
#496=DATE_TIME_ROLE('creation_date');
#497=APPLIED_DATE_AND_TIME_ASSIGNMENT(#498,#496,(#936));
#498=DATE_AND_TIME(#499,#500);
#499=CALENDAR_DATE(2000,13,7);
#500=LOCAL_TIME(8,49,45.,#501);
#501=COORDINATED_UNIVERSAL_TIME_OFFSET(0,0,.BEHIND.);
#502=AXIS2_PLACEMENT_3D('placement',#775,#588,#589);
#503=AXIS2_PLACEMENT_3D('',#776,#590,#591);
#504=AXIS2_PLACEMENT_3D('',#779,#592,#593);
#505=AXIS2_PLACEMENT_3D('',#780,#594,#595);
#506=AXIS2_PLACEMENT_3D('',#781,#596,#597);
#507=AXIS2_PLACEMENT_3D('',#784,#598,#599);
#508=AXIS2_PLACEMENT_3D('',#785,#600,#601);
#509=AXIS2_PLACEMENT_3D('',#787,#603,#604);
#510=AXIS2_PLACEMENT_3D('',#790,#605,#606);
#511=AXIS2_PLACEMENT_3D('',#791,#607,#608);
#512=AXIS2_PLACEMENT_3D('',#794,#609,#610);
#513=AXIS2_PLACEMENT_3D('',#795,#611,#612);
#514=AXIS2_PLACEMENT_3D('',#796,#613,#614);
#515=AXIS2_PLACEMENT_3D('',#799,#615,#616);
#516=AXIS2_PLACEMENT_3D('',#800,#617,#618);
#517=AXIS2_PLACEMENT_3D('',#804,#620,#621);
#518=AXIS2_PLACEMENT_3D('',#805,#622,#623);
#519=AXIS2_PLACEMENT_3D('',#806,#624,#625);
#520=AXIS2_PLACEMENT_3D('',#809,#626,#627);
#521=AXIS2_PLACEMENT_3D('',#811,#628,#629);
#522=AXIS2_PLACEMENT_3D('',#813,#630,#631);
#523=AXIS2_PLACEMENT_3D('',#814,#632,#633);
#524=AXIS2_PLACEMENT_3D('',#815,#634,#635);
#525=AXIS2_PLACEMENT_3D('',#816,#636,#637);
#526=AXIS2_PLACEMENT_3D('',#819,#638,#639);
#527=AXIS2_PLACEMENT_3D('',#821,#640,#641);
#528=AXIS2_PLACEMENT_3D('',#823,#642,#643);
#529=AXIS2_PLACEMENT_3D('',#825,#644,#645);
#530=AXIS2_PLACEMENT_3D('',#827,#646,#647);
#531=AXIS2_PLACEMENT_3D('',#829,#648,#649);
#532=AXIS2_PLACEMENT_3D('',#831,#650,#651);
#533=AXIS2_PLACEMENT_3D('',#833,#652,#653);
#534=AXIS2_PLACEMENT_3D('',#835,#654,#655);
#535=AXIS2_PLACEMENT_3D('',#837,#656,#657);
#536=AXIS2_PLACEMENT_3D('',#839,#658,#659);
#537=AXIS2_PLACEMENT_3D('',#840,#660,#661);
#538=AXIS2_PLACEMENT_3D('',#841,#662,#663);
#539=AXIS2_PLACEMENT_3D('',#842,#664,#665);
#540=AXIS2_PLACEMENT_3D('',#843,#666,#667);
#541=AXIS2_PLACEMENT_3D('',#844,#668,#669);
#542=AXIS2_PLACEMENT_3D('',#845,#670,#671);
#543=AXIS2_PLACEMENT_3D('',#846,#672,#673);
#544=AXIS2_PLACEMENT_3D('',#847,#674,#675);
#545=AXIS2_PLACEMENT_3D('',#850,#676,#677);
#546=AXIS2_PLACEMENT_3D('',#854,#680,#681);
#547=AXIS2_PLACEMENT_3D('',#855,#682,#683);
#548=AXIS2_PLACEMENT_3D('',#858,#684,#685);
#549=AXIS2_PLACEMENT_3D('',#862,#688,#689);
#550=AXIS2_PLACEMENT_3D('',#863,#690,#691);
#551=AXIS2_PLACEMENT_3D('',#866,#692,#693);
#552=AXIS2_PLACEMENT_3D('',#870,#696,#697);
#553=AXIS2_PLACEMENT_3D('',#871,#698,#699);
#554=AXIS2_PLACEMENT_3D('',#874,#700,#701);
#555=AXIS2_PLACEMENT_3D('',#878,#704,#705);
#556=AXIS2_PLACEMENT_3D('',#879,#706,#707);
#557=AXIS2_PLACEMENT_3D('',#882,#708,#709);
#558=AXIS2_PLACEMENT_3D('',#886,#712,#713);
#559=AXIS2_PLACEMENT_3D('',#887,#714,#715);
#560=AXIS2_PLACEMENT_3D('',#890,#716,#717);
#561=AXIS2_PLACEMENT_3D('',#894,#720,#721);
#562=AXIS2_PLACEMENT_3D('',#895,#722,#723);
#563=AXIS2_PLACEMENT_3D('',#896,#724,#725);
#564=AXIS2_PLACEMENT_3D('',#897,#726,#727);
#565=AXIS2_PLACEMENT_3D('',#898,#728,#729);
#566=AXIS2_PLACEMENT_3D('',#899,#730,#731);
#567=AXIS2_PLACEMENT_3D('',#900,#732,#733);
#568=AXIS2_PLACEMENT_3D('',#901,#734,#735);
#569=AXIS2_PLACEMENT_3D('',#903,#736,#737);
#570=AXIS2_PLACEMENT_3D('',#904,#738,#739);
#571=AXIS2_PLACEMENT_3D('',#905,#740,#741);
#572=AXIS2_PLACEMENT_3D('',#906,#742,#743);
#573=AXIS2_PLACEMENT_3D('',#907,#744,#745);
#574=AXIS2_PLACEMENT_3D('',#908,#746,#747);
#575=AXIS2_PLACEMENT_3D('',#909,#748,#749);
#576=AXIS2_PLACEMENT_3D('',#910,#750,#751);
#577=AXIS2_PLACEMENT_3D('',#911,#752,#753);
#578=AXIS2_PLACEMENT_3D('',#912,#754,#755);
#579=AXIS2_PLACEMENT_3D('',#913,#756,#757);
#580=AXIS2_PLACEMENT_3D('',#914,#758,#759);
#581=AXIS2_PLACEMENT_3D('',#915,#760,#761);
#582=AXIS2_PLACEMENT_3D('',#916,#762,#763);
#583=AXIS2_PLACEMENT_3D('',#917,#764,#765);
#584=AXIS2_PLACEMENT_3D('',#918,#766,#767);
#585=AXIS2_PLACEMENT_3D('',#919,#768,#769);
#586=AXIS2_PLACEMENT_3D('',#920,#770,#771);
#587=AXIS2_PLACEMENT_3D('',#921,#772,#773);
#588=DIRECTION('axis',(0.,0.,1.));
#589=DIRECTION('refdir',(1.,0.,0.));
#590=DIRECTION('center_axis',(-4.82264870676979E-16,-1.21060780907238E-16,
1.));
#591=DIRECTION('ref_axis',(1.,0.,4.82264870676979E-16));
#592=DIRECTION('center_axis',(4.82264870676979E-16,1.21060780907238E-16,
-1.));
#593=DIRECTION('ref_axis',(-4.9960036108132E-16,1.,1.23860085403988E-16));
#594=DIRECTION('center_axis',(4.82264870676979E-16,1.21060780907238E-16,
-1.));
#595=DIRECTION('ref_axis',(-4.9960036108132E-16,1.,1.23860085403988E-16));
#596=DIRECTION('center_axis',(4.82264870676979E-16,1.21060780907238E-16,
-1.));
#597=DIRECTION('ref_axis',(-4.9960036108132E-16,1.,1.23860085403988E-16));
#598=DIRECTION('center_axis',(-4.82264870676979E-16,-1.21060780907238E-16,
1.));
#599=DIRECTION('ref_axis',(4.9960036108132E-16,-1.,-1.23860085403988E-16));
#600=DIRECTION('center_axis',(-4.82264870676979E-16,-1.21060780907238E-16,
1.));
#601=DIRECTION('ref_axis',(4.9960036108132E-16,-1.,-1.23860085403988E-16));
#602=DIRECTION('',(-4.82264870676979E-16,-1.21060780907238E-16,1.));
#603=DIRECTION('center_axis',(-4.82264870676979E-16,-1.21060780907238E-16,
1.));
#604=DIRECTION('ref_axis',(1.,0.,4.82264870676979E-16));
#605=DIRECTION('center_axis',(-4.82264870676979E-16,-1.21060780907238E-16,
1.));
#606=DIRECTION('ref_axis',(4.9960036108132E-16,-1.,-1.23860085403988E-16));
#607=DIRECTION('center_axis',(-4.82264870676979E-16,-1.21060780907238E-16,
1.));
#608=DIRECTION('ref_axis',(4.9960036108132E-16,-1.,-1.23860085403988E-16));
#609=DIRECTION('center_axis',(-4.82264870676979E-16,-1.21060780907238E-16,
1.));
#610=DIRECTION('ref_axis',(4.99600361081321E-16,-1.,-1.23860085403988E-16));
#611=DIRECTION('center_axis',(-4.82264870676979E-16,-1.21060780907238E-16,
1.));
#612=DIRECTION('ref_axis',(4.99600361081321E-16,-1.,-1.23860085403988E-16));
#613=DIRECTION('center_axis',(4.82264870676979E-16,1.21060780907238E-16,
-1.));
#614=DIRECTION('ref_axis',(-4.9960036108132E-16,1.,1.23860085403988E-16));
#615=DIRECTION('center_axis',(-4.82264870676979E-16,-1.21060780907238E-16,
1.));
#616=DIRECTION('ref_axis',(4.9960036108132E-16,-1.,-1.23860085403988E-16));
#617=DIRECTION('center_axis',(-4.82264870676979E-16,-1.21060780907238E-16,
1.));
#618=DIRECTION('ref_axis',(4.9960036108132E-16,-1.,-1.23860085403988E-16));
#619=DIRECTION('',(-4.82264870676979E-16,-1.21060780907238E-16,1.));
#620=DIRECTION('center_axis',(-4.82264870676979E-16,-1.21060780907238E-16,
1.));
#621=DIRECTION('ref_axis',(4.9960036108132E-16,-1.,-1.23860085403988E-16));
#622=DIRECTION('center_axis',(-4.82264870676979E-16,-1.21060780907238E-16,
1.));
#623=DIRECTION('ref_axis',(4.9960036108132E-16,-1.,-1.23860085403988E-16));
#624=DIRECTION('center_axis',(6.1232339957369E-17,0.,1.));
#625=DIRECTION('ref_axis',(1.,0.,0.));
#626=DIRECTION('center_axis',(-4.82264870676979E-16,-1.21060780907238E-16,
1.));
#627=DIRECTION('ref_axis',(4.99600361081321E-16,-1.,-1.23860085403988E-16));
#628=DIRECTION('center_axis',(1.22464679914735E-16,-1.,0.));
#629=DIRECTION('ref_axis',(-1.,-1.22464679914735E-16,0.));
#630=DIRECTION('center_axis',(4.82264870676979E-16,1.21060780907238E-16,
-1.));
#631=DIRECTION('ref_axis',(-4.9960036108132E-16,1.,1.23860085403988E-16));
#632=DIRECTION('center_axis',(4.82264870676979E-16,1.21060780907238E-16,
-1.));
#633=DIRECTION('ref_axis',(-4.9960036108132E-16,1.,1.23860085403988E-16));
#634=DIRECTION('center_axis',(-4.82264870676979E-16,-1.21060780907238E-16,
1.));
#635=DIRECTION('ref_axis',(4.99600361081321E-16,-1.,-1.23860085403988E-16));
#636=DIRECTION('center_axis',(4.82264870676979E-16,1.21060780907238E-16,
-1.));
#637=DIRECTION('ref_axis',(-1.,0.,-4.82264870676979E-16));
#638=DIRECTION('center_axis',(4.82264870676979E-16,1.21060983133863E-16,
-1.));
#639=DIRECTION('ref_axis',(-4.9960036108132E-16,1.,1.23860287630613E-16));
#640=DIRECTION('center_axis',(-4.82264870676979E-16,-1.21060983133863E-16,
1.));
#641=DIRECTION('ref_axis',(-4.9960036108132E-16,1.,1.23860287630613E-16));
#642=DIRECTION('center_axis',(4.82264870676979E-16,1.21060983133863E-16,
-1.));
#643=DIRECTION('ref_axis',(-4.9960036108132E-16,1.,1.23860287630613E-16));
#644=DIRECTION('center_axis',(-4.82264870676979E-16,-1.21060983133863E-16,
1.));
#645=DIRECTION('ref_axis',(-4.9960036108132E-16,1.,1.23860287630613E-16));
#646=DIRECTION('center_axis',(4.82264870676979E-16,1.21060983133863E-16,
-1.));
#647=DIRECTION('ref_axis',(-4.9960036108132E-16,1.,1.23860287630613E-16));
#648=DIRECTION('center_axis',(-4.82264870676979E-16,-1.21060983133863E-16,
1.));
#649=DIRECTION('ref_axis',(-4.9960036108132E-16,1.,1.23860287630613E-16));
#650=DIRECTION('center_axis',(4.82264870676979E-16,1.21060983133863E-16,
-1.));
#651=DIRECTION('ref_axis',(-4.9960036108132E-16,1.,1.23860287630613E-16));
#652=DIRECTION('center_axis',(-4.82264870676979E-16,-1.21060983133863E-16,
1.));
#653=DIRECTION('ref_axis',(-4.9960036108132E-16,1.,1.23860287630613E-16));
#654=DIRECTION('center_axis',(4.82264870676979E-16,1.21060983133863E-16,
-1.));
#655=DIRECTION('ref_axis',(-4.9960036108132E-16,1.,1.23860287630613E-16));
#656=DIRECTION('center_axis',(-4.82264870676979E-16,-1.21060983133863E-16,
1.));
#657=DIRECTION('ref_axis',(-4.9960036108132E-16,1.,1.23860287630613E-16));
#658=DIRECTION('center_axis',(4.82264870676979E-16,1.21060983133863E-16,
-1.));
#659=DIRECTION('ref_axis',(-4.9960036108132E-16,1.,1.23860287630613E-16));
#660=DIRECTION('center_axis',(-4.82264870676979E-16,-1.21060983133863E-16,
1.));
#661=DIRECTION('ref_axis',(-4.9960036108132E-16,1.,1.23860287630613E-16));
#662=DIRECTION('center_axis',(-4.82264870676979E-16,-1.21060780907238E-16,
1.));
#663=DIRECTION('ref_axis',(1.,0.,4.78544407166016E-16));
#664=DIRECTION('center_axis',(-1.22464679914736E-16,1.,1.21060780907238E-16));
#665=DIRECTION('ref_axis',(-1.,-1.22464679914735E-16,-4.78544407166016E-16));
#666=DIRECTION('center_axis',(-4.82264870676979E-16,-1.21060780907238E-16,
1.));
#667=DIRECTION('ref_axis',(1.,0.,4.62592926927149E-16));
#668=DIRECTION('center_axis',(1.22464679914735E-16,-1.,-1.21060780907238E-16));
#669=DIRECTION('ref_axis',(-1.,-1.22464679914735E-16,-4.62592926927149E-16));
#670=DIRECTION('center_axis',(-4.82264870676979E-16,-1.21060780907238E-16,
1.));
#671=DIRECTION('ref_axis',(1.,0.,4.74157750100327E-16));
#672=DIRECTION('center_axis',(1.22464679914735E-16,-1.,-1.21060780907238E-16));
#673=DIRECTION('ref_axis',(-1.,-1.22464679914735E-16,-4.77048955893622E-16));
#674=DIRECTION('center_axis',(4.82264870676979E-16,1.21060983133863E-16,
-1.));
#675=DIRECTION('ref_axis',(-4.9960036108132E-16,1.,1.23860287630613E-16));
#676=DIRECTION('center_axis',(-4.82264870676979E-16,-1.21060983133863E-16,
1.));
#677=DIRECTION('ref_axis',(-4.9960036108132E-16,1.,1.23860287630613E-16));
#678=DIRECTION('',(5.55111512312579E-16,1.38777878078145E-16,-1.));
#679=DIRECTION('',(5.55111512312579E-16,1.38777878078145E-16,-1.));
#680=DIRECTION('center_axis',(-4.82264870676979E-16,-1.21060983133863E-16,
1.));
#681=DIRECTION('ref_axis',(-4.9960036108132E-16,1.,1.23860287630613E-16));
#682=DIRECTION('center_axis',(4.82264870676979E-16,1.21060983133863E-16,
-1.));
#683=DIRECTION('ref_axis',(-4.9960036108132E-16,1.,1.23860287630613E-16));
#684=DIRECTION('center_axis',(-4.82264870676979E-16,-1.21060983133863E-16,
1.));
#685=DIRECTION('ref_axis',(-4.9960036108132E-16,1.,1.23860287630613E-16));
#686=DIRECTION('',(4.85722573273513E-16,0.,-1.));
#687=DIRECTION('',(4.16333634234434E-16,1.38777878078145E-16,-1.));
#688=DIRECTION('center_axis',(-4.82264870676979E-16,-1.21060983133863E-16,
1.));
#689=DIRECTION('ref_axis',(-4.9960036108132E-16,1.,1.23860287630613E-16));
#690=DIRECTION('center_axis',(4.82264870676979E-16,1.21060983133863E-16,
-1.));
#691=DIRECTION('ref_axis',(-4.9960036108132E-16,1.,1.23860287630613E-16));
#692=DIRECTION('center_axis',(-4.82264870676979E-16,-1.21060983133863E-16,
1.));
#693=DIRECTION('ref_axis',(-4.9960036108132E-16,1.,1.23860287630613E-16));
#694=DIRECTION('',(4.16333634234435E-16,1.38777878078145E-16,-1.));
#695=DIRECTION('',(4.85722573273505E-16,0.,-1.));
#696=DIRECTION('center_axis',(-4.82264870676979E-16,-1.21060983133863E-16,
1.));
#697=DIRECTION('ref_axis',(-4.9960036108132E-16,1.,1.23860287630613E-16));
#698=DIRECTION('center_axis',(4.82264870676979E-16,1.21060983133863E-16,
-1.));
#699=DIRECTION('ref_axis',(-4.9960036108132E-16,1.,1.23860287630613E-16));
#700=DIRECTION('center_axis',(-4.82264870676979E-16,-1.21060983133863E-16,
1.));
#701=DIRECTION('ref_axis',(-4.9960036108132E-16,1.,1.23860287630613E-16));
#702=DIRECTION('',(5.55111512312579E-16,1.38777878078145E-16,-1.));
#703=DIRECTION('',(5.55111512312578E-16,1.38777878078144E-16,-1.));
#704=DIRECTION('center_axis',(-4.82264870676979E-16,-1.21060983133863E-16,
1.));
#705=DIRECTION('ref_axis',(-4.9960036108132E-16,1.,1.23860287630613E-16));
#706=DIRECTION('center_axis',(4.82264870676979E-16,1.21060983133863E-16,
-1.));
#707=DIRECTION('ref_axis',(-0.500000000000024,-0.866025403784425,-3.43175017642795E-16));
#708=DIRECTION('center_axis',(-4.82264870676979E-16,-1.21060983133863E-16,
1.));
#709=DIRECTION('ref_axis',(-4.9960036108132E-16,1.,1.23860287630613E-16));
#710=DIRECTION('',(4.85722573273506E-16,2.77555756156289E-16,-1.));
#711=DIRECTION('',(4.16333634234434E-16,1.38777878078145E-16,-1.));
#712=DIRECTION('center_axis',(-4.82264870676979E-16,-1.21060983133863E-16,
1.));
#713=DIRECTION('ref_axis',(-4.9960036108132E-16,1.,1.23860287630613E-16));
#714=DIRECTION('center_axis',(4.82264870676979E-16,1.21060983133863E-16,
-1.));
#715=DIRECTION('ref_axis',(0.500000000000038,-0.866025403784417,1.39089853034215E-16));
#716=DIRECTION('center_axis',(-4.82264870676979E-16,-1.21060983133863E-16,
1.));
#717=DIRECTION('ref_axis',(-4.9960036108132E-16,1.,1.23860287630613E-16));
#718=DIRECTION('',(4.16333634234434E-16,1.38777878078144E-16,-1.));
#719=DIRECTION('',(4.85722573273507E-16,2.7755575615629E-16,-1.));
#720=DIRECTION('center_axis',(-4.82264870676979E-16,-1.21060983133863E-16,
1.));
#721=DIRECTION('ref_axis',(-4.9960036108132E-16,1.,1.23860287630613E-16));
#722=DIRECTION('center_axis',(4.82264870676979E-16,1.21060983133863E-16,
-1.));
#723=DIRECTION('ref_axis',(-1.,0.,-4.82264870676979E-16));
#724=DIRECTION('center_axis',(4.82264870676979E-16,1.21060983133863E-16,
-1.));
#725=DIRECTION('ref_axis',(-4.9960036108132E-16,1.,1.23860287630613E-16));
#726=DIRECTION('center_axis',(4.82264870676979E-16,1.21060983133863E-16,
-1.));
#727=DIRECTION('ref_axis',(-4.9960036108132E-16,1.,1.23860287630613E-16));
#728=DIRECTION('center_axis',(4.82264870676979E-16,1.21060983133863E-16,
-1.));
#729=DIRECTION('ref_axis',(-1.,0.,-4.82264870676979E-16));
#730=DIRECTION('center_axis',(4.82264870676979E-16,1.21060983133863E-16,
-1.));
#731=DIRECTION('ref_axis',(-4.9960036108132E-16,1.,1.23860287630613E-16));
#732=DIRECTION('center_axis',(4.82264870676979E-16,1.21060983133863E-16,
-1.));
#733=DIRECTION('ref_axis',(-4.9960036108132E-16,1.,1.23860287630613E-16));
#734=DIRECTION('center_axis',(4.82264870676979E-16,1.21060983133863E-16,
-1.));
#735=DIRECTION('ref_axis',(-1.,0.,-4.82264870676979E-16));
#736=DIRECTION('center_axis',(4.82264870676979E-16,1.21060983133863E-16,
-1.));
#737=DIRECTION('ref_axis',(-4.9960036108132E-16,1.,1.23860287630613E-16));
#738=DIRECTION('center_axis',(4.82264870676979E-16,1.21060983133863E-16,
-1.));
#739=DIRECTION('ref_axis',(-4.9960036108132E-16,1.,1.23860287630613E-16));
#740=DIRECTION('center_axis',(4.82264870676979E-16,1.21060983133863E-16,
-1.));
#741=DIRECTION('ref_axis',(-4.9960036108132E-16,1.,1.23860287630613E-16));
#742=DIRECTION('center_axis',(4.82264870676979E-16,1.21060983133863E-16,
-1.));
#743=DIRECTION('ref_axis',(-1.,0.,-4.82264870676979E-16));
#744=DIRECTION('center_axis',(4.82264870676979E-16,1.21060983133863E-16,
-1.));
#745=DIRECTION('ref_axis',(-4.9960036108132E-16,1.,1.23860287630613E-16));
#746=DIRECTION('center_axis',(4.82264870676979E-16,1.21060983133863E-16,
-1.));
#747=DIRECTION('ref_axis',(-4.9960036108132E-16,1.,1.23860287630613E-16));
#748=DIRECTION('center_axis',(4.82264870676979E-16,1.21060983133863E-16,
-1.));
#749=DIRECTION('ref_axis',(-1.,0.,-4.82264870676979E-16));
#750=DIRECTION('center_axis',(4.82264870676979E-16,1.21060983133863E-16,
-1.));
#751=DIRECTION('ref_axis',(-4.9960036108132E-16,1.,1.23860287630613E-16));
#752=DIRECTION('center_axis',(4.82264870676979E-16,1.21060983133863E-16,
-1.));
#753=DIRECTION('ref_axis',(-4.9960036108132E-16,1.,1.23860287630613E-16));
#754=DIRECTION('center_axis',(4.82264870676979E-16,1.21060983133863E-16,
-1.));
#755=DIRECTION('ref_axis',(-1.,0.,-4.82264870676979E-16));
#756=DIRECTION('center_axis',(4.82264870676979E-16,1.21060983133863E-16,
-1.));
#757=DIRECTION('ref_axis',(-4.9960036108132E-16,1.,1.23860287630613E-16));
#758=DIRECTION('center_axis',(4.82264870676979E-16,1.21060983133863E-16,
-1.));
#759=DIRECTION('ref_axis',(-4.9960036108132E-16,1.,1.23860287630613E-16));
#760=DIRECTION('center_axis',(4.82264870676979E-16,1.21060983133863E-16,
-1.));
#761=DIRECTION('ref_axis',(-4.9960036108132E-16,1.,1.23860287630613E-16));
#762=DIRECTION('center_axis',(4.82264870676979E-16,1.21060983133863E-16,
-1.));
#763=DIRECTION('ref_axis',(-1.98060386121068E-14,-1.,-1.18261678637123E-16));
#764=DIRECTION('center_axis',(4.82264870676979E-16,1.21060983133863E-16,
-1.));
#765=DIRECTION('ref_axis',(-4.9960036108132E-16,1.,1.23860287630613E-16));
#766=DIRECTION('center_axis',(4.82264870676979E-16,1.21060983133863E-16,
-1.));
#767=DIRECTION('ref_axis',(-4.9960036108132E-16,1.,1.23860287630613E-16));
#768=DIRECTION('center_axis',(4.82264870676979E-16,1.21060983133863E-16,
-1.));
#769=DIRECTION('ref_axis',(-4.9960036108132E-16,1.,1.23860287630613E-16));
#770=DIRECTION('center_axis',(4.82264870676979E-16,1.21060983133863E-16,
-1.));
#771=DIRECTION('ref_axis',(-4.9960036108132E-16,1.,1.23860287630613E-16));
#772=DIRECTION('center_axis',(4.82264870676979E-16,1.21060983133863E-16,
-1.));
#773=DIRECTION('ref_axis',(-4.9960036108132E-16,1.,1.23860287630613E-16));
#774=DIRECTION('',(5.19335916817182E-16,-0.939692620785909,-0.342020143325666));
#775=CARTESIAN_POINT('',(0.,0.,0.));
#776=CARTESIAN_POINT('Origin',(0.,1.73472347597681E-14,6.));
#777=CARTESIAN_POINT('',(-6.24500451351651E-16,1.25000000000002,6.));
#778=CARTESIAN_POINT('',(-3.80811688834937E-14,-1.24999999999998,6.));
#779=CARTESIAN_POINT('Origin',(0.,1.73472347597681E-14,6.));
#780=CARTESIAN_POINT('Origin',(0.,1.73472347597681E-14,6.));
#781=CARTESIAN_POINT('Origin',(-3.46944695195361E-14,1.73472347597681E-14,
-1.99999999999999));
#782=CARTESIAN_POINT('',(-8.95811202994423E-14,-1.25000000000001,0.1));
#783=CARTESIAN_POINT('',(-1.25000000000009,-1.05614217057543E-14,0.0999999999999997));
#784=CARTESIAN_POINT('Origin',(-9.0205620750794E-14,-1.04083408558608E-14,
0.1));
#785=CARTESIAN_POINT('Origin',(-9.0205620750794E-14,-1.04083408558608E-14,
0.1));
#786=CARTESIAN_POINT('',(-3.42230499180779E-14,-1.24999999999998,-1.99999999999999));
#787=CARTESIAN_POINT('Origin',(-1.38777878078145E-14,1.25000000000001,1.0842021724855E-16));
#788=CARTESIAN_POINT('',(1.07414077632484E-15,-2.15,-2.66299183618574E-16));
#789=CARTESIAN_POINT('',(-2.15,-2.93564257043489E-16,-1.03885177877079E-15));
#790=CARTESIAN_POINT('Origin',(0.,0.,0.));
#791=CARTESIAN_POINT('Origin',(0.,0.,0.));
#792=CARTESIAN_POINT('',(6.74460487459783E-16,-1.35,-1.67211115295384E-16));
#793=CARTESIAN_POINT('',(-1.35,-1.0561562095655E-14,-6.55126248142533E-16));
#794=CARTESIAN_POINT('Origin',(0.,0.,0.));
#795=CARTESIAN_POINT('Origin',(0.,0.,0.));
#796=CARTESIAN_POINT('Origin',(-3.46944695195361E-14,1.73472347597681E-14,
-1.99999999999999));
#797=CARTESIAN_POINT('',(1.19904086659517E-15,-2.39999999999999,-0.939716779629664));
#798=CARTESIAN_POINT('',(-2.4,1.35838725760191E-14,-0.939716779629665));
#799=CARTESIAN_POINT('Origin',(0.,1.38777878078145E-14,-0.939716779629664));
#800=CARTESIAN_POINT('Origin',(0.,1.38777878078145E-14,-0.939716779629664));
#801=CARTESIAN_POINT('',(1.19904086659517E-15,-2.4,-0.249999999999992));
#802=CARTESIAN_POINT('',(-3.37893438847363E-14,-2.39999999999998,-1.99999999999999));
#803=CARTESIAN_POINT('',(-2.4,-2.93915231795365E-16,-0.249999999999993));
#804=CARTESIAN_POINT('Origin',(0.,0.,-0.249999999999992));
#805=CARTESIAN_POINT('Origin',(0.,0.,-0.249999999999992));
#806=CARTESIAN_POINT('Origin',(-9.0205620750794E-14,-1.04083408558608E-14,
0.194199999999998));
#807=CARTESIAN_POINT('',(1.18461759149084E-15,-2.37113037493984,-1.05634163666692));
#808=CARTESIAN_POINT('',(-2.37113037493985,-1.06987205782639E-14,-1.05634163666692));
#809=CARTESIAN_POINT('Origin',(0.,1.38777878078145E-14,-1.05634163666692));
#810=CARTESIAN_POINT('',(-1.54000000000003,-1.05969364629295E-14,-1.99999999999999));
#811=CARTESIAN_POINT('Origin',(-9.0205620750794E-14,-1.04083408558608E-14,
0.194199999999998));
#812=CARTESIAN_POINT('',(-3.54638540756014E-14,1.54000000000002,-1.99999999999999));
#813=CARTESIAN_POINT('Origin',(-3.46944695195361E-14,1.73472347597681E-14,
-1.99999999999999));
#814=CARTESIAN_POINT('Origin',(-3.46944695195361E-14,1.73472347597681E-14,
-1.99999999999999));
#815=CARTESIAN_POINT('Origin',(0.,1.38777878078145E-14,-1.05634163666692));
#816=CARTESIAN_POINT('Origin',(-3.46944695195361E-14,1.73472347597681E-14,
-1.99999999999999));
#817=CARTESIAN_POINT('',(0.217707917147314,-1.38296900283822,-2.));
#818=CARTESIAN_POINT('',(-0.217707917147369,-1.38296900283822,-1.99999999999999));
#819=CARTESIAN_POINT('Origin',(-3.46944695195361E-14,1.73472347597681E-14,
-1.99999999999999));
#820=CARTESIAN_POINT('',(1.08883233053058,-0.880025088273745,-2.));
#821=CARTESIAN_POINT('Origin',(0.807499999999954,-1.39863102711187,-1.99999999999999));
#822=CARTESIAN_POINT('',(1.30654024767795,-0.50294391456452,-1.99999999999999));
#823=CARTESIAN_POINT('Origin',(-3.46944695195361E-14,1.73472347597681E-14,
-1.99999999999999));
#824=CARTESIAN_POINT('',(1.30654024767796,0.502943914564482,-1.99999999999999));
#825=CARTESIAN_POINT('Origin',(1.61499999999998,-6.93889390390723E-15,-1.99999999999999));
#826=CARTESIAN_POINT('',(1.08883233053061,0.880025088273728,-2.));
#827=CARTESIAN_POINT('Origin',(-3.46944695195361E-14,1.73472347597681E-14,
-1.99999999999999));
#828=CARTESIAN_POINT('',(0.217707917147307,1.38296900283823,-2.));
#829=CARTESIAN_POINT('Origin',(0.807499999999975,1.39863102711188,-2.));
#830=CARTESIAN_POINT('',(-0.21770791714739,1.38296900283822,-2.));
#831=CARTESIAN_POINT('Origin',(-3.46944695195361E-14,1.73472347597681E-14,
-1.99999999999999));
#832=CARTESIAN_POINT('',(-1.08883233053075,0.880025088273707,-2.));
#833=CARTESIAN_POINT('Origin',(-0.8075000000001,1.39863102711186,-2.));
#834=CARTESIAN_POINT('',(-1.30654024767803,0.502943914564503,-2.));
#835=CARTESIAN_POINT('Origin',(-3.46944695195361E-14,1.73472347597681E-14,
-1.99999999999999));
#836=CARTESIAN_POINT('',(-1.30654024767804,-0.502943914564499,-1.99999999999999));
#837=CARTESIAN_POINT('Origin',(-1.61500000000011,-2.08166817117217E-14,
-2.));
#838=CARTESIAN_POINT('',(-1.08883233053067,-0.880025088273732,-1.99999999999999));
#839=CARTESIAN_POINT('Origin',(-3.46944695195361E-14,1.73472347597681E-14,
-1.99999999999999));
#840=CARTESIAN_POINT('Origin',(-0.807500000000044,-1.39863102711187,-2.));
#841=CARTESIAN_POINT('Origin',(-9.0205620750794E-14,-1.04083408558608E-14,
0.1));
#842=CARTESIAN_POINT('Origin',(-1.35000000000009,-1.05736681737457E-14,
0.0999999999999996));
#843=CARTESIAN_POINT('Origin',(0.,1.38777878078145E-14,-0.939716779629664));
#844=CARTESIAN_POINT('Origin',(-2.15,1.36144887459978E-14,-0.939716779629665));
#845=CARTESIAN_POINT('Origin',(0.,0.,-0.249999999999992));
#846=CARTESIAN_POINT('Origin',(-2.15,-2.63299061816681E-16,-0.249999999999993));
#847=CARTESIAN_POINT('Origin',(-1.61500000000011,-3.12250225675825E-14,
-1.));
#848=CARTESIAN_POINT('',(-1.30654024767803,-0.502943914564503,-0.999999999999993));
#849=CARTESIAN_POINT('',(-1.025,-2.42861286636753E-14,-0.999999999999993));
#850=CARTESIAN_POINT('Origin',(-1.61500000000011,-3.12250225675825E-14,
-1.));
#851=CARTESIAN_POINT('',(-1.30654024767803,-0.502943914564503,-0.999999999999993));
#852=CARTESIAN_POINT('',(-1.30654024767807,0.502943914564492,-1.));
#853=CARTESIAN_POINT('',(-1.30654024767807,0.502943914564492,-1.));
#854=CARTESIAN_POINT('Origin',(-1.61500000000011,-3.12250225675825E-14,
-1.));
#855=CARTESIAN_POINT('Origin',(-0.807500000000093,-1.39863102711188,-0.999999999999995));
#856=CARTESIAN_POINT('',(-0.217707917147369,-1.38296900283823,-1.));
#857=CARTESIAN_POINT('',(-0.512500000000068,-0.887676038879067,-0.999999999999993));
#858=CARTESIAN_POINT('Origin',(-0.807500000000093,-1.39863102711188,-0.999999999999995));
#859=CARTESIAN_POINT('',(-0.217707917147369,-1.38296900283823,-1.));
#860=CARTESIAN_POINT('',(-1.08883233053066,-0.880025088273732,-0.999999999999993));
#861=CARTESIAN_POINT('',(-1.08883233053066,-0.880025088273732,-0.999999999999993));
#862=CARTESIAN_POINT('Origin',(-0.807500000000093,-1.39863102711188,-0.999999999999995));
#863=CARTESIAN_POINT('Origin',(0.80749999999994,-1.39863102711189,-0.999999999999993));
#864=CARTESIAN_POINT('',(1.08883233053058,-0.880025088273752,-1.));
#865=CARTESIAN_POINT('',(0.512499999999992,-0.88767603887906,-0.999999999999993));
#866=CARTESIAN_POINT('Origin',(0.80749999999994,-1.39863102711189,-0.999999999999993));
#867=CARTESIAN_POINT('',(1.08883233053058,-0.880025088273752,-1.));
#868=CARTESIAN_POINT('',(0.217707917147307,-1.38296900283823,-0.999999999999995));
#869=CARTESIAN_POINT('',(0.217707917147307,-1.38296900283823,-0.999999999999995));
#870=CARTESIAN_POINT('Origin',(0.80749999999994,-1.39863102711189,-0.999999999999993));
#871=CARTESIAN_POINT('Origin',(1.61499999999996,-1.73472347597681E-14,-0.999999999999993));
#872=CARTESIAN_POINT('',(1.30654024767801,0.502943914564492,-0.999999999999993));
#873=CARTESIAN_POINT('',(1.02499999999998,-1.04083408558608E-14,-0.999999999999993));
#874=CARTESIAN_POINT('Origin',(1.61499999999996,-1.73472347597681E-14,-0.999999999999993));
#875=CARTESIAN_POINT('',(1.30654024767801,0.502943914564492,-0.999999999999993));
#876=CARTESIAN_POINT('',(1.30654024767796,-0.502943914564524,-0.999999999999993));
#877=CARTESIAN_POINT('',(1.30654024767796,-0.502943914564524,-0.999999999999993));
#878=CARTESIAN_POINT('Origin',(1.61499999999996,-1.73472347597681E-14,-0.999999999999993));
#879=CARTESIAN_POINT('Origin',(0.807499999999989,1.39863102711188,-1.00000000000001));
#880=CARTESIAN_POINT('',(0.217707917147342,1.38296900283823,-1.));
#881=CARTESIAN_POINT('',(0.512499999999978,0.88767603887905,-1.));
#882=CARTESIAN_POINT('Origin',(0.807499999999989,1.39863102711188,-1.00000000000001));
#883=CARTESIAN_POINT('',(0.217707917147342,1.38296900283823,-1.));
#884=CARTESIAN_POINT('',(1.08883233053061,0.880025088273714,-1.));
#885=CARTESIAN_POINT('',(1.08883233053061,0.880025088273714,-1.));
#886=CARTESIAN_POINT('Origin',(0.807499999999989,1.39863102711188,-1.00000000000001));
#887=CARTESIAN_POINT('Origin',(-0.807500000000134,1.39863102711184,-1.));
#888=CARTESIAN_POINT('',(-1.08883233053073,0.880025088273707,-0.999999999999998));
#889=CARTESIAN_POINT('',(-0.512500000000089,0.887676038879032,-1.));
#890=CARTESIAN_POINT('Origin',(-0.807500000000134,1.39863102711184,-1.));
#891=CARTESIAN_POINT('',(-1.08883233053073,0.880025088273707,-0.999999999999998));
#892=CARTESIAN_POINT('',(-0.21770791714739,1.38296900283822,-1.));
#893=CARTESIAN_POINT('',(-0.21770791714739,1.38296900283822,-1.));
#894=CARTESIAN_POINT('Origin',(-0.807500000000134,1.39863102711184,-1.));
#895=CARTESIAN_POINT('Origin',(-0.807500000000065,-3.46944695195361E-15,
-0.999999999999998));
#896=CARTESIAN_POINT('Origin',(0.,1.38777878078145E-14,-0.999999999999993));
#897=CARTESIAN_POINT('Origin',(0.,1.38777878078145E-14,-0.999999999999993));
#898=CARTESIAN_POINT('Origin',(-0.807500000000065,-3.46944695195361E-15,
-0.999999999999998));
#899=CARTESIAN_POINT('Origin',(0.,1.38777878078145E-14,-0.999999999999993));
#900=CARTESIAN_POINT('Origin',(0.,1.38777878078145E-14,-0.999999999999993));
#901=CARTESIAN_POINT('Origin',(-0.807500000000065,-3.46944695195361E-15,
-0.999999999999998));
#902=CARTESIAN_POINT('',(3.8656407319575E-16,-1.02499999999999,-0.999999999999993));
#903=CARTESIAN_POINT('Origin',(0.,1.38777878078145E-14,-0.999999999999993));
#904=CARTESIAN_POINT('Origin',(0.,1.38777878078145E-14,-0.999999999999993));
#905=CARTESIAN_POINT('Origin',(0.,1.38777878078145E-14,-0.999999999999993));
#906=CARTESIAN_POINT('Origin',(-0.807500000000065,-3.46944695195361E-15,
-0.999999999999998));
#907=CARTESIAN_POINT('Origin',(0.,1.38777878078145E-14,-0.999999999999993));
#908=CARTESIAN_POINT('Origin',(0.,1.38777878078145E-14,-0.999999999999993));
#909=CARTESIAN_POINT('Origin',(-0.807500000000065,-3.46944695195361E-15,
-0.999999999999998));
#910=CARTESIAN_POINT('Origin',(0.,1.38777878078145E-14,-0.999999999999993));
#911=CARTESIAN_POINT('Origin',(0.,1.38777878078145E-14,-0.999999999999993));
#912=CARTESIAN_POINT('Origin',(-0.807500000000065,-3.46944695195361E-15,
-0.999999999999998));
#913=CARTESIAN_POINT('Origin',(0.,1.38777878078145E-14,-0.999999999999993));
#914=CARTESIAN_POINT('Origin',(0.,1.38777878078145E-14,-0.999999999999993));
#915=CARTESIAN_POINT('Origin',(0.,1.38777878078145E-14,-0.999999999999993));
#916=CARTESIAN_POINT('Origin',(0.,1.38777878078145E-14,-0.999999999999993));
#917=CARTESIAN_POINT('Origin',(0.,1.38777878078145E-14,-0.999999999999993));
#918=CARTESIAN_POINT('Origin',(0.,1.38777878078145E-14,-0.999999999999993));
#919=CARTESIAN_POINT('Origin',(0.,1.38777878078145E-14,-0.999999999999993));
#920=CARTESIAN_POINT('Origin',(0.,1.38777878078145E-14,-0.999999999999993));
#921=CARTESIAN_POINT('Origin',(0.,1.38777878078145E-14,-0.999999999999993));
#922=CARTESIAN_POINT('',(0.,0.,-0.626930509877139));
#923=CARTESIAN_POINT('',(3.8656407319575E-16,-1.02499999999999,-0.999999999999993));
#924=UNCERTAINTY_MEASURE_WITH_UNIT(LENGTH_MEASURE(0.01),#928,
'DISTANCE_ACCURACY_VALUE',
'Maximum model space distance between geometric entities at asserted c
onnectivities');
#925=UNCERTAINTY_MEASURE_WITH_UNIT(LENGTH_MEASURE(0.01),#928,
'DISTANCE_ACCURACY_VALUE',
'Maximum model space distance between geometric entities at asserted c
onnectivities');
#926=(
GEOMETRIC_REPRESENTATION_CONTEXT(3)
GLOBAL_UNCERTAINTY_ASSIGNED_CONTEXT((#924))
GLOBAL_UNIT_ASSIGNED_CONTEXT((#928,#930,#931))
REPRESENTATION_CONTEXT('','3D')
);
#927=(
GEOMETRIC_REPRESENTATION_CONTEXT(3)
GLOBAL_UNCERTAINTY_ASSIGNED_CONTEXT((#925))
GLOBAL_UNIT_ASSIGNED_CONTEXT((#928,#930,#931))
REPRESENTATION_CONTEXT('','3D')
);
#928=(
LENGTH_UNIT()
NAMED_UNIT(*)
SI_UNIT(.MILLI.,.METRE.)
);
#929=(
LENGTH_UNIT()
NAMED_UNIT(*)
SI_UNIT(.CENTI.,.METRE.)
);
#930=(
NAMED_UNIT(*)
PLANE_ANGLE_UNIT()
SI_UNIT($,.RADIAN.)
);
#931=(
NAMED_UNIT(*)
SI_UNIT($,.STERADIAN.)
SOLID_ANGLE_UNIT()
);
#932=SHAPE_DEFINITION_REPRESENTATION(#933,#934);
#933=PRODUCT_DEFINITION_SHAPE('',$,#936);
#934=SHAPE_REPRESENTATION('',(#502),#926);
#935=PRODUCT_DEFINITION_CONTEXT('part definition',#940,'design');
#936=PRODUCT_DEFINITION('Vis KA22x5 hexalobes','Vis KA22x5 hexalobes',#937,
#935);
#937=PRODUCT_DEFINITION_FORMATION('',$,#942);
#938=PRODUCT_RELATED_PRODUCT_CATEGORY('Vis KA22x5 hexalobes',
'Vis KA22x5 hexalobes',(#942));
#939=APPLICATION_PROTOCOL_DEFINITION('international standard',
'automotive_design',2009,#940);
#940=APPLICATION_CONTEXT(
'Core Data for Automotive Mechanical Design Process');
#941=PRODUCT_CONTEXT('part definition',#940,'mechanical');
#942=PRODUCT('Vis KA22x5 hexalobes','Vis KA22x5 hexalobes',$,(#941));
#943=PRESENTATION_STYLE_ASSIGNMENT((#944));
#944=SURFACE_STYLE_USAGE(.BOTH.,#947);
#945=SURFACE_STYLE_RENDERING_WITH_PROPERTIES($,#951,(#946));
#946=SURFACE_STYLE_TRANSPARENT(0.);
#947=SURFACE_SIDE_STYLE('',(#948,#945));
#948=SURFACE_STYLE_FILL_AREA(#949);
#949=FILL_AREA_STYLE('',(#950));
#950=FILL_AREA_STYLE_COLOUR('',#951);
#951=COLOUR_RGB('',0.752941176470588,0.752941176470588,0.752941176470588);
ENDSEC;
END-ISO-10303-21;
