EESchema Schematic File Version 4
EELAYER 30 0
EELAYER END
$Descr A3 16535 11693
encoding utf-8
Sheet 1 9
Title "RB0505 CPU Board"
Date "2020-04-15"
Rev "1"
Comp "KiCad OpenVentilator Group"
Comment1 "based on Medtronic open design files"
Comment2 ""
Comment3 ""
Comment4 ""
$EndDescr
$Sheet
S 600  650  1350 2450
U 5E924756
F0 "RTC & WDT" 100
F1 "10125623A00_3.sch" 50
F2 "MTSR_SPI_0" I R 1950 3050 50 
F3 "SCLK_SPI_0" I R 1950 2950 50 
F4 "CE-RTC1" I R 1950 2500 50 
F5 "CD-O2" I R 1950 2825 50 
F6 "O2_VALVE" O R 1950 1200 50 
F7 "CD-VALVE" I R 1950 2725 50 
F8 "EXHALATION-VALVE" O R 1950 1100 50 
F9 "~CE~-RTC2" I R 1950 2600 50 
F10 "MES-I-VALVE" O R 1950 1300 50 
F11 "FIO2-MEAS" O R 1950 1425 50 
F12 "CON-FIO2-MEAS" I R 1950 2175 50 
F13 "SEC-BUZ" I R 1950 2375 50 
F14 "WDOG" I R 1950 2275 50 
F15 "PFI" O R 1950 1550 50 
F16 "POWER_FAIL" O R 1950 750 50 
F17 "MRST_SPI_0_E" O R 1950 1675 50 
F18 "~RESET~" O R 1950 875 50 
F19 "RESET" I R 1950 975 50 
$EndSheet
$Sheet
S 3900 5925 1300 1750
U 5E924D33
F0 "SENSORS" 100
F1 "10125623A00_4.sch" 50
F2 "PRES_INT" O R 5200 6000 50 
F3 "P_VALVE" O R 5200 6225 50 
F4 "PRES-PROX" O R 5200 6100 50 
F5 "~CE~-INT-PRES-SENS" I L 3900 7500 50 
F6 "SCLK_SPI_0" I L 3900 7025 50 
F7 "MRST_SPI_0_E" O R 5200 6600 50 
F8 "MTSR_SPI_0" I L 3900 6925 50 
F9 "~CE~-VALV-PRES-SENS" I L 3900 7600 50 
F10 "QI-MEAS" O R 5200 6475 50 
F11 "MES_Q_E" O R 5200 6350 50 
F12 "~CE~-FLOW-INSP-SENS" I L 3900 7300 50 
F13 "~CE~-FLOW-EXP-SENS" I L 3900 7200 50 
F14 "PRES-ABS" O R 5200 7400 50 
F15 "PRES-O2" O R 5200 7500 50 
F16 "~CE~-PROX-PRES-SENS" I L 3900 7400 50 
F17 "INT_PRES_MES" I R 5200 6825 50 
F18 "VALVE_PRES_MES" I R 5200 6925 50 
F19 "PROX_PRES_MES" I R 5200 7025 50 
$EndSheet
$Sheet
S 2775 700  1100 800 
U 5E92540F
F0 "POWER" 100
F1 "10125623A00_5.sch" 50
F2 "+5VREF-FAILURE" O R 3875 875 50 
F3 "+10VREF-FAILURE" O R 3875 950 50 
F4 "+3.3V-FAILURE" O R 3875 800 50 
F5 "MES-24V" O R 3875 1025 50 
$EndSheet
Text Label 4650 1375 2    50   ~ 0
~RESET~
Text Label 4650 1150 2    50   ~ 0
POWER_FAIL
Text Label 4650 1250 2    50   ~ 0
+5VSUPPLY-BOARD
Text Label 4650 1500 2    50   ~ 0
SPEED_MEASURE
Text Label 4650 1600 2    50   ~ 0
LED_PRESENCE_AC
Text Label 4650 1700 2    50   ~ 0
IRQ_UART
Text Label 4650 1800 2    50   ~ 0
PFI
Text Label 4650 1900 2    50   ~ 0
VBAT
Text Label 4650 2000 2    50   ~ 0
FIO2-MEAS
Text Label 4650 2100 2    50   ~ 0
ALARM-INHIB
Text Label 4650 2200 2    50   ~ 0
FLOW-TEMP
Text Label 4650 2300 2    50   ~ 0
USB_BUSY
Text Label 4650 2400 2    50   ~ 0
P_VALVE
Text Label 4650 2650 2    50   ~ 0
DEF-TURB
Text Label 4650 2750 2    50   ~ 0
TURBINE-TEMP
Text Label 4650 2850 2    50   ~ 0
RXD1
Text Label 4650 2950 2    50   ~ 0
RX_UART_ST
Text Label 4650 3050 2    50   ~ 0
MES-I-VALVE
Text Label 4650 3150 2    50   ~ 0
MES_Q_E
Text Label 4650 3350 2    50   ~ 0
QI-MEAS
Text Label 4650 3450 2    50   ~ 0
Q-O2-MEAS
Text Label 4650 3550 2    50   ~ 0
TESTBUZ
Text Label 4650 3650 2    50   ~ 0
TEST-RAP-ALARM
Text Label 4650 3750 2    50   ~ 0
BUSY-AFF
Text Label 4650 3850 2    50   ~ 0
BUSY-ME1
Text Label 4650 3950 2    50   ~ 0
BUSY-ME2
Text Label 4650 4050 2    50   ~ 0
PRES-PROX
Text Label 4650 4150 2    50   ~ 0
PRES-ABS
Text Label 4650 4250 2    50   ~ 0
PRES_INT
Text Label 4650 4350 2    50   ~ 0
PRES-O2
Text Label 4650 4450 2    50   ~ 0
KEY-1
Text Label 4650 4550 2    50   ~ 0
KEY-2
Text Label 4650 4650 2    50   ~ 0
RTS_UART_ST
Text Label 4650 4750 2    50   ~ 0
MRST_SPI_0
Text Label 4650 4850 2    50   ~ 0
MRST_SPI_1
Text Label 4650 4950 2    50   ~ 0
MRST_SPI_0_E
Text Label 4650 5050 2    50   ~ 0
CE_SPI_PIC_IC44
Text Label 1950 750  0    50   ~ 0
POWER_FAIL
Text Label 1950 875  0    50   ~ 0
~RESET~
Text Label 1950 1100 0    50   ~ 0
EXHALATION-VALVE
Text Label 1950 1200 0    50   ~ 0
O2_VALVE
Text Label 1950 1300 0    50   ~ 0
MES-I-VALVE
Text Label 1950 1425 0    50   ~ 0
FIO2-MEAS
Text Label 1950 1550 0    50   ~ 0
PFI
Text Label 1950 1675 0    50   ~ 0
MRST_SPI_0_E
Text Label 1950 2175 0    50   ~ 0
CON-FIO2-MEAS
Text Label 1950 2275 0    50   ~ 0
WDOG
Text Label 1950 2375 0    50   ~ 0
SEC-BUZ
Text Label 1950 2500 0    50   ~ 0
CE-RTC1
Text Label 1950 2600 0    50   ~ 0
~CE~-RTC2
Text Label 1950 2725 0    50   ~ 0
CD-VALVE
Text Label 1950 2950 0    50   ~ 0
SCLK_SPI_0
Text Label 1950 3050 0    50   ~ 0
MTSR_SPI_0
Text Label 1950 2825 0    50   ~ 0
CD-O2
Text Label 1950 3550 0    50   ~ 0
~CE~-FLOW-EXP-SENS
Text Label 1950 3650 0    50   ~ 0
~CE~-FLOW-INSP-SENS
Text Label 1950 3750 0    50   ~ 0
~CE~-VALV-PRES-SENS
Text Label 1950 3850 0    50   ~ 0
~CE~-INT-PRES-SENS
Text Label 1950 3950 0    50   ~ 0
~CE~-PROX-PRES-SENS
Text Label 1950 4050 0    50   ~ 0
~CE~-RTC2
Text Label 1950 4150 0    50   ~ 0
~CE~-EEP
Text Label 1950 4275 0    50   ~ 0
CE-RTC1
Text Label 1950 4375 0    50   ~ 0
CE_SPI_USB
Text Label 1950 4475 0    50   ~ 0
CE_SPI_PIC
Text Label 1950 4575 0    50   ~ 0
CE_SPI_PIC_IC44
Text Label 1950 4800 0    50   ~ 0
ALIM_RAP_AL
Text Label 1950 4925 0    50   ~ 0
IRQ_UART
Text Label 1950 5050 0    50   ~ 0
BUSY-ME1
Text Label 1950 5175 0    50   ~ 0
LED-VENTIL
Text Label 1950 5400 0    50   ~ 0
MRST_SPI_0_E
Text Label 1950 5275 0    50   ~ 0
LED-O2
Text Label 1950 6050 0    50   ~ 0
~RESET~
Text Label 1950 6300 0    50   ~ 0
RX_RAP_AL
Text Label 1950 6425 0    50   ~ 0
BUSY-ME2
Text Label 1950 6550 0    50   ~ 0
~CS0~
Text Label 1950 6650 0    50   ~ 0
~CS1~
Text Label 1950 6750 0    50   ~ 0
~CS3~
Text Label 1950 6875 0    50   ~ 0
~RD~
Text Label 1950 7100 0    50   ~ 0
CMD_ALE1
Text Label 1950 6975 0    50   ~ 0
~WR~
Text Label 1950 7200 0    50   ~ 0
CMD_ME1
Text Label 1950 7425 0    50   ~ 0
SCLK_SPI_0
Text Label 1950 7325 0    50   ~ 0
MTSR_SPI_0
Text Label 3900 6925 2    50   ~ 0
MTSR_SPI_0
Text Label 3900 7025 2    50   ~ 0
SCLK_SPI_0
Text Label 3900 7200 2    50   ~ 0
~CE~-FLOW-EXP-SENS
Text Label 3900 7400 2    50   ~ 0
~CE~-PROX-PRES-SENS
Text Label 3900 7500 2    50   ~ 0
~CE~-INT-PRES-SENS
Text Label 3900 7600 2    50   ~ 0
~CE~-VALV-PRES-SENS
Text Label 5200 6000 0    50   ~ 0
PRES_INT
Text Label 5200 6100 0    50   ~ 0
PRES-PROX
Text Label 5200 6225 0    50   ~ 0
P_VALVE
Text Label 5200 6350 0    50   ~ 0
MES_Q_E
Text Label 5200 6475 0    50   ~ 0
QI-MEAS
Text Label 5200 6600 0    50   ~ 0
MRST_SPI_0_E
Text Label 6950 4700 0    50   ~ 0
A23
Text Label 6950 1050 0    50   ~ 0
RESET_USB
Text Label 6950 1175 0    50   ~ 0
CMD_ALE1
Text Label 6950 1275 0    50   ~ 0
INV-STOP
Text Label 6950 1375 0    50   ~ 0
RAP-ALAR
Text Label 6950 1475 0    50   ~ 0
CMD_ME1
Text Label 6950 1675 0    50   ~ 0
ENABLE-TURB
Text Label 6950 1775 0    50   ~ 0
WDOG
Text Label 6950 1875 0    50   ~ 0
CONS-VIT
Text Label 6950 1975 0    50   ~ 0
CD-VALVE
Text Label 6950 2075 0    50   ~ 0
CD-O2
Text Label 6950 2450 0    50   ~ 0
PWM-BUZ
Text Label 6950 2550 0    50   ~ 0
SEC-BUZ
Text Label 6950 2675 0    50   ~ 0
RF
Text Label 6950 2775 0    50   ~ 0
~WR~
Text Label 6950 2875 0    50   ~ 0
~RD~
Text Label 6950 3000 0    50   ~ 0
LED-AL-O
Text Label 6950 3100 0    50   ~ 0
LED-AL-R
Text Label 6950 2225 0    50   ~ 0
TX_UART_ST
Text Label 6950 3225 0    50   ~ 0
~CS0~
Text Label 6950 3325 0    50   ~ 0
~CS1~
Text Label 6950 3500 0    50   ~ 0
~CS3~
Text Label 6950 3600 0    50   ~ 0
~CS4~
Text Label 6950 3725 0    50   ~ 0
COM1
Text Label 6950 3825 0    50   ~ 0
COM2
Text Label 6950 3925 0    50   ~ 0
COM3
Text Label 6950 4075 0    50   ~ 0
SCLK_SPI_1
Text Label 6950 4175 0    50   ~ 0
MTSR_SPI_1
Text Label 6950 4275 0    50   ~ 0
MRST_SPI_0_E
Text Label 6950 4375 0    50   ~ 0
MTS_SPI_0
Text Label 6950 4475 0    50   ~ 0
SCLK_SPI_0
Text Label 8900 900  2    50   ~ 0
FLOW-TEMP
Text Label 8900 1025 2    50   ~ 0
CONS-VIT
Text Label 8900 1150 2    50   ~ 0
CON-FIO2-MEAS
Text Label 8900 1275 2    50   ~ 0
PWM-BUZ
Text Label 8900 1400 2    50   ~ 0
INV-STOP
Text Label 8900 1525 2    50   ~ 0
INHIB-STOP-INV
Text Label 8900 1650 2    50   ~ 0
O2_VALVE
Text Label 8900 1775 2    50   ~ 0
EXHALATION-VALVE
Text Label 8900 1925 2    50   ~ 0
ALIM_RAP_AL
Text Label 8900 2075 2    50   ~ 0
RX_RAP_AL
Text Label 8900 2225 2    50   ~ 0
TX_RAP_AL
Text Label 8900 2375 2    50   ~ 0
~BRAKE~
Text Label 8900 2525 2    50   ~ 0
RAP-ALAR
Text Label 8900 2675 2    50   ~ 0
RF
$Sheet
S 8900 825  1550 2000
U 5E9258C0
F0 "CONNECTORS P1" 100
F1 "10125623A00_6.sch" 50
F2 "DEF-TURB" O R 10450 1750 50 
F3 "CONS-VIT" I L 8900 1025 50 
F4 "SPEED_MEASURE" O R 10450 2000 50 
F5 "~BRAKE~" I L 8900 2375 50 
F6 "CON-FIO2-MEAS" I L 8900 1150 50 
F7 "PWM-BUZ" I L 8900 1275 50 
F8 "INV-STOP" I L 8900 1400 50 
F9 "INHIB-STOP-INV" I L 8900 1525 50 
F10 "EXHALATION-VALVE" I L 8900 1775 50 
F11 "O2_VALVE" I L 8900 1650 50 
F12 "Q-O2-MEAS" O R 10450 1875 50 
F13 "TESTBUZ" B R 10450 2725 50 
F14 "TX_RAP_AL" I L 8900 2225 50 
F15 "RX_RAP_AL" I L 8900 2075 50 
F16 "TURBINE-TEMP" O R 10450 2150 50 
F17 "ENABLE-TURB" O R 10450 1625 50 
F18 "TEST-RAP-ALARM" O R 10450 2275 50 
F19 "RAP-ALAR" I L 8900 2525 50 
F20 "RF" I L 8900 2675 50 
F21 "ALIM_RAP_AL" I L 8900 1925 50 
F22 "FLOW-TEMP" I L 8900 900 50 
F23 "BRAKE" I R 10450 950 50 
F24 "~FAULT~" I R 10450 1225 50 
F25 "V-ALIM-BUZ" I R 10450 1350 50 
F26 "T-RAP-AL" I R 10450 2375 50 
F27 "R-RAP-AL" I R 10450 2475 50 
F28 "C-RAP-AL" I R 10450 2575 50 
F29 "~BRAKE~" I R 10450 1075 50 
$EndSheet
Text Label 10450 1625 0    50   ~ 0
ENABLE-TURB
Text Label 10450 1750 0    50   ~ 0
DEF-TURB
Text Label 10450 1875 0    50   ~ 0
Q-O2-MEAS
Text Label 10450 2150 0    50   ~ 0
TURBINE-TEMP
Text Label 10450 2275 0    50   ~ 0
TEST-RAP-ALARM
Text Label 10450 2000 0    50   ~ 0
SPEED_MEASURE
$Sheet
S 8700 3525 1550 2575
U 5E926050
F0 "CONNECTORS P2" 100
F1 "10125623A00_7.sch" 50
F2 "LED-O2" I L 8700 4600 50 
F3 "LED-AL-R" I L 8700 4700 50 
F4 "LED-AL-O" I L 8700 4800 50 
F5 "COM1" I L 8700 4250 50 
F6 "COM2" I L 8700 4350 50 
F7 "COM3" I L 8700 4450 50 
F8 "KEY-1" O R 10250 3925 50 
F9 "KEY-2" O R 10250 4025 50 
F10 "LED-VENTIL" I L 8700 4900 50 
F11 "BUSY-AFF" O R 10250 4200 50 
F12 "~RD~" I L 8700 5625 50 
F13 "~WR~" I L 8700 5025 50 
F14 "~CS4~" I L 8700 5175 50 
F15 "ALARM-INHIB" O R 10250 5025 50 
F16 "INHIB-STOP-INV" O R 10250 4300 50 
F17 "RXD1" O R 10250 4400 50 
F18 "RX_UART_ST" O R 10250 4500 50 
F19 "CE_SPI_USB" I L 8700 5950 50 
F20 "CE_SPI_PIC" I L 8700 5850 50 
F21 "USB_BUSY" O R 10250 4600 50 
F22 "RESET_USB" I L 8700 5500 50 
F23 "LED_PRESENCE_AC" O R 10250 4725 50 
F24 "TX_UART_ST" I L 8700 5325 50 
F25 "RTS_UART_ST" O R 10250 4825 50 
F26 "VBAT" O R 10250 4925 50 
F27 "+5VSUPPLY-BOARD" O R 10250 3600 50 
F28 "MTSR_SPI_1" I L 8700 4100 50 
F29 "MRST_SPI_1" O R 10250 3800 50 
F30 "MRST_SPI_0" O R 10250 3700 50 
F31 "MTSR_SPI_0" I L 8700 4000 50 
F32 "SCLK_SPI_1" I L 8700 3900 50 
F33 "SCLK_SPI_0" I L 8700 3800 50 
F34 "D[0..15]" I R 10250 5850 50 
F35 "A[0..19]" I R 10250 5700 50 
F36 "PHOTO-DIODE-BIAS" I R 10250 5125 50 
F37 "SENSOR-TYPE-LINE" I R 10250 5225 50 
F38 "CABLE-SHIELD" I R 10250 5325 50 
F39 "SIGNAL-SHIELD" I R 10250 5425 50 
F40 "LED_PRESENCE_DC" I R 10250 5525 50 
F41 "LED_BAT" I L 8700 3625 50 
F42 "SPO2-SERIAL-OUT" I R 10250 5600 50 
$EndSheet
Text Label 8700 3800 2    50   ~ 0
SCLK_SPI_0
Text Label 8700 3900 2    50   ~ 0
SCLK_SPI_1
Text Label 8700 4000 2    50   ~ 0
MTSR_SPI_0
Text Label 8700 4100 2    50   ~ 0
MTSR_SPI_1
Text Label 8700 4250 2    50   ~ 0
COM1
Text Label 8700 4350 2    50   ~ 0
COM2
Text Label 8700 4450 2    50   ~ 0
COM3
Text Label 8700 4600 2    50   ~ 0
LED-O2
Text Label 8700 4700 2    50   ~ 0
LED-AL-R
Text Label 8700 4800 2    50   ~ 0
LED-AL-O
Text Label 8700 4900 2    50   ~ 0
LED-VENTIL
Text Label 8700 5025 2    50   ~ 0
~WR~
Text Label 8700 5175 2    50   ~ 0
~CS4~
Text Label 8700 5325 2    50   ~ 0
TX_UART_ST
Text Label 8700 5500 2    50   ~ 0
RESET_USB
Text Label 8700 5625 2    50   ~ 0
~RD~
Text Label 8700 5850 2    50   ~ 0
CE_SPI_PIC
Text Label 8700 5950 2    50   ~ 0
CE_SPI_USB
Text Label 10250 3600 0    50   ~ 0
+5VSUPPLY-BOARD
Text Label 10250 3700 0    50   ~ 0
MRST_SPI_0
Text Label 10250 3800 0    50   ~ 0
MRST_SPI_1
Text Label 10250 3925 0    50   ~ 0
KEY-1
Text Label 10250 4025 0    50   ~ 0
KEY-2
Text Label 10250 4200 0    50   ~ 0
BUSY-AFF
Text Label 10250 4300 0    50   ~ 0
INHIB-STOP-INV
Text Label 10250 4400 0    50   ~ 0
RXD1
Text Label 10250 4500 0    50   ~ 0
RX_UART_ST
Text Label 10250 4600 0    50   ~ 0
USB_BUSY
Text Label 10250 4725 0    50   ~ 0
LED_PRESENCE_AC
Text Label 10250 4825 0    50   ~ 0
RTS_UART_ST
Text Label 10250 4925 0    50   ~ 0
VBAT
Text Label 10250 5025 0    50   ~ 0
ALARM-INHIB
Text Label 1950 5900 0    50   ~ 0
A23
Wire Bus Line
	1950 5550 7300 5550
Wire Bus Line
	7300 5550 7300 4850
Wire Bus Line
	7150 5700 1950 5700
Wire Bus Line
	7150 5700 7150 6250
Wire Bus Line
	7150 6250 10400 6250
Wire Bus Line
	10400 6250 10400 5850
Wire Bus Line
	10400 5850 10250 5850
Connection ~ 7150 5700
Text Label 10450 2725 0    50   ~ 0
TESTBUZ
Wire Bus Line
	7300 5550 7300 6400
Wire Bus Line
	7300 6400 10550 6400
Wire Bus Line
	10550 6400 10550 5700
Wire Bus Line
	10550 5700 10250 5700
Connection ~ 7300 5550
Wire Wire Line
	4650 1025 3875 1025
Wire Wire Line
	3875 950  4650 950 
Wire Wire Line
	4650 875  3875 875 
Wire Wire Line
	3875 800  4650 800 
Wire Bus Line
	7150 5000 7150 5700
$Sheet
S 4650 700  2300 4450
U 5E923584
F0 "CPU" 100
F1 "10125623A00_1.sch" 50
F2 "POWER_FAIL" I L 4650 1150 50 
F3 "~RESET~" I L 4650 1375 50 
F4 "SPEED_MEASURE" I L 4650 1500 50 
F5 "DEF-TURB" I L 4650 2650 50 
F6 "ENABLE-TURB" O R 6950 1675 50 
F7 "WDOG" O R 6950 1775 50 
F8 "+3.3V-FAILURE" I L 4650 800 50 
F9 "+5VREF-FAILURE" I L 4650 875 50 
F10 "+10VREF-FAILURE" I L 4650 950 50 
F11 "BUSY-ME1" I L 4650 3850 50 
F12 "BUSY-ME2" I L 4650 3950 50 
F13 "BUSY-AFF" I L 4650 3750 50 
F14 "TEST-RAP-ALARM" I L 4650 3650 50 
F15 "INV-STOP" O R 6950 1275 50 
F16 "RAP-ALAR" O R 6950 1375 50 
F17 "CMD_ME1" O R 6950 1475 50 
F18 "COM1" O R 6950 3725 50 
F19 "COM2" O R 6950 3825 50 
F20 "COM3" O R 6950 3925 50 
F21 "KEY-1" I L 4650 4450 50 
F22 "KEY-2" I L 4650 4550 50 
F23 "RESET_USB" O R 6950 1050 50 
F24 "ALARM-INHIB" I L 4650 2100 50 
F25 "RF" O R 6950 2675 50 
F26 "MRST_SPI_0_E" I L 4650 4950 50 
F27 "MTSR_SPI_0" O R 6950 4375 50 
F28 "SCLK_SPI_0" O R 6950 4475 50 
F29 "CMD_ALE1" O R 6950 1175 50 
F30 "CONS-VIT" O R 6950 1875 50 
F31 "CD-VALVE" O R 6950 1975 50 
F32 "CD-O2" O R 6950 2075 50 
F33 "PWM-BUZ" O R 6950 2450 50 
F34 "SEC-BUZ" O R 6950 2550 50 
F35 "LED-AL-O" O R 6950 3000 50 
F36 "LED-AL-R" O R 6950 3100 50 
F37 "IRQ_UART" I L 4650 1700 50 
F38 "RXD1" I L 4650 2850 50 
F39 "PRES_INT" I L 4650 4250 50 
F40 "QI-MEAS" I L 4650 3350 50 
F41 "PRES-O2" I L 4650 4350 50 
F42 "PFI" I L 4650 1800 50 
F43 "FIO2-MEAS" I L 4650 2000 50 
F44 "P_VALVE" I L 4650 2400 50 
F45 "MES_Q_E" I L 4650 3150 50 
F46 "PRES-PROX" I L 4650 4050 50 
F47 "PRES-ABS" I L 4650 4150 50 
F48 "Q-O2-MEAS" I L 4650 3450 50 
F49 "MES-I-VALVE" I L 4650 3050 50 
F50 "VBAT" I L 4650 1900 50 
F51 "MES-24V" I L 4650 1025 50 
F52 "FLOW-TEMP" I L 4650 2200 50 
F53 "TURBINE-TEMP" I L 4650 2750 50 
F54 "TESTBUZ" I L 4650 3550 50 
F55 "RX_UART_ST" I L 4650 2950 50 
F56 "TX_UART_ST" O R 6950 2225 50 
F57 "LED_PRESENCE_AC" I L 4650 1600 50 
F58 "USB_BUSY" I L 4650 2300 50 
F59 "MRST_SPI_1" I L 4650 4850 50 
F60 "MRST_SPI_0" I L 4650 4750 50 
F61 "+5VSUPPLY-BOARD" I L 4650 1250 50 
F62 "CE_SPI_PIC_IC44" I L 4650 5050 50 
F63 "~RD~" O R 6950 2875 50 
F64 "~WR~" O R 6950 2775 50 
F65 "~CS0~" O R 6950 3225 50 
F66 "~CS1~" O R 6950 3325 50 
F67 "~CS3~" O R 6950 3500 50 
F68 "~CS4~" O R 6950 3600 50 
F69 "SCLK_SPI_1" O R 6950 4075 50 
F70 "MTSR_SPI_1" O R 6950 4175 50 
F71 "A23" O R 6950 4700 50 
F72 "A[0..19]" O R 6950 4850 50 
F73 "MRST_SPI_0_E" O R 6950 4275 50 
F74 "D[0..15]" B R 6950 5000 50 
F75 "RTS_UART_ST" I L 4650 4650 50 
F76 "~CS2~" I R 6950 3400 50 
F77 "BHE" I R 6950 950 50 
F78 "BRAKE" I R 6950 1575 50 
F79 "MTSR_SPI_0" I R 6950 4575 50 
F80 "MRST_SPI_1_E" I R 6950 2325 50 
F81 "PRESENCE_AC" I L 4650 2525 50 
F82 "USB_BUSY_E" I L 4650 3250 50 
F83 "RX_UART_ST_E" I R 6950 850 50 
F84 "TX_UART_ST_E" I R 6950 750 50 
$EndSheet
Wire Bus Line
	7300 4850 6950 4850
Wire Bus Line
	7150 5000 6950 5000
$Comp
L V_Mechanical:Fiducial MIR1
U 1 1 5E9BC652
P 7850 2750
F 0 "MIR1" H 7935 2750 50  0000 L CNN
F 1 "Fiducial" H 7935 2705 50  0001 L CNN
F 2 "GR106772-A:MIRECMS_D-1.5" H 7850 2750 50  0001 C CNN
F 3 "~" H 7850 2750 50  0001 C CNN
	1    7850 2750
	1    0    0    -1  
$EndComp
$Comp
L V_Mechanical:Fiducial MIR2
U 1 1 5E9BE4E3
P 7850 2900
F 0 "MIR2" H 7935 2900 50  0000 L CNN
F 1 "Fiducial" H 7935 2855 50  0001 L CNN
F 2 "GR106772-A:MIRECMS_D-1.5" H 7850 2900 50  0001 C CNN
F 3 "~" H 7850 2900 50  0001 C CNN
	1    7850 2900
	1    0    0    -1  
$EndComp
$Comp
L V_Mechanical:Fiducial MIR3
U 1 1 5E9BE6CC
P 7850 3050
F 0 "MIR3" H 7935 3050 50  0000 L CNN
F 1 "Fiducial" H 7935 3005 50  0001 L CNN
F 2 "GR106772-A:MIRECMS_D-1.5" H 7850 3050 50  0001 C CNN
F 3 "~" H 7850 3050 50  0001 C CNN
	1    7850 3050
	1    0    0    -1  
$EndComp
$Comp
L V_Mechanical:Fiducial MIR4
U 1 1 5E9BE945
P 7850 3200
F 0 "MIR4" H 7935 3200 50  0000 L CNN
F 1 "Fiducial" H 7935 3155 50  0001 L CNN
F 2 "GR106772-A:MIRECMS_D-1.5" H 7850 3200 50  0001 C CNN
F 3 "~" H 7850 3200 50  0001 C CNN
	1    7850 3200
	1    0    0    -1  
$EndComp
$Comp
L V_Mechanical:Fiducial cam1
U 1 1 5E9C1ED0
P 7850 3450
F 0 "cam1" H 7935 3450 50  0000 L CNN
F 1 "Fiducial" H 7935 3405 50  0001 L CNN
F 2 "GR106772-A:A3_EQFS_COVIDIEN" H 7850 3450 50  0001 C CNN
F 3 "~" H 7850 3450 50  0001 C CNN
	1    7850 3450
	1    0    0    -1  
$EndComp
$Comp
L V_Mechanical:Fiducial cam2
U 1 1 5E9C238F
P 7850 3600
F 0 "cam2" H 7935 3600 50  0000 L CNN
F 1 "Fiducial" H 7935 3555 50  0001 L CNN
F 2 "GR106772-A:A3_EQFC_COVIDIEN" H 7850 3600 50  0001 C CNN
F 3 "~" H 7850 3600 50  0001 C CNN
	1    7850 3600
	1    0    0    -1  
$EndComp
$Comp
L V_Mechanical:Fiducial cam3
U 1 1 5E9C260F
P 7850 3750
F 0 "cam3" H 7935 3750 50  0000 L CNN
F 1 "Fiducial" H 7935 3705 50  0001 L CNN
F 2 "GR106772-A:PER-COVIDIEN_TEXTE" H 7850 3750 50  0001 C CNN
F 3 "~" H 7850 3750 50  0001 C CNN
	1    7850 3750
	1    0    0    -1  
$EndComp
$Comp
L V_Mechanical:Fiducial cam6
U 1 1 5EF43C29
P 7850 3900
F 0 "cam6" H 7935 3900 50  0000 L CNN
F 1 "Fiducial" H 7935 3855 50  0001 L CNN
F 2 "GR106772-A:A3_PER_COVIDIEN_1.5" H 7850 3900 50  0001 C CNN
F 3 "~" H 7850 3900 50  0001 C CNN
	1    7850 3900
	1    0    0    -1  
$EndComp
Text Label 12325 1275 2    50   ~ 0
~CE~-FLOW-EXP-SENS
Text Label 12325 1150 2    50   ~ 0
~CE~-FLOW-INSP-SENS
Text Label 12325 950  2    50   ~ 0
~CE~-PROX-PRES-SENS
Text Label 12325 850  2    50   ~ 0
~CE~-INT-PRES-SENS
Text Label 12325 1050 2    50   ~ 0
~CE~-VALV-PRES-SENS
Text Label 4000 1025 0    50   ~ 0
MES-24V
Wire Bus Line
	10550 5700 12200 5700
Connection ~ 10550 5700
Wire Bus Line
	10400 5850 12325 5850
Connection ~ 10400 5850
Text Label 12325 5500 2    50   ~ 0
A23
Wire Bus Line
	12325 5600 12200 5600
Wire Bus Line
	12200 5600 12200 5700
Connection ~ 12200 5700
Wire Bus Line
	12200 5700 12325 5700
Text Label 12325 1375 2    50   ~ 0
ENABLE-TURB
Text Label 12325 1975 2    50   ~ 0
TESTBUZ
Text Label 12325 1775 2    50   ~ 0
TURBINE-TEMP
Text Label 12325 2075 2    50   ~ 0
FLOW-TEMP
Text Label 12325 2175 2    50   ~ 0
CONS-VIT
Text Label 12325 3275 2    50   ~ 0
RAP-ALAR
Text Label 12325 3375 2    50   ~ 0
RF
Text Label 14825 850  0    50   ~ 0
RESET_USB
Text Label 14825 1200 0    50   ~ 0
RAP-ALAR
Text Label 14825 1300 0    50   ~ 0
CMD_ME1
Text Label 14825 1500 0    50   ~ 0
WDOG
Text Label 14825 1600 0    50   ~ 0
CONS-VIT
Text Label 14825 1700 0    50   ~ 0
CD-VALVE
Text Label 14825 2000 0    50   ~ 0
PWM-BUZ
Text Label 14825 2100 0    50   ~ 0
SEC-BUZ
Text Label 12325 3600 2    50   ~ 0
LED-AL-O
Text Label 12325 3675 2    50   ~ 0
LED-AL-R
Text Label 14825 1900 0    50   ~ 0
TX_UART_ST
Text Label 14825 2250 0    50   ~ 0
~CS0~
Text Label 14825 2350 0    50   ~ 0
~CS1~
Text Label 14825 2600 0    50   ~ 0
~CS3~
Text Label 14825 2700 0    50   ~ 0
~CS4~
Text Label 14825 2800 0    50   ~ 0
COM1
Text Label 14825 2900 0    50   ~ 0
COM2
Text Label 14825 3000 0    50   ~ 0
COM3
Text Label 14825 3100 0    50   ~ 0
SCLK_SPI_1
Text Label 14825 3200 0    50   ~ 0
MTSR_SPI_1
Text Label 14825 3300 0    50   ~ 0
MRST_SPI_0_E
Text Label 14825 3400 0    50   ~ 0
MTSR_SPI_0
Text Label 14825 3500 0    50   ~ 0
SCLK_SPI_0
Text Label 12325 4550 2    50   ~ 0
~RESET~
Text Label 14825 4000 0    50   ~ 0
LED_PRESENCE_AC
Text Label 14825 4100 0    50   ~ 0
IRQ_UART
Text Label 14825 4400 0    50   ~ 0
FLOW-TEMP
Text Label 14825 4600 0    50   ~ 0
P_VALVE
Text Label 14825 4700 0    50   ~ 0
DEF-TURB
Text Label 14825 4800 0    50   ~ 0
TURBINE-TEMP
Text Label 14825 5000 0    50   ~ 0
MES-I-VALVE
Text Label 14825 5100 0    50   ~ 0
MES_Q_E
Text Label 14825 5400 0    50   ~ 0
TESTBUZ
Text Label 14825 5600 0    50   ~ 0
BUSY-AFF
Text Label 14825 5700 0    50   ~ 0
BUSY-ME1
Text Label 14825 5800 0    50   ~ 0
BUSY-ME2
Text Label 14825 5900 0    50   ~ 0
PRES-PROX
Text Label 14825 6000 0    50   ~ 0
PRES-ABS
Text Label 14825 6200 0    50   ~ 0
PRES-O2
Text Label 14825 6300 0    50   ~ 0
KEY-1
Text Label 14825 6400 0    50   ~ 0
KEY-2
Text Label 14825 6500 0    50   ~ 0
RTS_UART_ST
Text Label 14825 6600 0    50   ~ 0
MRST_SPI_0
Text Label 14825 6800 0    50   ~ 0
MRST_SPI_0_E
Text Label 12325 4775 2    50   ~ 0
~WR~
Text Label 12325 4900 2    50   ~ 0
~RD~
Text Label 3900 7300 2    50   ~ 0
~CE~-FLOW-INSP-SENS
Text Label 12325 3775 2    50   ~ 0
LED-VENTIL
Text Label 12325 7525 2    50   ~ 0
CE-RTC1
Text Label 12325 7700 2    50   ~ 0
~CE~-EEP
Text Label 12325 7600 2    50   ~ 0
~CE~-RTC2
Text Label 12325 7375 2    50   ~ 0
PFI
Text Label 12325 7950 2    50   ~ 0
CE_SPI_PIC
Text Label 12325 7825 2    50   ~ 0
CE_SPI_USB
Text Label 12325 7125 2    50   ~ 0
O2_VALVE
Text Label 12325 6950 2    50   ~ 0
USB_BUSY_E
Text Label 12325 6775 2    50   ~ 0
QI-MEAS
Text Label 12325 6600 2    50   ~ 0
MES-24V
Text Label 12325 6400 2    50   ~ 0
VBAT
Text Label 12325 8275 2    50   ~ 0
MRST_SPI_1_E
Text Label 12325 8475 2    50   ~ 0
CON-FIO2-MEAS
Text Label 12325 8600 2    50   ~ 0
SPO2-SERIAL-OUT
Text Label 14825 7475 0    50   ~ 0
RX_RAP_AL
Text Label 14825 7600 0    50   ~ 0
TX_RAP_AL
Text Label 14825 3650 0    50   ~ 0
MRST_SPI_1
Text Label 12325 3875 2    50   ~ 0
LED_BAT
Text Label 12325 3975 2    50   ~ 0
LED-O2
Text Label 12325 2350 2    50   ~ 0
USB_BUSY
Text Label 12325 2900 2    50   ~ 0
TX_UART_ST_E
Text Label 12325 2800 2    50   ~ 0
RX_UART_ST_E
Text Label 14825 7725 0    50   ~ 0
PRES_INT
Text Label 14825 7875 0    50   ~ 0
INV-STOP
Text Label 14825 8025 0    50   ~ 0
INHIB-STOP-INV
Text Label 14825 8300 0    50   ~ 0
SPEED_MEASURE
Text Label 12325 2600 2    50   ~ 0
ALIM_RAP_AL
Text Label 12325 3100 2    50   ~ 0
RX_UART_ST
Text Label 14825 8500 0    50   ~ 0
FIO2-MEAS
Text Label 5200 7025 0    50   ~ 0
PROX_PRES_MES
Text Label 5200 6925 0    50   ~ 0
VALVE_PRES_MES
Text Label 5200 6825 0    50   ~ 0
INT_PRES_MES
Text Label 12325 5050 2    50   ~ 0
PROX_PRES_MES
Text Label 12325 5150 2    50   ~ 0
VALVE_PRES_MES
Text Label 12325 5250 2    50   ~ 0
INT_PRES_MES
Text Label 14825 2475 0    50   ~ 0
~CS2~
Text Label 6950 3400 0    50   ~ 0
~CS2~
Text Label 6950 950  0    50   ~ 0
BHE
Text Label 12325 3475 2    50   ~ 0
BHE
Text Label 10250 5225 0    50   ~ 0
SENSOR-TYPE-LINE
Text Label 10250 5425 0    50   ~ 0
SIGNAL-SHIELD
Text Label 10250 5325 0    50   ~ 0
CABLE-SHIELD
Text Label 10250 5125 0    50   ~ 0
PHOTO-DIODE-BIAS
Text Label 14825 7025 0    50   ~ 0
SENSOR-TYPE-LINE
Text Label 14825 7225 0    50   ~ 0
SIGNAL-SHIELD
Text Label 14825 7125 0    50   ~ 0
CABLE-SHIELD
Text Label 14825 6925 0    50   ~ 0
PHOTO-DIODE-BIAS
Text Label 10450 1225 0    50   ~ 0
~FAULT~
Text Label 10450 950  0    50   ~ 0
BRAKE
Text Label 12325 4100 2    50   ~ 0
BRAKE
Text Label 12325 4375 2    50   ~ 0
~FAULT~
Text Label 12325 6150 2    50   ~ 0
V-ALIM-BUZ
Text Label 10450 1350 0    50   ~ 0
V-ALIM-BUZ
$Comp
L V_Mechanical:Fiducial cam7
U 1 1 5FA79A3D
P 7850 4050
F 0 "cam7" H 7935 4050 50  0000 L CNN
F 1 "Fiducial" H 7935 4005 50  0001 L CNN
F 2 "GR106772-A:FILM18_HORIZONTAL" H 7850 4050 50  0001 C CNN
F 3 "~" H 7850 4050 50  0001 C CNN
	1    7850 4050
	1    0    0    -1  
$EndComp
$Comp
L V_Mechanical:Fiducial cam8
U 1 1 5FA79D99
P 7850 4200
F 0 "cam8" H 7935 4200 50  0000 L CNN
F 1 "Fiducial" H 7935 4155 50  0001 L CNN
F 2 "GR106772-A:COIN_EXTERNE" H 7850 4200 50  0001 C CNN
F 3 "~" H 7850 4200 50  0001 C CNN
	1    7850 4200
	1    0    0    -1  
$EndComp
$Comp
L V_Mechanical:Fiducial cam9
U 1 1 5FA7A0CE
P 7850 4350
F 0 "cam9" H 7935 4350 50  0000 L CNN
F 1 "Fiducial" H 7935 4305 50  0001 L CNN
F 2 "GR106772-A:COIN_EXTERNE" H 7850 4350 50  0001 C CNN
F 3 "~" H 7850 4350 50  0001 C CNN
	1    7850 4350
	1    0    0    -1  
$EndComp
$Comp
L V_Mechanical:Fiducial cam4
U 1 1 5FA7A852
P 7850 4500
F 0 "cam4" H 7935 4500 50  0000 L CNN
F 1 "Fiducial" H 7935 4455 50  0001 L CNN
F 2 "GR106772-A:FABRICATION-FEE" H 7850 4500 50  0001 C CNN
F 3 "~" H 7850 4500 50  0001 C CNN
	1    7850 4500
	1    0    0    -1  
$EndComp
$Comp
L V_Mechanical:Fiducial cam10
U 1 1 5FA7AE4A
P 7850 4650
F 0 "cam10" H 7935 4650 50  0000 L CNN
F 1 "Fiducial" H 7935 4605 50  0001 L CNN
F 2 "GR106772-A:COIN_EXTERNE" H 7850 4650 50  0001 C CNN
F 3 "~" H 7850 4650 50  0001 C CNN
	1    7850 4650
	1    0    0    -1  
$EndComp
$Comp
L V_Mechanical:Fiducial cam11
U 1 1 5FA7B07F
P 7850 4800
F 0 "cam11" H 7935 4800 50  0000 L CNN
F 1 "Fiducial" H 7935 4755 50  0001 L CNN
F 2 "GR106772-A:COIN_EXTERNE" H 7850 4800 50  0001 C CNN
F 3 "~" H 7850 4800 50  0001 C CNN
	1    7850 4800
	1    0    0    -1  
$EndComp
$Comp
L V_Mechanical:Fiducial cam12
U 1 1 5FA7B48E
P 7850 4950
F 0 "cam12" H 7935 4950 50  0000 L CNN
F 1 "Fiducial" H 7935 4905 50  0001 L CNN
F 2 "GR106772-A:FEE_COMP_0.2" H 7850 4950 50  0001 C CNN
F 3 "~" H 7850 4950 50  0001 C CNN
	1    7850 4950
	1    0    0    -1  
$EndComp
$Comp
L V_Mechanical:Fiducial cam13
U 1 1 5FA7B750
P 7850 5100
F 0 "cam13" H 7935 5100 50  0000 L CNN
F 1 "Fiducial" H 7935 5055 50  0001 L CNN
F 2 "GR106772-A:FEE_COMP_0.2" H 7850 5100 50  0001 C CNN
F 3 "~" H 7850 5100 50  0001 C CNN
	1    7850 5100
	1    0    0    -1  
$EndComp
$Comp
L V_Mechanical:Fiducial cam17
U 1 1 5FA7B9E6
P 7850 5250
F 0 "cam17" H 7935 5250 50  0000 L CNN
F 1 "Fiducial" H 7935 5205 50  0001 L CNN
F 2 "GR106772-A:PERCAGE_TABLEAU" H 7850 5250 50  0001 C CNN
F 3 "~" H 7850 5250 50  0001 C CNN
	1    7850 5250
	1    0    0    -1  
$EndComp
Text Label 12325 8100 2    50   ~ 0
~BRAKE~
Text Label 12325 7225 2    50   ~ 0
LED_PRESENCE_DC
Text Label 14825 3800 0    50   ~ 0
PRESENCE_AC
$Sheet
S 12325 750  2500 8000
U 5EC7318D
F0 "HoleVias" 50
F1 "HolesVias.sch" 50
F2 "~CE~-INT-PRES-SENS" I L 12325 850 50 
F3 "~CE~-PROX-PRES-SENS" I L 12325 950 50 
F4 "~CE~-VALV-PRES-SENS" I L 12325 1050 50 
F5 "~CE~-FLOW-INSP-SENS" I L 12325 1150 50 
F6 "~CE~-FLOW-EXP-SENS" I L 12325 1275 50 
F7 "A[14..19]" I L 12325 5700 50 
F8 "D[0..15]" I L 12325 5850 50 
F9 "A23" I L 12325 5500 50 
F10 "A[0..2]" I L 12325 5600 50 
F11 "ENABLE-TURB" I L 12325 1375 50 
F12 "Q-O2-MEAS" I L 12325 1575 50 
F13 "TURBINE-TEMP" I L 12325 1775 50 
F14 "TESTBUZ" I L 12325 1975 50 
F15 "FLOW-TEMP" I L 12325 2075 50 
F16 "CONS-VIT" I L 12325 2175 50 
F17 "RAP-ALAR" I L 12325 3275 50 
F18 "RF" I L 12325 3375 50 
F19 "RESET_USB" I R 14825 850 50 
F20 "RAP-ALAR" I R 14825 1200 50 
F21 "CMD_ME1" I R 14825 1300 50 
F22 "WDOG" I R 14825 1500 50 
F23 "CONS-VIT" I R 14825 1600 50 
F24 "CD-VALVE" I R 14825 1700 50 
F25 "TX_UART_ST" I R 14825 1900 50 
F26 "PWM-BUZ" I R 14825 2000 50 
F27 "BUZ-SEC" I R 14825 2100 50 
F28 "LED-AL-O" I L 12325 3600 50 
F29 "LED-AL-R" I L 12325 3675 50 
F30 "~CS0~" I R 14825 2250 50 
F31 "~CS1~" I R 14825 2350 50 
F32 "~CS3~" I R 14825 2600 50 
F33 "~CS4~" I R 14825 2700 50 
F34 "COM1" I R 14825 2800 50 
F35 "COM2" I R 14825 2900 50 
F36 "COM3" I R 14825 3000 50 
F37 "SCLK_SPI_1" I R 14825 3100 50 
F38 "MTSR_SPI_1" I R 14825 3200 50 
F39 "MRST_SPI_0_E" I R 14825 3300 50 
F40 "MTSR_SPI_0" I R 14825 3400 50 
F41 "SCLK_SPI_0" I R 14825 3500 50 
F42 "~RESET~" I L 12325 4550 50 
F43 "LED_PRESENCE_AC" I R 14825 4000 50 
F44 "IRQ_UART" I R 14825 4100 50 
F45 "FLOW-TEMP" I R 14825 4400 50 
F46 "P_VALVE" I R 14825 4600 50 
F47 "DEF-TURB" I R 14825 4700 50 
F48 "TURBINE-TEMP" I R 14825 4800 50 
F49 "MES-I-VALVE" I R 14825 5000 50 
F50 "MES_Q_E" I R 14825 5100 50 
F51 "TESTBUZ" I R 14825 5400 50 
F52 "BUSY-AFF" I R 14825 5600 50 
F53 "BUSY-ME1" I R 14825 5700 50 
F54 "BUSY-ME2" I R 14825 5800 50 
F55 "PRES-PROX" I R 14825 5900 50 
F56 "PRES-ABS" I R 14825 6000 50 
F57 "PRES-O2" I R 14825 6200 50 
F58 "KEY-1" I R 14825 6300 50 
F59 "KEY-2" I R 14825 6400 50 
F60 "RTS_UART_ST" I R 14825 6500 50 
F61 "MRST_SPI_0" I R 14825 6600 50 
F62 "MRST_SPI_0_E" I R 14825 6800 50 
F63 "~WR~" I L 12325 4775 50 
F64 "~RD~" I L 12325 4900 50 
F65 "LED-VENTIL" I L 12325 3775 50 
F66 "CE-RTC1" I L 12325 7525 50 
F67 "~CE~-RTC2" I L 12325 7600 50 
F68 "~CE~-EEP" I L 12325 7700 50 
F69 "PFI" I L 12325 7375 50 
F70 "CE_SPI_USB" I L 12325 7825 50 
F71 "CE_SPI_PIC" I L 12325 7950 50 
F72 "O2_VALVE" I L 12325 7125 50 
F73 "USB_BUSY_E" I L 12325 6950 50 
F74 "QI-MEAS" I L 12325 6775 50 
F75 "MES-24V" I L 12325 6600 50 
F76 "VBAT" I L 12325 6400 50 
F77 "MRST_SPI_1_E" I L 12325 8275 50 
F78 "CON-FIO2-MEAS" I L 12325 8475 50 
F79 "SPO2-SERIAL-OUT" I L 12325 8600 50 
F80 "RX_RAP_AL" I R 14825 7475 50 
F81 "TX_RAP_AL" I R 14825 7600 50 
F82 "MRST_SPI_1" I R 14825 3650 50 
F83 "PRESENCE_AC" I R 14825 3800 50 
F84 "LED_BAT" I L 12325 3875 50 
F85 "LED-O2" I L 12325 3975 50 
F86 "USB_BUSY" I L 12325 2350 50 
F87 "RX_UART_ST_E" I L 12325 2800 50 
F88 "TX_UART_ST_E" I L 12325 2900 50 
F89 "PRES_INT" I R 14825 7725 50 
F90 "INV-STOP" I R 14825 7875 50 
F91 "INHIB-STOP-INV" I R 14825 8025 50 
F92 "SPEED_MEASURE" I R 14825 8300 50 
F93 "ALIM_RAP_AL" I L 12325 2600 50 
F94 "RX_UART_ST" I L 12325 3100 50 
F95 "FIO2-MEAS" I R 14825 8500 50 
F96 "PROX_PRES_MES" I L 12325 5050 50 
F97 "VALVE_PRES_MES" I L 12325 5150 50 
F98 "INT_PRES_MES" I L 12325 5250 50 
F99 "~CS2~" I R 14825 2475 50 
F100 "BHE" I L 12325 3475 50 
F101 "PHOTO-DIODE-BIAS" I R 14825 6925 50 
F102 "SENSOR-TYPE-LINE" I R 14825 7025 50 
F103 "CABLE-SHIELD" I R 14825 7125 50 
F104 "SIGNAL-SHIELD" I R 14825 7225 50 
F105 "BRAKE" I L 12325 4100 50 
F106 "~FAULT~" I L 12325 4375 50 
F107 "V-ALIM-BUZ" I L 12325 6150 50 
F108 "~BRAKE~" I L 12325 8100 50 
F109 "LED_PRESENCE_DC" I L 12325 7225 50 
F110 "ALARM-INHIB" I R 14825 8150 50 
F111 "~BRAKE~" I L 12325 4225 50 
F112 "RESET" I L 12325 4650 50 
F113 "CMD_ALE1" I R 14825 7325 50 
F114 "TEST-RAP-ALARM" I R 14825 5225 50 
$EndSheet
Text Label 12325 1575 2    50   ~ 0
Q-O2-MEAS
Text Label 5200 7500 0    50   ~ 0
PRES-O2
Text Label 5200 7400 0    50   ~ 0
PRES-ABS
Text Label 10250 5525 0    50   ~ 0
LED_PRESENCE_DC
Text Label 1950 975  0    50   ~ 0
RESET
Text Label 1950 6150 0    50   ~ 0
RESET
Text Label 10450 2375 0    50   ~ 0
T-RAP-AL
Text Label 10450 2475 0    50   ~ 0
R-RAP-AL
Text Label 10450 2575 0    50   ~ 0
C-RAP-AL
Text Label 8700 3625 2    50   ~ 0
LED_BAT
Text Label 14825 8150 0    50   ~ 0
ALARM-INHIB
Text Label 10450 1075 0    50   ~ 0
~BRAKE~
Text Label 12325 4225 2    50   ~ 0
~BRAKE~
Text Label 6950 1575 0    50   ~ 0
BRAKE
Text Label 12325 4650 2    50   ~ 0
RESET
Text Label 6950 4575 0    50   ~ 0
MTSR_SPI_0
Text Label 1950 4700 0    50   ~ 0
TX_RAP_AL
$Sheet
S 600  3500 1350 4000
U 5E924110
F0 "MEMORY" 100
F1 "10125623A00_2.sch" 50
F2 "LED-VENTIL" O R 1950 5175 50 
F3 "LED-O2" O R 1950 5275 50 
F4 "~CE~-EEP" O R 1950 4150 50 
F5 "CE-RTC1" O R 1950 4275 50 
F6 "~CE~-RTC2" O R 1950 4050 50 
F7 "~CE~-INT-PRES-SENS" O R 1950 3850 50 
F8 "~CE~-PROX-PRES-SENS" O R 1950 3950 50 
F9 "~CE~-VALV-PRES-SENS" O R 1950 3750 50 
F10 "CE_SPI_USB" O R 1950 4375 50 
F11 "CE_SPI_PIC" O R 1950 4475 50 
F12 "~CE~-FLOW-INSP-SENS" O R 1950 3650 50 
F13 "~CE~-FLOW-EXP-SENS" O R 1950 3550 50 
F14 "CE_SPI_PIC_IC44" O R 1950 4575 50 
F15 "BUSY-ME2" I R 1950 6425 50 
F16 "IRQ_UART" O R 1950 4925 50 
F17 "TX_RAP_AL" O R 1950 4700 50 
F18 "ALIM_RAP_AL" O R 1950 4800 50 
F19 "RX_RAP_AL" I R 1950 6300 50 
F20 "~WR~" I R 1950 6975 50 
F21 "~RD~" I R 1950 6875 50 
F22 "CMD_ALE1" I R 1950 7100 50 
F23 "CMD_ME1" I R 1950 7200 50 
F24 "~CS0~" I R 1950 6550 50 
F25 "SCLK_SPI_0" I R 1950 7425 50 
F26 "MRST_SPI_0_E" O R 1950 5400 50 
F27 "MTSR_SPI_0" I R 1950 7325 50 
F28 "BUSY-ME1" O R 1950 5050 50 
F29 "D[0..15]" B R 1950 5700 50 
F30 "A[0..19]" I R 1950 5550 50 
F31 "A23" I R 1950 5900 50 
F32 "~CS1~" I R 1950 6650 50 
F33 "~RESET~" I R 1950 6050 50 
F34 "~CS3~" I R 1950 6750 50 
F35 "RESET" I R 1950 6150 50 
$EndSheet
Text Label 14825 7325 0    50   ~ 0
CMD_ALE1
Text Label 14825 5225 0    50   ~ 0
TEST-RAP-ALARM
Text Label 6950 2325 0    50   ~ 0
MRST_SPI_1_E
Text Label 4650 2525 2    50   ~ 0
PRESENCE_AC
Text Label 4650 3250 2    50   ~ 0
USB_BUSY_E
Text Label 6950 750  0    50   ~ 0
TX_UART_ST_E
Text Label 6950 850  0    50   ~ 0
RX_UART_ST_E
Text Label 10250 5600 0    50   ~ 0
SPO2-SERIAL-OUT
$EndSCHEMATC
