(module 3mm6 (layer F.Cu) (tedit 0)
  (fp_text reference REF** (at 0 0) (layer F.SilkS) hide
    (effects (font (size 1 1) (thickness 0.15)))
  )
  (fp_text value 3mm6 (at 0 2) (layer F.Fab) hide
    (effects (font (size 1 1) (thickness 0.15)))
  )
  (fp_line (start -1.23 1.23) (end -1.23 -1.23) (layer F.CrtYd) (width 0.05))
  (fp_line (start -1.23 -1.23) (end 1.23 -1.23) (layer F.CrtYd) (width 0.05))
  (fp_line (start 1.23 -1.23) (end 1.23 1.23) (layer F.CrtYd) (width 0.05))
  (fp_line (start 1.23 1.23) (end -1.23 1.23) (layer F.CrtYd) (width 0.05))
  (pad ~ smd oval (at 0 0) (size 0.05 0.55) (layers F.Cu F.Mask F.Paste)
    (zone_connect 2))
  (pad ~ smd oval (at 0 0) (size 0.05 0.55) (layers F.Cu F.Mask F.Paste)
    (zone_connect 2))
)