(module 4mm6NP (layer F.Cu) (tedit 0)
  (fp_text reference REF** (at 0 0) (layer F.SilkS) hide
    (effects (font (size 1 1) (thickness 0.15)))
  )
  (fp_text value 4mm6NP (at 0 2) (layer F.Fab) hide
    (effects (font (size 1 1) (thickness 0.15)))
  )
  (fp_line (start -1.83962 1.83962) (end -1.83962 -1.83964) (layer F.CrtYd) (width 0.05))
  (fp_line (start -1.83962 -1.83964) (end 1.83964 -1.83964) (layer F.CrtYd) (width 0.05))
  (fp_line (start 1.83964 -1.83964) (end 1.83964 1.83962) (layer F.CrtYd) (width 0.05))
  (fp_line (start 1.83964 1.83962) (end -1.83962 1.83962) (layer F.CrtYd) (width 0.05))
  (pad ~ smd custom (at 0 0) (size 0.2 0.2) (layers F.Cu F.Mask F.Paste)
    (options (clearance outline) (anchor circle))
    (primitives
      (gr_arc (start 0.633015 -0.633015) (end 0 -1.27) (angle 179.64178) (width 0))
      (gr_arc (start -0.633015 0.633015) (end 0 1.27) (angle 179.64178) (width 0))
      (gr_line (start -1.27 0) (end -0.127 -0.127) (width 0))
      (gr_line (start -0.127 -0.127) (end 0 -1.27) (width 0))
      (gr_line (start 1.27 0) (end 0.127 0.127) (width 0))
      (gr_line (start 0.127 0.127) (end 0 1.27) (width 0))
    )
    (zone_connect 2))
)