(module BNX002+SF-AIROX_110001101101101101100001110001110001110001110001 (layer F.Cu) (tedit 0)
  (fp_text reference REF** (at 0 0) (layer F.SilkS)
    (effects (font (size 1 1) (thickness 0.15)))
  )
  (fp_text value BNX002+SF-AIROX_110001101101101101100001110001110001110001110001 (at 0 2) (layer F.Fab) hide
    (effects (font (size 1 1) (thickness 0.15)))
  )
  (fp_arc (start 0 -1.27) (end 8.5 -1.27) (angle 360) (layer F.Fab) (width 0.1))
  (fp_arc (start -2.5 -2.5) (end -1.357 -2.5) (angle 360) (layer B.CrtYd) (width 0.02))
  (fp_arc (start 5 0) (end 6.143 0) (angle 360) (layer B.CrtYd) (width 0.02))
  (fp_arc (start 0 0) (end 1.143 0) (angle 360) (layer B.CrtYd) (width 0.02))
  (fp_arc (start -2.5 2.5) (end -1.357 2.5) (angle 360) (layer B.CrtYd) (width 0.02))
  (fp_arc (start 2.5 2.5) (end 3.643 2.5) (angle 360) (layer B.CrtYd) (width 0.02))
  (fp_arc (start 2.5 -2.5) (end 3.643 -2.5) (angle 360) (layer B.CrtYd) (width 0.02))
  (fp_arc (start 5.08 -7.62) (end 6.223 -7.62) (angle 360) (layer B.CrtYd) (width 0.02))
  (fp_arc (start -5.08 -7.62) (end -3.937 -7.62) (angle 360) (layer B.CrtYd) (width 0.02))
  (fp_arc (start 0 -1.270001) (end 4.79266 5.75) (angle 68.643882) (layer F.CrtYd) (width 0.02))
  (fp_arc (start 0 -1.269999) (end -6.25 4.49086) (angle 265.335851) (layer F.CrtYd) (width 0.02))
  (fp_arc (start 0 -1.27) (end 8.5 -1.27) (angle 360) (layer F.SilkS) (width 0.18))
  (fp_line (start -8.59 7.32) (end -8.59 -9.86) (layer Dwgs.User) (width 0.05))
  (fp_line (start -8.59 -9.86) (end 8.59 -9.86) (layer Dwgs.User) (width 0.05))
  (fp_line (start 8.59 -9.86) (end 8.59 7.32) (layer Dwgs.User) (width 0.05))
  (fp_line (start 8.59 7.32) (end -8.59 7.32) (layer Dwgs.User) (width 0.05))
  (fp_line (start -6.25 5.75) (end 6.25 5.75) (layer F.SilkS) (width 0.18))
  (fp_line (start 6.25 5.75) (end 6.25 -5.75) (layer F.SilkS) (width 0.18))
  (fp_line (start 6.25 -5.75) (end -6.25 -5.75) (layer F.SilkS) (width 0.18))
  (fp_line (start -6.25 -5.75) (end -6.25 5.75) (layer F.SilkS) (width 0.18))
  (fp_line (start -6.25 5.75) (end -6.25 4.49086) (layer F.CrtYd) (width 0.02))
  (fp_line (start 6.25 4.49086) (end 6.25 5.75) (layer F.CrtYd) (width 0.02))
  (fp_line (start 6.25 5.75) (end 4.79266 5.75) (layer F.CrtYd) (width 0.02))
  (fp_line (start -4.79266 5.75) (end -6.25 5.75) (layer F.CrtYd) (width 0.02))
  (fp_line (start -6.25 5.75) (end 6.25 5.75) (layer F.Fab) (width 0.1))
  (fp_line (start 6.25 5.75) (end 6.25 -5.75) (layer F.Fab) (width 0.1))
  (fp_line (start 6.25 -5.75) (end -6.25 -5.75) (layer F.Fab) (width 0.1))
  (fp_line (start -6.25 -5.75) (end -6.25 5.75) (layer F.Fab) (width 0.1))
  (fp_line (start -2.5 2.5) (end 2.5 2.5) (layer F.Fab) (width 0.1))
  (fp_line (start 2.5 2.5) (end 2.5 -2.5) (layer F.Fab) (width 0.1))
  (fp_line (start 2.5 -2.5) (end -2.5 -2.5) (layer F.Fab) (width 0.1))
  (fp_line (start -2.5 -2.5) (end -2.5 2.5) (layer F.Fab) (width 0.1))
  (pad PSG thru_hole circle (at -2.5 -2.5) (size 2.286 2.286) (drill 1.3208) (layers *.Mask F.Cu In1.Cu B.Cu)
    (solder_mask_margin 0.1016) (clearance 0.127) (zone_connect 2) (thermal_width 0.381) (thermal_gap 0.3302))
  (pad CG3 thru_hole circle (at 5 0) (size 2.286 2.286) (drill 1.3208) (layers *.Mask F.Cu In1.Cu B.Cu)
    (solder_mask_margin 0.1016) (clearance 0.127) (zone_connect 2) (thermal_width 0.381) (thermal_gap 0.3302))
  (pad CG2 thru_hole circle (at 0 0) (size 2.286 2.286) (drill 1.3208) (layers *.Mask F.Cu In1.Cu B.Cu)
    (solder_mask_margin 0.1016) (clearance 0.127) (zone_connect 2) (thermal_width 0.381) (thermal_gap 0.3302))
  (pad CG1 thru_hole circle (at -2.5 2.5) (size 2.286 2.286) (drill 1.3208) (layers *.Mask F.Cu In1.Cu B.Cu)
    (solder_mask_margin 0.1016) (clearance 0.127) (zone_connect 2) (thermal_width 0.381) (thermal_gap 0.3302))
  (pad CB thru_hole circle (at 2.5 2.5) (size 2.286 2.286) (drill 1.3208) (layers F&B.Cu *.Mask)
    (solder_mask_margin 0.1016) (clearance 0.127) (zone_connect 2) (thermal_width 0.381) (thermal_gap 0.3302))
  (pad B thru_hole circle (at 2.5 -2.5) (size 2.286 2.286) (drill 1.3208) (layers *.Mask F.Cu In2.Cu In3.Cu B.Cu)
    (solder_mask_margin 0.1016) (clearance 0.127) (zone_connect 2) (thermal_width 0.381) (thermal_gap 0.3302))
  (pad 4 thru_hole circle (at 5.08 -7.62) (size 2.286 2.286) (drill 1.3208) (layers *.Mask F.Cu In2.Cu In3.Cu B.Cu)
    (solder_mask_margin 0.1016) (clearance 0.127) (zone_connect 2) (thermal_width 0.381) (thermal_gap 0.3302))
  (pad 1 thru_hole circle (at -5.08 -7.62) (size 2.286 2.286) (drill 1.3208) (layers *.Mask F.Cu In1.Cu B.Cu)
    (solder_mask_margin 0.1016) (clearance 0.127) (zone_connect 2) (thermal_width 0.381) (thermal_gap 0.3302))
  (model ${KIPRJMOD}/../Library/Footprints.3dshapes/Murata_BNX002.step
    (at (xyz 0 0 0))
    (scale (xyz 1 1 1))
    (rotate (xyz 0 0 180))
  )
  (model ${KISYS3DMOD}/Inductor_THT.3dshapes/L_Axial_L5.3mm_D2.2mm_P10.16mm_Horizontal_Vishay_IM-1.wrl
    (offset (xyz 5 7.5 0))
    (scale (xyz 1 1 1))
    (rotate (xyz 0 0 105))
  )
  (model ${KISYS3DMOD}/Inductor_THT.3dshapes/L_Axial_L5.3mm_D2.2mm_P10.16mm_Horizontal_Vishay_IM-1.wrl
    (offset (xyz -5 7.5 0))
    (scale (xyz 1 1 1))
    (rotate (xyz 0 0 75))
  )
)
