(module BP2X13D (layer F.Cu) (tedit 0)
  (fp_text reference REF** (at 0 0) (layer F.SilkS)
    (effects (font (size 1 1) (thickness 0.15)))
  )
  (fp_text value BP2X13D (at 0 2) (layer F.Fab) hide
    (effects (font (size 1 1) (thickness 0.15)))
  )
  (fp_arc (start 0 -2.54) (end 0.7874 -2.54) (angle 360) (layer B.CrtYd) (width 0.02))
  (fp_arc (start 2.54 0) (end 3.3274 0) (angle 360) (layer B.CrtYd) (width 0.02))
  (fp_arc (start 2.54 -2.54) (end 3.3274 -2.54) (angle 360) (layer B.CrtYd) (width 0.02))
  (fp_arc (start 5.08 0) (end 5.8674 0) (angle 360) (layer B.CrtYd) (width 0.02))
  (fp_arc (start 5.08 -2.54) (end 5.8674 -2.54) (angle 360) (layer B.CrtYd) (width 0.02))
  (fp_arc (start 7.62 0) (end 8.4074 0) (angle 360) (layer B.CrtYd) (width 0.02))
  (fp_arc (start 7.62 -2.54) (end 8.4074 -2.54) (angle 360) (layer B.CrtYd) (width 0.02))
  (fp_arc (start 10.16 0) (end 10.9474 0) (angle 360) (layer B.CrtYd) (width 0.02))
  (fp_arc (start 10.16 -2.54) (end 10.9474 -2.54) (angle 360) (layer B.CrtYd) (width 0.02))
  (fp_arc (start 12.7 0) (end 13.4874 0) (angle 360) (layer B.CrtYd) (width 0.02))
  (fp_arc (start 12.7 -2.54) (end 13.4874 -2.54) (angle 360) (layer B.CrtYd) (width 0.02))
  (fp_arc (start 15.24 0) (end 16.0274 0) (angle 360) (layer B.CrtYd) (width 0.02))
  (fp_arc (start 15.24 -2.54) (end 16.0274 -2.54) (angle 360) (layer B.CrtYd) (width 0.02))
  (fp_arc (start 17.78 0) (end 18.5674 0) (angle 360) (layer B.CrtYd) (width 0.02))
  (fp_arc (start 17.78 -2.54) (end 18.5674 -2.54) (angle 360) (layer B.CrtYd) (width 0.02))
  (fp_arc (start 20.32 0) (end 21.1074 0) (angle 360) (layer B.CrtYd) (width 0.02))
  (fp_arc (start 20.32 -2.54) (end 21.1074 -2.54) (angle 360) (layer B.CrtYd) (width 0.02))
  (fp_arc (start 22.86 0) (end 23.6474 0) (angle 360) (layer B.CrtYd) (width 0.02))
  (fp_arc (start 22.86 -2.54) (end 23.6474 -2.54) (angle 360) (layer B.CrtYd) (width 0.02))
  (fp_arc (start 25.4 0) (end 26.1874 0) (angle 360) (layer B.CrtYd) (width 0.02))
  (fp_arc (start 25.4 -2.54) (end 26.1874 -2.54) (angle 360) (layer B.CrtYd) (width 0.02))
  (fp_arc (start 27.94 0) (end 28.7274 0) (angle 360) (layer B.CrtYd) (width 0.02))
  (fp_arc (start 27.94 -2.54) (end 28.7274 -2.54) (angle 360) (layer B.CrtYd) (width 0.02))
  (fp_arc (start 30.48 0) (end 31.2674 0) (angle 360) (layer B.CrtYd) (width 0.02))
  (fp_arc (start 30.48 -2.54) (end 31.2674 -2.54) (angle 360) (layer B.CrtYd) (width 0.02))
  (fp_line (start -5.17 3.265) (end -5.17 -5.805) (layer Dwgs.User) (width 0.05))
  (fp_line (start -5.17 -5.805) (end 35.65 -5.805) (layer Dwgs.User) (width 0.05))
  (fp_line (start 35.65 -5.805) (end 35.65 3.265) (layer Dwgs.User) (width 0.05))
  (fp_line (start 35.65 3.265) (end -5.17 3.265) (layer Dwgs.User) (width 0.05))
  (fp_line (start 35.56 -5.715) (end -5.08 -5.715) (layer F.SilkS) (width 0.18))
  (fp_line (start -5.08 -5.715) (end -5.08 3.175) (layer F.SilkS) (width 0.18))
  (fp_line (start -5.08 3.175) (end 35.56 3.175) (layer F.SilkS) (width 0.18))
  (fp_line (start 35.56 3.175) (end 35.56 -5.715) (layer F.SilkS) (width 0.18))
  (fp_line (start -5.08 3.175) (end -5.08 -5.715) (layer F.CrtYd) (width 0.02))
  (fp_line (start -5.08 -5.715) (end 35.56 -5.715) (layer F.CrtYd) (width 0.02))
  (fp_line (start 35.56 -5.715) (end 35.56 3.175) (layer F.CrtYd) (width 0.02))
  (fp_line (start 35.56 3.175) (end -5.08 3.175) (layer F.CrtYd) (width 0.02))
  (fp_line (start 0.7874 -0.7874) (end 0.7874 0.7874) (layer B.CrtYd) (width 0.02))
  (fp_line (start 0.7874 0.7874) (end -0.7874 0.7874) (layer B.CrtYd) (width 0.02))
  (fp_line (start -0.7874 0.7874) (end -0.7874 -0.7874) (layer B.CrtYd) (width 0.02))
  (fp_line (start -0.7874 -0.7874) (end 0.7874 -0.7874) (layer B.CrtYd) (width 0.02))
  (fp_line (start 35.56 -5.715) (end -5.08 -5.715) (layer F.Fab) (width 0.1))
  (fp_line (start -5.08 -5.715) (end -5.08 3.175) (layer F.Fab) (width 0.1))
  (fp_line (start -5.08 3.175) (end 35.56 3.175) (layer F.Fab) (width 0.1))
  (fp_line (start 35.56 3.175) (end 35.56 -5.715) (layer F.Fab) (width 0.1))
  (fp_line (start -4.445 2.54) (end 34.925 2.54) (layer F.Fab) (width 0.1))
  (fp_line (start 34.925 2.54) (end 34.925 -5.08) (layer F.Fab) (width 0.1))
  (fp_line (start 34.925 -5.08) (end -4.445 -5.08) (layer F.Fab) (width 0.1))
  (fp_line (start -4.445 -5.08) (end -4.445 2.54) (layer F.Fab) (width 0.1))
  (fp_line (start -1.27 3.175) (end -1.27 2.54) (layer F.Fab) (width 0.1))
  (fp_line (start 1.27 3.175) (end 1.27 2.54) (layer F.Fab) (width 0.1))
  (fp_line (start 13.335 3.175) (end 13.335 2.54) (layer F.Fab) (width 0.1))
  (fp_line (start 17.145 3.175) (end 17.145 2.54) (layer F.Fab) (width 0.1))
  (pad 1 thru_hole rect (at 0 0) (size 1.5748 1.5748) (drill 0.9144 (offset 0 0 )) (layers *.Cu *.Mask)
    (clearance 0.1524) (solder_mask_margin 0.1016)
    (zone_connect 2) (thermal_width 0.2032) (thermal_gap 0.2032))
  (pad 2 thru_hole circle (at 0 -2.54) (size 1.5748 1.5748) (drill 0.9144 (offset 0 0 )) (layers *.Cu *.Mask)
    (clearance 0.1524) (solder_mask_margin 0.1016)
    (zone_connect 2) (thermal_width 0.2032) (thermal_gap 0.2032))
  (pad 3 thru_hole circle (at 2.54 0) (size 1.5748 1.5748) (drill 0.9144 (offset 0 0 )) (layers *.Cu *.Mask)
    (clearance 0.1524) (solder_mask_margin 0.1016)
    (zone_connect 2) (thermal_width 0.2032) (thermal_gap 0.2032))
  (pad 4 thru_hole circle (at 2.54 -2.54) (size 1.5748 1.5748) (drill 0.9144 (offset 0 0 )) (layers *.Cu *.Mask)
    (clearance 0.1524) (solder_mask_margin 0.1016)
    (zone_connect 2) (thermal_width 0.2032) (thermal_gap 0.2032))
  (pad 5 thru_hole circle (at 5.08 0) (size 1.5748 1.5748) (drill 0.9144 (offset 0 0 )) (layers *.Cu *.Mask)
    (clearance 0.1524) (solder_mask_margin 0.1016)
    (zone_connect 2) (thermal_width 0.2032) (thermal_gap 0.2032))
  (pad 6 thru_hole circle (at 5.08 -2.54) (size 1.5748 1.5748) (drill 0.9144 (offset 0 0 )) (layers *.Cu *.Mask)
    (clearance 0.1524) (solder_mask_margin 0.1016)
    (zone_connect 2) (thermal_width 0.2032) (thermal_gap 0.2032))
  (pad 7 thru_hole circle (at 7.62 0) (size 1.5748 1.5748) (drill 0.9144 (offset 0 0 )) (layers *.Cu *.Mask)
    (clearance 0.1524) (solder_mask_margin 0.1016)
    (zone_connect 2) (thermal_width 0.2032) (thermal_gap 0.2032))
  (pad 8 thru_hole circle (at 7.62 -2.54) (size 1.5748 1.5748) (drill 0.9144 (offset 0 0 )) (layers *.Cu *.Mask)
    (clearance 0.1524) (solder_mask_margin 0.1016)
    (zone_connect 2) (thermal_width 0.2032) (thermal_gap 0.2032))
  (pad 9 thru_hole circle (at 10.16 0) (size 1.5748 1.5748) (drill 0.9144 (offset 0 0 )) (layers *.Cu *.Mask)
    (clearance 0.1524) (solder_mask_margin 0.1016)
    (zone_connect 2) (thermal_width 0.2032) (thermal_gap 0.2032))
  (pad 10 thru_hole circle (at 10.16 -2.54) (size 1.5748 1.5748) (drill 0.9144 (offset 0 0 )) (layers *.Cu *.Mask)
    (clearance 0.1524) (solder_mask_margin 0.1016)
    (zone_connect 2) (thermal_width 0.2032) (thermal_gap 0.2032))
  (pad 11 thru_hole circle (at 12.7 0) (size 1.5748 1.5748) (drill 0.9144 (offset 0 0 )) (layers *.Cu *.Mask)
    (clearance 0.1524) (solder_mask_margin 0.1016)
    (zone_connect 2) (thermal_width 0.2032) (thermal_gap 0.2032))
  (pad 12 thru_hole circle (at 12.7 -2.54) (size 1.5748 1.5748) (drill 0.9144 (offset 0 0 )) (layers *.Cu *.Mask)
    (clearance 0.1524) (solder_mask_margin 0.1016)
    (zone_connect 2) (thermal_width 0.2032) (thermal_gap 0.2032))
  (pad 13 thru_hole circle (at 15.24 0) (size 1.5748 1.5748) (drill 0.9144 (offset 0 0 )) (layers *.Cu *.Mask)
    (clearance 0.1524) (solder_mask_margin 0.1016)
    (zone_connect 2) (thermal_width 0.2032) (thermal_gap 0.2032))
  (pad 14 thru_hole circle (at 15.24 -2.54) (size 1.5748 1.5748) (drill 0.9144 (offset 0 0 )) (layers *.Cu *.Mask)
    (clearance 0.1524) (solder_mask_margin 0.1016)
    (zone_connect 2) (thermal_width 0.2032) (thermal_gap 0.2032))
  (pad 15 thru_hole circle (at 17.78 0) (size 1.5748 1.5748) (drill 0.9144 (offset 0 0 )) (layers *.Cu *.Mask)
    (clearance 0.1524) (solder_mask_margin 0.1016)
    (zone_connect 2) (thermal_width 0.2032) (thermal_gap 0.2032))
  (pad 16 thru_hole circle (at 17.78 -2.54) (size 1.5748 1.5748) (drill 0.9144 (offset 0 0 )) (layers *.Cu *.Mask)
    (clearance 0.1524) (solder_mask_margin 0.1016)
    (zone_connect 2) (thermal_width 0.2032) (thermal_gap 0.2032))
  (pad 17 thru_hole circle (at 20.32 0) (size 1.5748 1.5748) (drill 0.9144 (offset 0 0 )) (layers *.Cu *.Mask)
    (clearance 0.1524) (solder_mask_margin 0.1016)
    (zone_connect 2) (thermal_width 0.2032) (thermal_gap 0.2032))
  (pad 18 thru_hole circle (at 20.32 -2.54) (size 1.5748 1.5748) (drill 0.9144 (offset 0 0 )) (layers *.Cu *.Mask)
    (clearance 0.1524) (solder_mask_margin 0.1016)
    (zone_connect 2) (thermal_width 0.2032) (thermal_gap 0.2032))
  (pad 19 thru_hole circle (at 22.86 0) (size 1.5748 1.5748) (drill 0.9144 (offset 0 0 )) (layers *.Cu *.Mask)
    (clearance 0.1524) (solder_mask_margin 0.1016)
    (zone_connect 2) (thermal_width 0.2032) (thermal_gap 0.2032))
  (pad 20 thru_hole circle (at 22.86 -2.54) (size 1.5748 1.5748) (drill 0.9144 (offset 0 0 )) (layers *.Cu *.Mask)
    (clearance 0.1524) (solder_mask_margin 0.1016)
    (zone_connect 2) (thermal_width 0.2032) (thermal_gap 0.2032))
  (pad 21 thru_hole circle (at 25.4 0) (size 1.5748 1.5748) (drill 0.9144 (offset 0 0 )) (layers *.Cu *.Mask)
    (clearance 0.1524) (solder_mask_margin 0.1016)
    (zone_connect 2) (thermal_width 0.2032) (thermal_gap 0.2032))
  (pad 22 thru_hole circle (at 25.4 -2.54) (size 1.5748 1.5748) (drill 0.9144 (offset 0 0 )) (layers *.Cu *.Mask)
    (clearance 0.1524) (solder_mask_margin 0.1016)
    (zone_connect 2) (thermal_width 0.2032) (thermal_gap 0.2032))
  (pad 23 thru_hole circle (at 27.94 0) (size 1.5748 1.5748) (drill 0.9144 (offset 0 0 )) (layers *.Cu *.Mask)
    (clearance 0.1524) (solder_mask_margin 0.1016)
    (zone_connect 2) (thermal_width 0.2032) (thermal_gap 0.2032))
  (pad 24 thru_hole circle (at 27.94 -2.54) (size 1.5748 1.5748) (drill 0.9144 (offset 0 0 )) (layers *.Cu *.Mask)
    (clearance 0.1524) (solder_mask_margin 0.1016)
    (zone_connect 2) (thermal_width 0.2032) (thermal_gap 0.2032))
  (pad 25 thru_hole circle (at 30.48 0) (size 1.5748 1.5748) (drill 0.9144 (offset 0 0 )) (layers *.Cu *.Mask)
    (clearance 0.1524) (solder_mask_margin 0.1016)
    (zone_connect 2) (thermal_width 0.2032) (thermal_gap 0.2032))
  (pad 26 thru_hole circle (at 30.48 -2.54) (size 1.5748 1.5748) (drill 0.9144 (offset 0 0 )) (layers *.Cu *.Mask)
    (clearance 0.1524) (solder_mask_margin 0.1016)
    (zone_connect 2) (thermal_width 0.2032) (thermal_gap 0.2032))
  (model ${KIPRJMOD}/../Library/Footprints.3dshapes/75869-Y26LF.step
    (offset (xyz 15.25 5.75 0))
    (scale (xyz 1 1 1))
    (rotate (xyz -90 0 0))
  )
)