(module C1812 (layer F.Cu) (tedit 0)
  (attr smd)
  (fp_text reference REF** (at 0 0) (layer F.SilkS)
    (effects (font (size 1 1) (thickness 0.15)))
  )
  (fp_text value C1812 (at 0 2) (layer F.Fab) hide
    (effects (font (size 1 1) (thickness 0.15)))
  )
  (fp_line (start -3.5825 2.3125) (end -3.5825 -2.3125) (layer Dwgs.User) (width 0.05))
  (fp_line (start -3.5825 -2.3125) (end 3.5825 -2.3125) (layer Dwgs.User) (width 0.05))
  (fp_line (start 3.5825 -2.3125) (end 3.5825 2.3125) (layer Dwgs.User) (width 0.05))
  (fp_line (start 3.5825 2.3125) (end -3.5825 2.3125) (layer Dwgs.User) (width 0.05))
  (fp_line (start -3.4925 2.2225) (end 3.4925 2.2225) (layer F.SilkS) (width 0.18))
  (fp_line (start 3.4925 2.2225) (end 3.4925 -2.2225) (layer F.SilkS) (width 0.18))
  (fp_line (start 3.4925 -2.2225) (end -3.4925 -2.2225) (layer F.SilkS) (width 0.18))
  (fp_line (start -3.4925 -2.2225) (end -3.4925 2.2225) (layer F.SilkS) (width 0.18))
  (fp_line (start -3.3 -2) (end 3.3 -2) (layer F.CrtYd) (width 0.02))
  (fp_line (start 3.3 -2) (end 3.3 2) (layer F.CrtYd) (width 0.02))
  (fp_line (start 3.3 2) (end -3.3 2) (layer F.CrtYd) (width 0.02))
  (fp_line (start -3.3 2) (end -3.3 -2) (layer F.CrtYd) (width 0.02))
  (fp_line (start -2.54 1.778) (end 2.54 1.778) (layer F.Fab) (width 0.1))
  (fp_line (start 2.54 1.778) (end 2.54 -1.778) (layer F.Fab) (width 0.1))
  (fp_line (start 2.54 -1.778) (end -2.54 -1.778) (layer F.Fab) (width 0.1))
  (fp_line (start -2.54 -1.778) (end -2.54 1.778) (layer F.Fab) (width 0.1))
  (pad 1 smd rect (at -2.2225 0) (size 1.905 3.81) (layers F.Cu F.Mask F.Paste)
    (clearance 0.2032) (solder_mask_margin 0.1143)
    (zone_connect 2))
  (pad 2 smd rect (at 2.2225 0) (size 1.905 3.81) (layers F.Cu F.Mask F.Paste)
    (clearance 0.2032) (solder_mask_margin 0.1143)
    (zone_connect 2))
  (model ${KISYS3DMOD}/Capacitor_SMD.3dshapes/C_1812_4532Metric.wrl
    (offset (xyz 0 0 0))
    (scale (xyz 1 1 1))
    (rotate (xyz 0 0 0))
  )
)