(module DF3_PRD.A2 (layer F.Cu) (tedit 0)
  (fp_text reference REF** (at 0 0) (layer F.SilkS) hide
    (effects (font (size 1 1) (thickness 0.15)))
  )
  (fp_text value Comp_resist (at 0 2) (layer F.Fab) hide
    (effects (font (size 1 1) (thickness 0.15)))
  )
  (fp_line (start -0.88392 0.88392) (end -0.88392 -0.88392) (layer F.CrtYd) (width 0.05))
  (fp_line (start -0.88392 -0.88392) (end 0.88392 -0.88392) (layer F.CrtYd) (width 0.05))
  (fp_line (start 0.88392 -0.88392) (end 0.88392 0.88392) (layer F.CrtYd) (width 0.05))
  (fp_line (start 0.88392 0.88392) (end -0.88392 0.88392) (layer F.CrtYd) (width 0.05))
  (pad ~ smd circle (at 0 0) (size 0.8128 0.8128) (layers F.Cu F.Mask)
    (clearance 0.3048) (solder_mask_margin 0.1524)
    (zone_connect 2) (thermal_width 0.381) (thermal_gap 0.3302))
)