(module FABRICATION-FEE (layer F.Cu) (tedit 0)
  (attr virtual)
  (fp_text reference REF** (at 0 0) (layer F.SilkS)
    (effects (font (size 1 1) (thickness 0.15)))
  )
  (fp_text value FABRICATION-FEE (at 0 2) (layer F.Fab) hide
    (effects (font (size 1 1) (thickness 0.15)))
  )
  (fp_line (start -0.1 113.13) (end -0.1 -0.1) (layer Dwgs.User) (width 0.05))
  (fp_line (start -0.1 -0.1) (end 50.9 -0.1) (layer Dwgs.User) (width 0.05))
  (fp_line (start 50.9 -0.1) (end 50.9 113.13) (layer Dwgs.User) (width 0.05))
  (fp_line (start 50.9 113.13) (end -0.1 113.13) (layer Dwgs.User) (width 0.05))
  (fp_line (start 46.355 71.12) (end 0.635 71.12) (layer Dwgs.User) (width 0.2))
  (fp_line (start 0.635 71.12) (end 0.635 80.645) (layer Dwgs.User) (width 0.2))
  (fp_line (start 0.635 80.645) (end 50.165 80.645) (layer Dwgs.User) (width 0.2))
  (fp_line (start 50.165 80.645) (end 50.165 71.12) (layer Dwgs.User) (width 0.2))
  (fp_line (start 46.355 64.77) (end 0.635 64.77) (layer Dwgs.User) (width 0.2))
  (fp_line (start 0.635 64.77) (end 0.635 71.12) (layer Dwgs.User) (width 0.2))
  (fp_line (start 0.635 71.12) (end 50.165 71.12) (layer Dwgs.User) (width 0.2))
  (fp_line (start 50.165 71.12) (end 50.165 64.77) (layer Dwgs.User) (width 0.2))
  (fp_line (start 46.355 58.42) (end 0.635 58.42) (layer Dwgs.User) (width 0.2))
  (fp_line (start 0.635 58.42) (end 0.635 64.77) (layer Dwgs.User) (width 0.2))
  (fp_line (start 0.635 64.77) (end 50.165 64.77) (layer Dwgs.User) (width 0.2))
  (fp_line (start 50.165 64.77) (end 50.165 58.42) (layer Dwgs.User) (width 0.2))
  (fp_line (start 46.355 52.07) (end 0.635 52.07) (layer Dwgs.User) (width 0.2))
  (fp_line (start 0.635 52.07) (end 0.635 58.42) (layer Dwgs.User) (width 0.2))
  (fp_line (start 0.635 58.42) (end 50.165 58.42) (layer Dwgs.User) (width 0.2))
  (fp_line (start 50.165 58.42) (end 50.165 52.07) (layer Dwgs.User) (width 0.2))
  (fp_line (start 46.355 45.72) (end 0.635 45.72) (layer Dwgs.User) (width 0.2))
  (fp_line (start 0.635 45.72) (end 0.635 52.07) (layer Dwgs.User) (width 0.2))
  (fp_line (start 0.635 52.07) (end 50.165 52.07) (layer Dwgs.User) (width 0.2))
  (fp_line (start 50.165 52.07) (end 50.165 45.72) (layer Dwgs.User) (width 0.2))
  (fp_line (start 46.355 39.37) (end 0.635 39.37) (layer Dwgs.User) (width 0.2))
  (fp_line (start 0.635 39.37) (end 0.635 45.72) (layer Dwgs.User) (width 0.2))
  (fp_line (start 0.635 45.72) (end 50.165 45.72) (layer Dwgs.User) (width 0.2))
  (fp_line (start 50.165 45.72) (end 50.165 39.37) (layer Dwgs.User) (width 0.2))
  (fp_line (start 46.355 33.02) (end 0.635 33.02) (layer Dwgs.User) (width 0.2))
  (fp_line (start 0.635 33.02) (end 0.635 39.37) (layer Dwgs.User) (width 0.2))
  (fp_line (start 0.635 39.37) (end 50.165 39.37) (layer Dwgs.User) (width 0.2))
  (fp_line (start 50.165 39.37) (end 50.165 33.02) (layer Dwgs.User) (width 0.2))
  (fp_line (start 46.355 26.67) (end 0.635 26.67) (layer Dwgs.User) (width 0.2))
  (fp_line (start 0.635 26.67) (end 0.635 33.02) (layer Dwgs.User) (width 0.2))
  (fp_line (start 0.635 33.02) (end 50.165 33.02) (layer Dwgs.User) (width 0.2))
  (fp_line (start 50.165 33.02) (end 50.165 26.67) (layer Dwgs.User) (width 0.2))
  (fp_line (start 46.355 20.32) (end 0.635 20.32) (layer Dwgs.User) (width 0.2))
  (fp_line (start 0.635 20.32) (end 0.635 26.67) (layer Dwgs.User) (width 0.2))
  (fp_line (start 0.635 26.67) (end 50.165 26.67) (layer Dwgs.User) (width 0.2))
  (fp_line (start 50.165 26.67) (end 50.165 20.32) (layer Dwgs.User) (width 0.2))
  (fp_line (start 46.355 13.97) (end 0.635 13.97) (layer Dwgs.User) (width 0.2))
  (fp_line (start 0.635 13.97) (end 0.635 20.32) (layer Dwgs.User) (width 0.2))
  (fp_line (start 0.635 20.32) (end 50.165 20.32) (layer Dwgs.User) (width 0.2))
  (fp_line (start 50.165 20.32) (end 50.165 13.97) (layer Dwgs.User) (width 0.2))
  (fp_line (start 23.495 7.62) (end 23.495 112.395) (layer Dwgs.User) (width 0.2))
  (fp_line (start 50.8 0) (end 0 0) (layer Dwgs.User) (width 0.2))
  (fp_line (start 0 0) (end 0 113.03) (layer Dwgs.User) (width 0.2))
  (fp_line (start 0 113.03) (end 50.8 113.03) (layer Dwgs.User) (width 0.2))
  (fp_line (start 50.8 113.03) (end 50.8 0) (layer Dwgs.User) (width 0.2))
  (fp_line (start 29.21 39.37) (end 29.21 45.72) (layer Dwgs.User) (width 0.2))
  (fp_line (start 32.385 13.97) (end 32.385 20.32) (layer Dwgs.User) (width 0.2))
  (fp_line (start 41.275 13.97) (end 41.275 20.32) (layer Dwgs.User) (width 0.2))
  (fp_line (start 0.635 7.62) (end 0.635 13.97) (layer Dwgs.User) (width 0.2))
  (fp_line (start 0.635 13.97) (end 50.165 13.97) (layer Dwgs.User) (width 0.2))
  (fp_line (start 50.165 13.97) (end 50.165 7.62) (layer Dwgs.User) (width 0.2))
  (fp_line (start 50.165 7.62) (end 0.635 7.62) (layer Dwgs.User) (width 0.2))
  (fp_line (start 0.635 6.985) (end 50.165 6.985) (layer Dwgs.User) (width 0.2))
  (fp_line (start 0.635 0.635) (end 0.635 7.62) (layer Dwgs.User) (width 0.2))
  (fp_line (start 0.635 7.62) (end 50.165 7.62) (layer Dwgs.User) (width 0.2))
  (fp_line (start 50.165 7.62) (end 50.165 0.635) (layer Dwgs.User) (width 0.2))
  (fp_line (start 50.165 0.635) (end 0.635 0.635) (layer Dwgs.User) (width 0.2))
  (fp_line (start 36.83 7.62) (end 36.83 13.97) (layer Dwgs.User) (width 0.2))
  (fp_line (start 29.21 42.545) (end 50.165 42.545) (layer Dwgs.User) (width 0.2))
  (fp_line (start 40.005 39.37) (end 40.005 45.72) (layer Dwgs.User) (width 0.2))
  (fp_line (start 36.83 64.77) (end 36.83 71.12) (layer Dwgs.User) (width 0.2))
  (fp_line (start 36.83 58.42) (end 36.83 64.77) (layer Dwgs.User) (width 0.2))
  (fp_line (start 30.1625 58.42) (end 30.1625 64.77) (layer Dwgs.User) (width 0.2))
  (fp_line (start 30.1625 64.77) (end 30.1625 71.12) (layer Dwgs.User) (width 0.2))
  (fp_line (start 50.165 106.045) (end 0.635 106.045) (layer Dwgs.User) (width 0.2))
  (fp_line (start 0.635 106.045) (end 0.635 112.395) (layer Dwgs.User) (width 0.2))
  (fp_line (start 0.635 112.395) (end 50.165 112.395) (layer Dwgs.User) (width 0.2))
  (fp_line (start 50.165 112.395) (end 50.165 106.045) (layer Dwgs.User) (width 0.2))
  (fp_line (start 46.355 99.695) (end 0.635 99.695) (layer Dwgs.User) (width 0.2))
  (fp_line (start 0.635 99.695) (end 0.635 106.045) (layer Dwgs.User) (width 0.2))
  (fp_line (start 0.635 106.045) (end 50.165 106.045) (layer Dwgs.User) (width 0.2))
  (fp_line (start 50.165 106.045) (end 50.165 99.695) (layer Dwgs.User) (width 0.2))
  (fp_line (start 46.355 93.345) (end 0.635 93.345) (layer Dwgs.User) (width 0.2))
  (fp_line (start 0.635 93.345) (end 0.635 99.695) (layer Dwgs.User) (width 0.2))
  (fp_line (start 0.635 99.695) (end 50.165 99.695) (layer Dwgs.User) (width 0.2))
  (fp_line (start 50.165 99.695) (end 50.165 93.345) (layer Dwgs.User) (width 0.2))
  (fp_line (start 46.355 86.995) (end 0.635 86.995) (layer Dwgs.User) (width 0.2))
  (fp_line (start 0.635 86.995) (end 0.635 93.345) (layer Dwgs.User) (width 0.2))
  (fp_line (start 0.635 93.345) (end 50.165 93.345) (layer Dwgs.User) (width 0.2))
  (fp_line (start 50.165 93.345) (end 50.165 86.995) (layer Dwgs.User) (width 0.2))
  (fp_line (start 46.355 80.645) (end 0.635 80.645) (layer Dwgs.User) (width 0.2))
  (fp_line (start 0.635 80.645) (end 0.635 86.995) (layer Dwgs.User) (width 0.2))
  (fp_line (start 0.635 86.995) (end 50.165 86.995) (layer Dwgs.User) (width 0.2))
  (fp_line (start 50.165 86.995) (end 50.165 80.645) (layer Dwgs.User) (width 0.2))
  (fp_line (start 31.115 80.645) (end 31.115 86.995) (layer Dwgs.User) (width 0.2))
  (fp_line (start 38.735 80.645) (end 38.735 86.995) (layer Dwgs.User) (width 0.2))
  (fp_line (start 23.495 74.295) (end 50.165 74.295) (layer Dwgs.User) (width 0.2))
  (fp_line (start 23.495 77.47) (end 50.165 77.47) (layer Dwgs.User) (width 0.2))
  (fp_line (start 30.1625 71.12) (end 30.1625 80.645) (layer Dwgs.User) (width 0.2))
  (fp_line (start 40.005 71.12) (end 40.005 80.645) (layer Dwgs.User) (width 0.2))
  (fp_line (start 36.83 86.995) (end 36.83 93.345) (layer Dwgs.User) (width 0.2))
  (fp_line (start 36.83 93.345) (end 36.83 99.695) (layer Dwgs.User) (width 0.2))
  (fp_text user Silkscreen (at 1.27 69.61795) (layer Dwgs.User)
    (effects (font (size 1 1) (thickness 0.1)) (justify left))
  )
  (fp_text user "Insulation varnish" (at 1.27 63.29014) (layer Dwgs.User)
    (effects (font (size 1 1) (thickness 0.1)) (justify left))
  )
  (fp_text user SERIGRAPHIE (at 1.27 67.07795) (layer Dwgs.User)
    (effects (font (size 1 1) (thickness 0.1)) (justify left))
  )
  (fp_text user "VERNIS EPARGNE" (at 1.27 60.72795) (layer Dwgs.User)
    (effects (font (size 1 1) (thickness 0.1)) (justify left))
  )
  (fp_text user "Material thickness" (at 1.27 50.56795) (layer Dwgs.User)
    (effects (font (size 1 1) (thickness 0.1)) (justify left))
  )
  (fp_text user "EPAISSEUR MATIERE" (at 1.27 48.02795) (layer Dwgs.User)
    (effects (font (size 1 1) (thickness 0.1)) (justify left))
  )
  (fp_text user FR4 (at 24.765 43.18) (layer Dwgs.User)
    (effects (font (size 1 1) (thickness 0.1)) (justify left))
  )
  (fp_text user "EPAISSEUR CUIVRE" (at 1.27 54.61) (layer Dwgs.User)
    (effects (font (size 1 1) (thickness 0.1)) (justify left))
  )
  (fp_text user "Copper thickness" (at 1.27 57.15) (layer Dwgs.User)
    (effects (font (size 1 1) (thickness 0.1)) (justify left))
  )
  (fp_text user 1 (at 27.305 18.415) (layer Dwgs.User)
    (effects (font (size 1 1) (thickness 0.2)) (justify left))
  )
  (fp_text user 2 (at 35.56 18.415) (layer Dwgs.User)
    (effects (font (size 1 1) (thickness 0.2)) (justify left))
  )
  (fp_text user 3 (at 44.45 18.415) (layer Dwgs.User)
    (effects (font (size 1 1) (thickness 0.2)) (justify left))
  )
  (fp_text user "CLASSE IPC" (at 1.27 16.51) (layer Dwgs.User)
    (effects (font (size 1 1) (thickness 0.1)) (justify left))
  )
  (fp_text user "IPC class" (at 1.27 19.05) (layer Dwgs.User)
    (effects (font (size 1 1) (thickness 0.1)) (justify left))
  )
  (fp_text user "CLASSE D'ISOLEMENT" (at 1.27 22.86) (layer Dwgs.User)
    (effects (font (size 1 1) (thickness 0.1)) (justify left))
  )
  (fp_text user "Insulation class" (at 1.27 25.4) (layer Dwgs.User)
    (effects (font (size 1 1) (thickness 0.1)) (justify left))
  )
  (fp_text user "CLASSE PERCAGE" (at 1.27 29.21) (layer Dwgs.User)
    (effects (font (size 1 1) (thickness 0.1)) (justify left))
  )
  (fp_text user "Chart class" (at 1.27 31.75) (layer Dwgs.User)
    (effects (font (size 1 1) (thickness 0.1)) (justify left))
  )
  (fp_text user "NB. DE COUCHES" (at 1.27 35.56) (layer Dwgs.User)
    (effects (font (size 1 1) (thickness 0.1)) (justify left))
  )
  (fp_text user "Nb. of layers" (at 1.27 38.1) (layer Dwgs.User)
    (effects (font (size 1 1) (thickness 0.1)) (justify left))
  )
  (fp_text user Materials (at 1.27 44.45) (layer Dwgs.User)
    (effects (font (size 1 1) (thickness 0.1)) (justify left))
  )
  (fp_text user MATIERE (at 1.27 41.91) (layer Dwgs.User)
    (effects (font (size 1 1) (thickness 0.1)) (justify left))
  )
  (fp_text user NON (at 29.21 10.16) (layer Dwgs.User)
    (effects (font (size 1 1) (thickness 0.1)) (justify left))
  )
  (fp_text user No (at 29.21 12.7) (layer Dwgs.User)
    (effects (font (size 1 1) (thickness 0.1)) (justify left))
  )
  (fp_text user OUI (at 41.275 10.16) (layer Dwgs.User)
    (effects (font (size 1 1) (thickness 0.1)) (justify left))
  )
  (fp_text user Yes (at 41.275 12.7) (layer Dwgs.User)
    (effects (font (size 1 1) (thickness 0.1)) (justify left))
  )
  (fp_text user RoHs (at 1.27 11.43) (layer Dwgs.User)
    (effects (font (size 1 1) (thickness 0.1)) (justify left))
  )
  (fp_text user Standard (at 34.925 41.275) (layer Dwgs.User)
    (effects (font (size 1 1) (thickness 0.1)))
  )
  (fp_text user Htg (at 45.085 41.275) (layer Dwgs.User)
    (effects (font (size 1 1) (thickness 0.1)))
  )
  (fp_text user Improved (at 34.925 44.45) (layer Dwgs.User)
    (effects (font (size 1 1) (thickness 0.1)))
  )
  (fp_text user mm (at 41.91 49.53) (layer Dwgs.User)
    (effects (font (size 1 1) (thickness 0.1)) (justify left))
  )
  (fp_text user "EXT          & INT" (at 24.765 55.88) (layer Dwgs.User)
    (effects (font (size 1 1) (thickness 0.1)) (justify left))
  )
  (fp_text user COULEUR (at 40.005 60.325) (layer Dwgs.User)
    (effects (font (size 1 1) (thickness 0.1)) (justify left))
  )
  (fp_text user COULEUR (at 40.005 66.675) (layer Dwgs.User)
    (effects (font (size 1 1) (thickness 0.1)) (justify left))
  )
  (fp_text user "Electrical test" (at 1.27 92.075) (layer Dwgs.User)
    (effects (font (size 1 1) (thickness 0.1)) (justify left))
  )
  (fp_text user "TEST ELECTRIQUE" (at 1.27 89.535) (layer Dwgs.User)
    (effects (font (size 1 1) (thickness 0.1)) (justify left))
  )
  (fp_text user "Date code (2)" (at 1.27 110.89295) (layer Dwgs.User)
    (effects (font (size 1 1) (thickness 0.1)) (justify left))
  )
  (fp_text user "Norm (1)" (at 1.27 104.54295) (layer Dwgs.User)
    (effects (font (size 1 1) (thickness 0.1)) (justify left))
  )
  (fp_text user "DATE CODE (2)" (at 1.27 108.35295) (layer Dwgs.User)
    (effects (font (size 1 1) (thickness 0.1)) (justify left))
  )
  (fp_text user "NORME (1)" (at 1.27 102.00295) (layer Dwgs.User)
    (effects (font (size 1 1) (thickness 0.1)) (justify left))
  )
  (fp_text user Empilement (at 1.27 98.425) (layer Dwgs.User)
    (effects (font (size 1 1) (thickness 0.1)) (justify left))
  )
  (fp_text user EMPILAGE (at 1.27 95.885) (layer Dwgs.User)
    (effects (font (size 1 1) (thickness 0.1)) (justify left))
  )
  (fp_text user "Conn. (Card edge)" (at 1.27 85.725) (layer Dwgs.User)
    (effects (font (size 1 1) (thickness 0.1)) (justify left))
  )
  (fp_text user "CONNECTEUR A Dgts" (at 1.27 83.185) (layer Dwgs.User)
    (effects (font (size 1 1) (thickness 0.1)) (justify left))
  )
  (fp_text user FINITION (at 1.27 75.565) (layer Dwgs.User)
    (effects (font (size 1 1) (thickness 0.1)) (justify left))
  )
  (fp_text user Finish (at 1.27 78.105) (layer Dwgs.User)
    (effects (font (size 1 1) (thickness 0.1)) (justify left))
  )
  (fp_text user NiAu (at 24.765 79.375) (layer Dwgs.User)
    (effects (font (size 1 1) (thickness 0.1)) (justify left))
  )
  (fp_text user Chimi. (at 31.115 79.375) (layer Dwgs.User)
    (effects (font (size 1 1) (thickness 0.1)) (justify left))
  )
  (fp_text user Sn (at 24.765 76.2) (layer Dwgs.User)
    (effects (font (size 1 1) (thickness 0.1)) (justify left))
  )
  (fp_text user Chimi. (at 31.115 76.2) (layer Dwgs.User)
    (effects (font (size 1 1) (thickness 0.1)) (justify left))
  )
  (fp_text user etame (at 31.115 73.025) (layer Dwgs.User)
    (effects (font (size 1 1) (thickness 0.1)) (justify left))
  )
  (fp_text user SnPb (at 24.765 73.025) (layer Dwgs.User)
    (effects (font (size 1 1) (thickness 0.1)) (justify left))
  )
  (fp_text user select. (at 41.275 73.025) (layer Dwgs.User)
    (effects (font (size 1 1) (thickness 0.1)) (justify left))
  )
  (fp_text user HAL (at 41.275 76.2) (layer Dwgs.User)
    (effects (font (size 1 1) (thickness 0.1)) (justify left))
  )
  (fp_text user electro. (at 41.275 79.375) (layer Dwgs.User)
    (effects (font (size 1 1) (thickness 0.1)) (justify left))
  )
  (fp_text user NiAu (at 24.765 83.185) (layer Dwgs.User)
    (effects (font (size 1 1) (thickness 0.1)) (justify left))
  )
  (fp_text user Elect. (at 24.765 85.725) (layer Dwgs.User)
    (effects (font (size 1 1) (thickness 0.1)) (justify left))
  )
  (fp_text user SnPb (at 33.02 84.455) (layer Dwgs.User)
    (effects (font (size 1 1) (thickness 0.1)) (justify left))
  )
  (fp_text user OUI (at 41.91 89.535) (layer Dwgs.User)
    (effects (font (size 1 1) (thickness 0.1)) (justify left))
  )
  (fp_text user Yes (at 41.91 92.075) (layer Dwgs.User)
    (effects (font (size 1 1) (thickness 0.1)) (justify left))
  )
  (fp_text user SPECIAL (at 40.005 95.885) (layer Dwgs.User)
    (effects (font (size 1 1) (thickness 0.1)) (justify left))
  )
  (fp_text user Special (at 40.005 98.425) (layer Dwgs.User)
    (effects (font (size 1 1) (thickness 0.1)) (justify left))
  )
  (fp_text user LIBRE (at 27.305 95.885) (layer Dwgs.User)
    (effects (font (size 1 1) (thickness 0.1)) (justify left))
  )
  (fp_text user Free (at 27.305 98.425) (layer Dwgs.User)
    (effects (font (size 1 1) (thickness 0.1)) (justify left))
  )
  (fp_text user No (at 27.94 92.075) (layer Dwgs.User)
    (effects (font (size 1 1) (thickness 0.1)) (justify left))
  )
  (fp_text user NON (at 27.94 89.535) (layer Dwgs.User)
    (effects (font (size 1 1) (thickness 0.1)) (justify left))
  )
  (fp_text user 2 (at 32.385 69.215) (layer Dwgs.User)
    (effects (font (size 1 1) (thickness 0.2)) (justify left))
  )
  (fp_text user 2 (at 32.385 62.865) (layer Dwgs.User)
    (effects (font (size 1 1) (thickness 0.2)) (justify left))
  )
  (fp_text user 1 (at 26.035 69.215) (layer Dwgs.User)
    (effects (font (size 1 1) (thickness 0.2)) (justify left))
  )
  (fp_text user 1 (at 26.035 62.865) (layer Dwgs.User)
    (effects (font (size 1 1) (thickness 0.2)) (justify left))
  )
  (fp_text user "FABRICATION NOTES" (at 23.495 4.445) (layer Dwgs.User)
    (effects (font (size 1 1) (thickness 0.2)))
  )
)