(module FEE_COMP (layer F.Cu) (tedit 0)
  (attr virtual)
  (fp_text reference REF** (at 0 0) (layer F.SilkS)
    (effects (font (size 1 1) (thickness 0.15)))
  )
  (fp_text value FEE_COMP (at 0 2) (layer F.Fab) hide
    (effects (font (size 1 1) (thickness 0.15)))
  )
  (fp_arc (start 11.106971 -3.28042) (end 10.96282 -4.17892) (angle 182.230765) (layer F.Cu) (width 0.1))
  (fp_arc (start 5.883693 -2.546403) (end 6.06767 -1.6535) (angle 187.286501) (layer F.Cu) (width 0.1))
  (fp_arc (start 5.785557 -3.648247) (end 5.81445 -3.45543) (angle -178.953582) (layer F.Cu) (width 0.1))
  (fp_arc (start 5.581242 -4.800791) (end 5.76019 -3.84156) (angle 185.135802) (layer F.Cu) (width 0.1))
  (fp_arc (start 5.457035 -5.964592) (end 5.48888 -5.77219) (angle -177.202079) (layer F.Cu) (width 0.1))
  (fp_arc (start 5.24514 -7.05045) (end 5.43462 -6.15832) (angle 187.983347) (layer F.Cu) (width 0.1))
  (fp_arc (start 11.106602 -7.87415) (end 11.03767 -8.78322) (angle 172.674124) (layer F.Cu) (width 0.1))
  (fp_arc (start 7.701825 -6.28005) (end 7.68704 -6.47485) (angle -187.317041) (layer F.Cu) (width 0.1))
  (fp_arc (start 11.485145 -5.630455) (end 11.34515 -6.59516) (angle 180.515197) (layer F.Cu) (width 0.1))
  (fp_arc (start 8.027395 -3.96329) (end 8.01261 -4.15809) (angle -187.317041) (layer F.Cu) (width 0.1))
  (fp_line (start -1.14133 -0.4357) (end -1.14133 -13.77784) (layer Dwgs.User) (width 0.05))
  (fp_line (start -1.14133 -13.77784) (end 14.91899 -13.77784) (layer Dwgs.User) (width 0.05))
  (fp_line (start 14.91899 -13.77784) (end 14.91899 -0.4357) (layer Dwgs.User) (width 0.05))
  (fp_line (start 14.91899 -0.4357) (end -1.14133 -0.4357) (layer Dwgs.User) (width 0.05))
  (fp_line (start 11.21604 -2.37699) (end 6.06767 -1.6535) (layer F.Cu) (width 0.1))
  (fp_line (start 5.1814 -7.96025) (end 11.03767 -8.78322) (layer F.Cu) (width 0.1))
  (fp_line (start 11.29089 -6.98129) (end 7.68704 -6.47485) (layer F.Cu) (width 0.1))
  (fp_line (start 7.7413 -6.08872) (end 11.34515 -6.59516) (layer F.Cu) (width 0.1))
  (fp_line (start 11.61646 -4.66453) (end 8.01261 -4.15809) (layer F.Cu) (width 0.1))
  (fp_line (start 8.06687 -3.77196) (end 10.96282 -4.17892) (layer F.Cu) (width 0.1))
  (fp_poly (pts (xy -0.72532 -5.16143) (xy -1.14133 -8.12174) (xy 0.53189 -8.35687) (xy 0.519131 -8.456558)
     (xy 0.508784 -8.556526) (xy 0.500855 -8.656714) (xy 0.495349 -8.757065) (xy 0.492268 -8.857519)
     (xy 0.491615 -8.958019) (xy 0.49339 -9.058505) (xy 0.497591 -9.158918) (xy 0.504217 -9.259201)
     (xy 0.513263 -9.359295) (xy 0.524725 -9.459141) (xy 0.538595 -9.558681) (xy 0.554866 -9.657857)
     (xy 0.573528 -9.75661) (xy 0.594569 -9.854885) (xy 0.617979 -9.952622) (xy 0.643743 -10.049765)
     (xy 0.671846 -10.146257) (xy 0.702271 -10.242043) (xy 0.735002 -10.337066) (xy 0.770018 -10.43127)
     (xy 0.8073 -10.524601) (xy 0.846825 -10.617004) (xy 0.888571 -10.708425) (xy 0.932513 -10.798811)
     (xy 0.978626 -10.888109) (xy 1.026883 -10.976267) (xy 1.077254 -11.063234) (xy 1.129713 -11.148959)
     (xy 1.184226 -11.233392) (xy 1.240763 -11.316483) (xy 1.299291 -11.398184) (xy 1.359776 -11.478447)
     (xy 1.422181 -11.557226) (xy 1.486472 -11.634474) (xy 1.552609 -11.710147) (xy 1.620556 -11.7842)
     (xy 1.690271 -11.85659) (xy 1.761715 -11.927275) (xy 1.834845 -11.996214) (xy 1.90962 -12.063366)
     (xy 1.985994 -12.128691) (xy 2.063925 -12.192153) (xy 2.143365 -12.253714) (xy 2.22427 -12.313338)
     (xy 2.306591 -12.370991) (xy 2.390281 -12.426637) (xy 2.475291 -12.480246) (xy 2.561571 -12.531786)
     (xy 2.649071 -12.581227) (xy 2.737739 -12.628539) (xy 2.827525 -12.673696) (xy 2.918375 -12.71667)
     (xy 3.010237 -12.757438) (xy 3.103056 -12.795974) (xy 3.19678 -12.832257) (xy 3.291353 -12.866266)
     (xy 3.386719 -12.89798) (xy 3.482824 -12.927381) (xy 3.579611 -12.954452) (xy 3.677024 -12.979177)
     (xy 3.775005 -13.001542) (xy 3.873499 -13.021533) (xy 3.972446 -13.039139) (xy 4.07179 -13.05435)
     (xy 9.22015 -13.77784) (xy 9.329093 -13.769204) (xy 9.435724 -13.745272) (xy 9.537909 -13.706524)
     (xy 9.633599 -13.653737) (xy 9.720877 -13.587967) (xy 9.797994 -13.510534) (xy 9.863406 -13.422987)
     (xy 9.915801 -13.327082) (xy 9.95413 -13.22474) (xy 9.964707 -13.123313) (xy 9.968654 -13.021413)
     (xy 9.965954 -12.919473) (xy 9.956619 -12.817924) (xy 9.940689 -12.7172) (xy 9.918231 -12.617727)
     (xy 9.889341 -12.519928) (xy 9.854141 -12.42422) (xy 9.812781 -12.331007) (xy 9.765437 -12.240687)
     (xy 9.712309 -12.153643) (xy 9.653624 -12.070245) (xy 9.589631 -11.990847) (xy 9.520601 -11.915786)
     (xy 9.446828 -11.845382) (xy 9.368626 -11.779933) (xy 9.286326 -11.719718) (xy 9.200278 -11.664991)
     (xy 9.110847 -11.615987) (xy 9.018415 -11.572912) (xy 8.923372 -11.535951) (xy 8.826124 -11.505259)
     (xy 8.727083 -11.480968) (xy 8.62667 -11.46318) (xy 5.58607 -11.03589) (xy 5.480243 -11.00287)
     (xy 5.380814 -10.953845) (xy 5.290186 -10.889999) (xy 5.210551 -10.812876) (xy 5.143834 -10.724341)
     (xy 5.091648 -10.626534) (xy 5.055254 -10.521819) (xy 5.035532 -10.412729) (xy 5.03296 -10.3019)
     (xy 13.86547 -11.54312) (xy 13.968208 -11.553608) (xy 14.071473 -11.552388) (xy 14.173935 -11.539475)
     (xy 14.274273 -11.515035) (xy 14.371197 -11.479385) (xy 14.463457 -11.432982) (xy 14.549865 -11.376424)
     (xy 14.629308 -11.310439) (xy 14.700763 -11.235879) (xy 14.76331 -11.153702) (xy 14.816143 -11.064968)
     (xy 14.858582 -10.970819) (xy 14.89008 -10.872467) (xy 14.910231 -10.77118) (xy 14.918776 -10.668262)
     (xy 14.915605 -10.565039) (xy 14.900758 -10.462839) (xy 14.874428 -10.36298) (xy 14.836952 -10.266748)
     (xy 14.788814 -10.175381) (xy 14.730634 -10.090057) (xy 14.663161 -10.011875) (xy 14.587263 -9.941841)
     (xy 14.50392 -9.880858) (xy 14.414203 -9.82971) (xy 14.319269 -9.789058) (xy 14.22034 -9.759424)
     (xy 14.11869 -9.74119) (xy 4.72293 -8.42082) (xy 4.629367 -8.378232) (xy 4.538954 -8.32931)
     (xy 4.452118 -8.274288) (xy 4.369272 -8.213425) (xy 4.290807 -8.147009) (xy 4.217094 -8.075355)
     (xy 4.148483 -7.998802) (xy 4.085299 -7.917712) (xy 4.02784 -7.832469) (xy 3.976378 -7.743478)
     (xy 3.931157 -7.651158) (xy 3.892392 -7.555947) (xy 3.860265 -7.458296) (xy 3.834929 -7.358667)
     (xy 3.816504 -7.257532) (xy 3.805077 -7.155369) (xy 3.800701 -7.052662) (xy 3.803399 -6.949897)
     (xy 3.813156 -6.847561) (xy 3.829927 -6.746139) (xy 3.853633 -6.646109) (xy 3.88416 -6.547947)
     (xy 3.921366 -6.452115) (xy 3.965072 -6.359069) (xy 4.015074 -6.269249) (xy 4.071133 -6.183079)
     (xy 4.132985 -6.100968) (xy 4.200336 -6.023305) (xy 4.272869 -5.950457) (xy 4.350239 -5.882768)
     (xy 4.43208 -5.82056) (xy 4.364496 -5.746817) (xy 4.302064 -5.668665) (xy 4.24507 -5.586462)
     (xy 4.193777 -5.500587) (xy 4.14842 -5.411434) (xy 4.109207 -5.319413) (xy 4.076319 -5.224946)
     (xy 4.049908 -5.128468) (xy 4.030093 -5.030422) (xy 4.016967 -4.93126) (xy 4.010589 -4.831435)
     (xy 4.01099 -4.731408) (xy 4.018167 -4.631638) (xy 4.032087 -4.532584) (xy 4.052686 -4.4347)
     (xy 4.079869 -4.338437) (xy 4.113513 -4.244237) (xy 4.153461 -4.152532) (xy 4.19953 -4.063745)
     (xy 4.25151 -3.978283) (xy 4.30916 -3.89654) (xy 4.372216 -3.81889) (xy 4.440388 -3.745691)
     (xy 4.513363 -3.677279) (xy 4.590806 -3.613968) (xy 4.672359 -3.55605) (xy 4.75765 -3.50379)
     (xy 4.682548 -3.434482) (xy 4.613367 -3.359265) (xy 4.550569 -3.27864) (xy 4.494576 -3.19315)
     (xy 4.445763 -3.103367) (xy 4.404457 -3.009892) (xy 4.370934 -2.913352) (xy 4.34542 -2.814393)
     (xy 4.328085 -2.713679) (xy 4.319045 -2.611885) (xy 4.318362 -2.509692) (xy 4.326038 -2.407786)
     (xy 4.342024 -2.306849) (xy 4.366212 -2.207558) (xy 4.39844 -2.110578) (xy 4.438492 -2.016559)
     (xy 4.4861 -1.92613) (xy 4.540944 -1.839899) (xy 4.602657 -1.758441) (xy 4.670826 -1.682305)
     (xy 4.744993 -1.611998) (xy 4.824663 -1.547994) (xy 4.9093 -1.49072) (xy 4.810322 -1.470901)
     (xy 4.710946 -1.453188) (xy 4.611216 -1.437589) (xy 4.511178 -1.42411) (xy 4.410876 -1.412759)
     (xy 4.310355 -1.40354) (xy 4.209662 -1.396457) (xy 4.10884 -1.391514) (xy 4.007937 -1.388713)
     (xy 3.906997 -1.388054) (xy 3.806065 -1.389539) (xy 3.705188 -1.393167) (xy 3.604411 -1.398935)
     (xy 3.503778 -1.406842) (xy 3.403337 -1.416884) (xy 3.303131 -1.429056) (xy 3.203206 -1.443353)
     (xy 3.103607 -1.459768) (xy 3.004379 -1.478294) (xy 2.905567 -1.498923) (xy 2.807216 -1.521645)
     (xy 2.709368 -1.54645) (xy 2.61207 -1.573327) (xy 2.515364 -1.602264) (xy 2.419294 -1.633248)
     (xy 2.323904 -1.666264) (xy 2.229237 -1.701298) (xy 2.135334 -1.738335) (xy 2.042239 -1.777356)
     (xy 1.949994 -1.818346) (xy 1.858639 -1.861285) (xy 1.768217 -1.906153) (xy 1.678768 -1.952932)
     (xy 1.590332 -2.001599) (xy 1.50295 -2.052133) (xy 1.41666 -2.10451) (xy 1.331501 -2.158708)
     (xy 1.247513 -2.214702) (xy 1.164732 -2.272467) (xy 1.083197 -2.331976) (xy 1.002943 -2.393202)
     (xy 0.924007 -2.456119) (xy 0.846425 -2.520698) (xy 0.770232 -2.586909) (xy 0.695462 -2.654723)
     (xy 0.622148 -2.72411) (xy 0.550324 -2.795037) (xy 0.480022 -2.867473) (xy 0.411274 -2.941386)
     (xy 0.344111 -3.016741) (xy 0.278563 -3.093506) (xy 0.214659 -3.171645) (xy 0.152429 -3.251123)
     (xy 0.0919 -3.331905) (xy 0.033101 -3.413953) (xy -0.023944 -3.497232) (xy -0.079207 -3.581702)
     (xy -0.132665 -3.667328) (xy -0.184293 -3.754068) (xy -0.234067 -3.841886) (xy -0.281965 -3.93074)
     (xy -0.327966 -4.020591) (xy -0.372049 -4.111399) (xy -0.414194 -4.203123) (xy -0.454383 -4.29572)
     (xy -0.492596 -4.38915) (xy -0.528816 -4.48337) (xy -0.563028 -4.578338) (xy -0.595216 -4.674011)
     (xy -0.625366 -4.770345) (xy -0.653463 -4.867298) (xy -0.679496 -4.964826) (xy -0.703451 -5.062885)
     (xy -0.72532 -5.16143)) (layer F.Cu) (width 0))
  (fp_poly (pts (xy 12.77069 -5.87674) (xy 12.769105 -5.978196) (xy 12.756878 -6.078925) (xy 12.734143 -6.177813)
     (xy 12.701154 -6.273769) (xy 12.658273 -6.365731) (xy 12.605975 -6.452684) (xy 12.544838 -6.533666)
     (xy 12.475537 -6.607782) (xy 12.398838 -6.674213) (xy 12.31559 -6.732226) (xy 12.226711 -6.781179)
     (xy 12.133184 -6.820531) (xy 12.036043 -6.849847) (xy 11.936361 -6.868803) (xy 11.83524 -6.87719)
     (xy 11.921655 -6.937084) (xy 12.001607 -7.005367) (xy 12.074285 -7.081346) (xy 12.138952 -7.16425)
     (xy 12.194951 -7.253238) (xy 12.241716 -7.347408) (xy 12.278771 -7.445804) (xy 12.30574 -7.547428)
     (xy 12.32235 -7.65125) (xy 13.02046 -7.74935) (xy 13.122528 -7.75859) (xy 13.224988 -7.756293)
     (xy 13.32654 -7.742487) (xy 13.425895 -7.717348) (xy 13.521792 -7.681195) (xy 13.613015 -7.634486)
     (xy 13.698407 -7.577815) (xy 13.776883 -7.511899) (xy 13.847448 -7.437577) (xy 13.909207 -7.355789)
     (xy 13.961376 -7.267575) (xy 14.003294 -7.174054) (xy 14.034428 -7.076411) (xy 14.054383 -6.975887)
     (xy 14.062906 -6.873756) (xy 14.059889 -6.771315) (xy 14.045371 -6.669863) (xy 14.019535 -6.570687)
     (xy 13.98271 -6.475046) (xy 13.935362 -6.384153) (xy 13.878092 -6.299161) (xy 13.811627 -6.22115)
     (xy 13.736811 -6.151108) (xy 13.654592 -6.089925) (xy 13.566014 -6.038376) (xy 13.4722 -5.997116)
     (xy 13.374342 -5.966669) (xy 13.27368 -5.94742) (xy 12.77069 -5.87674)) (layer F.Cu) (width 0))
  (fp_poly (pts (xy 12.32799 -3.45202) (xy 12.313181 -3.551109) (xy 12.288645 -3.648248) (xy 12.254623 -3.742485)
     (xy 12.211449 -3.832895) (xy 12.159546 -3.918592) (xy 12.099423 -3.998737) (xy 12.031669 -4.072543)
     (xy 11.956949 -4.139288) (xy 11.875994 -4.198316) (xy 11.789599 -4.249049) (xy 11.69861 -4.29099)
     (xy 11.798917 -4.315192) (xy 11.897208 -4.346597) (xy 11.992964 -4.385042) (xy 12.085683 -4.430324)
     (xy 12.174878 -4.482205) (xy 12.260079 -4.540412) (xy 12.340839 -4.604639) (xy 12.416733 -4.674549)
     (xy 12.487363 -4.749774) (xy 12.552356 -4.829919) (xy 12.611371 -4.914562) (xy 12.664099 -5.003258)
     (xy 12.710261 -5.095542) (xy 12.749616 -5.190929) (xy 12.781956 -5.288915) (xy 12.807111 -5.388988)
     (xy 12.82495 -5.49062) (xy 13.40813 -5.57257) (xy 13.510251 -5.582346) (xy 13.612833 -5.581335)
     (xy 13.714742 -5.56955) (xy 13.814847 -5.54712) (xy 13.912041 -5.514295) (xy 14.005248 -5.471438)
     (xy 14.093434 -5.419022) (xy 14.175624 -5.35763) (xy 14.250907 -5.28794) (xy 14.318449 -5.210724)
     (xy 14.377503 -5.126839) (xy 14.427415 -5.037211) (xy 14.467631 -4.942835) (xy 14.497706 -4.844755)
     (xy 14.517308 -4.744058) (xy 14.526219 -4.641858) (xy 14.524341 -4.539288) (xy 14.511694 -4.437483)
     (xy 14.488418 -4.33757) (xy 14.454771 -4.240658) (xy 14.411127 -4.147817) (xy 14.357967 -4.060077)
     (xy 14.295881 -3.97841) (xy 14.225557 -3.90372) (xy 14.147773 -3.836833) (xy 14.06339 -3.778491)
     (xy 13.973344 -3.72934) (xy 13.878631 -3.689924) (xy 13.7803 -3.660679) (xy 13.67944 -3.64193)
     (xy 12.32799 -3.45202)) (layer F.Cu) (width 0))
  (fp_poly (pts (xy 7.8663 -1.57815) (xy 11.47015 -2.08459) (xy 11.571419 -2.104833) (xy 11.670279 -2.134699)
     (xy 11.765816 -2.173913) (xy 11.85715 -2.222113) (xy 11.943439 -2.278855) (xy 12.023884 -2.343613)
     (xy 12.097745 -2.415792) (xy 12.164339 -2.494725) (xy 12.223053 -2.579683) (xy 12.273344 -2.669883)
     (xy 12.314748 -2.764492) (xy 12.346884 -2.862638) (xy 12.369454 -2.963413) (xy 12.38225 -3.06589)
     (xy 13.28321 -3.1925) (xy 13.38626 -3.18741) (xy 13.488358 -3.172537) (xy 13.588578 -3.148016)
     (xy 13.68601 -3.11407) (xy 13.77977 -3.071008) (xy 13.869006 -3.019219) (xy 13.95291 -2.959173)
     (xy 14.030719 -2.891417) (xy 14.101728 -2.816564) (xy 14.165293 -2.735294) (xy 14.220835 -2.648344)
     (xy 14.267852 -2.556503) (xy 14.305917 -2.460606) (xy 14.334684 -2.361521) (xy 14.353892 -2.260149)
     (xy 14.363367 -2.157409) (xy 14.363022 -2.054234) (xy 14.352862 -1.951559) (xy 14.332978 -1.850318)
     (xy 14.30355 -1.751427) (xy 14.264847 -1.655786) (xy 14.217218 -1.564261) (xy 14.161096 -1.477684)
     (xy 14.096991 -1.39684) (xy 14.025484 -1.322463) (xy 13.947224 -1.255227) (xy 13.862921 -1.195743)
     (xy 13.773341 -1.144551) (xy 13.679296 -1.102115) (xy 13.58164 -1.06882) (xy 9.07683 -0.43576)
     (xy 8.97473 -0.439086) (xy 8.873282 -0.451085) (xy 8.773223 -0.471669) (xy 8.675278 -0.50069)
     (xy 8.580155 -0.537937) (xy 8.488546 -0.58314) (xy 8.401114 -0.635971) (xy 8.318492 -0.696048)
     (xy 8.24128 -0.762934) (xy 8.170037 -0.836146) (xy 8.10528 -0.915153) (xy 8.047477 -0.999381)
     (xy 7.997049 -1.088221) (xy 7.95436 -1.181028) (xy 7.919719 -1.27713) (xy 7.893379 -1.37583)
     (xy 7.875529 -1.476413) (xy 7.8663 -1.57815)) (layer F.Cu) (width 0))
)