(module FIX45 (layer F.Cu) (tedit 0)
  (fp_text reference REF** (at 0 0) (layer F.SilkS)
    (effects (font (size 1 1) (thickness 0.15)))
  )
  (fp_text value FIX45 (at 0 2) (layer F.Fab) hide
    (effects (font (size 1 1) (thickness 0.15)))
  )
  (fp_arc (start 0 0) (end 2.6 0) (angle 360) (layer F.CrtYd) (width 0.02))
  (fp_arc (start 0 0) (end 1.905 0) (angle 360) (layer B.CrtYd) (width 0.02))
  (fp_arc (start 0 0) (end 2.25 0) (angle 360) (layer F.Fab) (width 0.1))
  (fp_arc (start 0 0) (end 2.75 0) (angle 360) (layer Dwgs.User) (width 0.02))
  (fp_line (start -2.75 2.75) (end -2.75 -2.75) (layer Dwgs.User) (width 0.05))
  (fp_line (start -2.75 -2.75) (end 2.75 -2.75) (layer Dwgs.User) (width 0.05))
  (fp_line (start 2.75 -2.75) (end 2.75 2.75) (layer Dwgs.User) (width 0.05))
  (fp_line (start 2.75 2.75) (end -2.75 2.75) (layer Dwgs.User) (width 0.05))
  (pad 1 np_thru_hole circle (at 0 0) (size 3.81 3.81) (drill 4.6228 (offset 0 0 )) (layers *.Cu *.Mask)
    (clearance 0.889) (solder_mask_margin 0.635)
    (zone_connect 2))
)