(module FNG1.65X1.1-ORIY0.275-TH (layer F.Cu) (tedit 0)
  (fp_text reference REF** (at 0 0) (layer F.SilkS) hide
    (effects (font (size 1 1) (thickness 0.15)))
  )
  (fp_text value FNG1.65X1.1-ORIY0.275-TH (at 0 2) (layer F.Fab) hide
    (effects (font (size 1 1) (thickness 0.15)))
  )
  (fp_line (start -0.66 1.265) (end -0.66 -0.715) (layer F.CrtYd) (width 0.05))
  (fp_line (start -0.66 -0.715) (end 0.66 -0.715) (layer F.CrtYd) (width 0.05))
  (fp_line (start 0.66 -0.715) (end 0.66 1.265) (layer F.CrtYd) (width 0.05))
  (fp_line (start 0.66 1.265) (end -0.66 1.265) (layer F.CrtYd) (width 0.05))
  (pad ~ smd custom (at 0 0) (size 0.2 0.2) (layers F.Cu F.Mask F.Paste)
    (options (clearance outline) (anchor circle))
    (primitives
      (gr_arc (start 0 0.549998) (end -0.15 1.33581) (angle 79.192957) (width 0))
      (gr_arc (start 0 0.547502) (end 0.15 1.07925) (angle -68.794401) (width 0))
      (gr_arc (start 0 0.000002) (end -0.8 0) (angle 79.192957) (width 0))
      (gr_arc (start 0 0) (end 0.55 0) (angle -74.173353) (width 0))
      (gr_arc (start 0 0) (end -0.15 -0.52915) (angle -74.173353) (width 0))
      (gr_arc (start 0 0.000002) (end 0.15 -0.78581) (angle 79.192957) (width 0))
      (gr_arc (start 0 0.547502) (end -0.55 0.6) (angle -68.794401) (width 0))
      (gr_arc (start 0 0.549998) (end 0.8 0.55) (angle 79.192957) (width 0))
      (gr_line (start -0.8 0.125) (end 0.55 0.125) (width 0))
      (gr_line (start 0.55 0.125) (end -0.15 1.33581) (width 0))
      (gr_line (start -0.8 0.55) (end 0.15 1.07925) (width 0))
      (gr_line (start 0.55 0.6) (end -0.8 0.425) (width 0))
      (gr_line (start -0.8 0.425) (end 0.55 0.425) (width 0))
      (gr_line (start 0.55 0.425) (end -0.8 0) (width 0))
      (gr_line (start -0.15 -0.78581) (end 0.55 0) (width 0))
      (gr_line (start 0.15 -0.52915) (end -0.55 0.425) (width 0))
      (gr_line (start -0.55 0.425) (end 0.8 0.425) (width 0))
      (gr_line (start 0.8 0.425) (end -0.15 -0.52915) (width 0))
      (gr_line (start -0.55 0) (end 0.15 -0.78581) (width 0))
      (gr_line (start 0.8 0) (end -0.55 0.125) (width 0))
      (gr_line (start -0.55 0.125) (end 0.8 0.125) (width 0))
      (gr_line (start 0.8 0.125) (end -0.55 0.6) (width 0))
      (gr_line (start -0.15 1.07925) (end 0.8 0.55) (width 0))
    )
    (zone_connect 2))
)