(module K164_101111100101 (layer F.Cu) (tedit 0)
  (fp_text reference REF** (at 0 0) (layer F.SilkS)
    (effects (font (size 1 1) (thickness 0.15)))
  )
  (fp_text value K164_101111100101 (at 0 2) (layer F.Fab) hide
    (effects (font (size 1 1) (thickness 0.15)))
  )
  (fp_arc (start 2.5 1.5) (end 3.2366 1.5) (angle 360) (layer B.CrtYd) (width 0.02))
  (fp_arc (start -2.5 -1.5) (end -1.7634 -1.5) (angle 360) (layer B.CrtYd) (width 0.02))
  (fp_arc (start 2.000009 1.50001) (end 2.68751 2.22618) (angle 43.433093) (layer F.CrtYd) (width 0.02))
  (fp_arc (start 2.500001 1.499998) (end 3 0.94098) (angle 123.711574) (layer F.CrtYd) (width 0.02))
  (fp_arc (start -2.000009 -1.50001) (end -2.68751 -2.22618) (angle 43.433093) (layer F.CrtYd) (width 0.02))
  (fp_arc (start -2.500001 -1.499998) (end -3 -0.94098) (angle 123.711574) (layer F.CrtYd) (width 0.02))
  (fp_line (start -3.4398 2.59) (end -3.4398 -2.59) (layer Dwgs.User) (width 0.05))
  (fp_line (start -3.4398 -2.59) (end 3.4398 -2.59) (layer Dwgs.User) (width 0.05))
  (fp_line (start 3.4398 -2.59) (end 3.4398 2.59) (layer Dwgs.User) (width 0.05))
  (fp_line (start 3.4398 2.59) (end -3.4398 2.59) (layer Dwgs.User) (width 0.05))
  (fp_line (start 2 2.5) (end -2 2.5) (layer F.SilkS) (width 0.18))
  (fp_line (start -2 2.5) (end -3 2.5) (layer F.SilkS) (width 0.18))
  (fp_line (start -3 2.5) (end -3 -0.5) (layer F.SilkS) (width 0.18))
  (fp_line (start -2 -2.5) (end 2 -2.5) (layer F.SilkS) (width 0.18))
  (fp_line (start 2 -2.5) (end 3 -2.5) (layer F.SilkS) (width 0.18))
  (fp_line (start 3 -2.5) (end 3 -1.5) (layer F.SilkS) (width 0.18))
  (fp_line (start 3 -1.5) (end 3 0.5) (layer F.SilkS) (width 0.18))
  (fp_line (start -3 2.5) (end -3 -0.94098) (layer F.CrtYd) (width 0.02))
  (fp_line (start -2.00001 -2.5) (end 3 -2.5) (layer F.CrtYd) (width 0.02))
  (fp_line (start 3 -2.5) (end 3 0.94098) (layer F.CrtYd) (width 0.02))
  (fp_line (start 2.00001 2.5) (end -3 2.5) (layer F.CrtYd) (width 0.02))
  (fp_line (start 2 2.5) (end -2 2.5) (layer F.Fab) (width 0.1))
  (fp_line (start -2 2.5) (end -3 2.5) (layer F.Fab) (width 0.1))
  (fp_line (start -3 2.5) (end -3 1.5) (layer F.Fab) (width 0.1))
  (fp_line (start -3 1.5) (end -3 -1.5) (layer F.Fab) (width 0.1))
  (fp_line (start -3 -1.5) (end -3 -2.5) (layer F.Fab) (width 0.1))
  (fp_line (start -3 -2.5) (end -2 -2.5) (layer F.Fab) (width 0.1))
  (fp_line (start -2 -2.5) (end 2 -2.5) (layer F.Fab) (width 0.1))
  (fp_line (start 2 -2.5) (end 3 -2.5) (layer F.Fab) (width 0.1))
  (fp_line (start 3 -2.5) (end 3 -1.5) (layer F.Fab) (width 0.1))
  (fp_line (start 3 -1.5) (end 3 1.5) (layer F.Fab) (width 0.1))
  (fp_line (start 3 1.5) (end 3 2.5) (layer F.Fab) (width 0.1))
  (fp_line (start 3 2.5) (end 2 2.5) (layer F.Fab) (width 0.1))
  (pad 2 thru_hole circle (at 2.5 1.5) (size 1.4732 1.4732) (drill 0.8128) (layers *.Mask F.Cu In3.Cu B.Cu)
    (solder_mask_margin 0.1016) (clearance 0.1524) (zone_connect 2) (thermal_width 0.2032) (thermal_gap 0.2032))
  (pad 1 thru_hole circle (at -2.5 -1.5) (size 1.4732 1.4732) (drill 0.8128) (layers *.Mask F.Cu In2.Cu In3.Cu In4.Cu B.Cu)
    (solder_mask_margin 0.1016) (clearance 0.1524) (zone_connect 2) (thermal_width 0.2032) (thermal_gap 0.2032))
  (model ${KIPRJMOD}/../Library/Footprints.3dshapes/THERM_TDK_B57236S0.stp
    (offset (xyz -0.1 0 0))
    (scale (xyz 1 1 1))
    (rotate (xyz 0 0 30))
  )
)
