(module MCDMR-02T (layer F.Cu) (tedit 0)
  (attr smd)
  (fp_text reference REF** (at 0 0) (layer F.SilkS)
    (effects (font (size 1 1) (thickness 0.15)))
  )
  (fp_text value MCDMR-02T (at 0 2) (layer F.Fab) hide
    (effects (font (size 1 1) (thickness 0.15)))
  )
  (fp_line (start -3.19 5.8166) (end -3.19 -5.8166) (layer Dwgs.User) (width 0.05))
  (fp_line (start -3.19 -5.8166) (end 3.19 -5.8166) (layer Dwgs.User) (width 0.05))
  (fp_line (start 3.19 -5.8166) (end 3.19 5.8166) (layer Dwgs.User) (width 0.05))
  (fp_line (start 3.19 5.8166) (end -3.19 5.8166) (layer Dwgs.User) (width 0.05))
  (fp_line (start 3.1 5.08) (end 3.1 -5.08) (layer F.SilkS) (width 0.18))
  (fp_line (start 3.1 -5.08) (end -3.1 -5.08) (layer F.SilkS) (width 0.18))
  (fp_line (start -3.1 -5.08) (end -3.1 5.08) (layer F.SilkS) (width 0.18))
  (fp_line (start -3.1 5.08) (end 3.1 5.08) (layer F.SilkS) (width 0.18))
  (fp_line (start 3.1 -5.715) (end 3.1 5.715) (layer F.CrtYd) (width 0.02))
  (fp_line (start 3.1 5.715) (end -3.1 5.715) (layer F.CrtYd) (width 0.02))
  (fp_line (start -3.1 5.715) (end -3.1 -5.715) (layer F.CrtYd) (width 0.02))
  (fp_line (start -3.1 -5.715) (end 3.1 -5.715) (layer F.CrtYd) (width 0.02))
  (fp_line (start 0.635 1.27) (end 1.905 1.27) (layer F.Fab) (width 0.1))
  (fp_line (start 1.905 1.27) (end 1.905 -1.27) (layer F.Fab) (width 0.1))
  (fp_line (start 1.905 -1.27) (end 0.635 -1.27) (layer F.Fab) (width 0.1))
  (fp_line (start 0.635 -1.27) (end 0.635 1.27) (layer F.Fab) (width 0.1))
  (fp_line (start -1.905 1.27) (end -0.635 1.27) (layer F.Fab) (width 0.1))
  (fp_line (start -0.635 1.27) (end -0.635 -1.27) (layer F.Fab) (width 0.1))
  (fp_line (start -0.635 -1.27) (end -1.905 -1.27) (layer F.Fab) (width 0.1))
  (fp_line (start -1.905 -1.27) (end -1.905 1.27) (layer F.Fab) (width 0.1))
  (fp_line (start -3.1 -5.08) (end -3.1 5.08) (layer F.Fab) (width 0.1))
  (fp_line (start -3.1 5.08) (end 3.1 5.08) (layer F.Fab) (width 0.1))
  (fp_line (start 3.1 5.08) (end 3.1 -5.08) (layer F.Fab) (width 0.1))
  (fp_line (start 3.1 -5.08) (end -3.1 -5.08) (layer F.Fab) (width 0.1))
  (pad 1 smd rect (at -1.27 4.445) (size 1.27 2.54) (layers F.Cu F.Mask F.Paste)
    (solder_mask_margin 0.1016)
    (zone_connect 2))
  (pad 2 smd rect (at -1.27 -4.445) (size 1.27 2.54) (layers F.Cu F.Mask F.Paste)
    (solder_mask_margin 0.1016)
    (zone_connect 2))
  (pad 3 smd rect (at 1.27 4.445) (size 1.27 2.54) (layers F.Cu F.Mask F.Paste)
    (solder_mask_margin 0.1016)
    (zone_connect 2))
  (pad 4 smd rect (at 1.27 -4.445) (size 1.27 2.54) (layers F.Cu F.Mask F.Paste)
    (solder_mask_margin 0.1016)
    (zone_connect 2))
  (fp_poly (pts (xy -3.062 0.9) (xy -3.062 -0.878) (xy -2.3 -0.878) (xy -2.3 0.9)
     (xy -3.062 0.9)) (layer F.SilkS) (width 0.02))
  (fp_poly (pts (xy -0.675 0) (xy -0.675 1.25) (xy -1.945 1.25) (xy -1.945 0)
     (xy -0.675 0)) (layer F.Fab) (width 0.02))
  (fp_poly (pts (xy 0.635 1.27) (xy 0.635 0.02) (xy 1.905 0.02) (xy 1.905 1.27)
     (xy 0.635 1.27)) (layer F.Fab) (width 0.02))
  (fp_poly (pts (xy -3.062 0.9) (xy -3.062 -0.878) (xy -2.3 -0.878) (xy -2.3 0.9)
     (xy -3.062 0.9)) (layer F.Fab) (width 0.02))
  (fp_text user 2 (at 0.889 3.10396) (layer F.Fab)
    (effects (font (size 1 1) (thickness 0.1)) (justify left))
  )
  (fp_text user 1 (at -1.651 3.10396) (layer F.Fab)
    (effects (font (size 1 1) (thickness 0.1)) (justify left))
  )
  (fp_text user 0N (at -2.2 -1.7) (layer F.Fab)
    (effects (font (size 1 1) (thickness 0.1)) (justify left))
  )
  (model ${KIPRJMOD}/../Library/Footprints.3dshapes/SW_DIP_SPSTx02_Slide_6.2x6.02mm_W8.61mm_P2.54mm_LowProfile.wrl
    (offset (xyz 0 0 0))
    (scale (xyz 1 1 1))
    (rotate (xyz 0 0 0))
  )
)