(module MEL36 (layer F.Cu) (tedit 0)
  (fp_text reference REF** (at 0 0) (layer F.SilkS) hide
    (effects (font (size 1 1) (thickness 0.15)))
  )
  (fp_text value MEL36 (at 0 2) (layer F.Fab) hide
    (effects (font (size 1 1) (thickness 0.15)))
  )
  (pad ~ np_thru_hole circle (at 0 0) (size 2.9972 2.9972) (drill 3.6068 (offset 0 0 )) (layers *.Cu *.Mask)
    (clearance 1.0414) (solder_mask_margin 0.5842)
    (zone_connect 2))
)