(module MOL54819-0511_100001101001100001100001100001100001100001 (layer F.Cu) (tedit 0)
  (fp_text reference REF** (at 0 0) (layer F.SilkS)
    (effects (font (size 1 1) (thickness 0.15)))
  )
  (fp_text value MOL54819-0511_100001101001100001100001100001100001100001 (at 0 2) (layer F.Fab) hide
    (effects (font (size 1 1) (thickness 0.15)))
  )
  (fp_text user GND (at -1.8 2.9) (layer F.Fab)
    (effects (font (size 1 1) (thickness 0.1)) (justify left))
  )
  (fp_text user VBUS (at -2 -2.2) (layer F.Fab)
    (effects (font (size 1 1) (thickness 0.1)) (justify left))
  )
  (fp_line (start -8.89 4.75) (end -8.89 -4.75) (layer Dwgs.User) (width 0.05))
  (fp_line (start -8.89 -4.75) (end 1.33581 -4.75) (layer Dwgs.User) (width 0.05))
  (fp_line (start 1.33581 -4.75) (end 1.33581 4.75) (layer Dwgs.User) (width 0.05))
  (fp_line (start 1.33581 4.75) (end -8.89 4.75) (layer Dwgs.User) (width 0.05))
  (fp_line (start -8.8 3.85) (end 0.2 3.85) (layer F.SilkS) (width 0.18))
  (fp_line (start 0.2 3.85) (end 0.2 -3.85) (layer F.SilkS) (width 0.18))
  (fp_line (start 0.2 -3.85) (end -8.8 -3.85) (layer F.SilkS) (width 0.18))
  (fp_line (start -8.8 -3.85) (end -8.8 3.85) (layer F.SilkS) (width 0.18))
  (fp_line (start -7.3 -1.2) (end -7.3 -1.8) (layer F.SilkS) (width 0.18))
  (fp_line (start -7.3 -1.8) (end -5.6 -1.9) (layer F.SilkS) (width 0.18))
  (fp_line (start -5.6 -1.9) (end -5.6 -1.1) (layer F.SilkS) (width 0.18))
  (fp_line (start -5.6 -1.1) (end -7.3 -1.2) (layer F.SilkS) (width 0.18))
  (fp_line (start -7.3 0.7) (end -7.3 -0.7) (layer F.SilkS) (width 0.18))
  (fp_line (start -7.3 -0.7) (end -4.2 -0.6) (layer F.SilkS) (width 0.18))
  (fp_line (start -4.2 -0.6) (end -4.2 0.6) (layer F.SilkS) (width 0.18))
  (fp_line (start -4.2 0.6) (end -7.3 0.7) (layer F.SilkS) (width 0.18))
  (fp_line (start -7.3 1.8) (end -7.3 1.2) (layer F.SilkS) (width 0.18))
  (fp_line (start -7.3 1.2) (end -5.6 1.1) (layer F.SilkS) (width 0.18))
  (fp_line (start -5.6 1.1) (end -5.6 1.9) (layer F.SilkS) (width 0.18))
  (fp_line (start -5.6 1.9) (end -7.3 1.8) (layer F.SilkS) (width 0.18))
  (fp_line (start -8.8 4.6) (end -8.8 -4.60849) (layer F.CrtYd) (width 0.02))
  (fp_line (start -8.8 -4.60849) (end -4.00472 -4.60849) (layer F.CrtYd) (width 0.02))
  (fp_line (start -4.00472 -4.60849) (end -4.00472 -4.4) (layer F.CrtYd) (width 0.02))
  (fp_line (start -4.00472 -4.4) (end 0.7 -4.4) (layer F.CrtYd) (width 0.02))
  (fp_line (start 0.7 -4.4) (end 0.7 -2.3) (layer F.CrtYd) (width 0.02))
  (fp_line (start 0.7 -2.3) (end 1.2 -2.3) (layer F.CrtYd) (width 0.02))
  (fp_line (start 1.2 -2.3) (end 1.2 2.3) (layer F.CrtYd) (width 0.02))
  (fp_line (start 1.2 2.3) (end 0.7 2.3) (layer F.CrtYd) (width 0.02))
  (fp_line (start 0.7 2.3) (end 0.7 4.4) (layer F.CrtYd) (width 0.02))
  (fp_line (start 0.7 4.4) (end -4 4.4) (layer F.CrtYd) (width 0.02))
  (fp_line (start -4 4.4) (end -4 4.6) (layer F.CrtYd) (width 0.02))
  (fp_line (start -4 4.6) (end -8.8 4.6) (layer F.CrtYd) (width 0.02))
  (fp_line (start 1.1 -2.15) (end 1.1 -1.05) (layer B.CrtYd) (width 0.02))
  (fp_line (start 1.1 -1.05) (end -0.55 -1.05) (layer B.CrtYd) (width 0.02))
  (fp_line (start -0.55 -1.05) (end -0.55 -2.15) (layer B.CrtYd) (width 0.02))
  (fp_line (start -0.55 -2.15) (end 1.1 -2.15) (layer B.CrtYd) (width 0.02))
  (fp_line (start -0.65 -1.35) (end -0.65 -0.25) (layer B.CrtYd) (width 0.02))
  (fp_line (start -0.65 -0.25) (end -2.3 -0.25) (layer B.CrtYd) (width 0.02))
  (fp_line (start -2.3 -0.25) (end -2.3 -1.35) (layer B.CrtYd) (width 0.02))
  (fp_line (start -2.3 -1.35) (end -0.65 -1.35) (layer B.CrtYd) (width 0.02))
  (fp_line (start 1.1 -0.55) (end 1.1 0.55) (layer B.CrtYd) (width 0.02))
  (fp_line (start 1.1 0.55) (end -0.55 0.55) (layer B.CrtYd) (width 0.02))
  (fp_line (start -0.55 0.55) (end -0.55 -0.55) (layer B.CrtYd) (width 0.02))
  (fp_line (start -0.55 -0.55) (end 1.1 -0.55) (layer B.CrtYd) (width 0.02))
  (fp_line (start -0.65 0.25) (end -0.65 1.35) (layer B.CrtYd) (width 0.02))
  (fp_line (start -0.65 1.35) (end -2.3 1.35) (layer B.CrtYd) (width 0.02))
  (fp_line (start -2.3 1.35) (end -2.3 0.25) (layer B.CrtYd) (width 0.02))
  (fp_line (start -2.3 0.25) (end -0.65 0.25) (layer B.CrtYd) (width 0.02))
  (fp_line (start 1.1 1.05) (end 1.1 2.15) (layer B.CrtYd) (width 0.02))
  (fp_line (start 1.1 2.15) (end -0.55 2.15) (layer B.CrtYd) (width 0.02))
  (fp_line (start -0.55 2.15) (end -0.55 1.05) (layer B.CrtYd) (width 0.02))
  (fp_line (start -0.55 1.05) (end 1.1 1.05) (layer B.CrtYd) (width 0.02))
  (fp_line (start -3.7 2.8) (end -3.7 4.5) (layer B.CrtYd) (width 0.02))
  (fp_line (start -3.7 4.5) (end -6.4 4.5) (layer B.CrtYd) (width 0.02))
  (fp_line (start -6.4 4.5) (end -6.4 2.8) (layer B.CrtYd) (width 0.02))
  (fp_line (start -6.4 2.8) (end -3.7 2.8) (layer B.CrtYd) (width 0.02))
  (fp_line (start -3.7 -4.5) (end -3.7 -2.8) (layer B.CrtYd) (width 0.02))
  (fp_line (start -3.7 -2.8) (end -6.4 -2.8) (layer B.CrtYd) (width 0.02))
  (fp_line (start -6.4 -2.8) (end -6.4 -4.5) (layer B.CrtYd) (width 0.02))
  (fp_line (start -6.4 -4.5) (end -3.7 -4.5) (layer B.CrtYd) (width 0.02))
  (fp_line (start -8.8 3.85) (end 0.2 3.85) (layer F.Fab) (width 0.1))
  (fp_line (start 0.2 3.85) (end 0.2 -3.85) (layer F.Fab) (width 0.1))
  (fp_line (start 0.2 -3.85) (end -8.8 -3.85) (layer F.Fab) (width 0.1))
  (fp_line (start -8.8 -3.85) (end -8.8 3.85) (layer F.Fab) (width 0.1))
  (fp_line (start -6.8 3.6) (end -6.8 2.6) (layer F.Fab) (width 0.1))
  (fp_line (start -6.8 -3.6) (end -6.8 -2.6) (layer F.Fab) (width 0.1))
  (fp_line (start -7.3 0.7) (end -7.3 -0.7) (layer F.Fab) (width 0.1))
  (fp_line (start -7.3 -0.7) (end -4.2 -0.6) (layer F.Fab) (width 0.1))
  (fp_line (start -4.2 -0.6) (end -4.2 0.6) (layer F.Fab) (width 0.1))
  (fp_line (start -4.2 0.6) (end -7.3 0.7) (layer F.Fab) (width 0.1))
  (fp_line (start -7.3 -1.2) (end -7.3 -1.8) (layer F.Fab) (width 0.1))
  (fp_line (start -7.3 -1.8) (end -5.6 -1.9) (layer F.Fab) (width 0.1))
  (fp_line (start -5.6 -1.9) (end -5.6 -1.1) (layer F.Fab) (width 0.1))
  (fp_line (start -5.6 -1.1) (end -7.3 -1.2) (layer F.Fab) (width 0.1))
  (fp_line (start -7.3 1.8) (end -7.3 1.2) (layer F.Fab) (width 0.1))
  (fp_line (start -7.3 1.2) (end -5.6 1.1) (layer F.Fab) (width 0.1))
  (fp_line (start -5.6 1.1) (end -5.6 1.9) (layer F.Fab) (width 0.1))
  (fp_line (start -5.6 1.9) (end -7.3 1.8) (layer F.Fab) (width 0.1))
  (fp_line (start -6.8 3.1) (end -6.3 3.1) (layer Dwgs.User) (width 0.1))
  (fp_line (start -6.3262 -3.1) (end -6.8 -3.1) (layer Dwgs.User) (width 0.1))
  (fp_line (start -6.8 -3.1) (end -6.8 3.1) (layer Dwgs.User) (width 0.1))
  (fp_line (start -5.6 2.7) (end -5.6 -2.7) (layer Dwgs.User) (width 0.1))
  (fp_poly (pts (xy -1.8 -4.4) (xy 0.7 -4.4) (xy 0.7 -3) (xy -1.8 -3)) (layer Dwgs.User) (width 0.02))
  (fp_poly (pts (xy -1.8 3) (xy 0.7 3) (xy 0.7 4.4) (xy -1.8 4.4)) (layer Dwgs.User) (width 0.02))
  (pad 7 thru_hole oval (at -5.05 -3.65 270) (size 1.7 2.7) (drill oval 0.7 1.9) (layers F&B.Cu *.Mask)
    (solder_mask_margin 0.1) (clearance 0.1) (zone_connect 2))
  (pad 6 thru_hole oval (at -5.05 3.65 270) (size 1.7 2.7) (drill oval 0.7 1.9) (layers F&B.Cu *.Mask)
    (solder_mask_margin 0.1) (clearance 0.1) (zone_connect 2))
  (pad 5 thru_hole oval (at 0 1.6 90) (size 1.1 1.65) (drill 0.7 (offset 0 0.275)) (layers F&B.Cu *.Mask)
    (solder_mask_margin 0.1) (clearance 0.1) (zone_connect 2))
  (pad 4 thru_hole oval (at -1.2 0.8 270) (size 1.1 1.65) (drill 0.7 (offset 0 0.275)) (layers F&B.Cu *.Mask)
    (solder_mask_margin 0.1) (clearance 0.1) (zone_connect 2))
  (pad 3 thru_hole oval (at 0 0 90) (size 1.1 1.65) (drill 0.7 (offset 0 0.275)) (layers F&B.Cu *.Mask)
    (solder_mask_margin 0.1) (clearance 0.1) (zone_connect 2))
  (pad 2 thru_hole oval (at -1.2 -0.8 270) (size 1.1 1.65) (drill 0.7 (offset 0 0.275)) (layers *.Mask F.Cu In2.Cu B.Cu)
    (solder_mask_margin 0.1) (clearance 0.1) (zone_connect 2))
  (pad 1 thru_hole oval (at 0 -1.6 90) (size 1.1 1.65) (drill 0.7 (offset 0 0.275)) (layers F&B.Cu *.Mask)
    (solder_mask_margin 0.1) (clearance 0.1) (zone_connect 2))
  (model ${KIPRJMOD}/../Library/Footprints.3dshapes/548190519.stp
    (offset (xyz -8.800000000000001 0 2))
    (scale (xyz 1 1 1))
    (rotate (xyz -90 0 90))
  )
)
