(module MX.A8_SOUDURES (layer F.Cu) (tedit 0)
  (attr smd)
  (fp_text reference REF** (at 0 0) (layer F.SilkS)
    (effects (font (size 1 1) (thickness 0.15)))
  )
  (fp_text value MX.A8_SOUDURES (at 0 2) (layer F.Fab) hide
    (effects (font (size 1 1) (thickness 0.15)))
  )
  (fp_arc (start -1.5875 0.63501) (end -1.5875 0.9525) (angle 360) (layer F.SilkS) (width 0.02))
  (fp_arc (start -1.524 0) (end -1.524 0.508) (angle -180) (layer F.Fab) (width 0.1))
  (fp_line (start -2.667 3.716) (end -2.667 -3.716) (layer Dwgs.User) (width 0.05))
  (fp_line (start -2.667 -3.716) (end 3.1242 -3.716) (layer Dwgs.User) (width 0.05))
  (fp_line (start 3.1242 -3.716) (end 3.1242 3.716) (layer Dwgs.User) (width 0.05))
  (fp_line (start 3.1242 3.716) (end -2.667 3.716) (layer Dwgs.User) (width 0.05))
  (fp_line (start 2.8575 -1.5875) (end -2.54 -1.5875) (layer F.SilkS) (width 0.18))
  (fp_line (start -2.54 -1.5875) (end -2.54 1.5875) (layer F.SilkS) (width 0.18))
  (fp_line (start -2.54 1.5875) (end 2.8575 1.5875) (layer F.SilkS) (width 0.18))
  (fp_line (start 2.8575 1.5875) (end 2.8575 -1.5875) (layer F.SilkS) (width 0.18))
  (fp_line (start -2.667 -3.462) (end 2.9972 -3.462) (layer F.CrtYd) (width 0.02))
  (fp_line (start 2.9972 -3.462) (end 2.9972 3.462) (layer F.CrtYd) (width 0.02))
  (fp_line (start 2.9972 3.462) (end -2.667 3.462) (layer F.CrtYd) (width 0.02))
  (fp_line (start -2.667 3.462) (end -2.667 -3.462) (layer F.CrtYd) (width 0.02))
  (fp_line (start 1.905 1.905) (end 1.905 2.69875) (layer F.Fab) (width 0.1))
  (fp_line (start 0.635 1.905) (end 0.635 2.69875) (layer F.Fab) (width 0.1))
  (fp_line (start -0.635 1.905) (end -0.635 2.69875) (layer F.Fab) (width 0.1))
  (fp_line (start 1.905 -2.69875) (end 1.905 -1.905) (layer F.Fab) (width 0.1))
  (fp_line (start 0.635 -2.69875) (end 0.635 -1.905) (layer F.Fab) (width 0.1))
  (fp_line (start -0.635 -2.69875) (end -0.635 -1.905) (layer F.Fab) (width 0.1))
  (fp_line (start -1.905 1.905) (end -1.905 2.69875) (layer F.Fab) (width 0.1))
  (fp_line (start -1.905 -2.69875) (end -1.905 -1.905) (layer F.Fab) (width 0.1))
  (fp_line (start -1.524 -0.508) (end -2.54 -0.508) (layer F.Fab) (width 0.1))
  (fp_line (start -2.54 -0.508) (end -2.54 0.508) (layer F.Fab) (width 0.1))
  (fp_line (start -2.54 0.508) (end -1.524 0.508) (layer F.Fab) (width 0.1))
  (fp_line (start -2.54 1.905) (end 2.8575 1.905) (layer F.Fab) (width 0.1))
  (fp_line (start 2.8575 1.905) (end 2.8575 -1.905) (layer F.Fab) (width 0.1))
  (fp_line (start 2.8575 -1.905) (end -2.54 -1.905) (layer F.Fab) (width 0.1))
  (fp_line (start -2.54 -1.905) (end -2.54 1.905) (layer F.Fab) (width 0.1))
  (pad 1 smd rect (at -1.905 2.7) (size 0.6096 1.524) (layers F.Cu F.Mask F.Paste)
    (clearance 0.2032) (solder_mask_margin 0.1016)
    (zone_connect 2))
  (pad 2 smd rect (at -0.635 2.7) (size 0.6096 1.524) (layers F.Cu F.Mask F.Paste)
    (clearance 0.2032) (solder_mask_margin 0.1016)
    (zone_connect 2))
  (pad 3 smd rect (at 0.635 2.7) (size 0.6096 1.524) (layers F.Cu F.Mask F.Paste)
    (clearance 0.2032) (solder_mask_margin 0.1016)
    (zone_connect 2))
  (pad 4 smd rect (at 2.2352 2.7) (size 1.27 1.524) (layers F.Cu F.Mask F.Paste)
    (clearance 0.2032) (solder_mask_margin 0.1016)
    (zone_connect 2))
  (pad 5 smd rect (at 2.2352 -2.7) (size 1.27 1.524) (layers F.Cu F.Mask F.Paste)
    (clearance 0.2032) (solder_mask_margin 0.1016)
    (zone_connect 2))
  (pad 6 smd rect (at 0.635 -2.7) (size 0.6096 1.524) (layers F.Cu F.Mask F.Paste)
    (clearance 0.2032) (solder_mask_margin 0.1016)
    (zone_connect 2))
  (pad 7 smd rect (at -0.635 -2.7) (size 0.6096 1.524) (layers F.Cu F.Mask F.Paste)
    (clearance 0.2032) (solder_mask_margin 0.1016)
    (zone_connect 2))
  (pad 8 smd rect (at -1.905 -2.7) (size 0.6096 1.524) (layers F.Cu F.Mask F.Paste)
    (clearance 0.2032) (solder_mask_margin 0.1016)
    (zone_connect 2))
)