(module OBLS62L62.5R62.5A90 (layer F.Cu) (tedit 0)
  (fp_text reference REF** (at 0 0) (layer F.SilkS) hide
    (effects (font (size 1 1) (thickness 0.15)))
  )
  (fp_text value OBLS62L62.5R62.5A90 (at 0 2) (layer F.Fab) hide
    (effects (font (size 1 1) (thickness 0.15)))
  )
  (fp_line (start -0.94488 1.905) (end -0.94488 -1.905) (layer F.CrtYd) (width 0.05))
  (fp_line (start -0.94488 -1.905) (end 0.94488 -1.905) (layer F.CrtYd) (width 0.05))
  (fp_line (start 0.94488 -1.905) (end 0.94488 1.905) (layer F.CrtYd) (width 0.05))
  (fp_line (start 0.94488 1.905) (end -0.94488 1.905) (layer F.CrtYd) (width 0.05))
  (pad ~ smd rect (at 0 0) (size 1.5748 3.175) (layers F.Cu F.Mask F.Paste)
    (zone_connect 2))
)