(module OBLS70L41.5R41.5A90 (layer F.Cu) (tedit 0)
  (fp_text reference REF** (at 0 0) (layer F.SilkS) hide
    (effects (font (size 1 1) (thickness 0.15)))
  )
  (fp_text value OBLS70L41.5R41.5A90 (at 0 2) (layer F.Fab) hide
    (effects (font (size 1 1) (thickness 0.15)))
  )
  (fp_line (start -1.0668 1.26492) (end -1.0668 -1.26492) (layer F.CrtYd) (width 0.05))
  (fp_line (start -1.0668 -1.26492) (end 1.0668 -1.26492) (layer F.CrtYd) (width 0.05))
  (fp_line (start 1.0668 -1.26492) (end 1.0668 1.26492) (layer F.CrtYd) (width 0.05))
  (fp_line (start 1.0668 1.26492) (end -1.0668 1.26492) (layer F.CrtYd) (width 0.05))
  (pad ~ smd rect (at 0 0) (size 1.778 2.1082) (layers F.Cu F.Mask F.Paste)
    (zone_connect 2))
)