(module OBLS142L108R108A0 (layer F.Cu) (tedit 0)
  (fp_text reference REF** (at 0 0) (layer F.SilkS) hide
    (effects (font (size 1 1) (thickness 0.15)))
  )
  (fp_text value OBLS142L108R108A0 (at 0 2) (layer F.Fab) hide
    (effects (font (size 1 1) (thickness 0.15)))
  )
  (fp_line (start -3.29184 2.16408) (end -3.29184 -2.16408) (layer F.CrtYd) (width 0.05))
  (fp_line (start -3.29184 -2.16408) (end 3.29184 -2.16408) (layer F.CrtYd) (width 0.05))
  (fp_line (start 3.29184 -2.16408) (end 3.29184 2.16408) (layer F.CrtYd) (width 0.05))
  (fp_line (start 3.29184 2.16408) (end -3.29184 2.16408) (layer F.CrtYd) (width 0.05))
  (pad ~ smd rect (at 0 0) (size 5.4864 3.6068) (layers F.Cu F.Mask F.Paste)
    (zone_connect 2))
)