(module P.I (layer F.Cu) (tedit 0)
  (fp_text reference REF** (at 0 0) (layer F.SilkS) hide
    (effects (font (size 1 1) (thickness 0.15)))
  )
  (fp_text value P.I (at 0 2) (layer F.Fab) hide
    (effects (font (size 1 1) (thickness 0.15)))
  )
  (pad ~ thru_hole circle (at 0 0) (size 2.54 2.54) (drill 1.5748 (offset 0 0 )) (layers *.Cu *.Mask)
    (clearance 0.3048) (solder_mask_margin 0.1524)
    (zone_connect 2) (thermal_width 0.381) (thermal_gap 0.3302))
)