(module P.N1 (layer F.Cu) (tedit 0)
  (fp_text reference REF** (at 0 0) (layer F.SilkS) hide
    (effects (font (size 1 1) (thickness 0.15)))
  )
  (fp_text value P.N1 (at 0 2) (layer F.Fab) hide
    (effects (font (size 1 1) (thickness 0.15)))
  )
  (pad ~ thru_hole circle (at 0 0) (size 1.6764 1.6764) (drill 0.9652 (offset 0 0 )) (layers *.Cu *.Mask)
    (clearance 0.1778) (solder_mask_margin 0.1016)
    (zone_connect 2) (thermal_width 0.381) (thermal_gap 0.3302))
)