(module PR-2.5X4.0 (layer F.Cu) (tedit 0)
  (fp_text reference REF** (at 0 0) (layer F.SilkS) hide
    (effects (font (size 1 1) (thickness 0.15)))
  )
  (fp_text value Comp_resist (at 0 2) (layer F.Fab) hide
    (effects (font (size 1 1) (thickness 0.15)))
  )
  (fp_line (start -1.62 2.52) (end -1.62 -2.52) (layer F.CrtYd) (width 0.05))
  (fp_line (start -1.62 -2.52) (end 1.62 -2.52) (layer F.CrtYd) (width 0.05))
  (fp_line (start 1.62 -2.52) (end 1.62 2.52) (layer F.CrtYd) (width 0.05))
  (fp_line (start 1.62 2.52) (end -1.62 2.52) (layer F.CrtYd) (width 0.05))
  (pad ~ smd rect (at 0 0) (size 2.5 4) (layers F.Cu F.Paste F.Mask)
    (solder_mask_margin 0.1)
    (zone_connect 2))
)