(module PRD.MIRE (layer F.Cu) (tedit 0)
  (fp_text reference REF** (at 0 0) (layer F.SilkS) hide
    (effects (font (size 1 1) (thickness 0.15)))
  )
  (fp_text value Comp_resist (at 0 2) (layer F.Fab) hide
    (effects (font (size 1 1) (thickness 0.15)))
  )
  (fp_line (start -1.143 1.143) (end -1.143 -1.143) (layer F.CrtYd) (width 0.05))
  (fp_line (start -1.143 -1.143) (end 1.143 -1.143) (layer F.CrtYd) (width 0.05))
  (fp_line (start 1.143 -1.143) (end 1.143 1.143) (layer F.CrtYd) (width 0.05))
  (fp_line (start 1.143 1.143) (end -1.143 1.143) (layer F.CrtYd) (width 0.05))
  (pad ~ smd circle (at 0 0) (size 1.27 1.27) (layers F.Cu F.Mask)
    (solder_mask_margin 0.3175)
    (zone_connect 2))
)