(module PT-1.3MM_FOURCHE (layer F.Cu) (tedit 0)
  (fp_text reference REF** (at 0 0) (layer F.SilkS)
    (effects (font (size 1 1) (thickness 0.15)))
  )
  (fp_text value PT-1.3MM_FOURCHE (at 0 2) (layer F.Fab) hide
    (effects (font (size 1 1) (thickness 0.15)))
  )
  (fp_arc (start 0 0) (end 1.00402 0) (angle 360) (layer F.CrtYd) (width 0.02))
  (fp_arc (start 0 0) (end 1.143 0) (angle 360) (layer B.CrtYd) (width 0.02))
  (fp_arc (start 0 0) (end 1 0) (angle 360) (layer F.Fab) (width 0.1))
  (fp_line (start -1.4732 1.4732) (end -1.4732 -1.4732) (layer Dwgs.User) (width 0.05))
  (fp_line (start -1.4732 -1.4732) (end 1.4732 -1.4732) (layer Dwgs.User) (width 0.05))
  (fp_line (start 1.4732 -1.4732) (end 1.4732 1.4732) (layer Dwgs.User) (width 0.05))
  (fp_line (start 1.4732 1.4732) (end -1.4732 1.4732) (layer Dwgs.User) (width 0.05))
  (fp_line (start -0.3048 -0.8) (end -0.3048 0.9) (layer F.Fab) (width 0.1))
  (fp_line (start 0.3048 -0.8) (end 0.3048 0.889) (layer F.Fab) (width 0.1))
  (pad 1 thru_hole circle (at 0 0) (size 2.286 2.286) (drill 1.3208 (offset 0 0 )) (layers *.Cu *.Mask)
    (clearance 0.127) (solder_mask_margin 0.1016)
    (zone_connect 2) (thermal_width 0.381) (thermal_gap 0.3302))
)