(module RNDS104 (layer F.Cu) (tedit 0)
  (fp_text reference REF** (at 0 0) (layer F.SilkS) hide
    (effects (font (size 1 1) (thickness 0.15)))
  )
  (fp_text value RNDS104 (at 0 2) (layer F.Fab) hide
    (effects (font (size 1 1) (thickness 0.15)))
  )
  (fp_line (start -1.58496 1.58496) (end -1.58496 -1.58496) (layer F.CrtYd) (width 0.05))
  (fp_line (start -1.58496 -1.58496) (end 1.58496 -1.58496) (layer F.CrtYd) (width 0.05))
  (fp_line (start 1.58496 -1.58496) (end 1.58496 1.58496) (layer F.CrtYd) (width 0.05))
  (fp_line (start 1.58496 1.58496) (end -1.58496 1.58496) (layer F.CrtYd) (width 0.05))
  (pad ~ smd circle (at 0 0) (size 2.6416 2.6416) (layers F.Cu F.Mask F.Paste)
    (zone_connect 2))
)