(module RNDS182 (layer F.Cu) (tedit 0)
  (fp_text reference REF** (at 0 0) (layer F.SilkS) hide
    (effects (font (size 1 1) (thickness 0.15)))
  )
  (fp_text value RNDS182 (at 0 2) (layer F.Fab) hide
    (effects (font (size 1 1) (thickness 0.15)))
  )
  (fp_line (start -2.77368 2.77368) (end -2.77368 -2.77368) (layer F.CrtYd) (width 0.05))
  (fp_line (start -2.77368 -2.77368) (end 2.77368 -2.77368) (layer F.CrtYd) (width 0.05))
  (fp_line (start 2.77368 -2.77368) (end 2.77368 2.77368) (layer F.CrtYd) (width 0.05))
  (fp_line (start 2.77368 2.77368) (end -2.77368 2.77368) (layer F.CrtYd) (width 0.05))
  (pad ~ smd circle (at 0 0) (size 4.6228 4.6228) (layers F.Cu F.Mask F.Paste)
    (zone_connect 2))
)