(module SC70-5 (layer F.Cu) (tedit 0)
  (attr smd)
  (fp_text reference REF** (at 0 0) (layer F.SilkS)
    (effects (font (size 1 1) (thickness 0.15)))
  )
  (fp_text value SC70-5 (at 0 2) (layer F.Fab) hide
    (effects (font (size 1 1) (thickness 0.15)))
  )
  (fp_line (start -1.19 1.89) (end -1.19 -1.89) (layer Dwgs.User) (width 0.05))
  (fp_line (start -1.19 -1.89) (end 1.19 -1.89) (layer Dwgs.User) (width 0.05))
  (fp_line (start 1.19 -1.89) (end 1.19 1.89) (layer Dwgs.User) (width 0.05))
  (fp_line (start 1.19 1.89) (end -1.19 1.89) (layer Dwgs.User) (width 0.05))
  (fp_line (start -1.1 1.8) (end 1.1 1.8) (layer F.SilkS) (width 0.18))
  (fp_line (start 1.1 1.8) (end 1.1 -1.8) (layer F.SilkS) (width 0.18))
  (fp_line (start 1.1 -1.8) (end -1.1 -1.8) (layer F.SilkS) (width 0.18))
  (fp_line (start -1.1 -1.8) (end -1.1 1.8) (layer F.SilkS) (width 0.18))
  (fp_line (start -1.1 -1.7) (end 1.1 -1.7) (layer F.CrtYd) (width 0.02))
  (fp_line (start 1.1 -1.7) (end 1.1 1.7) (layer F.CrtYd) (width 0.02))
  (fp_line (start 1.1 1.7) (end -1.1 1.7) (layer F.CrtYd) (width 0.02))
  (fp_line (start -1.1 1.7) (end -1.1 -1.7) (layer F.CrtYd) (width 0.02))
  (fp_line (start -1.1 -0.7) (end -1.1 0.7) (layer F.Fab) (width 0.1))
  (fp_line (start -1.1 0.7) (end 1.1 0.7) (layer F.Fab) (width 0.1))
  (fp_line (start 1.1 0.7) (end 1.1 -0.7) (layer F.Fab) (width 0.1))
  (fp_line (start 1.1 -0.7) (end -1.1 -0.7) (layer F.Fab) (width 0.1))
  (pad 1 smd rect (at 0.65 -1) (size 0.4064 1.016) (layers F.Cu F.Mask F.Paste)
    (solder_mask_margin 0.1016)
    (zone_connect 2))
  (pad 2 smd rect (at 0 -1) (size 0.4064 1.016) (layers F.Cu F.Mask F.Paste)
    (solder_mask_margin 0.1016)
    (zone_connect 2))
  (pad 3 smd rect (at -0.65 -1) (size 0.4064 1.016) (layers F.Cu F.Mask F.Paste)
    (solder_mask_margin 0.1016)
    (zone_connect 2))
  (pad 4 smd rect (at -0.65 1) (size 0.4064 1.016) (layers F.Cu F.Mask F.Paste)
    (solder_mask_margin 0.1016)
    (zone_connect 2))
  (pad 5 smd rect (at 0.65 1) (size 0.4064 1.016) (layers F.Cu F.Mask F.Paste)
    (solder_mask_margin 0.1016)
    (zone_connect 2))
  (fp_poly (pts (xy -0.55 -0.7) (xy -0.75 -0.7) (xy -0.75 -1.2) (xy -0.55 -1.2)
     (xy -0.55 -0.7)) (layer F.Fab) (width 0.02))
  (fp_poly (pts (xy -0.1 -0.7) (xy -0.1 -1.2) (xy 0.1 -1.2) (xy 0.1 -0.7)
     (xy -0.1 -0.7)) (layer F.Fab) (width 0.02))
  (fp_poly (pts (xy 0.55 -0.7) (xy 0.55 -1.2) (xy 0.75 -1.2) (xy 0.75 -0.7)
     (xy 0.55 -0.7)) (layer F.Fab) (width 0.02))
  (fp_poly (pts (xy -0.55 0.7) (xy -0.55 1.2) (xy -0.75 1.2) (xy -0.75 0.7)
     (xy -0.55 0.7)) (layer F.Fab) (width 0.02))
  (fp_poly (pts (xy 0.55 1.2) (xy 0.55 0.7) (xy 0.75 0.7) (xy 0.75 1.2)
     (xy 0.55 1.2)) (layer F.Fab) (width 0.02))
  (model ${KISYS3DMOD}/Package_TO_SOT_SMD.3dshapes/SOT-353_SC-70-5.wrl
    (offset (xyz 0 0 0))
    (scale (xyz 1 1 1))
    (rotate (xyz 0 0 90))
  )
)