(module SM2 (layer F.Cu) (tedit 0)
  (attr smd)
  (fp_text reference REF** (at 0 0) (layer F.SilkS)
    (effects (font (size 1 1) (thickness 0.15)))
  )
  (fp_text value SM2 (at 0 2) (layer F.Fab) hide
    (effects (font (size 1 1) (thickness 0.15)))
  )
  (fp_line (start -4.624 2.29) (end -4.624 -2.29) (layer Dwgs.User) (width 0.05))
  (fp_line (start -4.624 -2.29) (end 4.624 -2.29) (layer Dwgs.User) (width 0.05))
  (fp_line (start 4.624 -2.29) (end 4.624 2.29) (layer Dwgs.User) (width 0.05))
  (fp_line (start 4.624 2.29) (end -4.624 2.29) (layer Dwgs.User) (width 0.05))
  (fp_line (start -3.5 -1.1) (end -3.5 -2.2) (layer F.SilkS) (width 0.18))
  (fp_line (start -3.5 -2.2) (end 3.5 -2.2) (layer F.SilkS) (width 0.18))
  (fp_line (start 3.5 -2.2) (end 3.5 -1.1) (layer F.SilkS) (width 0.18))
  (fp_line (start -3.5 1.1) (end -3.5 2.2) (layer F.SilkS) (width 0.18))
  (fp_line (start -3.5 2.2) (end 3.5 2.2) (layer F.SilkS) (width 0.18))
  (fp_line (start 3.5 2.2) (end 3.5 1) (layer F.SilkS) (width 0.18))
  (fp_line (start -3.5 2.2) (end -3.5 1) (layer F.CrtYd) (width 0.02))
  (fp_line (start -3.5 1) (end -4.5 1) (layer F.CrtYd) (width 0.02))
  (fp_line (start -4.5 1) (end -4.5 -1) (layer F.CrtYd) (width 0.02))
  (fp_line (start -4.5 -1) (end -3.5 -1) (layer F.CrtYd) (width 0.02))
  (fp_line (start -3.5 -1) (end -3.5 -2.2) (layer F.CrtYd) (width 0.02))
  (fp_line (start -3.5 -2.2) (end 3.5 -2.2) (layer F.CrtYd) (width 0.02))
  (fp_line (start 3.5 -2.2) (end 3.5 -1) (layer F.CrtYd) (width 0.02))
  (fp_line (start 3.5 -1) (end 4.5 -1) (layer F.CrtYd) (width 0.02))
  (fp_line (start 4.5 -1) (end 4.5 1) (layer F.CrtYd) (width 0.02))
  (fp_line (start 4.5 1) (end 3.5 1) (layer F.CrtYd) (width 0.02))
  (fp_line (start 3.5 1) (end 3.5 2.2) (layer F.CrtYd) (width 0.02))
  (fp_line (start 3.5 2.2) (end -3.5 2.2) (layer F.CrtYd) (width 0.02))
  (fp_line (start -3.5 2.2) (end 3.5 2.2) (layer F.Fab) (width 0.1))
  (fp_line (start 3.5 2.2) (end 3.5 -2.2) (layer F.Fab) (width 0.1))
  (fp_line (start 3.5 -2.2) (end -3.5 -2.2) (layer F.Fab) (width 0.1))
  (fp_line (start -3.5 -2.2) (end -3.5 2.2) (layer F.Fab) (width 0.1))
  (fp_line (start 3.5 -0.7) (end 4 -0.7) (layer F.Fab) (width 0.1))
  (fp_line (start 4 -0.7) (end 4 0.7) (layer F.Fab) (width 0.1))
  (fp_line (start 4 0.7) (end 3.5 0.7) (layer F.Fab) (width 0.1))
  (fp_line (start -3.5 0.7) (end -4 0.7) (layer F.Fab) (width 0.1))
  (fp_line (start -4 0.7) (end -4 -0.7) (layer F.Fab) (width 0.1))
  (fp_line (start -4 -0.7) (end -3.5 -0.7) (layer F.Fab) (width 0.1))
  (pad 1 smd rect (at -3.1 0 90) (size 1.5748 2.54) (layers F.Cu F.Mask F.Paste)
    (clearance 0.2032) (solder_mask_margin 0.1016)
    (zone_connect 2))
  (pad 2 smd rect (at 3.1 0 90) (size 1.5748 2.54) (layers F.Cu F.Mask F.Paste)
    (clearance 0.2032) (solder_mask_margin 0.1016)
    (zone_connect 2))
  (model ${KIPRJMOD}/../Library/Footprints.3dshapes/SM_2_cp.wrl
    (offset (xyz 0 0 0))
    (scale (xyz 1 1 1))
    (rotate (xyz 0 0 0))
  )
)