(module SMC-NP (layer F.Cu) (tedit 0)
  (attr smd)
  (fp_text reference REF** (at 0 0) (layer F.SilkS)
    (effects (font (size 1 1) (thickness 0.15)))
  )
  (fp_text value SMC-NP (at 0 2) (layer F.Fab) hide
    (effects (font (size 1 1) (thickness 0.15)))
  )
  (fp_line (start -5.4875 3.10625) (end -5.4875 -3.10625) (layer Dwgs.User) (width 0.05))
  (fp_line (start -5.4875 -3.10625) (end 5.4875 -3.10625) (layer Dwgs.User) (width 0.05))
  (fp_line (start 5.4875 -3.10625) (end 5.4875 3.10625) (layer Dwgs.User) (width 0.05))
  (fp_line (start 5.4875 3.10625) (end -5.4875 3.10625) (layer Dwgs.User) (width 0.05))
  (fp_line (start -5.3975 3.01625) (end 5.3975 3.01625) (layer F.SilkS) (width 0.18))
  (fp_line (start 5.3975 3.01625) (end 5.3975 -3.01625) (layer F.SilkS) (width 0.18))
  (fp_line (start 5.3975 -3.01625) (end -5.3975 -3.01625) (layer F.SilkS) (width 0.18))
  (fp_line (start -5.3975 -3.01625) (end -5.3975 3.01625) (layer F.SilkS) (width 0.18))
  (fp_line (start -5.4 -3) (end 5.4 -3) (layer F.CrtYd) (width 0.02))
  (fp_line (start 5.4 -3) (end 5.4 3) (layer F.CrtYd) (width 0.02))
  (fp_line (start 5.4 3) (end -5.4 3) (layer F.CrtYd) (width 0.02))
  (fp_line (start -5.4 3) (end -5.4 -3) (layer F.CrtYd) (width 0.02))
  (fp_line (start 4 -1.6) (end 3.5 -1.6) (layer F.Fab) (width 0.1))
  (fp_line (start 3.5 -1.6) (end 3.5 1.6) (layer F.Fab) (width 0.1))
  (fp_line (start 3.5 1.6) (end 4 1.6) (layer F.Fab) (width 0.1))
  (fp_line (start 4 1.6) (end 4 -1.6) (layer F.Fab) (width 0.1))
  (fp_line (start -4 -1.6) (end -4 1.6) (layer F.Fab) (width 0.1))
  (fp_line (start -4 1.6) (end -3.5 1.6) (layer F.Fab) (width 0.1))
  (fp_line (start -3.5 1.6) (end -3.5 -1.6) (layer F.Fab) (width 0.1))
  (fp_line (start -3.5 -1.6) (end -4 -1.6) (layer F.Fab) (width 0.1))
  (fp_line (start -3.5 3) (end 3.5 3) (layer F.Fab) (width 0.1))
  (fp_line (start 3.5 3) (end 3.5 -3) (layer F.Fab) (width 0.1))
  (fp_line (start 3.5 -3) (end -3.5 -3) (layer F.Fab) (width 0.1))
  (fp_line (start -3.5 -3) (end -3.5 3) (layer F.Fab) (width 0.1))
  (pad 1 smd rect (at -3.6 0) (size 2.9972 3.81) (layers F.Cu F.Mask F.Paste)
    (clearance 0.3048) (solder_mask_margin 0.1016)
    (zone_connect 2))
  (pad 2 smd rect (at 3.6 0) (size 2.9972 3.81) (layers F.Cu F.Mask F.Paste)
    (clearance 0.3048) (solder_mask_margin 0.1016)
    (zone_connect 2))
  (model ${KISYS3DMOD}/Diode_SMD.3dshapes/D_SMC.wrl
    (offset (xyz 0 0 0))
    (scale (xyz 1 1 1))
    (rotate (xyz 0 0 0))
  )
)