(module SOT23-6- (layer F.Cu) (tedit 0)
  (attr smd)
  (fp_text reference REF** (at 0 0) (layer F.SilkS)
    (effects (font (size 1 1) (thickness 0.15)))
  )
  (fp_text value SOT23-6- (at 0 2) (layer F.Fab) hide
    (effects (font (size 1 1) (thickness 0.15)))
  )
  (fp_arc (start 0.9525 -0.3175) (end 1.2025 -0.3175) (angle 360) (layer F.Fab) (width 0.02))
  (fp_line (start -1.5 1.9) (end -1.5 -1.9) (layer Dwgs.User) (width 0.05))
  (fp_line (start -1.5 -1.9) (end 1.5 -1.9) (layer Dwgs.User) (width 0.05))
  (fp_line (start 1.5 -1.9) (end 1.5 1.9) (layer Dwgs.User) (width 0.05))
  (fp_line (start 1.5 1.9) (end -1.5 1.9) (layer Dwgs.User) (width 0.05))
  (fp_line (start -1.5 -1.9) (end 1.5 -1.9) (layer F.CrtYd) (width 0.02))
  (fp_line (start 1.5 -1.9) (end 1.5 1.9) (layer F.CrtYd) (width 0.02))
  (fp_line (start 1.5 1.9) (end -1.5 1.9) (layer F.CrtYd) (width 0.02))
  (fp_line (start -1.5 1.9) (end -1.5 -1.9) (layer F.CrtYd) (width 0.02))
  (fp_line (start -0.2 -0.6604) (end -0.2 -1.2446) (layer F.Fab) (width 0.1))
  (fp_line (start -0.2 -1.2446) (end 0.2 -1.2446) (layer F.Fab) (width 0.1))
  (fp_line (start 0.2 -1.2446) (end 0.2 -0.6604) (layer F.Fab) (width 0.1))
  (fp_line (start 0.75 -0.6604) (end 0.75 -1.2446) (layer F.Fab) (width 0.1))
  (fp_line (start 0.75 -1.2446) (end 1.15 -1.2446) (layer F.Fab) (width 0.1))
  (fp_line (start 1.15 -1.2446) (end 1.15 -0.6604) (layer F.Fab) (width 0.1))
  (fp_line (start -1.15 -0.6604) (end -1.15 -1.2446) (layer F.Fab) (width 0.1))
  (fp_line (start -1.15 -1.2446) (end -0.75 -1.2446) (layer F.Fab) (width 0.1))
  (fp_line (start -0.75 -1.2446) (end -0.75 -0.6604) (layer F.Fab) (width 0.1))
  (fp_line (start -0.75 0.6604) (end -0.75 1.2446) (layer F.Fab) (width 0.1))
  (fp_line (start -0.75 1.2446) (end -1.15 1.2446) (layer F.Fab) (width 0.1))
  (fp_line (start -1.15 1.2446) (end -1.15 0.6604) (layer F.Fab) (width 0.1))
  (fp_line (start 0.2 0.6604) (end 0.2 1.2446) (layer F.Fab) (width 0.1))
  (fp_line (start 0.2 1.2446) (end -0.2 1.2446) (layer F.Fab) (width 0.1))
  (fp_line (start -0.2 1.2446) (end -0.2 0.6604) (layer F.Fab) (width 0.1))
  (fp_line (start 1.15 0.6604) (end 1.15 1.2446) (layer F.Fab) (width 0.1))
  (fp_line (start 1.15 1.2446) (end 0.75 1.2446) (layer F.Fab) (width 0.1))
  (fp_line (start 0.75 1.2446) (end 0.75 0.6604) (layer F.Fab) (width 0.1))
  (fp_line (start -1.4478 0.6604) (end 1.4478 0.6604) (layer F.Fab) (width 0.1))
  (fp_line (start 1.4478 0.6604) (end 1.4478 -0.6604) (layer F.Fab) (width 0.1))
  (fp_line (start 1.4478 -0.6604) (end -1.4478 -0.6604) (layer F.Fab) (width 0.1))
  (fp_line (start -1.4478 -0.6604) (end -1.4478 0.6604) (layer F.Fab) (width 0.1))
  (pad 1 smd rect (at 0.95 -1.3) (size 0.7 1) (layers F.Cu F.Paste F.Mask)
    (solder_mask_margin 0.1)
    (zone_connect 2))
  (pad 2 smd rect (at 0 -1.3) (size 0.7 1) (layers F.Cu F.Paste F.Mask)
    (solder_mask_margin 0.1)
    (zone_connect 2))
  (pad 3 smd rect (at -0.95 -1.3) (size 0.7 1) (layers F.Cu F.Paste F.Mask)
    (solder_mask_margin 0.1)
    (zone_connect 2))
  (pad 4 smd rect (at -0.95 1.3) (size 0.7 1) (layers F.Cu F.Paste F.Mask)
    (solder_mask_margin 0.1)
    (zone_connect 2))
  (pad 5 smd rect (at 0 1.3) (size 0.7 1) (layers F.Cu F.Paste F.Mask)
    (solder_mask_margin 0.1)
    (zone_connect 2))
  (pad 6 smd rect (at 0.95 1.3) (size 0.7 1) (layers F.Cu F.Paste F.Mask)
    (solder_mask_margin 0.1)
    (zone_connect 2))
)