(module SOT23-1G (layer F.Cu) (tedit 0)
  (attr smd)
  (fp_text reference REF** (at 0 0) (layer F.SilkS)
    (effects (font (size 1 1) (thickness 0.15)))
  )
  (fp_text value SOT23-1G (at 0 2) (layer F.Fab) hide
    (effects (font (size 1 1) (thickness 0.15)))
  )
  (fp_line (start -1.83625 1.995) (end -1.83625 -1.995) (layer Dwgs.User) (width 0.05))
  (fp_line (start -1.83625 -1.995) (end 1.83625 -1.995) (layer Dwgs.User) (width 0.05))
  (fp_line (start 1.83625 -1.995) (end 1.83625 1.995) (layer Dwgs.User) (width 0.05))
  (fp_line (start 1.83625 1.995) (end -1.83625 1.995) (layer Dwgs.User) (width 0.05))
  (fp_line (start -1.74625 1.905) (end 1.74625 1.905) (layer F.SilkS) (width 0.18))
  (fp_line (start 1.74625 1.905) (end 1.74625 -0.9525) (layer F.SilkS) (width 0.18))
  (fp_line (start 1.74625 -0.9525) (end 0.9525 -0.9525) (layer F.SilkS) (width 0.18))
  (fp_line (start 0.9525 -0.9525) (end 0.9525 -1.905) (layer F.SilkS) (width 0.18))
  (fp_line (start 0.9525 -1.905) (end -0.9525 -1.905) (layer F.SilkS) (width 0.18))
  (fp_line (start -0.9525 -1.905) (end -0.9525 -0.9525) (layer F.SilkS) (width 0.18))
  (fp_line (start -0.9525 -0.9525) (end -1.74625 -0.9525) (layer F.SilkS) (width 0.18))
  (fp_line (start -1.74625 -0.9525) (end -1.74625 1.905) (layer F.SilkS) (width 0.18))
  (fp_line (start -1.74625 1.905) (end -1.74625 -0.9525) (layer F.CrtYd) (width 0.02))
  (fp_line (start -1.74625 -0.9525) (end -0.9525 -0.9525) (layer F.CrtYd) (width 0.02))
  (fp_line (start -0.9525 -0.9525) (end -0.9525 -1.905) (layer F.CrtYd) (width 0.02))
  (fp_line (start -0.9525 -1.905) (end 0.9525 -1.905) (layer F.CrtYd) (width 0.02))
  (fp_line (start 0.9525 -1.905) (end 0.9525 -0.9525) (layer F.CrtYd) (width 0.02))
  (fp_line (start 0.9525 -0.9525) (end 1.74625 -0.9525) (layer F.CrtYd) (width 0.02))
  (fp_line (start 1.74625 -0.9525) (end 1.74625 1.905) (layer F.CrtYd) (width 0.02))
  (fp_line (start 1.74625 1.905) (end -1.74625 1.905) (layer F.CrtYd) (width 0.02))
  (fp_line (start -1.4478 0.6604) (end 1.4478 0.6604) (layer F.Fab) (width 0.1))
  (fp_line (start 1.4478 0.6604) (end 1.4478 -0.6604) (layer F.Fab) (width 0.1))
  (fp_line (start 1.4478 -0.6604) (end -1.4478 -0.6604) (layer F.Fab) (width 0.1))
  (fp_line (start -1.4478 -0.6604) (end -1.4478 0.6604) (layer F.Fab) (width 0.1))
  (fp_line (start -0.2032 -0.6604) (end -0.2032 -1.2446) (layer F.Fab) (width 0.1))
  (fp_line (start -0.2032 -1.2446) (end 0.2032 -1.2446) (layer F.Fab) (width 0.1))
  (fp_line (start 0.2032 -1.2446) (end 0.2032 -0.6604) (layer F.Fab) (width 0.1))
  (fp_line (start -0.762 0.6604) (end -0.762 1.2446) (layer F.Fab) (width 0.1))
  (fp_line (start -0.762 1.2446) (end -1.1684 1.2446) (layer F.Fab) (width 0.1))
  (fp_line (start -1.1684 1.2446) (end -1.1684 0.6604) (layer F.Fab) (width 0.1))
  (fp_line (start 1.1684 0.6604) (end 1.1684 1.2446) (layer F.Fab) (width 0.1))
  (fp_line (start 1.1684 1.2446) (end 0.762 1.2446) (layer F.Fab) (width 0.1))
  (fp_line (start 0.762 1.2446) (end 0.762 0.6604) (layer F.Fab) (width 0.1))
  (pad 1 smd rect (at -0.9652 1.0414) (size 0.9144 1.1176) (layers F.Cu F.Mask F.Paste)
    (clearance 0.2032) (solder_mask_margin 0.1016)
    (zone_connect 2))
  (pad 2 smd rect (at 0.9652 1.0414) (size 0.9144 1.1176) (layers F.Cu F.Mask F.Paste)
    (clearance 0.2032) (solder_mask_margin 0.1016)
    (zone_connect 2))
  (pad 3 smd rect (at 0 -1.0414) (size 0.9144 1.1176) (layers F.Cu F.Mask F.Paste)
    (clearance 0.2032) (solder_mask_margin 0.1016)
    (zone_connect 2))
  (model ${KISYS3DMOD}/Diode_SMD.3dshapes/D_SOT-23.wrl
    (offset (xyz 0 0 0))
    (scale (xyz 1 1 1))
    (rotate (xyz 0 0 -90))
  )
)