(module SQRS280A0 (layer F.Cu) (tedit 0)
  (fp_text reference REF** (at 0 0) (layer F.SilkS) hide
    (effects (font (size 1 1) (thickness 0.15)))
  )
  (fp_text value SQRS280A0 (at 0 2) (layer F.Fab) hide
    (effects (font (size 1 1) (thickness 0.15)))
  )
  (fp_line (start -4.2672 4.2672) (end -4.2672 -4.2672) (layer F.CrtYd) (width 0.05))
  (fp_line (start -4.2672 -4.2672) (end 4.2672 -4.2672) (layer F.CrtYd) (width 0.05))
  (fp_line (start 4.2672 -4.2672) (end 4.2672 4.2672) (layer F.CrtYd) (width 0.05))
  (fp_line (start 4.2672 4.2672) (end -4.2672 4.2672) (layer F.CrtYd) (width 0.05))
  (pad ~ smd rect (at 0 0) (size 7.112 7.112) (layers F.Cu F.Mask F.Paste)
    (zone_connect 2))
)