(module TOBLO110I90W12L63R63A90 (layer F.Cu) (tedit 0)
  (fp_text reference REF** (at 0 0) (layer F.SilkS) hide
    (effects (font (size 1 1) (thickness 0.15)))
  )
  (fp_text value TOBLO110I90W12L63R63A90 (at 0 2) (layer F.Fab) hide
    (effects (font (size 1 1) (thickness 0.15)))
  )
  (fp_line (start -1.6764 2.22504) (end -1.6764 -2.22504) (layer F.CrtYd) (width 0.05))
  (fp_line (start -1.6764 -2.22504) (end 1.6764 -2.22504) (layer F.CrtYd) (width 0.05))
  (fp_line (start 1.6764 -2.22504) (end 1.6764 2.22504) (layer F.CrtYd) (width 0.05))
  (fp_line (start 1.6764 2.22504) (end -1.6764 2.22504) (layer F.CrtYd) (width 0.05))
)