(module TOBLO56I36W12L22R22A90 (layer F.Cu) (tedit 0)
  (fp_text reference REF** (at 0 0) (layer F.SilkS) hide
    (effects (font (size 1 1) (thickness 0.15)))
  )
  (fp_text value TOBLO56I36W12L22R22A90 (at 0 2) (layer F.Fab) hide
    (effects (font (size 1 1) (thickness 0.15)))
  )
  (fp_line (start -0.85344 0.97536) (end -0.85344 -0.97536) (layer F.CrtYd) (width 0.05))
  (fp_line (start -0.85344 -0.97536) (end 0.85344 -0.97536) (layer F.CrtYd) (width 0.05))
  (fp_line (start 0.85344 -0.97536) (end 0.85344 0.97536) (layer F.CrtYd) (width 0.05))
  (fp_line (start 0.85344 0.97536) (end -0.85344 0.97536) (layer F.CrtYd) (width 0.05))
)