(module TQFP64 (layer F.Cu) (tedit 0)
  (attr smd)
  (fp_text reference REF** (at 0 0) (layer F.SilkS)
    (effects (font (size 1 1) (thickness 0.15)))
  )
  (fp_text value TQFP64 (at 0 2) (layer F.Fab) hide
    (effects (font (size 1 1) (thickness 0.15)))
  )
  (fp_arc (start -3.99999 -4) (end -3.6 -4) (angle 360) (layer F.SilkS) (width 0.02))
  (fp_arc (start -3.99999 -4) (end -3.6 -4) (angle 360) (layer F.Fab) (width 0.02))
  (fp_line (start -6.7025 6.7025) (end -6.7025 -6.7025) (layer Dwgs.User) (width 0.05))
  (fp_line (start -6.7025 -6.7025) (end 6.7025 -6.7025) (layer Dwgs.User) (width 0.05))
  (fp_line (start 6.7025 -6.7025) (end 6.7025 6.7025) (layer Dwgs.User) (width 0.05))
  (fp_line (start 6.7025 6.7025) (end -6.7025 6.7025) (layer Dwgs.User) (width 0.05))
  (fp_line (start -4.5 -5) (end -5 -4.5) (layer F.SilkS) (width 0.18))
  (fp_line (start -5 -4.5) (end -5 4.5) (layer F.SilkS) (width 0.18))
  (fp_line (start -5 4.5) (end -4.5 5) (layer F.SilkS) (width 0.18))
  (fp_line (start -4.5 5) (end 4.5 5) (layer F.SilkS) (width 0.18))
  (fp_line (start 4.5 5) (end 5 4.5) (layer F.SilkS) (width 0.18))
  (fp_line (start 5 4.5) (end 5 -4.5) (layer F.SilkS) (width 0.18))
  (fp_line (start 5 -4.5) (end 4.5 -5) (layer F.SilkS) (width 0.18))
  (fp_line (start 4.5 -5) (end -4.5 -5) (layer F.SilkS) (width 0.18))
  (fp_line (start -6.5 6.5) (end -6.5 -4) (layer F.CrtYd) (width 0.02))
  (fp_line (start -6.5 -4) (end -5 -4) (layer F.CrtYd) (width 0.02))
  (fp_line (start -5 -4) (end -5 -4.8) (layer F.CrtYd) (width 0.02))
  (fp_line (start -5 -4.8) (end -4.7 -5.1) (layer F.CrtYd) (width 0.02))
  (fp_line (start -4.7 -5.1) (end -4 -5.1) (layer F.CrtYd) (width 0.02))
  (fp_line (start -4 -5.1) (end -4 -6.5) (layer F.CrtYd) (width 0.02))
  (fp_line (start -4 -6.5) (end 6.5 -6.5) (layer F.CrtYd) (width 0.02))
  (fp_line (start 6.5 -6.5) (end 6.5 4) (layer F.CrtYd) (width 0.02))
  (fp_line (start 6.5 4) (end 5.1 4) (layer F.CrtYd) (width 0.02))
  (fp_line (start 5.1 4) (end 5.1 4.7) (layer F.CrtYd) (width 0.02))
  (fp_line (start 5.1 4.7) (end 4.8 5) (layer F.CrtYd) (width 0.02))
  (fp_line (start 4.8 5) (end 4 5) (layer F.CrtYd) (width 0.02))
  (fp_line (start 4 5) (end 4 6.5) (layer F.CrtYd) (width 0.02))
  (fp_line (start 4 6.5) (end -6.5 6.5) (layer F.CrtYd) (width 0.02))
  (fp_line (start 3.75 5) (end 3.75 6) (layer F.Fab) (width 0.1))
  (fp_line (start 3.25 5) (end 3.25 6) (layer F.Fab) (width 0.1))
  (fp_line (start 2.75 5) (end 2.75 6) (layer F.Fab) (width 0.1))
  (fp_line (start 2.25 5) (end 2.25 6) (layer F.Fab) (width 0.1))
  (fp_line (start 1.75 5) (end 1.75 6) (layer F.Fab) (width 0.1))
  (fp_line (start 1.25 5) (end 1.25 6) (layer F.Fab) (width 0.1))
  (fp_line (start 0.75 5) (end 0.75 6) (layer F.Fab) (width 0.1))
  (fp_line (start 0.25 5) (end 0.25 6) (layer F.Fab) (width 0.1))
  (fp_line (start -0.25 5) (end -0.25 6) (layer F.Fab) (width 0.1))
  (fp_line (start -0.75 5) (end -0.75 6) (layer F.Fab) (width 0.1))
  (fp_line (start -1.25 5) (end -1.25 6) (layer F.Fab) (width 0.1))
  (fp_line (start -1.75 5) (end -1.75 6) (layer F.Fab) (width 0.1))
  (fp_line (start -2.25 5) (end -2.25 6) (layer F.Fab) (width 0.1))
  (fp_line (start -2.75 5) (end -2.75 6) (layer F.Fab) (width 0.1))
  (fp_line (start -3.25 5) (end -3.25 6) (layer F.Fab) (width 0.1))
  (fp_line (start 6 3.75) (end 5 3.75) (layer F.Fab) (width 0.1))
  (fp_line (start 6 3.25) (end 5 3.25) (layer F.Fab) (width 0.1))
  (fp_line (start 6 2.75) (end 5 2.75) (layer F.Fab) (width 0.1))
  (fp_line (start 6 2.25) (end 5 2.25) (layer F.Fab) (width 0.1))
  (fp_line (start 6 1.75) (end 5 1.75) (layer F.Fab) (width 0.1))
  (fp_line (start 6 1.25) (end 5 1.25) (layer F.Fab) (width 0.1))
  (fp_line (start 6 0.75) (end 5 0.75) (layer F.Fab) (width 0.1))
  (fp_line (start 6 0.25) (end 5 0.25) (layer F.Fab) (width 0.1))
  (fp_line (start 6 -0.25) (end 5 -0.25) (layer F.Fab) (width 0.1))
  (fp_line (start 6 -0.75) (end 5 -0.75) (layer F.Fab) (width 0.1))
  (fp_line (start 6 -1.25) (end 5 -1.25) (layer F.Fab) (width 0.1))
  (fp_line (start 6 -1.75) (end 5 -1.75) (layer F.Fab) (width 0.1))
  (fp_line (start 6 -2.25) (end 5 -2.25) (layer F.Fab) (width 0.1))
  (fp_line (start 6 -2.75) (end 5 -2.75) (layer F.Fab) (width 0.1))
  (fp_line (start 6 -3.25) (end 5 -3.25) (layer F.Fab) (width 0.1))
  (fp_line (start -3.75 5) (end -3.75 6) (layer F.Fab) (width 0.1))
  (fp_line (start 6 -3.75) (end 5 -3.75) (layer F.Fab) (width 0.1))
  (fp_line (start 3.75 -6) (end 3.75 -5) (layer F.Fab) (width 0.1))
  (fp_line (start 3.25 -6) (end 3.25 -5) (layer F.Fab) (width 0.1))
  (fp_line (start 2.75 -6) (end 2.75 -5) (layer F.Fab) (width 0.1))
  (fp_line (start 2.25 -6) (end 2.25 -5) (layer F.Fab) (width 0.1))
  (fp_line (start 1.75 -6) (end 1.75 -5) (layer F.Fab) (width 0.1))
  (fp_line (start 1.25 -6) (end 1.25 -5) (layer F.Fab) (width 0.1))
  (fp_line (start 0.75 -6) (end 0.75 -5) (layer F.Fab) (width 0.1))
  (fp_line (start 0.25 -6) (end 0.25 -5) (layer F.Fab) (width 0.1))
  (fp_line (start -0.25 -6) (end -0.25 -5) (layer F.Fab) (width 0.1))
  (fp_line (start -0.75 -6) (end -0.75 -5) (layer F.Fab) (width 0.1))
  (fp_line (start -1.25 -6) (end -1.25 -5) (layer F.Fab) (width 0.1))
  (fp_line (start -1.75 -6) (end -1.75 -5) (layer F.Fab) (width 0.1))
  (fp_line (start -2.25 -6) (end -2.25 -5) (layer F.Fab) (width 0.1))
  (fp_line (start -2.75 -6) (end -2.75 -5) (layer F.Fab) (width 0.1))
  (fp_line (start -3.25 -6) (end -3.25 -5) (layer F.Fab) (width 0.1))
  (fp_line (start -3.75 -6) (end -3.75 -5) (layer F.Fab) (width 0.1))
  (fp_line (start -5 3.75) (end -6 3.75) (layer F.Fab) (width 0.1))
  (fp_line (start -5 3.25) (end -6 3.25) (layer F.Fab) (width 0.1))
  (fp_line (start -5 2.75) (end -6 2.75) (layer F.Fab) (width 0.1))
  (fp_line (start -5 2.25) (end -6 2.25) (layer F.Fab) (width 0.1))
  (fp_line (start -5 1.75) (end -6 1.75) (layer F.Fab) (width 0.1))
  (fp_line (start -5 1.25) (end -6 1.25) (layer F.Fab) (width 0.1))
  (fp_line (start -5 0.75) (end -6 0.75) (layer F.Fab) (width 0.1))
  (fp_line (start -5 0.25) (end -6 0.25) (layer F.Fab) (width 0.1))
  (fp_line (start -5 -0.25) (end -6 -0.25) (layer F.Fab) (width 0.1))
  (fp_line (start -5 -0.75) (end -6 -0.75) (layer F.Fab) (width 0.1))
  (fp_line (start -5 -1.25) (end -6 -1.25) (layer F.Fab) (width 0.1))
  (fp_line (start -5 -1.75) (end -6 -1.75) (layer F.Fab) (width 0.1))
  (fp_line (start -5 -2.25) (end -6 -2.25) (layer F.Fab) (width 0.1))
  (fp_line (start -5 -2.75) (end -6 -2.75) (layer F.Fab) (width 0.1))
  (fp_line (start -5 -3.25) (end -6 -3.25) (layer F.Fab) (width 0.1))
  (fp_line (start -5 -3.75) (end -6 -3.75) (layer F.Fab) (width 0.1))
  (fp_line (start -4.5 -5) (end -5 -4.5) (layer F.Fab) (width 0.1))
  (fp_line (start -5 -4.5) (end -5 4.5) (layer F.Fab) (width 0.1))
  (fp_line (start -5 4.5) (end -4.5 5) (layer F.Fab) (width 0.1))
  (fp_line (start -4.5 5) (end 4.5 5) (layer F.Fab) (width 0.1))
  (fp_line (start 4.5 5) (end 5 4.5) (layer F.Fab) (width 0.1))
  (fp_line (start 5 4.5) (end 5 -4.5) (layer F.Fab) (width 0.1))
  (fp_line (start 5 -4.5) (end 4.5 -5) (layer F.Fab) (width 0.1))
  (fp_line (start 4.5 -5) (end -4.5 -5) (layer F.Fab) (width 0.1))
  (pad "" smd circle (at 5.75 -5.75) (size 1.27 1.27) (layers F.Cu F.Mask)
    (solder_mask_margin 0.3175)
    (zone_connect 2))
  (pad "" smd circle (at -5.75 5.75) (size 1.27 1.27) (layers F.Cu F.Mask)
    (solder_mask_margin 0.3175)
    (zone_connect 2))
  (pad 1 smd rect (at -5.75 -3.75 90) (size 0.29 1.5) (layers F.Cu F.Mask F.Paste)
    (solder_mask_margin 0.1)
    (zone_connect 2))
  (pad 2 smd rect (at -5.75 -3.25 90) (size 0.29 1.5) (layers F.Cu F.Mask F.Paste)
    (solder_mask_margin 0.1)
    (zone_connect 2))
  (pad 3 smd rect (at -5.75 -2.75 90) (size 0.29 1.5) (layers F.Cu F.Mask F.Paste)
    (solder_mask_margin 0.1)
    (zone_connect 2))
  (pad 4 smd rect (at -5.75 -2.25 90) (size 0.29 1.5) (layers F.Cu F.Mask F.Paste)
    (solder_mask_margin 0.1)
    (zone_connect 2))
  (pad 5 smd rect (at -5.75 -1.75 90) (size 0.29 1.5) (layers F.Cu F.Mask F.Paste)
    (solder_mask_margin 0.1)
    (zone_connect 2))
  (pad 6 smd rect (at -5.75 -1.25 90) (size 0.29 1.5) (layers F.Cu F.Mask F.Paste)
    (solder_mask_margin 0.1)
    (zone_connect 2))
  (pad 7 smd rect (at -5.75 -0.75 90) (size 0.29 1.5) (layers F.Cu F.Mask F.Paste)
    (solder_mask_margin 0.1)
    (zone_connect 2))
  (pad 8 smd rect (at -5.75 -0.25 90) (size 0.29 1.5) (layers F.Cu F.Mask F.Paste)
    (solder_mask_margin 0.1)
    (zone_connect 2))
  (pad 9 smd rect (at -5.75 0.25 90) (size 0.29 1.5) (layers F.Cu F.Mask F.Paste)
    (solder_mask_margin 0.1)
    (zone_connect 2))
  (pad 10 smd rect (at -5.75 0.75 90) (size 0.29 1.5) (layers F.Cu F.Mask F.Paste)
    (solder_mask_margin 0.1)
    (zone_connect 2))
  (pad 11 smd rect (at -5.75 1.25 90) (size 0.29 1.5) (layers F.Cu F.Mask F.Paste)
    (solder_mask_margin 0.1)
    (zone_connect 2))
  (pad 12 smd rect (at -5.75 1.75 90) (size 0.29 1.5) (layers F.Cu F.Mask F.Paste)
    (solder_mask_margin 0.1)
    (zone_connect 2))
  (pad 13 smd rect (at -5.75 2.25 90) (size 0.29 1.5) (layers F.Cu F.Mask F.Paste)
    (solder_mask_margin 0.1)
    (zone_connect 2))
  (pad 14 smd rect (at -5.75 2.75 90) (size 0.29 1.5) (layers F.Cu F.Mask F.Paste)
    (solder_mask_margin 0.1)
    (zone_connect 2))
  (pad 15 smd rect (at -5.75 3.25 90) (size 0.29 1.5) (layers F.Cu F.Mask F.Paste)
    (solder_mask_margin 0.1)
    (zone_connect 2))
  (pad 16 smd rect (at -5.75 3.75 90) (size 0.29 1.5) (layers F.Cu F.Mask F.Paste)
    (solder_mask_margin 0.1)
    (zone_connect 2))
  (pad 17 smd rect (at -3.75 5.75) (size 0.29 1.5) (layers F.Cu F.Mask F.Paste)
    (solder_mask_margin 0.1)
    (zone_connect 2))
  (pad 18 smd rect (at -3.25 5.75) (size 0.29 1.5) (layers F.Cu F.Mask F.Paste)
    (solder_mask_margin 0.1)
    (zone_connect 2))
  (pad 19 smd rect (at -2.75 5.75) (size 0.29 1.5) (layers F.Cu F.Mask F.Paste)
    (solder_mask_margin 0.1)
    (zone_connect 2))
  (pad 20 smd rect (at -2.25 5.75) (size 0.29 1.5) (layers F.Cu F.Mask F.Paste)
    (solder_mask_margin 0.1)
    (zone_connect 2))
  (pad 21 smd rect (at -1.75 5.75) (size 0.29 1.5) (layers F.Cu F.Mask F.Paste)
    (solder_mask_margin 0.1)
    (zone_connect 2))
  (pad 22 smd rect (at -1.25 5.75) (size 0.29 1.5) (layers F.Cu F.Mask F.Paste)
    (solder_mask_margin 0.1)
    (zone_connect 2))
  (pad 23 smd rect (at -0.75 5.75) (size 0.29 1.5) (layers F.Cu F.Mask F.Paste)
    (solder_mask_margin 0.1)
    (zone_connect 2))
  (pad 24 smd rect (at -0.25 5.75) (size 0.29 1.5) (layers F.Cu F.Mask F.Paste)
    (solder_mask_margin 0.1)
    (zone_connect 2))
  (pad 25 smd rect (at 0.25 5.75) (size 0.29 1.5) (layers F.Cu F.Mask F.Paste)
    (solder_mask_margin 0.1)
    (zone_connect 2))
  (pad 26 smd rect (at 0.75 5.75) (size 0.29 1.5) (layers F.Cu F.Mask F.Paste)
    (solder_mask_margin 0.1)
    (zone_connect 2))
  (pad 27 smd rect (at 1.25 5.75) (size 0.29 1.5) (layers F.Cu F.Mask F.Paste)
    (solder_mask_margin 0.1)
    (zone_connect 2))
  (pad 28 smd rect (at 1.75 5.75) (size 0.29 1.5) (layers F.Cu F.Mask F.Paste)
    (solder_mask_margin 0.1)
    (zone_connect 2))
  (pad 29 smd rect (at 2.25 5.75) (size 0.29 1.5) (layers F.Cu F.Mask F.Paste)
    (solder_mask_margin 0.1)
    (zone_connect 2))
  (pad 30 smd rect (at 2.75 5.75) (size 0.29 1.5) (layers F.Cu F.Mask F.Paste)
    (solder_mask_margin 0.1)
    (zone_connect 2))
  (pad 31 smd rect (at 3.25 5.75) (size 0.29 1.5) (layers F.Cu F.Mask F.Paste)
    (solder_mask_margin 0.1)
    (zone_connect 2))
  (pad 32 smd rect (at 3.75 5.75) (size 0.29 1.5) (layers F.Cu F.Mask F.Paste)
    (solder_mask_margin 0.1)
    (zone_connect 2))
  (pad 33 smd rect (at 5.75 3.75 90) (size 0.29 1.5) (layers F.Cu F.Mask F.Paste)
    (solder_mask_margin 0.1)
    (zone_connect 2))
  (pad 34 smd rect (at 5.75 3.25 90) (size 0.29 1.5) (layers F.Cu F.Mask F.Paste)
    (solder_mask_margin 0.1)
    (zone_connect 2))
  (pad 35 smd rect (at 5.75 2.75 90) (size 0.29 1.5) (layers F.Cu F.Mask F.Paste)
    (solder_mask_margin 0.1)
    (zone_connect 2))
  (pad 36 smd rect (at 5.75 2.25 90) (size 0.29 1.5) (layers F.Cu F.Mask F.Paste)
    (solder_mask_margin 0.1)
    (zone_connect 2))
  (pad 37 smd rect (at 5.75 1.75 90) (size 0.29 1.5) (layers F.Cu F.Mask F.Paste)
    (solder_mask_margin 0.1)
    (zone_connect 2))
  (pad 38 smd rect (at 5.75 1.25 90) (size 0.29 1.5) (layers F.Cu F.Mask F.Paste)
    (solder_mask_margin 0.1)
    (zone_connect 2))
  (pad 39 smd rect (at 5.75 0.75 90) (size 0.29 1.5) (layers F.Cu F.Mask F.Paste)
    (solder_mask_margin 0.1)
    (zone_connect 2))
  (pad 40 smd rect (at 5.75 0.25 90) (size 0.29 1.5) (layers F.Cu F.Mask F.Paste)
    (solder_mask_margin 0.1)
    (zone_connect 2))
  (pad 41 smd rect (at 5.75 -0.25 90) (size 0.29 1.5) (layers F.Cu F.Mask F.Paste)
    (solder_mask_margin 0.1)
    (zone_connect 2))
  (pad 42 smd rect (at 5.75 -0.75 90) (size 0.29 1.5) (layers F.Cu F.Mask F.Paste)
    (solder_mask_margin 0.1)
    (zone_connect 2))
  (pad 43 smd rect (at 5.75 -1.25 90) (size 0.29 1.5) (layers F.Cu F.Mask F.Paste)
    (solder_mask_margin 0.1)
    (zone_connect 2))
  (pad 44 smd rect (at 5.75 -1.75 90) (size 0.29 1.5) (layers F.Cu F.Mask F.Paste)
    (solder_mask_margin 0.1)
    (zone_connect 2))
  (pad 45 smd rect (at 5.75 -2.25 90) (size 0.29 1.5) (layers F.Cu F.Mask F.Paste)
    (solder_mask_margin 0.1)
    (zone_connect 2))
  (pad 46 smd rect (at 5.75 -2.75 90) (size 0.29 1.5) (layers F.Cu F.Mask F.Paste)
    (solder_mask_margin 0.1)
    (zone_connect 2))
  (pad 47 smd rect (at 5.75 -3.25 90) (size 0.29 1.5) (layers F.Cu F.Mask F.Paste)
    (solder_mask_margin 0.1)
    (zone_connect 2))
  (pad 48 smd rect (at 5.75 -3.75 90) (size 0.29 1.5) (layers F.Cu F.Mask F.Paste)
    (solder_mask_margin 0.1)
    (zone_connect 2))
  (pad 49 smd rect (at 3.75 -5.75) (size 0.29 1.5) (layers F.Cu F.Mask F.Paste)
    (solder_mask_margin 0.1)
    (zone_connect 2))
  (pad 50 smd rect (at 3.25 -5.75) (size 0.29 1.5) (layers F.Cu F.Mask F.Paste)
    (solder_mask_margin 0.1)
    (zone_connect 2))
  (pad 51 smd rect (at 2.75 -5.75) (size 0.29 1.5) (layers F.Cu F.Mask F.Paste)
    (solder_mask_margin 0.1)
    (zone_connect 2))
  (pad 52 smd rect (at 2.25 -5.75) (size 0.29 1.5) (layers F.Cu F.Mask F.Paste)
    (solder_mask_margin 0.1)
    (zone_connect 2))
  (pad 53 smd rect (at 1.75 -5.75) (size 0.29 1.5) (layers F.Cu F.Mask F.Paste)
    (solder_mask_margin 0.1)
    (zone_connect 2))
  (pad 54 smd rect (at 1.25 -5.75) (size 0.29 1.5) (layers F.Cu F.Mask F.Paste)
    (solder_mask_margin 0.1)
    (zone_connect 2))
  (pad 55 smd rect (at 0.75 -5.75) (size 0.29 1.5) (layers F.Cu F.Mask F.Paste)
    (solder_mask_margin 0.1)
    (zone_connect 2))
  (pad 56 smd rect (at 0.25 -5.75) (size 0.29 1.5) (layers F.Cu F.Mask F.Paste)
    (solder_mask_margin 0.1)
    (zone_connect 2))
  (pad 57 smd rect (at -0.25 -5.75) (size 0.29 1.5) (layers F.Cu F.Mask F.Paste)
    (solder_mask_margin 0.1)
    (zone_connect 2))
  (pad 58 smd rect (at -0.75 -5.75) (size 0.29 1.5) (layers F.Cu F.Mask F.Paste)
    (solder_mask_margin 0.1)
    (zone_connect 2))
  (pad 59 smd rect (at -1.25 -5.75) (size 0.29 1.5) (layers F.Cu F.Mask F.Paste)
    (solder_mask_margin 0.1)
    (zone_connect 2))
  (pad 60 smd rect (at -1.75 -5.75) (size 0.29 1.5) (layers F.Cu F.Mask F.Paste)
    (solder_mask_margin 0.1)
    (zone_connect 2))
  (pad 61 smd rect (at -2.25 -5.75) (size 0.29 1.5) (layers F.Cu F.Mask F.Paste)
    (solder_mask_margin 0.1)
    (zone_connect 2))
  (pad 62 smd rect (at -2.75 -5.75) (size 0.29 1.5) (layers F.Cu F.Mask F.Paste)
    (solder_mask_margin 0.1)
    (zone_connect 2))
  (pad 63 smd rect (at -3.25 -5.75) (size 0.29 1.5) (layers F.Cu F.Mask F.Paste)
    (solder_mask_margin 0.1)
    (zone_connect 2))
  (pad 64 smd rect (at -3.75 -5.75) (size 0.29 1.5) (layers F.Cu F.Mask F.Paste)
    (solder_mask_margin 0.1)
    (zone_connect 2))
  (model ${KISYS3DMOD}/Package_QFP.3dshapes/HTQFP-64-1EP_10x10mm_P0.5mm_EP8x8mm.wrl
    (offset (xyz 0 0 0))
    (scale (xyz 1 1 1))
    (rotate (xyz 0 0 0))
  )
)