(module TRNDO120I100W12 (layer F.Cu) (tedit 0)
  (fp_text reference REF** (at 0 0) (layer F.SilkS) hide
    (effects (font (size 1 1) (thickness 0.15)))
  )
  (fp_text value TRNDO120I100W12 (at 0 2) (layer F.Fab) hide
    (effects (font (size 1 1) (thickness 0.15)))
  )
  (fp_line (start -1.8288 1.8288) (end -1.8288 -1.8288) (layer F.CrtYd) (width 0.05))
  (fp_line (start -1.8288 -1.8288) (end 1.8288 -1.8288) (layer F.CrtYd) (width 0.05))
  (fp_line (start 1.8288 -1.8288) (end 1.8288 1.8288) (layer F.CrtYd) (width 0.05))
  (fp_line (start 1.8288 1.8288) (end -1.8288 1.8288) (layer F.CrtYd) (width 0.05))
  (pad ~ smd circle (at 0 0) (size 1.27 1.27) (layers F.Cu F.Mask F.Paste)
    (zone_connect 1) (thermal_width 0.3048) (thermal_gap 0.254))
)