(module TSQRO284I264W12A0 (layer F.Cu) (tedit 0)
  (fp_text reference REF** (at 0 0) (layer F.SilkS) hide
    (effects (font (size 1 1) (thickness 0.15)))
  )
  (fp_text value TSQRO284I264W12A0 (at 0 2) (layer F.Fab) hide
    (effects (font (size 1 1) (thickness 0.15)))
  )
  (fp_line (start -4.32816 4.32816) (end -4.32816 -4.32816) (layer F.CrtYd) (width 0.05))
  (fp_line (start -4.32816 -4.32816) (end 4.32816 -4.32816) (layer F.CrtYd) (width 0.05))
  (fp_line (start 4.32816 -4.32816) (end 4.32816 4.32816) (layer F.CrtYd) (width 0.05))
  (fp_line (start 4.32816 4.32816) (end -4.32816 4.32816) (layer F.CrtYd) (width 0.05))
  (pad ~ smd rect (at 0 0) (size 3.3528 3.3528) (layers F.Cu F.Mask F.Paste)
    (zone_connect 1))
)