(module uSO08 (layer F.Cu) (tedit 0)
  (attr smd)
  (fp_text reference REF** (at 0 0) (layer F.SilkS)
    (effects (font (size 1 1) (thickness 0.15)))
  )
  (fp_text value uSO08 (at 0 2) (layer F.Fab) hide
    (effects (font (size 1 1) (thickness 0.15)))
  )
  (fp_arc (start -0.65 0.65001) (end -0.65 0.9) (angle 360) (layer F.SilkS) (width 0.02))
  (fp_arc (start -0.65 0.65001) (end -0.65 0.9) (angle 360) (layer F.Fab) (width 0.02))
  (fp_line (start -1.59 3.0136) (end -1.59 -3.0136) (layer Dwgs.User) (width 0.05))
  (fp_line (start -1.59 -3.0136) (end 1.59 -3.0136) (layer Dwgs.User) (width 0.05))
  (fp_line (start 1.59 -3.0136) (end 1.59 3.0136) (layer Dwgs.User) (width 0.05))
  (fp_line (start 1.59 3.0136) (end -1.59 3.0136) (layer Dwgs.User) (width 0.05))
  (fp_line (start -1.5 1.2) (end 1.5 1.2) (layer F.SilkS) (width 0.18))
  (fp_line (start 1.5 1.2) (end 1.5 -1.2) (layer F.SilkS) (width 0.18))
  (fp_line (start 1.5 -1.2) (end -1.5 -1.2) (layer F.SilkS) (width 0.18))
  (fp_line (start -1.5 -1.2) (end -1.5 1.2) (layer F.SilkS) (width 0.18))
  (fp_line (start 1.5 -3) (end 1.5 3) (layer F.CrtYd) (width 0.02))
  (fp_line (start 1.5 3) (end -1.5 3) (layer F.CrtYd) (width 0.02))
  (fp_line (start -1.5 3) (end -1.5 -3) (layer F.CrtYd) (width 0.02))
  (fp_line (start -1.5 -3) (end 1.5 -3) (layer F.CrtYd) (width 0.02))
  (fp_line (start -1.5 -1.5) (end -1.5 1.5) (layer F.Fab) (width 0.1))
  (fp_line (start -1.5 1.5) (end 1.5 1.5) (layer F.Fab) (width 0.1))
  (fp_line (start 1.5 1.5) (end 1.5 -1.5) (layer F.Fab) (width 0.1))
  (fp_line (start 1.5 -1.5) (end -1.5 -1.5) (layer F.Fab) (width 0.1))
  (pad 1 smd rect (at -0.975 2.15) (size 0.4064 1.524) (layers F.Cu F.Mask F.Paste)
    (solder_mask_margin 0.1016)
    (zone_connect 2))
  (pad 2 smd rect (at -0.325 2.15) (size 0.4064 1.524) (layers F.Cu F.Mask F.Paste)
    (solder_mask_margin 0.1016)
    (zone_connect 2))
  (pad 3 smd rect (at 0.325 2.15) (size 0.4064 1.524) (layers F.Cu F.Mask F.Paste)
    (solder_mask_margin 0.1016)
    (zone_connect 2))
  (pad 4 smd rect (at 0.975 2.15) (size 0.4064 1.524) (layers F.Cu F.Mask F.Paste)
    (solder_mask_margin 0.1016)
    (zone_connect 2))
  (pad 5 smd rect (at 0.975 -2.15) (size 0.4064 1.524) (layers F.Cu F.Mask F.Paste)
    (solder_mask_margin 0.1016)
    (zone_connect 2))
  (pad 6 smd rect (at 0.325 -2.15) (size 0.4064 1.524) (layers F.Cu F.Mask F.Paste)
    (solder_mask_margin 0.1016)
    (zone_connect 2))
  (pad 7 smd rect (at -0.325 -2.15) (size 0.4064 1.524) (layers F.Cu F.Mask F.Paste)
    (solder_mask_margin 0.1016)
    (zone_connect 2))
  (pad 8 smd rect (at -0.975 -2.15) (size 0.4064 1.524) (layers F.Cu F.Mask F.Paste)
    (solder_mask_margin 0.1016)
    (zone_connect 2))
  (model ${KISYS3DMOD}/Package_SO.3dshapes/MSOP-8_3x3mm_P0.65mm.wrl
    (offset (xyz 0 0 0))
    (scale (xyz 1 1 1))
    (rotate (xyz 0 0 -90))
  )
)
