(module VIA-091X03 (layer F.Cu) (tedit 0)
  (fp_text reference REF** (at 0 0) (layer F.SilkS) hide
    (effects (font (size 1 1) (thickness 0.15)))
  )
  (fp_text value VIA-091X03 (at 0 2) (layer F.Fab) hide
    (effects (font (size 1 1) (thickness 0.15)))
  )
  (pad ~ thru_hole circle (at 0 0) (size 0.9144 0.9144) (drill 0.3048 (offset 0 0 )) (layers *.Cu)
    (clearance 0.0762)
    (zone_connect 2))
)