(module WSR5 (layer F.Cu) (tedit 0)
  (attr smd)
  (fp_text reference REF** (at 0 0) (layer F.SilkS)
    (effects (font (size 1 1) (thickness 0.15)))
  )
  (fp_text value WSR5 (at 0 2) (layer F.Fab) hide
    (effects (font (size 1 1) (thickness 0.15)))
  )
  (fp_line (start -6.7 3.59) (end -6.7 -3.59) (layer Dwgs.User) (width 0.05))
  (fp_line (start -6.7 -3.59) (end 6.7 -3.59) (layer Dwgs.User) (width 0.05))
  (fp_line (start 6.7 -3.59) (end 6.7 3.59) (layer Dwgs.User) (width 0.05))
  (fp_line (start 6.7 3.59) (end -6.7 3.59) (layer Dwgs.User) (width 0.05))
  (fp_line (start -5.8 3.3) (end -5.8 3.5) (layer F.SilkS) (width 0.18))
  (fp_line (start -5.8 3.5) (end 5.8 3.5) (layer F.SilkS) (width 0.18))
  (fp_line (start 5.8 3.5) (end 5.8 3.3) (layer F.SilkS) (width 0.18))
  (fp_line (start -5.8 -3.3) (end -5.8 -3.5) (layer F.SilkS) (width 0.18))
  (fp_line (start -5.8 -3.5) (end 5.8 -3.5) (layer F.SilkS) (width 0.18))
  (fp_line (start 5.8 -3.5) (end 5.8 -3.3) (layer F.SilkS) (width 0.18))
  (fp_line (start -6.7 -3.5) (end 6.7 -3.5) (layer F.CrtYd) (width 0.02))
  (fp_line (start 6.7 -3.5) (end 6.7 3.5) (layer F.CrtYd) (width 0.02))
  (fp_line (start 6.7 3.5) (end -6.7 3.5) (layer F.CrtYd) (width 0.02))
  (fp_line (start -6.7 3.5) (end -6.7 -3.5) (layer F.CrtYd) (width 0.02))
  (fp_line (start -5.8 3.5) (end 5.8 3.5) (layer F.Fab) (width 0.1))
  (fp_line (start 5.8 3.5) (end 5.8 -3.5) (layer F.Fab) (width 0.1))
  (fp_line (start 5.8 -3.5) (end -5.8 -3.5) (layer F.Fab) (width 0.1))
  (fp_line (start -5.8 -3.5) (end -5.8 3.5) (layer F.Fab) (width 0.1))
  (pad 1 smd rect (at -4.6 0) (size 4 6) (layers F.Cu F.Mask F.Paste)
    (solder_mask_margin 0.1)
    (zone_connect 2))
  (pad 2 smd rect (at 4.6 0) (size 4 6) (layers F.Cu F.Mask F.Paste)
    (solder_mask_margin 0.1)
    (zone_connect 2))
)